Policy Parameters:	-1.44981616848 1.82195586684
Control Steps:		1000
Start Time:		1442424796.6738937

-- TESTING STOPPED --

Stop Time:		1442424854.9411614
Duration:		58.26726770401001
Cost Matrix:
0.5185853657
1.45606750877
1.1064810097
1.68824214539
1.46646479229
1.24240878789
1.37823971604
0.930434450714
0.657275016266
1.19568819639
0.240849967769
0.289613277373
0.161277075498
0.0789691973426
0.050180034179
0.0788460369438
0.0650951515566
0.0133722336611
0.153695207927
0.213838897555
0.0184650859027
0.0514472972546
0.097119045354
0.0572620092061
0.114966562932
0.121842353472
0.17302505179
0.139642526518
0.18621649962
0.170932606372
0.227264140863
0.2214637834
0.24002284516
0.235205865986
0.250789917064
0.377369670076
0.3804739842
0.387364968876
0.418472537176
0.486930223831
0.473564392013
0.470692312308
0.485029209213
0.449532496833
0.517385581513
0.560234477465
0.568264126223
0.479219535598
0.325120819429
0.29948802822
0.236819970019
0.307073989024
0.340039680958
0.0107605258099
0.0541885893965
0.0944552724266
0.00758977608655
0.0315501454519
0.0662458812973
0.0976980239993
0.0480542528861
0.0178189354418
0.0255249852166
0.0632665714054
0.0719634560591
0.0362494750254
0.0463084911256
0.0589908543251
0.0342638896099
0.0317441156187
0.055372880682
0.126480340121
0.208570823523
0.186680293459
0.158196793718
0.0756332286799
0.151287974758
0.17561177736
0.0924425899148
0.121450342837
0.177681511192
0.0938507803702
0.102773305131
0.167796647879
0.14942523568
0.173769784739
0.185797019162
0.193055638609
0.13732025404
0.18507746659
0.199463320633
0.121485928104
0.148049936024
0.168092928897
0.215344768832
0.205847943921
0.21934076292
0.244371444238
0.272010008714
0.254987285831
0.25871663292
0.286295938401
0.348701017888
0.329391142384
0.277776194726
0.291249597247
0.283292551966
0.283110996496
0.231258115671
0.27471588974
0.231072949342
0.188027393364
0.247430280188
0.235669813911
0.221574785266
0.183270868995
0.096308131348
0.0453301355149
0.0446510998205
0.0707140527563
0.0613582479152
0.0537719464031
0.0410354322948
0.0408717592246
0.0615343386645
0.0581547819811
0.0397345700399
0.0565752430421
0.0377455771371
0.0564876548555
0.10741616085
0.0839978103196
0.102812904784
0.132417589726
0.100890105219
0.118403182527
0.184992489845
0.282785918119
0.34782271683
0.298421672365
0.385221673643
0.491626276615
0.482552525423
0.486034167868
0.506618065342
0.509617903653
0.512997549211
0.509160679587
0.524372632316
0.601938329789
0.603042640705
0.63010226895
0.946812643528
0.322629028768
0.294152304335
0.259063494829
0.152437623994
0.0620014963146
0.128263062616
0.253828629461
0.314333383112
0.318052756525
0.249820022571
0.207725856788
0.286693747994
0.279910562918
0.223744810883
0.186450413798
0.207238381472
0.175659084728
0.226584952049
0.138237153032
0.221919036124
0.275463384761
0.0758258251975
0.0882162112816
0.137662884613
0.0844906888336
0.014108760891
0.051667138072
0.0962107419071
0.0031773074856
0.0249749017293
0.0391428893971
0.0567667612518
0.0931556840299
0.0354243232682
0.0340246890465
0.0413349106105
0.105770109172
0.168799715996
0.180526632434
0.185604814181
0.182773821523
0.161615633092
0.143569612985
0.147350509957
0.103749364861
0.154865606149
0.0807587761682
0.10929537945
0.0937702305994
0.113350398603
0.101453402563
0.137811306909
0.125617293661
0.06198179217
0.0203940986331
0.037166143875
0.0236901877893
0.057701294167
0.0431975378218
0.0827476330227
0.0645341591285
0.0252594398403
0.0828268773907
0.198535296574
0.250412932323
0.171754354936
0.213179103116
0.253192679046
0.252944093396
0.31343082902
0.401842660376
0.468393040844
0.594454931086
0.858059424525
0.748273334115
0.869924572586
0.836010227525
0.922047922207
0.982023036867
1.01146437161
1.04400800029
1.04601816597
1.03627201277
0.977756006801
0.8070422928
0.674343006972
0.512334146941
0.183908335273
0.0647860344682
0.117384270233
0.0828085900613
0.0739359088514
0.0625999256266
0.0634099503929
0.0933709430444
0.0437897703712
0.0510456445864
0.0534016581579
0.102238288701
0.0779080640693
0.124049674312
0.112833629526
0.127711586586
0.0702291530362
0.0438224878698
0.062798505849
0.0785776875649
0.0929967520306
0.103410688716
0.0947866765914
0.141762963207
0.191785403498
0.118922484088
0.111051415386
0.146679892508
0.125316757575
0.174277337951
0.170922966891
0.192811886984
0.202983197508
0.215080963595
0.270698822068
0.335264754023
0.404346425616
0.510836986255
0.568839601055
0.628685536754
0.74235218808
0.649811690062
0.805922149148
0.67969004723
0.893338478782
0.775863945774
0.6972522667
0.801954614969
0.650287668902
0.791575121252
0.600766478509
0.565401352868
0.469584810841
0.264558655207
0.200966890714
0.0371469288595
0.0788146191868
0.0237350737059
0.067192308352
0.104003837067
0.0964912419811
0.0709646477937
0.0301833311007
0.0346967340734
0.0223521865426
0.0150013601774
0.0352351720952
0.0259599171542
0.0312365465389
0.0115812612452
0.0109046021891
0.0190077650617
0.0239103384029
0.0283911058592
0.0111389416379
0.0170806409955
0.0135194694327
0.0233038603226
0.0718666607551
0.121777631316
0.103480895856
0.0398641542681
0.0651693476027
0.0222788559324
0.0339549809457
0.0133093863755
0.0204500817925
0.0303631083341
0.0849840989093
0.104536359548
0.0667091127357
0.0973305727266
0.0878298690424
0.0798828936196
0.0966724878634
0.140689394727
0.138185245265
0.0724276024602
0.100981228544
0.0499912237517
0.107953389471
0.173152932562
0.139857095447
0.181357197663
0.18039895997
0.116913046517
0.190120426618
0.270641443218
0.38017200079
0.497971621108
0.682378628493
1.04692076044
0.855367978693
0.883449587612
1.07243826738
1.01523567828
1.34833671147
1.29308226228
1.30179891668
0.958034748544
0.387054698832
0.352068135412
0.448765951484
0.850865214591
0.0544001520218
0.0648466466153
1000000.0
0.0
0.0
0.0
0.0
0.0
0.0
0.0
0.0
0.0
0.0
0.0
0.0
0.0
0.0
0.0
0.0
0.0
0.0
0.0
0.0
0.0
0.0
0.0
0.0
0.0
0.0
0.0
0.0
0.0
0.0
0.0
0.0
0.0
0.0
0.0
0.0
0.0
0.0
0.0
0.0
0.0
0.0
0.0
0.0
0.0
0.0
0.0
0.0
0.0
0.0
0.0
0.0
0.0
0.0
0.0
0.0
0.0
0.0
0.0
0.0
0.0
0.0
0.0
0.0
0.0
0.0
0.0
0.0
0.0
0.0
0.0
0.0
0.0
0.0
0.0
0.0
0.0
0.0
0.0
0.0
0.0
0.0
0.0
0.0
0.0
0.0
0.0
0.0
0.0
0.0
0.0
0.0
0.0
0.0
0.0
0.0
0.0
0.0
0.0
0.0
0.0
0.0
0.0
0.0
0.0
0.0
0.0
0.0
0.0
0.0
0.0
0.0
0.0
0.0
0.0
0.0
0.0
0.0
0.0
0.0
0.0
0.0
0.0
0.0
0.0
0.0
0.0
0.0
0.0
0.0
0.0
0.0
0.0
0.0
0.0
0.0
0.0
0.0
0.0
0.0
0.0
0.0
0.0
0.0
0.0
0.0
0.0
0.0
0.0
0.0
0.0
0.0
0.0
0.0
0.0
0.0
0.0
0.0
0.0
0.0
0.0
0.0
0.0
0.0
0.0
0.0
0.0
0.0
0.0
0.0
0.0
0.0
0.0
0.0
0.0
0.0
0.0
0.0
0.0
0.0
0.0
0.0
0.0
0.0
0.0
0.0
0.0
0.0
0.0
0.0
0.0
0.0
0.0
0.0
0.0
0.0
0.0
0.0
0.0
0.0
0.0
0.0
0.0
0.0
0.0
0.0
0.0
0.0
0.0
0.0
0.0
0.0
0.0
0.0
0.0
0.0
0.0
0.0
0.0
0.0
0.0
0.0
0.0
0.0
0.0
0.0
0.0
0.0
0.0
0.0
0.0
0.0
0.0
0.0
0.0
0.0
0.0
0.0
0.0
0.0
0.0
0.0
0.0
0.0
0.0
0.0
0.0
0.0
0.0
0.0
0.0
0.0
0.0
0.0
0.0
0.0
0.0
0.0
0.0
0.0
0.0
0.0
0.0
0.0
0.0
0.0
0.0
0.0
0.0
0.0
0.0
0.0
0.0
0.0
0.0
0.0
0.0
0.0
0.0
0.0
0.0
0.0
0.0
0.0
0.0
0.0
0.0
0.0
0.0
0.0
0.0
0.0
0.0
0.0
0.0
0.0
0.0
0.0
0.0
0.0
0.0
0.0
0.0
0.0
0.0
0.0
0.0
0.0
0.0
0.0
0.0
0.0
0.0
0.0
0.0
0.0
0.0
0.0
0.0
0.0
0.0
0.0
0.0
0.0
0.0
0.0
0.0
0.0
0.0
0.0
0.0
0.0
0.0
0.0
0.0
0.0
0.0
0.0
0.0
0.0
0.0
0.0
0.0
0.0
0.0
0.0
0.0
0.0
0.0
0.0
0.0
0.0
0.0
0.0
0.0
0.0
0.0
0.0
0.0
0.0
0.0
0.0
0.0
0.0
0.0
0.0
0.0
0.0
0.0
0.0
0.0
0.0
0.0
0.0
0.0
0.0
0.0
0.0
0.0
0.0
0.0
0.0
0.0
0.0
0.0
0.0
0.0
0.0
0.0
0.0
0.0
0.0
0.0
0.0
0.0
0.0
0.0
0.0
0.0
0.0
0.0
0.0
0.0
0.0
0.0
0.0
0.0
0.0
0.0
0.0
0.0
0.0
0.0
0.0
0.0
0.0
0.0
0.0
0.0
0.0
0.0
0.0
0.0
0.0
0.0
0.0
0.0
0.0
0.0
0.0
0.0
0.0
0.0
0.0
0.0
0.0
0.0
0.0
0.0
0.0
0.0
0.0
0.0
0.0
0.0
0.0
0.0
0.0
0.0
0.0
0.0
0.0
0.0
0.0
0.0
0.0
0.0
0.0
0.0
0.0
0.0
0.0
0.0
0.0
0.0
0.0
0.0
0.0
0.0
0.0
0.0
0.0
0.0
0.0
0.0
0.0
0.0
0.0
0.0
0.0
0.0
0.0
0.0
0.0
0.0
0.0
0.0
0.0
0.0
0.0
0.0
0.0
0.0
0.0
0.0
0.0
0.0
0.0
0.0
0.0
0.0
0.0
0.0
0.0
0.0
0.0
0.0
0.0
0.0
0.0
0.0
0.0
0.0
0.0
0.0
0.0
0.0
0.0
0.0
0.0
0.0
0.0
0.0
0.0
0.0
0.0
0.0
0.0
0.0
0.0
0.0
0.0
0.0
0.0
0.0
0.0
0.0
0.0
0.0
0.0
0.0
0.0
0.0
0.0
0.0
0.0
0.0
0.0
0.0
0.0
0.0
0.0
0.0
0.0
0.0
0.0
0.0
0.0
0.0
0.0
0.0
0.0
0.0
0.0
0.0
0.0
0.0
0.0
0.0
0.0
0.0
0.0
0.0
0.0
0.0
0.0
0.0
0.0
0.0
0.0
0.0
0.0
0.0
0.0
0.0
0.0
0.0
0.0
0.0
0.0
0.0
0.0
0.0
0.0
0.0
0.0
0.0
0.0
0.0
0.0
0.0
0.0
0.0
0.0
0.0
0.0
0.0
0.0
0.0
0.0
0.0
0.0
0.0
0.0
0.0
0.0
0.0
0.0
0.0
0.0
0.0
0.0
0.0
0.0
0.0
0.0
0.0
0.0
0.0
0.0
0.0
0.0
0.0
logs/alpha_6.0/PGSD_900steps_3.log 1000099.81405 1000.09981405 0.0 1000000.0 0.0 366
