Policy Parameters:	-2.57199662653 5.10864537097
Control Steps:		1000
Start Time:		1442424239.2581992

-- TESTING STOPPED --

Stop Time:		1442424420.6221786
Duration:		181.3639793395996
Cost Matrix:
0.0740131099233
0.0193668141596
0.0273289966147
0.0282862944165
0.0467126007803
0.00534028424541
0.14143796492
0.125441917891
0.392572686009
0.311300362394
0.211518917249
0.223842021872
0.491595782311
0.0365268274492
0.0919822129719
0.164061479113
0.42262979236
0.502891585195
0.51828376454
0.79493923456
0.768776144628
0.983881345721
1.07002155045
1.19525599286
1.13849639798
1.10049836595
1.09291069476
1.05524428462
0.778427946338
1.2050206453
0.86710685408
1.1550993801
0.773813937197
0.776439546017
0.571867659168
0.641130000721
0.31856025083
0.214057472205
0.171997963963
0.174822916891
0.12845841679
0.129431167664
0.157091306065
0.209731706443
0.182844911545
0.261752603228
0.231473110042
0.19079875537
0.290993245905
0.278621574389
0.269515473393
0.174933946954
0.234677784221
0.347120565338
0.271835373883
0.245086385682
0.263138134509
0.212983924159
0.157474875548
0.194428329506
0.239911138504
0.231256547585
0.146923007399
0.131372954794
0.0499685613532
0.216420041968
0.536063250473
0.684086198234
0.532963630784
0.4492281585
0.420768995275
0.324440088979
0.203088666925
0.167927197846
0.187092690757
0.183585062054
0.084326387608
0.0651034767094
0.141827151441
0.118931045862
0.149051188011
0.187561135947
0.0748750705737
0.0333337130811
0.105183141589
0.0792552029126
0.0947399565771
0.0356499135072
0.0331283261009
0.148494238903
0.248336671921
0.224119141524
0.346717399792
0.255101141304
0.034172558728
0.0769196732376
0.102562074168
0.0663810167882
0.107039656797
0.106881263611
0.0516491198773
0.0607827569005
0.214281117375
0.276598987882
0.377018646773
0.335716097949
0.679400789035
0.584966435939
0.625922669222
0.542320632013
1.30616263967
0.545512371379
1.28974640812
0.93772543046
0.906848297672
0.764937425367
0.945403851133
1.10500314018
0.237502527021
0.505164387812
0.452261475963
0.278486386236
0.531849097662
0.347371984728
0.180076035034
0.0281140048997
0.0709132967336
0.0254635773415
0.0269544251677
0.22775764776
1.00018264464
0.0243121753262
0.270962500475
0.856718352912
0.0621441487522
0.147084136281
0.156398648274
0.0781272844742
0.0460943474827
0.178763156663
0.4306168564
0.0294685240348
0.339426526884
0.510652768431
0.248953146978
0.0967411135363
0.358010072361
0.445067751313
0.268025396586
0.420883637238
0.69939378347
0.575166734949
1.8591068954
0.430535601411
0.957498102933
0.391248102072
0.968949614
0.458496063876
0.9068516906
0.314352278887
0.710462193126
0.0917130235284
0.287979251022
0.480743802528
0.024687671587
0.0269878954522
0.147371819351
0.0530062002611
0.178959001041
0.219744028872
0.0449557962197
0.106283425228
0.108782088024
0.176672162065
0.151366899306
0.198851609443
0.183146167667
0.244201357608
0.233331852139
0.117882078566
0.119718645018
0.17197526313
0.240777573342
0.179792823285
0.257006941512
0.149682604674
0.168182884524
0.225544075479
0.237198412776
0.361891093135
0.281065851226
0.257135911656
0.215580687915
0.313152660166
0.354997605492
0.253679878088
0.266612507046
0.233233924628
0.151594531307
0.149452499668
0.280633925053
0.318536470078
0.281579328529
0.249793199458
0.29626078646
0.227775482128
0.127335484317
0.128067432257
0.129588247304
0.0784714671331
0.103269802497
0.304320407257
0.267669249421
0.365682403833
0.567594606441
0.512003261483
0.884135505809
0.395791225509
0.513095217646
0.454527584985
0.379677931507
0.870422765092
0.274545610866
0.4233704897
0.428765643545
0.188561442411
0.205175778866
0.207167919542
0.282887722683
0.0771362987726
0.121588436135
0.146008513924
0.0882607442095
0.123670763844
0.316612845757
0.630113338974
0.15276731025
0.117052180289
0.10977355247
0.252427173908
0.414891145978
0.00491763290356
0.126972067029
0.115921858781
0.172964101856
0.0406022788104
0.233809887445
0.150128448241
0.0773617065391
0.133913600363
0.231237199933
0.0721483671054
0.0284945798546
0.0812897340757
0.115191135571
0.0444811732886
0.237424211195
0.240471231615
0.0110496753521
0.159398095624
0.301953205391
0.124139601911
0.359911219178
0.522642989945
0.184434872516
0.297862878296
0.211081807883
0.440983886528
0.391218511444
0.448453612084
0.465414152065
0.764825596789
0.822516973392
1.22350086152
0.63758987946
1.20121826883
0.531760071386
1.20006190289
0.555386547389
1.14289980146
0.498855547502
1.27570541309
0.135142895594
0.49107435605
0.241999898354
0.159603888979
0.124841161793
0.166797688442
0.314183918655
0.151327329137
0.168425814903
0.0261050837871
0.0701421348711
0.197001869639
0.246729194073
0.304258610874
0.28543317675
0.168793795744
0.0986598804755
0.0657946838198
0.14839030856
0.163349480201
0.248328689204
0.21492813352
0.0975086222122
0.175250730222
0.135908530792
0.162880652728
0.083142125427
0.103641553281
0.118941910833
0.113032251372
0.051308357459
0.0267840090219
0.0455394795438
0.0517271733323
0.109488695543
0.0376304532452
0.0889577682923
0.11866210817
0.0607474012917
0.0258921175584
0.0755826842615
0.143546117559
0.0904732957414
0.0448342076238
0.0568378626044
0.0610253279043
0.0632020427789
0.169267439493
0.315998618979
0.0798469069263
0.310526953989
0.265602364803
0.365109264267
0.34578782705
0.271527983476
0.425463694136
0.528501498611
0.634979394544
0.629415748682
1.05647218506
0.886238766694
1.18838754303
1.15025659659
1.45764871766
1.43609683989
1.52007669258
1.54635932535
1.47356717586
1.36032219501
1.2161333864
1.08569357302
1.15484701264
0.798359509055
0.802583660241
0.517810460621
0.423741488672
0.282928437896
0.417928033202
0.492405640777
0.259495703143
0.42411933909
0.182267740463
0.463840086849
0.0270575023406
0.0403699525801
0.0083723775559
0.0987323986805
0.192851531648
0.128073318059
0.199991878908
0.0458687283449
0.223260387584
0.061379311215
0.147392519902
0.218181794572
0.304281122448
0.0452062475215
0.107223619675
0.167122541504
0.133640233391
0.118343998422
0.163872843017
0.157823554209
0.153433456729
0.0648568528205
0.127695204031
0.0324351846063
0.0985069095108
0.100646550792
0.262439125768
0.278672213725
0.289616083603
0.296471366364
0.21697921663
0.339410777784
0.380467027097
0.462483996461
0.562782912316
0.907367228871
0.967988363024
1.09609983754
1.28264500245
1.40839532823
1.23510383867
1.64623381663
1.32921316558
1.39978250346
1.21076230306
0.571237262894
0.992077590148
0.906371742632
0.492010895569
0.391895629436
0.664139264305
0.537874895762
0.197600560556
0.113095163683
0.0931888223922
0.0542601073697
0.347957150579
0.465730431196
0.268117061588
0.0470278158231
0.0342878092322
0.0628376299489
0.114256331014
0.129118531845
0.215821159614
0.189160230181
0.223166839135
0.14861437671
0.169497671298
0.153442603073
0.173821750597
0.146983998892
0.153357149583
0.161480227968
0.170628559677
0.0883232794871
0.106208627889
0.0907379517189
0.0978140983088
0.0861213902207
0.0970375011692
0.0901954972285
0.109935289548
0.0991570306362
0.108049482801
0.116426494722
0.135208354189
0.1140860069
0.11889275594
0.12031571242
0.13688027569
0.143793952328
0.12377316313
0.114747881216
0.131014872879
0.161871013081
0.136330192125
0.125584704884
0.132746333646
0.139303917973
0.163605191965
0.238405734493
0.170105941248
0.17524286753
0.236489267914
0.254227239775
0.241108547826
0.287001006385
0.316918143842
0.345099100197
0.365932371354
0.397200538834
0.468558889969
0.578880037991
0.854891389683
1.10415596935
1.1545158635
1.27303116129
1.37230415527
1.37731855582
1.51587864675
1.11847393981
1.86291098059
1.06457063412
1.60727302783
1.69285682698
1.14934097358
1.01598017308
0.497721757411
0.492622775839
0.358676711896
0.342206339912
0.368465682207
0.38571818659
0.370761329012
0.420978321008
0.440565291505
0.41934323233
0.419058482366
0.439779647217
0.442358447805
0.470841694894
0.485693538751
0.4940611546
0.524115160404
0.514006237125
0.552139899088
0.519133886433
0.524197273582
0.555764849419
0.551468464309
0.534720488649
0.566918850746
0.560187901529
0.565048668503
0.666577607939
0.531754668009
0.607429524034
0.582008266975
0.735127613218
0.506015488385
0.675038747244
0.540084425658
0.602195482305
0.671190051833
0.682422952396
0.548665445606
0.789870985992
0.539395935955
0.73871305012
0.582426741554
0.898934551293
0.529972961194
0.751642050576
0.543408777054
0.667375895298
0.571102275201
0.574104105204
0.624428032326
0.529172130808
0.554071442734
0.567616212759
0.557027364926
0.526982508411
0.533620982948
0.471435530964
0.455652738465
0.432206297742
0.486781101525
0.455480978754
0.451320417817
0.423616684843
0.373472791881
0.393073810227
0.321711930087
0.306374403112
0.331785412007
0.305975174475
0.291116318551
0.325076092118
0.272127026059
0.244557487291
0.233681144485
0.280569970996
0.388771005716
0.315374864457
0.243161962439
0.231147571118
0.20946422565
0.238363020946
0.214756865053
0.168404393402
0.230729383307
0.337287440455
0.186887701893
0.188841539326
0.304692214045
0.179782636174
0.172623827407
0.160237882604
0.13912310559
0.133846964218
0.195994165212
0.139171426828
0.162569649056
0.15676339992
0.232132993759
0.249856537564
0.215315372498
0.137857289239
0.140053134627
0.197648300679
0.255399952175
0.185046375997
0.19651116565
0.284080435265
0.278830782847
0.234986183615
0.276151759356
0.320272329399
0.205528523631
0.285400594006
0.331885096311
0.351207813663
0.393210535478
0.437562376988
0.632280993244
0.666026765061
0.476930342579
0.722393385518
0.537965695381
0.621088850994
0.52216543876
0.593510685633
0.504366569437
0.549111565772
0.545206779176
0.465129763808
0.382610330989
0.275366980866
0.117144665628
0.0807805874675
0.0600443966089
0.109332480105
0.0791377821261
0.119522163545
0.222780826235
0.318095753025
0.115927721632
0.371509990775
0.0716812098081
0.102178889385
0.0764407361139
0.154217735485
0.197166491253
0.0776460913185
0.156426851906
0.401894134493
0.517562769459
1.01052349989
0.354747534008
0.947468001258
0.442376829961
0.831661473051
0.467312838646
1.45290548733
0.491158102778
1.09771840681
0.427954405906
1.01383532188
0.514474632762
0.575861029944
0.976940161499
0.400599727402
0.61632340921
2.43699969205
0.0196682603346
0.034112290661
0.176772376754
0.252915679174
0.275661424436
0.263133581914
0.320969342703
0.286843900952
0.351947988559
0.365612775957
0.357540238472
0.344221592897
0.33363175801
0.349719222321
0.397070947143
0.38576226905
0.426738676639
0.46598944248
0.432399547776
0.448780942838
0.457036593217
0.47991508698
0.505565976356
0.494467896256
0.536773890204
0.541024895888
0.598121665456
0.610958073903
0.520396297502
0.780941711388
0.529274205906
0.93554480419
0.543285648337
0.98654602841
0.567415579502
1.00140716413
0.690540419537
0.921591646477
0.778997493467
1.01798862247
0.869180923026
0.958665121598
0.97211002104
0.995753037932
0.987880276487
0.99432572706
1.04775886921
1.17685875112
1.03731858178
1.14541460626
0.968605377385
1.24259625773
1.05940798436
1.22100451192
1.17906255204
1.10261921012
1.21099092582
1.11515167299
1.12906875316
1.20261655735
1.02629437956
1.22502350468
1.00805486528
1.10518823084
1.2038563604
1.13943716841
1.15941317206
1.01187280693
1.17853665966
1.18008297874
1.04401954538
1.33517158122
1.14108030925
1.37237298174
1.29617221892
1.4989485972
1.41284095176
1.56763647138
1.90580390246
1.38007595431
1.92719741564
1.47394245407
2.03653178168
1.49713259092
2.28193838605
0.971664449628
2.81137832152
1.86098581373
2.86068120589
3.70608697359
0.366172802246
2.69948147411
1.83918880468
1.49882486287
1.91802418703
1.58640158148
1.66559999499
1.48230038466
1.32047317883
1.52539923661
1.10141294562
1.35203921493
0.824706305799
1.19823103148
0.647261677195
1.09872012812
0.556685068858
1.20026601959
0.40615944508
0.967417086061
0.387367841619
0.565814406131
0.389011787253
0.463499228455
0.293020989991
0.297408119983
0.514369523461
0.468154191396
0.421549436312
0.433591604616
0.391427376205
0.51269751793
0.511655153335
1.24381546864
1.30236960181
1.71416935949
1.89151942077
2.0135236659
1.33965343512
2.38557805532
0.734140866569
2.84429844786
0.411122356713
3.04859506447
0.434130985923
2.78456711719
0.433411230843
1.63026408309
0.0955252544154
0.503457041389
0.116263752766
0.204858668433
0.350132750679
0.155027370897
0.236775106301
0.319173239369
0.308498520575
0.294565375643
0.502371363246
0.102393443204
0.321570652752
0.645020235236
1.25122797555
0.0151553244316
0.170494727362
0.445274241189
0.0584803728703
0.22994745122
0.137557520897
0.047192599479
0.0689155931529
0.0898097630412
0.19529817576
0.172642814295
0.200338708236
0.243032020763
0.337420280448
0.308654760135
0.600162110873
1.59077092837
0.623080053883
1.94355089541
0.38970883612
0.928634721581
0.767005258994
0.57758231856
0.941566881848
0.557605592526
0.812757070471
0.551421002028
0.999273895971
0.535157162331
0.392591185556
0.275224971569
0.247434780396
0.105956888039
0.173936511914
0.161599272358
0.142374187551
0.435494623642
0.226434435401
0.144561535638
0.263932057057
0.198603407501
0.131487653013
0.211723692491
0.0379001589307
0.168061471224
0.117239325006
0.0396691549642
0.215722327265
0.301556172183
0.217737802716
0.214675921047
0.109256157378
0.00842909117957
0.00521610508036
0.0389399071444
0.189391835967
0.309465468374
0.0843062277978
0.131423986946
0.086196513116
0.210319241047
0.00906031610726
0.0252221718877
0.00405721877006
0.154384211878
0.0620494073684
0.325162250318
0.01528308997
0.0194707239642
0.059578361207
0.365213891775
0.0650493540849
0.345156991427
0.316506912939
0.270740473353
0.657315791284
0.45462336824
0.683353810139
0.415166542928
1.03834603229
1.5311326834
1.99693164943
1.97679964589
2.06973132386
2.48844505637
1.4925632494
2.51467777936
1.59580593112
1.06818554053
1.54836618258
1.05590625825
0.879943045895
0.342715154374
0.214698459394
0.133265532022
0.315252818177
0.543924029309
0.509846078517
0.478699155028
0.467948086133
0.518488936246
0.471051293188
0.406375969127
0.410219123878
0.421269262942
0.329826825526
0.398119676575
0.203185338506
0.185888825992
0.128351029164
0.149976412767
0.0649848827439
0.0849735007231
0.113614950547
0.0589487363845
0.0517284634631
0.0267219132264
0.100097403504
0.138282937165
0.0763322555463
0.306396238251
0.284114229227
0.0974402041869
0.295299512861
0.231886869884
0.997433080193
0.0315684545989
0.238580061561
0.464845657488
0.457785992152
0.356747341649
0.304813965887
0.335909270348
0.330325053601
0.404578677932
0.385909440908
0.382332135761
0.0362451749819
0.135673355992
0.160304306163
0.0873814887822
0.24910990093
0.245654744033
0.331475855366
0.299713710948
0.113396301504
0.323150988145
0.303056296382
0.0869455800627
0.0236350161518
0.226268252743
0.0552120771488
0.386864459311
0.421869514375
0.271953407244
0.239259087726
0.269123091034
0.179953058067
0.240230445121
0.0469724252936
0.121723811683
0.00607857239312
0.13092336789
0.312987221006
0.0574131231013
0.0551885793532
0.229686067838
0.0395244552123
0.092867446484
0.176748819412
0.208637280735
0.193007159612
0.187725319156
0.193041321643
0.188372380996
0.168166540154
0.171677723416
0.186003022313
0.198763254003
0.199960960157
0.194139752265
0.202208313091
0.200317612394
0.20954852479
0.196618956839
0.0369123748961
logs/alpha_6.0/PGSD_900steps_2.log 471.252184669 0.471252184669 0.304506310651 3.70608697359 0.00405721877006 -1
