Policy Parameters:	-2.31194050286 1.0328892043
Control Steps:		1000
Start Time:		1442399384.449015

-- TESTING STOPPED --

Stop Time:		1442399439.7103543
Duration:		55.26133942604065
Cost Matrix:
0.413891068007
0.108008495372
0.172098955028
0.225277954381
0.275989465132
0.282541132182
0.252918335889
0.282999420107
0.299020060527
0.299554206952
0.318331708925
0.337814326526
0.327128167541
0.329226440205
0.384425208336
0.34121243377
0.2416838657
0.272620040911
0.24892509755
0.205112545551
0.246482706361
0.232745045939
0.154061851966
0.0632078373302
0.0411869375778
0.0537166724996
0.149138305882
0.105602225658
0.148565950726
0.0521747654987
0.0927181958607
0.158264477
0.155771356021
0.228607852072
0.272290146513
0.325877892212
0.345256637847
0.326776247133
0.416762296732
0.478466852891
0.474419571309
0.568880884772
0.536317838293
0.513000135033
0.628633833589
0.47707342127
0.44137693572
0.516818227156
0.510809744801
0.451806849498
0.31067712627
0.184628926417
0.0746225609525
0.126814152835
0.0777188223161
0.0807334877827
0.0180476685229
0.0597900846294
0.0740264853549
0.0531368763015
0.0102057978556
0.0622150791294
0.149832061696
0.0463402819463
0.0122025210236
0.0333872706369
0.0312091921547
0.0442786663616
0.0602582987053
0.110692983137
0.100545956183
0.0414466278776
0.0811095768177
0.0900109834986
0.0647202146822
0.053867757572
0.0470853363441
0.038845464827
0.0358339337508
0.0351426706634
0.0572822668725
0.0588695512771
0.092917566403
0.0653542521009
0.0402433671254
0.00677582180712
0.0548722622345
0.0390742459576
0.118551135694
0.108442402168
0.201476040935
0.0549381162698
0.172788135166
0.199612027171
0.0867277019225
0.0959329507502
0.0762423164349
0.0863494864751
0.0586988488661
0.0688848942984
0.0878051169774
0.0947323215162
0.0834384758628
0.114213832053
0.172590446367
0.241197798927
0.261792385162
0.315422597015
0.413955353251
0.572329403903
0.744100124904
0.883749347372
0.95780075956
1.21704734715
0.716971423359
0.675154124558
0.128950457648
0.130079364464
0.101824135588
0.0797092561407
0.0987813665248
0.0874708943462
0.0473408663704
0.0714395555722
0.0927532789333
0.131585830146
0.179021418439
0.162964976706
0.178922358466
0.163496899013
0.0720146610542
0.109771598969
0.146659576329
0.220478331218
0.268228668345
0.239893578251
0.187785399114
0.192632159072
0.221481346386
0.257702380897
0.227891263874
0.129755421684
0.0843075396654
0.0399027601385
0.0585739939138
0.092190369362
0.154305078054
0.1831311095
0.234275288216
0.217618567681
0.220388577207
0.276143030945
0.283202707333
0.348319809179
0.320203163178
0.210042535972
0.246698195694
0.303347752342
0.0749186049961
0.0725893978483
0.196853146779
0.25551950045
0.273208167591
0.280237667436
0.251258332735
0.249738039922
0.236969022841
0.214903716058
0.266691642457
0.210777912323
0.158832683988
0.130042695916
0.0226800922544
0.0715451618229
0.110419057654
0.202091916126
0.00705892407485
0.0406648246116
0.119072868068
0.0372125257594
0.0374548837949
0.0405399304208
0.0582390547682
0.137579699886
0.0371558525256
0.0822531799456
0.102050348936
0.0639336508912
0.0334033202571
0.0438539281201
0.00547717556398
0.0218153746168
0.0233859430861
0.0564656746297
0.0921316725374
0.087265982057
0.0847599516474
0.106701392902
0.0923656047758
0.0535253345729
0.0897340191343
0.114675772751
0.148050587624
0.176676421435
0.19661710856
0.230350224042
0.374597920632
0.590220166642
0.798098354133
0.986246424905
0.872418929715
1.16179760122
0.917812952486
1.0190394417
0.883336563572
1.07872383274
0.884686593209
0.777779334749
1.09178436841
1.27443652728
1.31018132778
1.26384938059
0.940104926148
0.442010935957
0.163699393796
0.176694128568
0.185438959354
0.123694878914
0.0941591639193
0.0899149742329
0.047746005972
0.0330044772863
0.019004964969
0.0831864801205
0.155788092398
0.0586517375135
0.0978730100248
0.0995644492607
0.0913754536287
0.0444939969874
0.0976086397652
0.130835632006
0.0420638268395
0.111280861465
0.159871955899
0.164955786062
0.236406032363
0.121201244626
0.228355766652
0.237938778966
0.233057122597
0.128969104274
0.178759126249
0.241239857572
0.213759529813
0.195102347733
0.142832157584
0.145459661582
0.158519850659
0.190432025796
0.261675458777
0.172303936246
0.159413349608
0.152367589361
0.105223170884
0.113948190234
0.157141458189
0.183200462451
0.26132472304
0.34681198758
0.385654650299
0.42186166106
0.446541232635
0.477762294947
0.49179924494
0.502859315745
0.49957376984
0.52208178016
0.549169689417
0.535316288725
0.532844676565
0.496964179767
0.506712458537
0.53308912324
0.470037368423
0.40162744211
0.37969692417
0.755794132075
1.04111499387
0.0270403191011
0.0177463562326
0.0420401630857
0.037360511839
0.031680450073
0.0639143778278
0.0509642823677
0.0738491524912
0.0382913433138
0.0989403857895
0.0931399938609
0.10467665603
0.128370515312
0.0308022004146
0.0321740740271
0.0528370830089
0.119867088633
0.0905585880155
0.0570830855004
0.129356048102
0.118539617929
0.0380115143194
0.0368498650963
0.0340627841232
0.053367800107
0.1064009447
0.0173386495508
0.0314004667818
0.00959382820443
0.0401904403088
0.0516088427758
0.048336642038
0.0721093234366
0.095134475682
0.0652550469535
0.0295928364249
0.0297750474999
0.0312517035495
0.0129898066228
0.033855629854
0.0937261570094
0.0485818081179
0.118108787209
0.186002229147
0.0244766238412
0.0422983968997
0.0723601233711
0.159794876345
0.102757089264
0.137563215339
0.140011463142
0.139931869115
0.126561877291
0.157018932431
0.246336707097
0.347735503571
0.452823951456
0.796620007806
1.32297763334
1.95632291377
2.33133186445
0.0703184313031
0.105215079353
0.0944382083366
0.036222779348
0.0846776477791
0.1175564667
0.0576398261096
1000000.0
0.0
0.0
0.0
0.0
0.0
0.0
0.0
0.0
0.0
0.0
0.0
0.0
0.0
0.0
0.0
0.0
0.0
0.0
0.0
0.0
0.0
0.0
0.0
0.0
0.0
0.0
0.0
0.0
0.0
0.0
0.0
0.0
0.0
0.0
0.0
0.0
0.0
0.0
0.0
0.0
0.0
0.0
0.0
0.0
0.0
0.0
0.0
0.0
0.0
0.0
0.0
0.0
0.0
0.0
0.0
0.0
0.0
0.0
0.0
0.0
0.0
0.0
0.0
0.0
0.0
0.0
0.0
0.0
0.0
0.0
0.0
0.0
0.0
0.0
0.0
0.0
0.0
0.0
0.0
0.0
0.0
0.0
0.0
0.0
0.0
0.0
0.0
0.0
0.0
0.0
0.0
0.0
0.0
0.0
0.0
0.0
0.0
0.0
0.0
0.0
0.0
0.0
0.0
0.0
0.0
0.0
0.0
0.0
0.0
0.0
0.0
0.0
0.0
0.0
0.0
0.0
0.0
0.0
0.0
0.0
0.0
0.0
0.0
0.0
0.0
0.0
0.0
0.0
0.0
0.0
0.0
0.0
0.0
0.0
0.0
0.0
0.0
0.0
0.0
0.0
0.0
0.0
0.0
0.0
0.0
0.0
0.0
0.0
0.0
0.0
0.0
0.0
0.0
0.0
0.0
0.0
0.0
0.0
0.0
0.0
0.0
0.0
0.0
0.0
0.0
0.0
0.0
0.0
0.0
0.0
0.0
0.0
0.0
0.0
0.0
0.0
0.0
0.0
0.0
0.0
0.0
0.0
0.0
0.0
0.0
0.0
0.0
0.0
0.0
0.0
0.0
0.0
0.0
0.0
0.0
0.0
0.0
0.0
0.0
0.0
0.0
0.0
0.0
0.0
0.0
0.0
0.0
0.0
0.0
0.0
0.0
0.0
0.0
0.0
0.0
0.0
0.0
0.0
0.0
0.0
0.0
0.0
0.0
0.0
0.0
0.0
0.0
0.0
0.0
0.0
0.0
0.0
0.0
0.0
0.0
0.0
0.0
0.0
0.0
0.0
0.0
0.0
0.0
0.0
0.0
0.0
0.0
0.0
0.0
0.0
0.0
0.0
0.0
0.0
0.0
0.0
0.0
0.0
0.0
0.0
0.0
0.0
0.0
0.0
0.0
0.0
0.0
0.0
0.0
0.0
0.0
0.0
0.0
0.0
0.0
0.0
0.0
0.0
0.0
0.0
0.0
0.0
0.0
0.0
0.0
0.0
0.0
0.0
0.0
0.0
0.0
0.0
0.0
0.0
0.0
0.0
0.0
0.0
0.0
0.0
0.0
0.0
0.0
0.0
0.0
0.0
0.0
0.0
0.0
0.0
0.0
0.0
0.0
0.0
0.0
0.0
0.0
0.0
0.0
0.0
0.0
0.0
0.0
0.0
0.0
0.0
0.0
0.0
0.0
0.0
0.0
0.0
0.0
0.0
0.0
0.0
0.0
0.0
0.0
0.0
0.0
0.0
0.0
0.0
0.0
0.0
0.0
0.0
0.0
0.0
0.0
0.0
0.0
0.0
0.0
0.0
0.0
0.0
0.0
0.0
0.0
0.0
0.0
0.0
0.0
0.0
0.0
0.0
0.0
0.0
0.0
0.0
0.0
0.0
0.0
0.0
0.0
0.0
0.0
0.0
0.0
0.0
0.0
0.0
0.0
0.0
0.0
0.0
0.0
0.0
0.0
0.0
0.0
0.0
0.0
0.0
0.0
0.0
0.0
0.0
0.0
0.0
0.0
0.0
0.0
0.0
0.0
0.0
0.0
0.0
0.0
0.0
0.0
0.0
0.0
0.0
0.0
0.0
0.0
0.0
0.0
0.0
0.0
0.0
0.0
0.0
0.0
0.0
0.0
0.0
0.0
0.0
0.0
0.0
0.0
0.0
0.0
0.0
0.0
0.0
0.0
0.0
0.0
0.0
0.0
0.0
0.0
0.0
0.0
0.0
0.0
0.0
0.0
0.0
0.0
0.0
0.0
0.0
0.0
0.0
0.0
0.0
0.0
0.0
0.0
0.0
0.0
0.0
0.0
0.0
0.0
0.0
0.0
0.0
0.0
0.0
0.0
0.0
0.0
0.0
0.0
0.0
0.0
0.0
0.0
0.0
0.0
0.0
0.0
0.0
0.0
0.0
0.0
0.0
0.0
0.0
0.0
0.0
0.0
0.0
0.0
0.0
0.0
0.0
0.0
0.0
0.0
0.0
0.0
0.0
0.0
0.0
0.0
0.0
0.0
0.0
0.0
0.0
0.0
0.0
0.0
0.0
0.0
0.0
0.0
0.0
0.0
0.0
0.0
0.0
0.0
0.0
0.0
0.0
0.0
0.0
0.0
0.0
0.0
0.0
0.0
0.0
0.0
0.0
0.0
0.0
0.0
0.0
0.0
0.0
0.0
0.0
0.0
0.0
0.0
0.0
0.0
0.0
0.0
0.0
0.0
0.0
0.0
0.0
0.0
0.0
0.0
0.0
0.0
0.0
0.0
0.0
0.0
0.0
0.0
0.0
0.0
0.0
0.0
0.0
0.0
0.0
0.0
0.0
0.0
0.0
0.0
0.0
0.0
0.0
0.0
0.0
0.0
0.0
0.0
0.0
0.0
0.0
0.0
0.0
0.0
0.0
0.0
0.0
0.0
0.0
0.0
0.0
0.0
0.0
0.0
0.0
0.0
0.0
0.0
0.0
0.0
0.0
0.0
0.0
0.0
0.0
0.0
0.0
0.0
0.0
0.0
0.0
0.0
0.0
0.0
0.0
0.0
0.0
0.0
0.0
0.0
0.0
0.0
0.0
0.0
0.0
logs/alpha_6.0/PGSD_200steps_3.log 1000084.49213 1000.08449213 0.0 1000000.0 0.0 357
