Policy Parameters:	-5.62417756916 8.55473639829
Control Steps:		1000
Start Time:		1442394901.8746676

-- TESTING STOPPED --

Stop Time:		1442395088.4681225
Duration:		186.59345483779907
Cost Matrix:
1.02284370053
0.145303069444
1.23004375164
0.921651375328
0.716860822332
0.523019341497
0.561727060847
0.25400069039
0.0133131040031
0.0879028510784
0.247665044006
0.12510020079
0.336559652989
0.386538520017
0.080623972505
0.274124186934
0.298490636921
0.376031036394
0.11005124692
0.118391423302
0.127207382129
0.48492191904
0.42545916219
0.161449737485
0.426872557544
0.307051808924
0.439537804468
0.766690423534
0.471496808868
0.972124926061
1.04717428298
1.04848881578
1.15434598063
1.1098336294
0.549104300573
1.30245835281
0.903364678802
0.745854728218
1.17586632739
0.48915756984
0.846099519301
0.440256549029
0.417198707162
0.11092298535
0.327433634159
0.527573214663
0.511527759218
0.291117897629
0.0485582762679
0.201587451679
1.34929505827
0.139796280124
0.637028908933
0.342315606179
0.468136145765
1.10832572624
0.773120638987
0.0111134891811
0.0451330964077
0.219774449792
0.287410199593
0.423278774708
0.275299744799
0.303876898565
0.528183434091
0.294669248969
0.0476664779748
0.0238685077209
0.0680691667921
0.136852616322
0.163351781494
0.339210304377
0.282218348042
0.481420968081
0.373230116721
0.393613774526
0.326142408842
0.336568180668
0.413745258697
0.497541834596
0.404524934794
0.911730107263
0.387354415153
0.858142575437
0.351450874375
0.479002176141
1.07060526137
0.4508396205
0.284149451575
0.249414705125
0.257507592555
0.195330929582
0.281395251236
0.391015204041
0.237739908146
0.302612502009
0.251533638351
0.251741799289
0.59658305167
0.360978071387
0.282774831395
0.136709544194
0.760722022822
0.0
0.0676148830206
0.874470277418
0.00233591677063
0.042260627555
0.216188788701
0.262065390592
0.107349566246
0.431422380946
0.0291906452165
0.375575425778
0.031755819085
0.192368199037
0.25618178179
0.361117304099
0.031567130845
0.0998309483934
0.237801035885
0.0185420116899
0.104363249087
0.181905093721
0.394467102321
0.481943482014
0.183266338147
0.497705219522
0.0708017504827
0.313221978354
0.180667305951
0.255222724247
0.0585323414005
0.00231943848568
0.134807383439
0.0326657838976
0.197965200831
0.191919007072
0.230137517774
0.98068384993
0.227575882671
0.0183452722834
0.24123377078
0.0177522559093
0.181172436372
0.852897145712
0.0
0.0332082508188
0.237874990291
0.19986667353
0.447884351388
0.025002612959
0.0604285883724
0.189856976203
0.00170452665353
0.0783089240869
0.224390316261
0.430155925416
1.2762802193
0.498189938671
2.22859826493
1.73606560544
2.353227446
2.04491094936
1.93624948909
2.81124561364
0.0704216290577
1.13415412652
0.857187841471
0.388032878912
0.268028254382
0.202959235771
0.0286226671177
0.147342075058
0.296884965626
0.501391581755
0.238971542377
0.507600561498
0.73311361925
0.411656057953
0.525216880092
0.454781887006
0.404020110426
0.745868326164
0.2452675323
0.244092646765
0.432956338899
0.455900015639
0.390384963946
0.27816191678
0.0980790991459
0.075657531732
0.574371055383
0.286521295018
0.511767370054
1.23936960444
0.135262662355
0.432178045449
1.02565101758
0.122532775195
0.390888838335
0.345697080757
0.597023649214
1.39430455859
2.17321049383
0.292023253376
1.69709429342
0.957908416914
1.16836677951
0.815033561477
0.243057673978
0.852277159349
1.17183583796
0.231177301001
1.25270175992
0.0612923095386
0.358823064779
0.934408151546
0.377673067506
0.424064606009
0.342311332821
0.029846898263
0.103433111467
0.381076355627
0.175681827832
0.470856076442
0.305282680029
0.0662219787952
0.314148876727
0.425319966699
0.553318442688
0.514573162519
0.461627073775
0.54534767281
1.33076534077
1.12714503461
0.53640820536
0.48502815813
1.03764508999
0.222080634284
0.251737639885
0.662323090217
0.235660652295
1.22771531781
0.05157921184
0.1419195203
0.109340123986
0.0703510599706
0.227616009791
0.149802078153
0.313849317118
0.387194482664
0.0289038140354
0.0506464512691
0.0135779765565
0.0526315144355
0.125001917673
0.588062807567
0.0299797969852
0.157681759251
0.0293040941711
0.0418143407183
0.0597642153555
0.530991193805
0.351017111273
0.024826978806
0.0591452171881
0.0597390207858
0.0542553094891
0.0919575102582
0.104615242613
0.371583620371
0.690584740016
0.721364170406
0.353994117351
1.09184530204
0.332854341321
0.429265235361
0.881144447175
0.516406603877
0.757696350694
0.958350695213
1.67439412873
1.46490831296
2.36235304365
1.85533028012
1.98415737358
1.76711863216
1.67595685661
1.65895765827
1.16882902369
1.76595695944
0.643811841408
0.748694779512
0.405431322131
0.174162257327
0.318443024304
0.357332950941
0.326293682151
0.532907888724
0.20514401333
0.10186781521
0.94396432017
0.28699279896
0.400822358587
0.246053328633
0.109420666987
0.369579517388
0.352603160491
0.0650049823678
0.419868997884
0.194500013182
0.048190650407
0.41505049497
0.0
0.0686952896612
0.250736301012
0.437043330185
0.154457155742
0.407981569933
0.750706152757
0.0986740242563
0.269663790609
0.337273577612
0.10183513443
0.400915562668
0.73583038292
0.323965162448
0.247991856316
0.968625791033
0.068366670472
0.509809420289
0.153132218827
0.414758404948
0.257643944692
1.27894606042
0.00667646537505
0.204358356939
1.05464530076
0.766193055711
0.854770277884
0.525691692096
1.2623934901
0.753783070206
0.741349703065
0.917959595019
0.300756353324
0.454307118847
0.536902845414
1.48065337979
0.0768634262906
0.439728364778
0.390563216024
1.10567270143
0.442733669266
0.692914416633
0.732314022555
0.398543056563
0.484901872156
0.450842547901
0.310386358219
0.874340126919
0.200175107577
0.151940741376
0.244285262249
0.123639996853
0.13146385091
0.52787974853
0.0846904236558
0.0248575179718
0.256189131343
0.0981631194196
0.155386745557
0.229958412234
0.245839785817
0.0497234241658
0.269875725598
0.388554439411
0.29659527289
0.189978185901
0.436978486634
0.200762057452
0.272135277155
0.378793440068
0.241436707716
0.313580992625
0.237814225903
0.233521025778
0.28540471562
0.281778096426
0.613479448947
0.218184031364
0.204494201398
0.244219976211
0.37256760797
0.418840359276
0.465331577885
0.367029959094
1.06310063477
1.08223159988
0.787285732165
1.29059522389
1.50625395668
1.50062095743
1.02143964786
1.72082289937
1.01336206275
1.70026491835
0.409736026451
1.08273282316
0.54323520065
1.52233119692
0.440353361841
0.385876152262
0.121293036379
0.294821939558
0.209942339626
0.209861841228
0.2136515242
0.588267120547
1.12244009916
0.025618657039
0.138511343536
0.248191570519
0.099932655304
0.233011853674
0.369366760259
0.0363328921147
0.391804154564
0.133832622325
0.238296136683
0.173824255307
1.68788734731
0.0119126043242
0.193810434567
0.132756639649
0.273191245567
0.187559109135
0.498338111577
0.142943564969
0.324433774598
0.352125031694
0.40747369144
0.475139547607
0.741959336123
1.17925770894
1.51670808692
1.31981357545
2.46521798318
1.72647670697
2.08183009089
0.342734654992
2.67084019149
0.0353072932915
0.495809549571
1.17782808099
0.0121270688842
0.0570032483881
0.304591262153
0.296965992084
0.531218047137
0.367941029166
0.430023243825
0.372244617861
0.479312371856
0.780996432499
0.973432997969
0.663782242979
0.934694927663
0.682535526173
0.907798295094
0.530686460925
1.35560972094
0.392433833125
0.651418450523
0.47421545714
0.641741914637
0.140106208144
0.281470869279
0.301244149011
0.308954055123
0.234881875587
0.214142790192
0.184669462656
0.272518388804
0.0
0.0573970853504
0.295264008157
1.03951203558
0.323752321556
0.407390995694
0.464246607741
0.419082448611
0.635688495113
0.233997879803
0.645626677544
0.176242574603
0.270875832714
0.217375645891
0.431464021325
0.103893557044
0.0610215534219
0.156297945298
0.255193805646
0.222704914518
0.632323489903
0.388821980913
0.553813543206
0.502681422493
0.593953754508
0.749129150826
0.546767835083
0.779280634445
0.224242537848
0.513844987525
0.387388825652
0.168003056407
0.123644470415
0.00494850564726
0.116011987308
0.441650657559
0.923235951953
0.143978151812
0.484732900543
0.43287115612
0.442405209218
0.3963382632
0.471093069059
0.38885581598
0.426491061798
0.38085742801
0.602361064414
0.380113183168
0.628858640466
0.352174510748
0.528621784138
0.501153378871
0.528671176936
0.703290349343
0.472528946118
0.746628048468
0.447684233231
0.880590428395
0.487708954939
0.912535390683
0.476136042937
0.984997613353
0.470077027681
1.00235791033
0.464120736714
1.00744216013
0.417785593875
1.0078515189
0.409370051797
0.851599821105
0.471563509631
0.797671966997
0.534590905096
0.72758913187
0.483790213147
0.813033717653
0.46969274742
0.909624855742
0.385513236586
0.655857620925
0.491814439508
0.605438932594
0.584567604878
0.528263358906
0.651254577483
0.36360458728
0.568459174874
0.514734994165
0.448845439057
0.723345128323
0.400734078382
0.501060261223
0.474418272223
0.522841847256
0.396862825063
0.422094536324
0.469917892741
0.481314252535
0.455301861734
0.39312822418
0.521643744688
0.674119953799
0.148159297995
1.98331535374
0.0522794834938
0.218583970407
0.673911699708
1.18975568566
0.869049822467
0.855790444825
0.767339817526
1.06125787087
0.954022307498
0.654761562264
1.34199386848
0.305933965688
0.639068112577
0.864073695218
0.0744134575071
0.242994616987
0.382553849723
0.0664713318444
0.278621065407
0.779815601011
0.609407152645
0.487927899228
0.929159399717
0.449444454617
0.750753897783
0.811702364471
0.276798125803
1.30519056604
0.241618498751
1.31747897855
0.247832363826
0.65831782546
0.48340524414
1.06538041121
0.448521584595
1.1180838385
0.4195714946
0.944881829911
0.540330129818
1.05514004458
0.524405774988
0.057586655588
0.518883322716
1.4960486949
0.418721426311
1.11432770902
1.26249449645
0.617891761594
1.4522267168
0.184628090839
1.19030374014
1.31703380979
0.0637044295446
0.486825966086
1.31654278955
0.443262672259
1.37163944358
0.0375694439743
0.39445254978
0.969212472177
0.0835400137796
0.29281136723
0.441949519629
0.0
0.00152426762933
0.0625927907498
0.277247526174
0.0317866693813
0.174848872218
0.0106344000739
0.166014753313
0.0493347552264
0.117258517404
0.441249178407
0.238336770666
0.419459229517
0.147340896639
0.202074004261
0.0468894618398
0.13626789881
0.0043623915804
0.052090861717
0.109343249118
0.29902902309
0.0537692755156
0.307164761823
0.304044861763
0.447694933715
0.173844778073
0.120855569945
0.234394506245
0.910074866616
0.187253794656
0.726937713647
0.77897194245
0.975384453516
0.476186602984
1.13723642483
0.774356537573
1.40086433741
1.46798526871
1.41783076686
1.39663963424
1.35403677729
1.34648429628
1.14773050958
1.96182562073
0.844176911344
1.14263082048
0.282922777711
0.415776195072
0.0884945823182
0.0985812453217
0.102982360726
0.186012441738
0.438536336834
0.392645567316
0.385533681766
0.975337822109
0.0616812173576
0.0221202590328
0.116472169439
0.519147223492
0.729505313377
0.458294774205
0.518537658867
0.499079757822
0.461390854967
0.920123320231
0.419211985683
0.315700054074
1.03699516425
0.0841310401101
0.188462830511
0.431944997848
0.401045682417
0.790460371012
0.279824051233
0.515421745361
0.466677397612
0.288184784924
0.951106753081
0.314127663751
0.731843415882
0.390079142612
0.411742291176
0.390067699065
0.553372352791
0.452206656534
0.784256165231
0.398392047756
0.527528256774
0.466530466454
0.472433060752
0.445812614481
0.326374175846
0.510552903135
0.589300346279
0.449449723707
0.533408116214
0.663158826018
0.530482609747
0.62642324735
0.479773237118
0.813904137462
0.491971709405
0.922251348184
0.37755827379
0.783771682443
0.66519522485
0.582463392805
0.79027214301
0.58672578429
0.929218700296
0.716104263138
0.826962229855
0.761082299004
0.610313991828
0.871894024365
0.637603906286
0.965464030207
0.705201979725
1.24310754265
1.9945894065
2.07094938082
2.05989079772
3.77117392197
0.0362946981008
2.622227458
3.27648072906
0.585582828848
3.7712163732
0.226130755496
2.65662283524
0.0515119722734
0.289441121366
0.279463716147
0.276917861932
0.216308730309
0.095314424436
0.25597710916
0.218991470081
0.0439682792338
0.0673077133264
0.132643578819
0.123054431957
0.324838331595
0.0483670086903
0.277736087725
0.199211978509
0.358331749889
0.357748356049
0.337821417482
0.335930176929
0.361311170223
0.460126027134
0.357022190862
0.818872547048
0.883406171561
1.06855280716
1.10857624429
1.09038598689
1.17115205953
0.652182744622
1.64044840253
0.462831453051
1.26429897661
0.468108722119
1.55443430412
0.0282347572904
0.110353652057
0.624380202122
0.480014450911
0.0111936808053
0.20988456517
0.215566022843
0.776597920315
0.288458351246
0.284761933025
0.34705901115
0.167040368205
0.275140091994
0.396637519924
0.394041992793
0.131425532205
0.310133509816
0.324889477355
0.252007313208
0.304009000119
0.292155382074
0.211980555444
0.329988742382
0.312869917426
0.153176105732
0.205207696871
0.204804361756
0.184840551797
0.167674552893
0.219645001678
0.258396946122
0.237944914522
0.212381441891
0.156767466951
0.206425313218
0.175939636954
0.378781671609
0.0874214740292
0.184603420857
0.197592318978
0.062289553897
0.204553537744
0.0651554785837
0.149190764737
0.0709678408815
0.162606690572
0.0881501814357
0.22975351274
0.0673108939268
0.150259653547
0.0779525107772
0.216084869613
0.264788060057
0.080475777548
0.0551671448953
0.153140660312
0.0411224500523
0.163941869365
0.12743316429
0.0765558234829
0.144284999084
0.0461010448667
0.132197397071
0.411133941928
0.168853962651
0.425873963401
0.568220060472
0.00617841681757
0.0212072977756
0.12935075134
0.174514439332
0.0580269034634
0.100756653382
0.227514388343
0.165817104979
0.04481122625
0.0609244808227
0.00722609512191
0.0579914183891
0.301922429537
0.0260176105857
0.116663764579
0.154056819887
0.17487689068
0.335724214655
0.0192078096497
0.0414335993204
0.0256528070991
0.152781123878
0.05323730367
0.16324814393
0.16519056865
0.0870099141456
0.0965197282127
0.0874129930188
0.109006890455
0.159812066143
0.0868341236738
0.275528535663
0.091712180395
0.332233730941
0.398272021943
0.942389222207
0.511897737712
1.91262941877
0.550393106943
1.87912831231
1.39563480215
1.88666138533
1.67445983613
1.98922880388
1.69178297985
1.75010183227
1.87373247749
0.92354727035
1.64067902938
0.0288738930384
0.0281392116386
0.346875970946
1.03896346548
0.504553114363
1.01327961628
0.477363008335
1.02261847429
0.472183165223
0.990625196918
0.447640937568
1.01145614904
0.434034823187
0.841265792197
0.479222531804
0.800734038727
0.467355843752
0.678131143999
0.482560229805
0.589014492086
0.467133396959
0.671789800617
0.40396750388
0.626744646804
0.386418607986
0.537879202575
0.405729464979
0.392744510657
0.477433629027
0.336598640977
0.292022071606
0.471249227522
0.377076439759
0.40913259188
0.275759401165
0.296238521325
0.242145446688
0.239560662826
0.260871950987
0.198345486854
0.209668192975
0.250798877578
0.218471798195
0.294818812324
0.139740472046
0.277932966021
0.185617524431
0.109061959166
0.133393887947
0.278898573995
0.298489318095
0.308013110012
0.339037270133
0.038200638766
0.0977083740274
0.317222279341
0.517089344746
1.14747516067
0.226280629596
0.276368916252
0.517863302056
0.478193669039
0.529385919965
0.462872261529
0.351450260856
0.384629773357
logs/alpha_6.0/PGSD_100steps_2.log 508.234354951 0.508234354951 0.387710852282 3.7712163732 0.0 -1
