Policy Parameters:	-2.57199662653 5.10864537097
Control Steps:		1000
Start Time:		1442423882.8204763

-- TESTING STOPPED --

Stop Time:		1442424056.2208183
Duration:		173.40034198760986
Cost Matrix:
0.315452713506
0.229862265682
0.2390056538
0.337954074804
0.287736644075
0.166629624247
0.112245393979
0.0435654025264
0.0625076702758
0.129358517189
0.320361854288
0.359813304667
0.339074445143
0.325836126997
0.301458034488
0.26269823271
0.273544270115
0.356043923842
0.274734605493
0.159292271042
0.249470505067
0.122411120713
0.104768373473
0.0352849468694
0.18976797333
0.0652363790583
0.280751855601
0.0782546304425
0.0927869823339
0.2548709672
0.199299535427
0.00919261172867
0.047529057926
0.071546662156
0.0847263736277
0.0516213376996
0.189047952196
0.478210126425
0.302805249294
0.12303860026
0.381533550877
0.142344781118
0.113549443469
0.14529898265
0.261448929453
0.313785433285
0.427238830795
0.469011411039
0.407976052024
0.971336899045
0.509973577812
1.43697106895
0.550438993279
1.62190073601
0.555812107173
1.51440055239
0.532023261366
1.27850064535
0.84788952694
1.05958189911
0.970163256325
0.636099942769
0.67180187578
0.527998976136
0.314240971314
0.0243941860922
0.0521028744825
0.119658893442
0.216400323494
0.265653795614
0.206427794536
0.243493947316
0.179418349562
0.154269888896
0.166293967194
0.150046145835
0.192147997478
0.323427398517
0.23454999637
0.203125253543
0.170348854613
0.205901436788
0.294628808395
0.242501038358
0.191265394921
0.144403246835
0.179836601863
0.199351648552
0.0866137324503
0.0644059779045
0.155602639312
0.141870412228
0.16634764247
0.111304863609
0.0407185185451
0.204372166665
0.0772597785385
0.224264217213
0.343082960982
0.3175955008
0.309034072279
0.228006542469
0.227522434255
0.243080013534
0.266924029764
0.192509705997
0.29450509458
0.341532503819
0.416238983752
0.328976339853
0.484916767629
0.365331714306
0.302202158794
0.873877208196
0.274357962609
0.364752088777
0.852415636157
0.434417537858
1.01522127864
0.423230742019
0.453920480578
0.53810809644
0.360972211877
0.420596536841
0.450331739199
0.193544745414
0.485993831415
0.356488014305
0.454428671328
0.32160502959
0.0696836816474
0.281084350073
0.0544741278729
0.0397929994269
0.212872198328
0.0223940195382
0.0508343641565
0.0145349234852
0.0403938220293
0.095243124213
0.0686289016586
0.122834076969
0.158737746651
0.134936965945
0.199186265081
0.0393004464744
0.0850766135331
0.0839929159406
0.166081085372
0.0389992961993
0.225484653531
0.00301889810551
0.050418473805
0.0560522485879
0.0821630625286
0.16533175106
0.357469658243
0.0429708314501
0.0951166404837
0.173288239138
0.158819797459
0.0949547511891
0.119710130056
0.212707768173
0.179471805177
0.189324684189
0.224588587886
0.238821997084
0.279718408618
0.426054685855
0.478731749853
0.383894525181
0.406837752415
0.397261069088
0.452469993219
0.484236507249
0.435390745413
0.436402389385
0.436758587104
0.529415140282
0.473778351422
0.448234776346
0.438010794841
0.224601450842
0.350371034527
0.370273558238
0.227996681068
0.267088261469
0.265795075516
0.133287334921
0.168308104189
0.101849868035
0.133552202839
0.107322220031
0.0929086766342
0.100821832846
0.118709868034
0.0466043200772
0.249477609573
0.232925885663
0.283452481621
0.417971905569
0.327034119841
0.348512189378
0.36955466622
0.378638168234
0.416024552434
0.513052584582
0.896522409584
0.575562250772
0.917877357989
0.759368606154
0.5868493693
1.09824092742
0.407223632043
1.17145881384
0.355378401683
1.25903399883
0.503104409826
0.703570285715
0.418746417083
0.40375337836
0.627629107658
0.413225378439
0.487488936405
0.174571330788
0.32426460125
0.528595191999
0.485515575559
0.264247739847
0.0991451901422
0.204452094685
0.0218345660877
0.0980069440621
0.134562326449
0.156202826628
0.160806716686
0.229235102727
0.118156003057
0.107604114019
0.1348968911
0.0866579252934
0.153387768019
0.15680792958
0.0257618839606
0.106174830169
0.0991502393895
0.260946679891
0.0931596772637
0.229400533112
0.148173353913
0.412453618451
0.25516629867
0.334626737077
0.684412000065
0.426883560212
0.436586144059
0.486630134875
0.401915839281
0.238416078631
0.260520390037
0.42098677605
0.419816344521
0.333132281715
0.119467283862
0.938169979773
0.89739938939
0.00678600443656
0.141737515287
0.0920055581374
0.0402432515947
0.0140932393203
0.128808751294
0.218445492771
0.0722856098043
0.0210268522158
0.0362197339726
0.149229250544
0.0144343885591
0.0437483961118
0.0680470623898
0.402046108314
0.082715292434
0.202018075861
0.09790609596
0.117494149476
0.252949305137
0.0817060624064
0.125298184284
0.119109812282
0.0956752197914
0.122576614127
0.0992359724858
0.130345795025
0.160384163042
0.217757935898
0.178073311872
0.273865844795
0.247870809829
0.300503360359
0.221571462703
0.319332131688
0.343095098115
0.371053530423
0.327578781688
0.384353456536
0.489904294049
0.534761635565
0.548059908923
0.554883043189
0.490645467694
0.478519150158
0.489283322207
0.438895270466
0.336226159619
0.361715527446
0.1964850076
0.44085707354
0.449598018481
0.360440397258
0.270425436587
0.275071892617
0.169044853242
0.385102668963
0.0766165669025
0.253386382449
0.276633490874
0.139468821028
0.332303251571
0.149436592298
0.83321922172
0.0567952288328
0.333550019503
0.143013918124
0.117511833885
0.0573219905531
0.250723291148
0.241195201121
0.0658504806353
0.39300088826
0.0141619104268
0.0329141513061
0.0213225375535
0.0382963065236
0.0198724836143
0.0954078200597
0.128061651237
0.180783782319
0.421700191022
0.373863142668
0.427515952535
0.218741166074
0.177880294068
0.426284069983
0.384051596027
0.655410358334
0.876556755679
0.498093009508
0.890924634663
0.961095960543
1.19020367961
1.17452290031
1.62107733949
1.42985627806
1.50394000613
1.4148267938
1.53841325196
1.17683845826
1.57368175678
0.896305925842
0.953858106631
0.351504603968
0.435800202816
0.142283147647
0.158625968581
0.0102749606881
0.125625193188
0.0322505941341
0.0556368622052
0.035451774021
0.0585859446695
0.0817835022386
0.0758638826128
0.138473355047
0.0757756610667
0.263056063197
0.0289474955597
0.0979731601309
0.23388106308
0.300690393571
0.158689441177
0.0979589752128
0.0982354714158
0.274412794439
0.402206462173
0.418425338838
0.267810826683
0.247663963053
0.249926258474
0.359801505541
0.306181127927
0.23444413469
0.295445603762
0.333201441428
0.31850963426
0.280977429722
0.271801677534
0.136087380694
0.212833207827
0.179970400897
0.121618793573
0.225138644817
0.111288380271
0.108494670184
0.0957357017051
0.14719701785
0.204611821931
0.0408862418871
0.149107460241
0.238909647378
0.252244107452
0.417402947269
0.0561608374262
0.164626616636
0.373623430953
0.0610848071933
0.107739162633
0.112716979416
0.114996026868
0.0751439407113
0.130147995642
0.159112864982
0.206447871596
0.14401563561
0.189637929743
0.113428437096
0.117889485036
0.155522002149
0.17712953879
0.164859380438
0.145382820191
0.145232868486
0.170082343939
0.155093174247
0.193123955091
0.236810679415
0.231296004249
0.172167431432
0.218458315537
0.242179179689
0.204063621388
0.267270278771
0.25655697508
0.283362631704
0.303932145965
0.230051036971
0.308843152278
0.281996079157
0.356339031873
0.301615170142
0.345352630741
0.343423163898
0.357501405713
0.291538357102
0.37000312209
0.31527003086
0.383370169596
0.331794605936
0.363842603544
0.385474815992
0.397784992199
0.445081951789
0.422360749145
0.425957154185
0.458943367605
0.472695387542
0.485494328198
0.519529324229
0.507498747274
0.571755346696
0.650072712491
0.48282318904
0.696736099978
0.650727379446
0.619337274413
0.668927473966
0.755429535518
0.772006815548
0.55288571151
1.05040432932
0.583406471693
1.05429268799
0.673694985894
1.07651167511
0.89015490835
0.951032043955
0.988369310697
0.984456733687
1.03322713227
1.04769088429
1.03678166324
1.1748726468
1.0400660847
1.20821464205
1.10152151824
1.17747764356
1.20106026455
1.22099173497
1.23415842128
1.14041444352
1.23949038097
1.20446903093
1.25909328248
1.17565601817
1.31573842847
1.14343274164
1.32070910966
1.49742955498
1.01493116107
1.40857285646
1.08070801099
1.2203572364
1.27492800359
1.081203388
1.14923564848
0.971769100031
1.20023704059
1.04712568432
1.0701133051
0.989344903818
0.896732002348
1.11483875597
0.94473695872
0.923241862096
0.972708370491
0.861174539346
0.856392661773
0.659628627404
0.880690628436
0.528523193696
0.757430925193
0.498154992195
0.793286234417
0.427638566278
0.498803734015
0.547580801189
0.460901417811
0.410414153363
0.401742521778
0.399295541525
0.3800005947
0.431819634378
0.387633068607
0.391759947313
0.214411187675
0.34006760029
0.357710440776
0.267262179434
0.229236861867
0.258256369027
0.252208520347
0.384726953271
0.270117661253
0.226701079659
0.260045949507
0.161815468181
0.287417610101
0.266673084777
0.101405422122
0.162075025616
0.0936339735735
0.306165257354
0.133684562785
0.169611280812
0.114929769069
0.0447331969253
0.0998850216162
0.062082316572
0.0823995727187
0.120408504103
0.0311296861779
0.113362700781
0.0377785811542
0.157154542778
0.132238495952
0.180765680875
0.116846018828
0.0451332793556
0.0553641843564
0.00897997858507
0.040426186337
0.10271594713
0.133681188828
0.123420298452
0.118841498027
0.124300434104
0.0587928012363
0.149172494604
0.268950022838
0.142817114937
0.243017805396
0.242875729365
0.215723209483
0.181981394358
0.270564784614
0.211361867039
0.210987654238
0.21843780915
0.183293091567
0.174663003485
0.168362833672
0.140719121493
0.132587068443
0.120581566362
0.125358140211
0.356046397092
0.321690792479
0.0310688392815
0.0112515767946
0.11525360846
0.241983099667
0.161618103903
0.0741488541833
0.0387850560673
0.0208595053481
0.122921922878
0.110736845481
0.124465985441
0.231299721536
0.0998519862436
0.489295443338
0.330118097395
0.31178842256
0.277369536205
0.25121468594
0.383090249264
0.426503846983
0.487622539035
1.08680032406
0.850613388414
1.25512007039
1.49268145912
1.32176263073
1.11169616989
1.4386534119
0.841835434574
1.30395334882
1.19251715397
0.412206333327
1.20669312894
0.515241212658
0.572003299424
0.238432452246
0.128552663592
0.314709251093
0.430865492025
0.21337160565
0.323257995452
0.20323654697
0.180366233794
0.051264812751
0.0438991476826
0.0760374226692
0.0768097642996
0.030369357242
0.0455372036157
0.0059686686265
0.0135309106646
0.0745396470631
0.0269760638849
0.0674019781294
0.0244400021201
0.150322151424
0.0
0.0721847650875
0.115275211067
0.0200511672244
0.151890101001
0.0519470023189
0.0303999130191
0.0927608082503
0.0399676465861
0.104262750335
0.127580594143
0.137837780002
0.224760734145
0.216475979676
0.0852271285518
0.0634748455984
0.125911802528
0.153186096953
0.196833038521
0.155162628783
0.193163577754
0.306102539772
0.221741414076
0.305446587418
0.200272644535
0.197389623053
0.178727678974
0.185048658564
0.188485768265
0.246941324346
0.250771290541
0.266551300655
0.137187100036
0.173543794439
0.243891317773
0.22188733821
0.246733954654
0.135669986423
0.111077915832
0.131706163669
0.138034789919
0.0446447784934
0.0681005953639
0.095699484085
0.245585411377
0.34150846308
0.439080507772
0.639542268551
0.784006768719
1.51356252478
1.69109052979
3.77162829003
0.438585336094
3.1826858856
1.01120376104
3.58091908499
0.108355455964
2.7103835206
0.424381310881
1.99298921726
0.216806756185
0.106030306963
0.0223765068159
0.0235970765497
0.0421451645448
0.245469068148
0.163438295839
0.079112281585
0.194947388274
0.381107367814
0.298672391776
0.327858444458
0.393212115964
0.316246503608
0.287283175607
0.29122216378
0.277320338109
0.167176084618
0.158211644372
0.30363738656
0.452323908129
1.5331425553
0.212957902414
0.979919195235
1.29920478832
1.16951251475
1.66294506338
1.85945524899
2.18690880476
2.13672872401
2.33276946856
0.912413258351
3.26401073428
0.379168509309
2.85690472529
1.11323251617
1.34781608067
0.218576065829
0.404671306789
0.425990297975
0.471634841508
0.399682200746
1.06893908459
0.221897649602
0.37642434492
0.466813414888
0.52322948112
0.858991384948
0.313120241758
0.380166144743
0.168065858924
0.194909183495
0.459659932565
0.295568311916
0.236676555759
0.190870038315
0.111787823043
0.221805956934
0.175664002506
0.0483297128034
0.114580047841
0.18221080018
0.236604805653
0.28914552611
0.231843613163
0.327455609836
0.343854630036
0.472886517846
0.620724016964
0.571952231391
0.71065494419
0.502876213751
0.515050745698
0.584480892651
0.990173992498
0.529810408156
0.556786034159
0.514810544792
0.467426373463
0.276121309189
0.333419255162
0.212989752807
0.160217625748
0.0426078101822
0.106655686152
0.0559511536948
0.0306273355565
0.0594165077984
0.309998894798
0.229397846935
0.370388401194
0.170809496695
0.371613900021
0.367472244124
0.113033826097
0.252403907587
0.226709286942
0.434323539408
0.40318296879
0.324302443384
0.348210690139
0.263102235543
0.398889764857
0.35256453501
0.395669382496
0.318404553583
0.2401763606
0.396370475808
0.389726948516
0.367380527552
0.421470606892
0.17879203759
0.326858125733
0.139016973611
0.295516517517
0.0629693970765
0.0946497214096
0.0326432965492
0.0730355517859
0.0345629903769
0.0593646175891
0.0627870897072
0.0157808403372
0.100540689412
0.188879922343
0.276549176915
0.230708524786
0.287276503071
0.164688894922
0.163699483637
0.122669927565
0.156051268346
0.167590677123
0.16593749714
0.23098510065
0.164808034543
0.0947731077065
0.227602489372
0.123781662824
0.220854945521
0.293907105993
0.257650910055
0.436295746504
0.224083562275
0.16772789554
0.358897478201
0.234040694245
0.248108468836
0.263773633041
0.12482279804
0.332312699597
0.466494884936
0.519613233319
1.24077168783
0.431959896262
1.05802231827
1.08287621361
1.15518427847
1.09932771509
1.14151190558
1.32502846058
1.12774463531
0.982725624379
1.05025971377
0.922157653145
0.746058040621
1.09666939121
0.666862271139
0.435295022047
0.475605896432
0.0474738876531
0.0539140400694
0.137594803697
0.145931761948
0.30243527888
0.237490039825
0.255876387366
0.0558936030658
0.277190120194
0.0973819926806
0.264097138357
0.163249929949
0.197753444825
0.148337167408
0.207846845573
0.398010112019
0.292815469916
0.188076527804
0.145467120911
0.178882416065
0.15026013148
0.39802981451
0.134010909268
0.461008337008
0.249870830031
0.102401439632
0.0712260009826
0.0421012713421
0.103305356884
0.255100643742
0.363316375285
0.368547092284
0.193629679698
0.818441183527
0.417887427582
0.237380522601
0.060626022749
0.173195038109
0.427906447916
0.375554544554
0.513552629109
0.345227133116
0.30862106813
0.450463358955
0.520280913393
0.579680509785
0.290645035865
0.342830572581
0.368125798063
0.210582483992
0.254253149732
0.218756668278
0.293208507256
0.19082554715
0.0401441871401
0.15059081121
0.482519727165
0.246220572603
0.208753244853
0.148063515772
0.259664352596
0.1004934832
0.328772252468
0.285038467113
0.0234039184975
0.0731649707715
0.0887766778192
0.108932880219
0.0628953626313
0.0196777786145
0.284258873394
2.15380936021
0.0
0.0248942601568
0.131125564434
0.15815997639
0.0905030704117
0.129922316362
0.107361812667
0.482361469007
0.0720251228817
0.0263021215402
0.0408897868682
0.059764991917
0.273001035629
0.225338190884
0.087611342797
0.436263845098
0.0800356143247
0.39983311491
0.0381558204909
0.140938615281
0.0733296106287
0.123907941318
0.104186970584
0.140282773102
0.32010697419
logs/alpha_6.0/PGSD_900steps_2.log 379.933813353 0.379933813353 0.251711603144 3.77162829003 0.0 -1
