Policy Parameters:	-5.62417756916 8.55473639829
Control Steps:		1000
Start Time:		1442395445.1555922

-- TESTING STOPPED --

Stop Time:		1442395636.7405126
Duration:		191.58492040634155
Cost Matrix:
0.180654048926
0.34078999213
1.02302729036
0.453365799872
0.762949275857
0.343559415917
0.906081536493
2.69289603366
1.11421667888
0.304892064245
0.134996683007
0.362273417539
0.854869461654
0.166129944266
0.482475230089
0.261420307321
0.281136069421
0.608622654625
0.0996947272105
0.130862588017
0.51277719871
0.240157626722
0.214372353499
0.237010998373
0.259308499972
0.314017285951
0.447453967525
0.0452205959489
0.228976904858
0.169845910962
0.0617667911026
0.3432334731
0.336646803705
0.362502584478
0.337765833126
0.0592945685635
0.31583256015
0.12189482589
0.324395712876
0.140886005189
0.226408361817
0.134481614031
0.0527388577266
0.0262603617267
0.17211673014
0.0271171992775
0.163942625702
0.179176661362
0.374855394618
0.316240382071
0.597018789657
0.37816583455
0.782400335053
0.805026878334
0.769138855565
1.63046994672
1.50684177274
1.58770173082
1.31503055455
1.53813826514
1.38145679503
1.46589937888
1.36840479289
1.23064381351
1.02350948989
0.519193765344
0.740927539888
0.0
0.0784167934175
0.15910496369
0.458791536011
0.316735448624
0.320979971046
0.476696753399
0.15406228287
0.143318132528
0.565992589196
0.670731020998
0.0254529136178
0.0654893428672
0.046662134871
0.153400245804
0.152150436716
0.0383800769199
0.212672115817
0.341946394946
0.170816285398
0.362247417757
0.346354578002
0.335920868423
0.200689008558
0.47273513222
0.506213495535
0.494878688262
0.597053550013
0.358236655466
0.525456356188
0.432998700044
0.396253309842
0.456689525002
0.303958882937
0.423383544334
0.211675410154
0.281540765293
0.060336080459
0.0259364180928
0.124716606023
0.190764929635
0.418542847145
0.234659693699
0.0670140447344
0.0769722787713
0.412438791369
0.333581452702
0.0727760908953
0.164237463313
0.105446642875
0.0353898789647
0.0730993691528
0.203965381053
0.153857359457
0.301058625183
0.403085766938
0.203670448628
0.290203650919
0.419973658195
0.465028799171
0.502889401097
0.60750203711
0.608787859623
1.37012235353
0.830797202377
1.41694847894
1.46757160102
1.56661680243
1.70259894101
1.10003364827
1.701271294
0.826877163587
1.56537267719
0.782211644944
0.901409580816
1.07435339302
0.253549965651
0.0802976224226
0.102827072459
0.476989014739
0.418027177674
0.930110745827
0.0221952363398
0.136529736008
0.166570446936
0.251781525656
0.230030398032
2.26452924306
0.00457894420937
0.160957637737
0.365809869597
0.29347931028
0.135532411013
0.194705174222
0.278624633126
0.677375351169
0.0629259155881
0.362738289756
0.362000574929
0.333775261599
0.366896012084
0.373054360745
0.0884622324947
0.198660135713
0.0190532692323
0.0576351838071
0.183193769182
0.149514325362
0.150897559364
0.185507046936
0.0407827229363
0.0905622012972
0.198285597393
1.35519829451
0.738559131589
0.0225293144051
0.21434803111
0.261163660669
1.50553446125
0.0150034378119
0.198763437789
0.0403037829212
0.376411470724
0.0417842695772
0.437920661497
0.0215375493079
0.368488639598
0.0348599804753
0.142107890228
0.100661729457
0.120210632873
0.0844589035276
0.210731988106
0.171187367435
0.208760543368
0.285715905293
0.00787253901744
0.108735151394
1.57433729307
0.0
0.15976866507
0.0638304326231
0.665591811461
0.0574209783779
0.735358805839
0.0989098495978
0.623106982246
0.399996196507
0.924475659727
1.39231335488
1.27079919649
2.83121814235
3.33714032785
1.07936898394
3.57768169895
0.0712862910363
1.49276999851
1.69596277379
1.77043046076
0.158341918061
0.485086242823
0.749610323825
0.898639481801
0.403010800941
0.432640844264
0.506612853575
0.381232741455
0.272113124005
0.906118698116
0.473484231585
0.470273531773
0.215156184063
0.214212710735
1.74685642165
1.6111268289
1.85195874738
1.81056011279
1.73924559603
1.70836444505
2.34923593633
3.78790409639
2.80717367478
0.00891744746565
0.204246074908
0.340890062028
0.36225285983
0.264590332954
1.08386798869
0.458023813968
1.08120076653
0.453225772424
1.19131089265
0.890344054792
1.34319250424
1.05445806453
1.47078162886
1.22954657448
1.33517236041
1.38820507348
1.13712634925
1.04247428513
0.367317544433
1.73167067644
0.0855014579504
1.09275084245
0.0332685935723
0.16637587172
0.28516946707
0.369735544966
0.351083761672
0.535614449709
0.363115241032
0.279364934943
0.520703712153
0.532213732956
0.702686532882
0.244681753475
0.49200792392
1.10340640362
0.320973218188
0.500262632709
0.380570490007
0.448209671267
0.453182590105
0.471724211821
1.17745440175
0.157598390302
1.02096838977
0.392428653834
0.419280693899
0.254838745729
0.314483926158
0.413758278701
0.180857480699
0.265753613084
0.469421232019
0.271783974512
0.734190347129
0.0224857257224
0.248132675154
0.464440992388
1.17213569163
0.327367217591
0.94647836646
1.13460674646
0.445560120429
1.88328100994
0.286088391158
1.48593864708
0.532739612361
1.45837705967
0.478255639186
1.02244259666
0.532961840085
0.88922227743
0.907414186019
0.2126037598
0.377477796718
0.387046687192
0.21340470318
0.209086828221
0.197409753242
0.804666153947
0.103534608114
0.633148944659
0.0309804773128
0.18964309049
0.455837481568
0.21907808064
0.344779989928
0.175028070048
0.251532967915
0.155128733763
0.337045157207
0.316558714904
0.401713646382
0.210867258863
0.465648355986
0.216495258945
0.00470054758668
0.172241802349
0.512605053466
0.114052687008
0.273182149776
0.161843564557
0.151149211726
0.275327907992
0.166885914789
0.21423795612
0.025405222873
0.047493958075
0.108388636182
0.638837382611
0.224738088676
0.107327005768
0.220599899412
0.0350616773508
0.0670613102996
0.0536481681558
0.217760419667
0.215274831551
0.314802428336
0.146711643844
0.134654466553
0.0845892619567
0.0221020473629
0.206095190229
0.331619157965
0.344851490148
0.246554135276
0.978614343424
0.529859473297
1.24488885603
0.941131201362
1.55248068678
1.46213409346
2.20963731703
1.79828385035
2.30300164846
0.457029949593
2.64051068476
0.0290091486498
0.561530296753
1.5153269115
0.350159739686
3.07946562709
0.00071188717935
0.128622818664
0.117180692593
0.123587242317
0.128477163964
0.440091575744
0.0828821100734
0.428675585332
0.936571174499
0.693694090579
1.13080719765
1.25157328708
1.21515203561
1.41591291879
0.955838702387
1.64508326357
0.40176902963
1.76419297569
0.0574108711981
0.13144234517
0.799274408361
0.425223645263
0.54517227272
0.13845645441
0.0690421650515
0.0143233748112
0.13695384671
0.142586497689
0.156366601915
0.094295010479
0.214306971506
0.2491334127
0.249125429766
0.222198787181
0.156908896235
0.142392543005
0.116695499323
0.213397302306
0.179167323704
0.242526243247
0.126759560793
0.10785934974
0.255198280742
0.242514943116
0.363070918552
0.0945320225367
0.233920320951
0.0850382670489
0.178791552604
0.247155176276
0.141705386393
0.0681079631816
0.224456805059
0.226758055696
0.198469500822
0.558160598095
0.473359910003
0.479475976736
0.552891593977
0.772024941071
0.642590259034
0.917687050678
1.25892492142
0.55850130978
2.07088937745
1.55879714603
1.86084393695
1.32993277602
1.67874938031
0.219464263854
2.32820948646
0.289094875164
1.56109384017
0.359039958975
0.283559770519
0.249322177291
0.273856855678
0.280813410511
0.238260740835
0.239205375641
0.345965340927
0.249491402545
0.287488903771
0.261712078876
0.208489545039
0.320368010275
0.275470836139
0.253640355602
0.350868279958
0.243231178606
0.306291744692
0.256953378689
0.282895586132
0.278776631799
0.191551271138
0.223212354781
0.260162376749
0.228441602541
0.253092467335
0.201316044539
0.228241824437
0.348978282912
0.310992903494
0.206163975027
0.255685186727
0.398121160821
0.602853364039
0.199483552788
0.267548064645
0.0565545068616
0.119947712446
0.101861425162
0.26450641444
0.570162981009
0.390518171186
0.130737004786
0.175095237986
0.515961284125
0.967004345902
1.03901532585
0.970559064991
0.841773876985
0.934443230895
0.676140830591
1.019916986
0.565353478805
0.739762985402
0.510955003543
0.384968565692
0.0652294371838
0.0296191725486
0.209873847282
0.431915073418
0.447933217671
0.433454640702
0.463463259346
0.529760979281
0.481838427708
0.460897556312
0.791288810772
0.519673555444
0.947395734791
0.415510368683
0.948349037751
0.10322168175
0.654901981935
0.569195567586
0.789668767521
0.634910107613
0.909901264763
0.618676224218
1.06819779671
0.485971082047
1.39534070469
1.04509968987
1.31385294139
1.22507625715
1.40351805679
1.16291710859
1.44102904285
1.12923362499
1.32335878078
0.531801891101
1.0449255794
1.12980029062
0.215877852738
0.32544852394
0.174807133539
0.291109258328
0.033186875891
0.196277508214
0.0973701453486
0.0320923998067
0.201526876171
0.471084538026
0.349443410819
0.214605984213
0.297502342286
0.390885385752
0.473335849593
0.218383800096
0.432062981134
0.398288770715
0.878082069805
0.532836414638
0.957053704486
0.877241303657
0.588210486273
1.35976895142
0.548503857728
1.49840775053
0.299814160223
0.676729858503
0.538909331095
0.500091119973
0.75323315765
0.249529049269
0.191419350669
0.305675343301
0.440762636846
0.148720899942
0.177553876898
0.232455596947
0.00625160633315
0.0654380663941
0.414069105404
0.415693614811
0.261115662454
0.231752467568
0.277723605719
0.274215171536
0.171748111084
0.298942467911
0.266877472387
0.289978327412
0.136817710343
0.215521434172
0.24004819941
0.314705483972
0.387680440388
0.164646300637
0.592919440185
0.0100737070849
0.131053660732
0.14249020869
0.131745291823
0.194412681641
0.229685821782
0.200901756007
0.181166244235
0.382747600968
0.439426284472
0.231621199612
0.382528151116
0.229463253413
0.537033693367
0.478270915471
0.612269315332
0.387447872081
0.43060884863
0.53929639609
0.826013806777
0.215943086738
0.468531136081
0.809768400403
0.830237155471
1.28660968253
1.12240927905
0.678543512141
0.984272935911
1.07242520031
0.705114643708
0.851784407393
0.517676794748
1.38699589827
0.0653457666956
0.35475345853
0.470091278142
0.422966968947
0.37411213478
0.746180863953
0.454179233991
0.499966188215
0.266937729752
0.347458038727
0.0387318487228
0.0432456377126
0.050941291576
0.257545156447
0.768632878597
0.393483664943
0.654548256105
0.42107247917
0.121763082768
0.176368095997
1.07618471974
2.16232210571
0.209976140172
1.32242441413
1.14683479731
2.2123154726
0.177605347336
1.7437104588
0.170456584019
1.49501447178
1.00586996801
1.07719722813
0.769864437643
0.229487432219
0.283105108469
0.0761685312459
0.0845068470712
0.212476242326
0.229917523459
0.457362782333
0.7306270924
0.451682724464
1.20289135777
0.724202423809
1.31227845062
1.63248012599
1.46360985668
1.38658731453
1.78695981819
1.12479770634
1.36677828841
1.02190613987
1.09253459534
0.650543445864
1.01012567659
0.174406024571
0.0561616670256
0.757495089629
1.45398864978
0.27734352634
0.145239067112
0.187755475167
0.510035386325
0.342179610503
0.426611551839
0.328508350493
0.472175461761
0.35883061509
0.372432090291
0.456946338171
0.619312904932
0.229648082432
0.325079645771
0.4459530239
0.388473549923
0.53732914393
1.06827746032
0.835105329439
0.414206446417
1.32730766184
0.36707629292
0.813519819339
0.473078729293
0.779873905208
0.303063753903
0.21472840046
0.302449643464
0.449589140386
0.920111748474
0.215289666098
0.143810973799
0.043642660166
0.508322371137
1.50801331969
1.13037083411
1.51613461504
1.6734741074
1.58793764773
1.58698666145
2.00615455628
1.15041840622
2.28382519813
0.494451597718
2.47507665598
0.16245338526
1.24121624984
1.36538795177
1.59937885454
1.34379478117
0.530342457757
1.74796384628
0.390627135829
0.907379609765
0.447595368624
0.183637212139
0.0497096847262
0.230058519445
2.20067722272
0.0236419719519
0.366240743366
0.849270602807
0.442557313892
1.11359497701
0.359821651769
1.52425323762
0.438939449408
1.80029659819
0.0512349844759
0.594863702134
0.507572915017
1.4639277705
0.139107946002
1.42613963738
0.0856388873284
0.82309887517
0.345401186432
0.52863331139
0.329252195443
0.451438425567
0.623540902831
0.146216086221
0.287934533176
0.253247744788
0.346466722132
0.364379436606
0.715022163837
0.44381146763
0.125499860377
0.147125722166
0.20492742763
0.23234025353
0.279235065283
0.372136698656
0.780454558431
0.0384256577239
0.0826216986186
0.21209587737
0.37419708195
0.830222381717
0.274452670388
0.268618528149
0.457195671495
0.315585874146
0.204351027905
0.852596935185
0.894420473433
0.712565800093
1.588760433
1.47591903518
1.9947415171
3.78452513927
2.57021445866
1.0963914042
3.77147551343
0.653868266219
3.77179463401
0.794442818803
3.24581726834
0.07232452904
0.39113523887
0.875089427164
1.089501081
0.396410133856
1.41480148152
0.295638227124
1.1000768287
0.257788984566
1.0550985861
0.284743282991
0.571100632411
0.576681501601
0.457133386938
1.14741966102
0.187292259755
0.272558187234
0.402240309358
0.0891893507281
0.120518133503
0.166500239583
0.314037624256
0.531400804972
0.365493389269
0.233141857042
0.027550188811
0.315038643596
0.861936858358
0.402027248633
0.762353798297
0.691134381271
1.32834423499
0.770854532971
1.23874105914
1.10577313992
1.44936487759
1.26048809604
1.37709709423
1.17955580411
1.7856694766
0.403566935782
1.62620201864
0.060112720545
0.445733786292
0.735599591885
0.650319756859
0.949205630959
0.407690551255
0.41488908502
0.227987397926
0.743593381221
0.212718158863
0.736308183166
0.695154768686
0.27384445033
0.371151952956
0.0342425536359
0.0924545523424
0.385510370588
0.00544372749691
0.0828335360662
0.0578778962691
0.155535335437
0.0671105398041
0.150146821424
0.0597075001496
0.175345353465
0.326715222331
0.0772935958699
0.325827786859
0.0942201550977
0.0600526829
0.398651281439
0.477504189241
0.448275738741
0.368079207712
0.507246703602
2.4707722318
0.115718893378
1.60693201202
1.89965651113
1.51836487903
2.41887939534
0.288382000345
2.78650681197
1.19050373613
1.79266174046
1.27257262634
0.508587819986
1.26157003085
0.157803250192
0.372375026623
0.442905021147
0.0412747669676
0.21114211039
0.232022486385
0.491944463861
0.385548564031
0.401811649588
0.387133575937
0.429618044811
0.677233031387
0.735524679864
0.37019452482
0.469997904473
0.525784103412
0.239822881984
0.280253273273
0.316719517298
0.536698020067
0.410674283563
0.311888691043
0.371915721768
0.155920746631
0.303084174873
0.0345133334169
0.346317909435
0.0
0.0787129443035
0.488804852358
0.860938664108
0.109015547173
0.42979830084
1.15736577275
0.262581882242
1.11756006703
0.47639243174
1.15700249667
0.187465962247
1.20776788171
0.523155624658
1.00708922111
1.01932592094
0.780566309297
0.25872063655
1.24762392287
0.105167443249
0.335674251136
0.363237305969
0.353413118368
0.297115047767
0.274318619405
0.0200101379344
0.179795232957
0.303195432322
0.0272177652247
0.164161536316
0.156368144366
0.100184484228
0.251042699296
0.209250486767
0.191718342761
0.0675603911998
0.31800017368
0.297916025978
0.198065780805
0.249667414547
0.0842751126466
0.0513097257823
0.180030281629
0.124976329926
0.47756183145
0.173577930887
0.17314965011
0.0257991485284
0.157487863721
0.274254747316
0.319693239037
0.338237452326
0.349055738402
0.0
0.0119068357178
0.162965070642
0.675122323537
logs/alpha_6.0/PGSD_100steps_2.log 575.127518165 0.575127518165 0.369112092282 3.78790409639 0.0 -1
