Policy Parameters:	-1.04430525471 0.74846700597
Control Steps:		1000
Start Time:		1442418076.7401986

-- TESTING STOPPED --

Stop Time:		1442418104.0994344
Duration:		27.359235763549805
Cost Matrix:
0.217536905004
0.329171130748
0.396277105261
0.406023742641
0.397435070741
0.379942398372
0.377321840372
0.377194485074
0.364619995851
0.381629531002
0.332137259325
0.278072887246
0.246676706641
0.147212705333
0.0378009898926
0.0686299499745
0.101456516756
0.0869029639948
0.0429532725883
0.0455628718611
0.0278304806588
0.0379220404851
0.042091874923
0.0546235901677
0.0388351849238
0.0496147840465
0.0448681619938
0.0511322891989
0.033908277891
0.00745780332397
0.0216259018519
0.0337112577901
0.0136591119378
0.0444489278654
0.0475754508716
0.0483267757295
0.0698911932194
0.0459805588904
0.0411453401901
0.0324870075736
0.028273947338
0.0424552205657
0.0234056312418
0.0115725811333
0.0341098871753
0.0471075455691
0.0558064744438
0.0166010244414
0.0595222167089
0.0785876701125
0.0680505552691
0.0725961217335
0.10362795488
0.142412913718
0.161583288831
0.174778509362
0.172317133897
0.191698665181
0.210251698093
0.225793703032
0.293522597254
0.362559023013
0.424106002433
0.514198764939
0.586588683798
0.627287586008
0.656216727551
0.60633604574
0.639130327972
0.758585058733
0.750685503597
0.73291648509
0.984405952128
0.710668109477
0.641208003378
0.684778123402
0.612938305335
0.464980609039
0.236754503481
0.0872201296709
0.0703352577733
0.0677159403319
0.105975832918
0.100017021026
0.0792182086612
0.0829621856507
0.0791531303016
0.0517613152209
0.0592383810789
0.0720583046901
0.0609495216646
0.0286864658663
0.060987079671
0.0696639820398
0.0621407136123
0.12358641886
0.145053165754
0.120010186337
0.100124626023
0.0699320690714
0.0744615967971
0.0769465851642
0.0909127759787
0.0879227384031
0.0548704979578
0.0650174302938
0.0935672393874
0.111789336466
0.133629284942
0.143523583102
0.123072033514
0.129248346578
0.149598072865
0.150972477966
0.12601139922
0.115670032312
0.123563161472
0.140586640343
0.148395765366
0.102272103413
0.0503910404229
0.0361071743994
0.0683463912965
0.0814015864392
0.0824376063972
0.101463122095
0.0629848177156
0.0638526537562
0.044041095685
0.0886627603984
0.0874110441884
0.0404893725839
0.0343060167029
0.0419675327961
0.0389558219738
0.0616693676435
0.0520653866453
0.0294096728296
0.0218605211337
0.0518007862481
0.048860799964
0.0800563751548
0.065148349489
0.0315463002829
0.0161663931454
0.0220457429342
0.0165491360276
0.0105299418769
0.00869957588292
0.0181433909833
0.0341433125526
0.0431636495435
0.0436547409103
0.0532500051644
0.0679428557347
0.0647184432795
0.0550658787868
0.0604765490909
0.0497333215953
0.0503861671279
0.0622399595096
0.0596042313562
0.1006730329
0.116513452607
0.10714524907
0.0905305400606
0.105671533813
0.162268074377
0.187885974708
0.266113825027
0.366613829527
0.474060835207
0.638003621783
0.764453754954
0.709450894235
0.697087178268
0.817276915523
0.852643274801
0.84751751394
0.73177750525
0.682525685453
0.652761768271
0.691337577189
0.627207057381
1000000.0
0.0
0.0
0.0
0.0
0.0
0.0
0.0
0.0
0.0
0.0
0.0
0.0
0.0
0.0
0.0
0.0
0.0
0.0
0.0
0.0
0.0
0.0
0.0
0.0
0.0
0.0
0.0
0.0
0.0
0.0
0.0
0.0
0.0
0.0
0.0
0.0
0.0
0.0
0.0
0.0
0.0
0.0
0.0
0.0
0.0
0.0
0.0
0.0
0.0
0.0
0.0
0.0
0.0
0.0
0.0
0.0
0.0
0.0
0.0
0.0
0.0
0.0
0.0
0.0
0.0
0.0
0.0
0.0
0.0
0.0
0.0
0.0
0.0
0.0
0.0
0.0
0.0
0.0
0.0
0.0
0.0
0.0
0.0
0.0
0.0
0.0
0.0
0.0
0.0
0.0
0.0
0.0
0.0
0.0
0.0
0.0
0.0
0.0
0.0
0.0
0.0
0.0
0.0
0.0
0.0
0.0
0.0
0.0
0.0
0.0
0.0
0.0
0.0
0.0
0.0
0.0
0.0
0.0
0.0
0.0
0.0
0.0
0.0
0.0
0.0
0.0
0.0
0.0
0.0
0.0
0.0
0.0
0.0
0.0
0.0
0.0
0.0
0.0
0.0
0.0
0.0
0.0
0.0
0.0
0.0
0.0
0.0
0.0
0.0
0.0
0.0
0.0
0.0
0.0
0.0
0.0
0.0
0.0
0.0
0.0
0.0
0.0
0.0
0.0
0.0
0.0
0.0
0.0
0.0
0.0
0.0
0.0
0.0
0.0
0.0
0.0
0.0
0.0
0.0
0.0
0.0
0.0
0.0
0.0
0.0
0.0
0.0
0.0
0.0
0.0
0.0
0.0
0.0
0.0
0.0
0.0
0.0
0.0
0.0
0.0
0.0
0.0
0.0
0.0
0.0
0.0
0.0
0.0
0.0
0.0
0.0
0.0
0.0
0.0
0.0
0.0
0.0
0.0
0.0
0.0
0.0
0.0
0.0
0.0
0.0
0.0
0.0
0.0
0.0
0.0
0.0
0.0
0.0
0.0
0.0
0.0
0.0
0.0
0.0
0.0
0.0
0.0
0.0
0.0
0.0
0.0
0.0
0.0
0.0
0.0
0.0
0.0
0.0
0.0
0.0
0.0
0.0
0.0
0.0
0.0
0.0
0.0
0.0
0.0
0.0
0.0
0.0
0.0
0.0
0.0
0.0
0.0
0.0
0.0
0.0
0.0
0.0
0.0
0.0
0.0
0.0
0.0
0.0
0.0
0.0
0.0
0.0
0.0
0.0
0.0
0.0
0.0
0.0
0.0
0.0
0.0
0.0
0.0
0.0
0.0
0.0
0.0
0.0
0.0
0.0
0.0
0.0
0.0
0.0
0.0
0.0
0.0
0.0
0.0
0.0
0.0
0.0
0.0
0.0
0.0
0.0
0.0
0.0
0.0
0.0
0.0
0.0
0.0
0.0
0.0
0.0
0.0
0.0
0.0
0.0
0.0
0.0
0.0
0.0
0.0
0.0
0.0
0.0
0.0
0.0
0.0
0.0
0.0
0.0
0.0
0.0
0.0
0.0
0.0
0.0
0.0
0.0
0.0
0.0
0.0
0.0
0.0
0.0
0.0
0.0
0.0
0.0
0.0
0.0
0.0
0.0
0.0
0.0
0.0
0.0
0.0
0.0
0.0
0.0
0.0
0.0
0.0
0.0
0.0
0.0
0.0
0.0
0.0
0.0
0.0
0.0
0.0
0.0
0.0
0.0
0.0
0.0
0.0
0.0
0.0
0.0
0.0
0.0
0.0
0.0
0.0
0.0
0.0
0.0
0.0
0.0
0.0
0.0
0.0
0.0
0.0
0.0
0.0
0.0
0.0
0.0
0.0
0.0
0.0
0.0
0.0
0.0
0.0
0.0
0.0
0.0
0.0
0.0
0.0
0.0
0.0
0.0
0.0
0.0
0.0
0.0
0.0
0.0
0.0
0.0
0.0
0.0
0.0
0.0
0.0
0.0
0.0
0.0
0.0
0.0
0.0
0.0
0.0
0.0
0.0
0.0
0.0
0.0
0.0
0.0
0.0
0.0
0.0
0.0
0.0
0.0
0.0
0.0
0.0
0.0
0.0
0.0
0.0
0.0
0.0
0.0
0.0
0.0
0.0
0.0
0.0
0.0
0.0
0.0
0.0
0.0
0.0
0.0
0.0
0.0
0.0
0.0
0.0
0.0
0.0
0.0
0.0
0.0
0.0
0.0
0.0
0.0
0.0
0.0
0.0
0.0
0.0
0.0
0.0
0.0
0.0
0.0
0.0
0.0
0.0
0.0
0.0
0.0
0.0
0.0
0.0
0.0
0.0
0.0
0.0
0.0
0.0
0.0
0.0
0.0
0.0
0.0
0.0
0.0
0.0
0.0
0.0
0.0
0.0
0.0
0.0
0.0
0.0
0.0
0.0
0.0
0.0
0.0
0.0
0.0
0.0
0.0
0.0
0.0
0.0
0.0
0.0
0.0
0.0
0.0
0.0
0.0
0.0
0.0
0.0
0.0
0.0
0.0
0.0
0.0
0.0
0.0
0.0
0.0
0.0
0.0
0.0
0.0
0.0
0.0
0.0
0.0
0.0
0.0
0.0
0.0
0.0
0.0
0.0
0.0
0.0
0.0
0.0
0.0
0.0
0.0
0.0
0.0
0.0
0.0
0.0
0.0
0.0
0.0
0.0
0.0
0.0
0.0
0.0
0.0
0.0
0.0
0.0
0.0
0.0
0.0
0.0
0.0
0.0
0.0
0.0
0.0
0.0
0.0
0.0
0.0
0.0
0.0
0.0
0.0
0.0
0.0
0.0
0.0
0.0
0.0
0.0
0.0
0.0
0.0
0.0
0.0
0.0
0.0
0.0
0.0
0.0
0.0
0.0
0.0
0.0
0.0
0.0
0.0
0.0
0.0
0.0
0.0
0.0
0.0
0.0
0.0
0.0
0.0
0.0
0.0
0.0
0.0
0.0
0.0
0.0
0.0
0.0
0.0
0.0
0.0
0.0
0.0
0.0
0.0
0.0
0.0
0.0
0.0
0.0
0.0
0.0
0.0
0.0
0.0
0.0
0.0
0.0
0.0
0.0
0.0
0.0
0.0
0.0
0.0
0.0
0.0
0.0
0.0
0.0
0.0
0.0
0.0
0.0
0.0
0.0
0.0
0.0
0.0
0.0
0.0
0.0
0.0
0.0
0.0
0.0
0.0
0.0
0.0
0.0
0.0
0.0
0.0
0.0
0.0
0.0
0.0
0.0
0.0
0.0
0.0
0.0
0.0
0.0
0.0
0.0
0.0
0.0
0.0
0.0
0.0
0.0
0.0
0.0
0.0
0.0
0.0
0.0
0.0
0.0
0.0
0.0
0.0
0.0
0.0
0.0
0.0
0.0
0.0
0.0
0.0
0.0
0.0
0.0
0.0
0.0
0.0
0.0
0.0
0.0
0.0
0.0
0.0
0.0
0.0
0.0
0.0
0.0
0.0
0.0
0.0
0.0
0.0
0.0
0.0
0.0
0.0
0.0
0.0
0.0
0.0
0.0
0.0
0.0
0.0
0.0
0.0
0.0
0.0
0.0
0.0
0.0
0.0
0.0
0.0
logs/alpha_6.0/PGSD_800steps_0.log 1000035.7402 1000.0357402 0.0 1000000.0 0.0 184
