Policy Parameters:	-9.24923108058 10.5039712468
Control Steps:		1000
Start Time:		1442413944.8253944

-- TESTING STOPPED --

Stop Time:		1442414142.4584777
Duration:		197.63308334350586
Cost Matrix:
0.581447587385
3.77117426139
0.0183339173987
0.099297954433
0.383804742099
1.90787534292
0.0129752216996
0.0748737986047
0.250311532079
1.58488656595
1.24662785516
2.99773311243
0.832656212627
2.37785450991
0.456321877851
2.00500187709
0.25883224282
0.273841762126
0.162997130684
0.395585398677
3.2080872191
0.13980937125
2.22161715749
0.424784600123
2.41912205776
0.01085987152
0.224227361975
1.26419694015
0.0603078729918
0.360373049338
0.505316845049
1.18694394547
0.160309573434
0.713942722421
0.356002951318
0.397416999931
0.134118279833
0.646647452598
0.0511732766595
0.0640636605193
0.109927552061
0.115172534117
0.350546189422
0.273057688907
0.00723955648088
0.0622888130332
0.267955561444
0.0917584230062
0.0387198078403
0.310167692458
0.935914260791
0.680999042481
0.366955653238
0.612191363144
0.537156785633
1.45162200677
0.533060015401
1.28650001772
0.534239512228
1.25022340975
0.447544623094
1.60770963669
0.103008924863
0.351957615032
0.693153068244
0.323301171579
0.619294056416
0.227501250999
0.226024091787
0.494703015449
0.318983898841
0.0726145128571
0.391687352762
0.375233240208
0.285012532361
0.160513850342
0.30579794137
0.744296834252
0.22549330738
0.514340793898
0.899578318828
0.291805346581
0.30091388559
0.641727155165
0.362565261071
0.298650313528
0.938711793551
0.192146094085
0.361010911493
0.832795451299
0.520916894364
0.683018210026
0.574683844465
1.81877175379
0.320760256849
2.67718962549
0.375217585954
1.78659328426
0.290041381039
1.63626634395
0.434213803737
1.13734309316
0.509263885146
0.100568619725
1.63798084133
0.290615581379
1.87795547635
0.0158897578749
0.093601247508
0.210160606909
0.776319681922
0.0256240011511
0.288412044371
0.276435012222
0.0226253424748
0.118079265561
0.519170432213
0.0153432335515
0.156753887602
0.041360977284
0.102874878159
0.0147762349596
0.173445906398
0.205573662332
1.22084159917
0.536148887079
0.0722395759779
1.32373866446
0.0110597065504
0.117270993471
0.14579027166
0.022158642798
0.276612239877
0.404241481636
0.0350836710537
0.0553877640197
0.289935231409
0.520953197645
0.0102759230306
0.128884692201
0.14020628286
0.0109265604185
0.11079689535
0.129662229904
0.355431880839
0.272715433592
0.224047113374
1.15806195506
0.787980693901
0.124498935009
0.0554174814588
0.317387687986
0.2087864709
0.0630846643732
0.188174369108
0.118919372304
0.380860672102
0.472713995024
0.0286202931731
0.234094779377
0.203931872293
0.488003206128
1.54771897786
0.367583419798
1.39354234204
0.324175018213
0.501162205436
0.869010591626
0.277117297981
0.479565155131
0.927538434924
0.214734954868
1.04077364926
0.364917192829
0.483598614685
0.317652978121
0.454078912226
0.387389042901
1.01210869171
0.754556049923
1.12910712854
1.33453926239
1.91917335964
2.22213047082
2.51481793781
2.06041826204
2.73584173602
1.94797625519
1.60200197287
1.30701447884
0.60226790235
0.960165167371
0.116288881952
0.44666376114
0.336363159026
0.442750141434
0.379659393756
0.0248734269363
0.189258181904
1.23557848899
2.89222536436
0.0378476176666
0.312831045166
0.16689748588
0.233077498083
0.341864732147
0.489514728336
1.22890595901
0.0614996026979
0.902032150605
0.0175113223531
0.0741178294328
0.513542409876
0.389563074497
0.921486336458
0.40007133629
1.3698592596
1.25203868572
1.78535987807
1.25349673824
1.5775887272
0.603345799181
2.15339336792
0.0423146536524
0.535360549492
1.30727502495
0.000767444741532
0.0486948188039
0.366289718489
1.15401628701
0.0924971894466
1.3030568717
0.41146026431
1.14823215173
0.34569755641
1.10264379276
0.221460857966
0.852133274479
0.325665234199
0.338215241485
0.935558462302
0.226298722947
0.350188102942
0.55370259365
0.971254724118
0.496535749657
0.482244784767
0.29683132581
0.479168105434
0.416240195961
0.491789535266
0.524874488193
0.281965133337
0.0973613497127
1.34211410765
0.153682745225
0.225028249473
0.126064430709
0.194214586374
0.430382287433
0.592752451176
0.45719108002
0.636331986042
0.618097526135
0.907799874165
1.16629637306
0.465642897357
2.01183911787
0.454119192733
2.10310444667
0.531251972838
1.84449523583
0.44091680973
1.13031010115
0.830005885677
1.28459177897
2.52681656292
0.0316510976458
0.304909149277
1.32411323934
0.376018553194
0.498292243372
0.411565622228
1.44378924145
0.0314755388342
0.297267060876
0.802769409219
0.424308962058
0.355963154354
0.399091930383
0.488348220235
0.00635941722883
0.149466226375
0.0232609715149
0.212647021024
0.334135798125
0.524703333418
0.145505805327
0.32242887141
0.245314532964
0.576085107196
0.302765026985
0.520362468695
0.873056401633
0.635285829315
0.587147951423
1.85342587135
0.384637647044
2.66967764081
0.50733708587
3.05636314532
1.16920419275
1.6230341499
0.62268364087
1.69833106193
0.147623532098
1.38318409456
0.0229875164293
0.283513261164
0.617996462723
0.385157839945
0.45315622787
0.322492511645
1.02232195649
1.18484689167
0.0116948787987
0.112617528396
0.392310449671
0.0525132977901
0.437088267046
0.890247130799
0.803805500305
1.1597335589
0.804155461428
1.5251726705
0.366072877375
1.70315870659
0.208720269502
0.956447045864
1.1944385563
0.177169017933
1.37384523285
0.382488041198
0.177388499534
0.174351743862
0.455293665508
0.221394742692
0.456903940752
0.170957753695
0.372818039707
0.101117962667
0.310800017763
0.989678192974
0.43575770972
0.528743086899
0.257304872777
0.438338501769
0.127228280725
0.318184451724
0.314498650014
0.475311918008
0.913255054982
0.319419027241
0.854221089532
0.759963678765
0.426697189145
1.19304614681
1.42341442368
0.462717927353
1.14561156783
0.511260464832
0.78588226378
0.390433980358
0.729971659254
0.806408287106
0.102097803429
0.663319383887
0.213314624662
0.418874136861
0.426743355334
0.368627846006
0.417852547441
0.326161343697
0.469012344431
0.414541298308
0.442663839286
0.508219811483
0.454277397957
0.430430647745
0.513923857381
0.527347027666
0.427799151711
0.5043579374
0.532364100396
0.636270775199
0.481195259626
0.672923996408
0.513232374741
0.692443063484
0.525269114189
0.628405097175
0.74681167813
0.477439706007
0.531800604472
0.799419536257
0.523120582783
0.865837658623
0.496300909323
0.774549157536
0.565667378771
0.722377712822
0.485432588907
0.938741426287
0.494621183462
0.923288537078
0.459709841516
0.795768827144
0.514199342946
0.876157335649
0.506938127864
0.784129495292
0.826160482931
0.830052790419
0.854588004296
0.890893349646
0.901628361622
0.786140000703
0.990135753599
1.74978055327
1.00101018942
1.86611223811
0.918719237889
2.42770156173
1.87714320552
2.01576274998
2.35945693682
0.564643254469
2.8018789313
0.0580599712744
0.525669974538
1.31982163284
1.10019776927
0.0490643478308
0.60133716036
0.232915065901
0.438408600151
0.244543068268
0.296471847032
0.71071445481
0.478843666629
0.0754123333874
1.19296906084
0.0746724900717
1.19999173163
0.356154571844
1.65326911768
1.00544438697
1.67402161667
1.14879355527
1.92725550257
1.09931853648
2.11620096453
0.460142849007
2.33173879041
1.99268286592
0.0189324152503
0.277375614579
1.51488507216
0.0126133752392
0.0949664429345
0.239826371251
0.441283114033
0.469905423708
0.546115542409
0.368918711881
0.428822552319
0.407750986552
0.46496431545
0.357258774883
0.288697808511
0.389968871686
0.48459194125
0.393035903072
0.361915159364
0.390872964553
0.320528492719
0.369622284403
0.0088916690073
0.0602250992378
0.942803720015
1.11864468512
0.00979099120577
0.0842867208871
0.368731948909
0.405354701456
0.427507197711
0.345769602816
0.394675015318
0.290772664787
0.337744216313
0.309475963939
0.203316860153
0.416938407431
0.100012935918
0.0447692683429
0.296841155553
0.318098154844
0.302236370648
0.261777029734
0.315692807188
0.241841502346
0.289813739282
0.281840144002
0.258897845803
0.261357073058
0.186765862459
0.279832013198
0.374940963292
0.337138924069
0.0247505254259
0.1559443284
0.349320667342
0.237558939276
0.275886573834
0.759907469317
0.0121865021416
0.175235287906
0.125462196495
0.0811983249574
0.518774014712
0.160334480576
0.784819137981
0.0525875948077
0.447668958092
0.703559194472
0.480248355178
0.306917103851
1.24570064933
0.538900129102
0.646172791209
1.50895741011
0.825290715159
2.09270310874
1.52690888104
1.68046624696
0.886228740757
2.24840745523
0.0734004339392
1.28604274882
0.494081544698
3.77244789355
1.39009456094
0.469308413819
1.42272268241
0.50728657464
1.38876104003
0.520908161636
1.36669747683
0.542311417014
1.30121800877
0.524599314035
1.43437469372
0.451099902793
1.29728444196
0.479746029434
1.19448621735
0.477129861694
1.26432907002
0.472617952943
0.328118239863
1.07098881422
0.510693925525
1.15036188773
0.514956864735
1.13172628259
0.444916664704
0.983568044419
0.391383141382
0.920096304872
0.332263861148
0.593306673603
0.495760438
0.461974290171
0.458926843351
0.446191932426
0.511019834375
0.38511664035
0.488657243697
0.277514931535
0.109412018934
0.355635607531
0.272548971406
0.252399635851
0.21681093838
1.24971645592
0.0511631820155
0.474546818597
0.335180512591
0.263381030685
0.258464158166
0.338996104644
0.217896680781
0.23719157498
0.283737987751
0.229301576834
0.1816810951
0.243474904651
0.224478087704
0.368532172544
0.0461535805775
0.10563208599
0.355488048235
0.447191724801
0.0213463257902
0.189432875728
0.161735097982
0.24631422655
0.593553870357
0.0
0.0455229324565
0.372985530492
0.707446216914
0.603991807939
1.0748702469
0.00050775295972
0.0665891874717
0.258216017729
2.05923906131
0.0361418555151
0.462135698031
1.8406043822
0.0313060417768
0.292550980157
0.531109435982
0.405099285506
0.408251540859
0.713016902307
0.466386047014
0.755527471031
0.0123351557699
0.0338796585458
0.370473163485
1.2468185415
0.0176216884536
0.26468022886
0.666287433495
0.184647086006
0.304671690381
0.598038395534
1.04395471171
0.325576348892
0.238192009681
0.02521594612
0.23391288918
0.791376851773
0.462702520933
0.575157328112
0.617580898175
0.680855751638
0.617287641359
0.227388317244
0.34812724675
0.874527572299
0.322647106717
0.356612999579
0.524148793596
0.174654390491
0.312464789147
0.189519060827
0.237179593168
0.184493754671
0.254415875467
0.17038880443
0.223287047933
0.106286950632
0.204702939701
0.12372485491
0.155816953649
0.505285599329
1.13114591433
0.251045535571
0.621685239484
0.710375181252
0.27503760237
0.476412436386
0.467968188375
1.3402014119
0.137999841063
1.59743171708
3.10620389277
1.9267874148
0.0107718432464
0.0595707105268
0.377344989601
1.41493316133
1.27587108605
1.6687178129
1.86827078879
1.18704710296
1.79590978036
1.33271209409
1.06443636608
1.08519857492
1.31437541153
0.0304100767276
0.206138139851
0.860664948756
0.032862076523
0.402837589222
0.725447743184
0.304332760395
0.0378830775764
0.3552995333
0.0142076978627
0.150248988963
0.872680110776
0.920575647405
0.351903915776
0.492317192842
1.59442296603
0.400020518888
2.09992378945
0.564696318818
1.52990727467
0.66072240068
1.14831571477
0.66239280004
1.66469097316
0.419108588944
0.771450629339
1.02654564519
0.198480979625
0.501156796729
0.494326512915
0.40288079656
1.01065643037
0.172917320949
0.425132209495
0.480915097955
0.297306280955
0.594894320159
0.286372524705
0.464699023146
0.382552383663
0.419179879381
0.472682109085
0.4284084682
0.514499283985
0.787351833746
0.379237529932
0.966412032429
0.422853841749
0.914364869926
0.461859780049
1.03828883753
0.502536708712
1.19114946434
0.495486616421
1.27072362902
0.409434793236
1.18519149979
0.702692092045
1.15971167088
0.511393375846
1.42480573299
0.492122284786
1.50172824437
0.463523147045
1.561862495
0.573795704642
1.57559194364
0.51042879807
1.70523370486
0.51270697535
1.58127928476
0.419663703904
1.59342594534
0.510033750109
1.83137231641
0.379385611385
1.79234100818
0.403894916283
1.55666320658
0.465024271423
1.87620724889
0.357128783129
1.57062178275
0.331403491938
1.8297210284
0.374953367222
1.27895724544
1.17347984948
1.17037328643
0.904620254913
1.63162156319
0.858420734964
1.61625646048
1.02105377963
1.67340348847
1.263315429
1.77034415767
1.31189507028
1.86008438405
1.55867310215
1.90587015027
1.53657132411
2.255229239
1.62768960646
1.98218153582
1.86714235098
1.93506185851
1.69329661088
1.96050084462
1.70930619915
1.84325439121
1.75353011473
1.77036232191
1.60693195024
1.74638029966
1.45853386305
1.48034608579
1.42515797225
1.55728370955
1.26330608921
1.4569331461
1.17602859038
1.4211332065
0.803186728935
1.20477626067
0.987605699142
1.24012536701
0.402155566798
1.12224918694
0.377956388655
0.496571118285
0.558857246443
0.83729012146
0.0694503310572
0.620140204798
1.27819223416
0.00974716377552
0.170678209886
0.607757385133
0.256965470348
0.489425438018
0.397035885553
0.767342891933
0.119327176198
0.33328029812
0.451965433315
0.0906462321294
0.109416804173
0.511206700056
0.154999086477
0.140487024286
1.00825488398
0.328708918731
1.04308062336
0.356945334428
0.709951714808
0.870477351969
0.0677831882707
0.33580562959
0.239358870432
0.0161451723239
0.124110754883
0.011510487545
0.159490608546
0.340264706548
0.426449437787
0.0668199703249
0.217708274292
0.125267355641
0.209619709057
0.239348522448
0.248879751571
0.260656339193
0.225248736642
0.743689834396
0.0625739376888
0.27096762584
0.00556423180704
0.050700857786
0.146187851087
0.0199957507093
0.238675138619
0.124580924116
0.11319493587
0.229502091583
0.469164908237
0.186453547386
0.0519115495208
0.347962792203
0.0195404029115
0.209122042937
1.30357961679
0.00161601712953
0.00373305439332
0.0589507126229
0.0841139498267
0.347898440256
0.00485366923431
0.0722140698092
0.107933173352
0.247896335297
0.00377552611845
0.0794500713991
0.305551201303
0.0360453709156
0.348887028467
0.354156542648
0.381922619916
0.178426537318
0.00137750984509
0.0657451635218
0.218116545395
0.177585831587
0.0421348800411
0.0566619802775
0.395452852123
0.0743835434763
0.979625686279
0.00668964664403
0.0589148469854
0.067886765668
0.829960263733
0.0119558957752
0.0917675902141
0.0278119185709
0.262198274274
0.274308224096
0.0198676360969
0.229389810741
0.0024337739457
0.0680409907907
0.16754375927
0.032696721672
0.00466871364012
0.0689446065642
0.351431656919
0.0627818638175
0.0403049845679
0.451574990819
0.109106782551
0.0334198222989
0.317012452568
0.247553408047
1.0328860194
0.341356137502
0.0347094312984
0.298813243461
0.334955765238
1.25008665809
1.33774770461
0.169610901463
0.973145160496
0.133674274056
0.109021143737
0.441626028802
0.626185896303
0.332233479134
0.911893189831
1.14123969211
0.51598387304
1.8603494322
0.524895898929
2.41563335054
1.91807473232
0.359489987457
1.60583588138
0.328105454905
1.60565438809
0.0157828781399
0.270267248396
1.30091435235
0.454658618757
1.36918944456
0.356261633142
1.09224987862
0.480196065644
1.06016733247
0.380044867291
1.08794161802
0.272637019835
0.388356820277
0.779488263355
0.373305826074
0.774217708677
0.288247977689
0.459391156715
0.399473767768
0.418820031509
0.449124585143
0.416839490569
0.0505686845508
0.443807429755
1.23089958792
0.00537779939174
0.122703525535
0.414273241113
logs/alpha_6.0/PGSD_600steps_4.log 640.9813639 0.6409813639 0.442144934044 3.77244789355 0.0 -1
