Policy Parameters:	-2.06296890666 3.01466017225
Control Steps:		1000
Start Time:		1442113404.0868814

-- TESTING STOPPED --

Stop Time:		1442113570.4997268
Duration:		166.4128453731537
Cost Matrix:
0.126940867599
0.327411428302
0.416741090719
0.305912134482
0.374095849743
0.470469761144
0.573258407161
0.639838877704
1.30543035994
0.772657853132
1.16278311692
0.984404739463
1.27632204319
0.744608758198
1.14219551788
1.03650941465
0.910667663086
0.75209589116
0.625755589164
0.640075250157
0.210493256214
0.0382331051161
0.120083275531
0.0966900891001
0.204792555264
0.0662297166348
0.0520977213394
0.0662193227264
0.061367048428
0.112145391475
0.254022070051
0.132003116527
0.249606919202
0.0210880551751
0.0730718032348
0.144754487555
0.16525874252
0.107521218381
0.0686626479983
0.0733643363567
0.139661766892
0.125109488197
0.0624315648211
0.11974665644
0.0240613358952
0.0434543643319
0.011924714846
0.0649278315202
0.0642580005607
0.103889481039
0.172854924001
0.198425170727
0.138833606713
0.129079727465
0.0899322411631
0.0342192086424
0.133984414418
0.0659262603194
0.170528727994
0.210056855249
0.12108563491
0.206528002887
0.230289647368
0.206851935189
0.244560691778
0.264058327875
0.344556305015
0.351828838982
0.437108385194
0.601225334783
0.761293274922
0.601959874884
0.869164651286
0.733022727799
0.845189550768
0.923331796802
0.941008637134
1.14084916675
0.854334424476
1.13690478165
0.97210783756
0.584382166524
0.522976191413
0.268282634092
0.390964675259
0.321025059733
0.30637167053
0.0261383288722
0.0189295275122
0.0318638779436
0.0456439122486
0.0485384977025
0.0746579125003
0.147029988881
0.00950804103453
0.0361631847024
0.0485079804956
0.0979192408994
0.0261525539376
0.0864697762535
0.0860620414194
0.147713575148
0.0627869525344
0.198802668813
0.0793561222689
0.0684035704624
0.0487718488188
0.0785357079286
0.112580734739
0.0195839480828
0.0951902960209
0.249178871854
0.0803010954899
0.210539146391
0.195648496726
0.319172564023
0.192829078671
0.232065177195
0.241187092903
0.295585015887
0.264636693789
0.339262430945
0.380452371347
0.453816291231
0.596572408554
0.499782021513
0.446731743693
0.417803635606
0.491384327416
0.480502275376
0.659199015432
0.451352551881
0.545646815168
0.457401102469
0.481259822215
0.398843510535
0.413845681818
0.252636261823
0.292553013624
0.379266196868
0.272404213454
0.0124064749091
0.0636152324835
0.162071943984
0.160309603205
0.0145972312217
0.0488291478648
0.00985884021465
0.0379547591029
0.0665337953064
0.141430546112
0.0221070075916
0.0880855393355
0.129931839911
0.06680610187
0.0574455347063
0.0700386790588
0.114156279425
0.273597181132
0.167049751852
0.186849667674
0.10596228872
0.106533621752
0.16638761167
0.0232012486357
0.00380912459624
0.0502464412852
0.118079985725
0.198919567972
0.109267770083
0.135746293727
0.0948276296635
0.00457736931647
0.0414803412855
0.0678733784011
0.04658907076
0.151208173575
0.00347085278755
0.0352506104532
0.0580703729635
0.0320415107661
0.0107727370323
0.020940300941
0.0988239246412
0.279899706041
0.0823876043489
0.14129454149
0.0140641525164
0.0198261497162
0.00379214241893
0.0720077714627
0.0967619924938
0.055227213382
0.05604400341
0.107555353343
0.0993268328931
0.18447270494
0.208667717441
0.222315180449
0.249099650061
0.190867722726
0.235544058309
0.313205723778
0.440964029199
0.54058600576
0.850214952417
0.619267377195
0.962746634091
0.70529824725
0.980384782512
0.865389824845
0.953340263325
0.825646546246
1.0151265575
0.82049006217
1.0912999533
0.540935162711
0.494009176046
0.245867196291
0.398296156507
0.231553158215
0.0489680458425
0.0544557587762
0.0245210739289
0.0698749532811
0.0279322755399
0.0428673123671
0.0532756362716
0.0883888832922
0.00873642458842
0.0675691836185
0.127012216046
0.0159068105028
0.0358846209137
0.0271431075887
0.0444717254555
0.0457335312552
0.0135880677491
0.0639239043653
0.0570147064785
0.0504393056868
0.0935724726177
0.113253910575
0.0225432294408
0.0513832219444
0.0700910959874
0.109682732817
0.0808070211984
0.157594206565
0.177582376138
0.210861521307
0.262854262321
0.247873180088
0.305101594004
0.425405990229
0.508293472156
0.652547404078
1.23698911041
0.861783564283
1.11001019382
0.967092529669
1.08817657029
1.01958586083
1.17931883336
1.14935495145
1.09296196936
1.1526802888
0.738856020019
1.22901046346
0.503376527971
0.193198787859
0.204940082273
0.20595678591
0.188180345668
0.172074498047
0.213773505529
0.115285165331
0.153335615145
0.203093117935
0.17555375651
0.204610335984
0.216853603166
0.212253735985
0.251996618325
0.274388140069
0.275551882958
0.318087645589
0.340652273297
0.308387175628
0.287141109538
0.295554263471
0.28127969544
0.267428749933
0.296989386265
0.290073468516
0.32472100051
0.32551188177
0.326135965314
0.357384727267
0.297067155836
0.166059280809
0.175999469154
0.223771707879
0.125721780643
0.0686582160959
0.0940180367516
0.204908602878
0.403719330051
0.26877032986
0.247597833214
0.208514046664
0.189631590306
0.175060771581
0.223419955917
0.316428315162
0.257852722445
0.294367453261
0.221257541465
0.346237941355
0.440143343849
0.271392490192
0.168693967649
0.198677129733
0.239997517808
0.116254651649
0.19886314461
0.0219399629487
0.0395002230791
0.0254512036802
0.108755448649
0.0800770471561
0.0740028604771
0.123209820856
0.0840908994339
0.107297654312
0.0612161833925
0.041227242122
0.0433195796018
0.0652602199332
0.0832765548859
0.104131780941
0.0687632832838
0.0737299753688
0.103584777046
0.113638474589
0.112813779828
0.107445906498
0.117570726375
0.186625265163
0.138231342019
0.118725504517
0.103033421698
0.111382387429
0.12413600038
0.103619694307
0.0389520542295
0.0264664221823
0.113457342809
0.159535595899
0.169516281331
0.143641159387
0.12679098763
0.275795309203
0.27673212592
0.393605337241
0.430765561376
0.42036301908
0.231956326453
0.27465056336
0.33402347055
0.220772384423
0.256342691346
0.290634709557
0.272885573355
0.260163923801
0.21933655801
0.197941052504
0.174534539324
0.177151697091
0.186333010376
0.0303825108687
0.0515233438982
0.105580307214
0.152775485562
0.157933334774
0.181613847594
0.0707429625795
0.0861093793495
0.0881010945309
0.122408580847
0.143407611491
0.0772073398539
0.0427344526413
0.0685943611662
0.178434179265
0.214840156609
0.0493942636174
0.069130172783
0.0326833564315
0.0738683062725
0.176167859382
0.0317169785969
0.0671024674148
0.0089002190848
0.0351140357744
0.068295870099
0.0843623869157
0.141305932574
0.152111007738
0.137069371449
0.276688729071
0.249529113087
0.152655610935
0.12555427677
0.0971793001311
0.14038306262
0.208875239763
0.237309153388
0.140296155357
0.0825230519313
0.0885977856938
0.0787060780322
0.125770758935
0.145755224577
0.16651224113
0.17977473833
0.129677739352
0.125698718951
0.130412908218
0.146439634457
0.160816653187
0.183513093998
0.213277127369
0.116731715345
0.0897739894843
0.107141933184
0.160708033748
0.314731453545
0.313254336529
0.348394138378
0.42688315933
0.520879636216
0.737284560352
0.787242071689
0.865104808779
1.00412971849
0.977953027011
1.03285227955
0.955344980789
0.997340754677
1.01657413428
0.86933105238
0.913569233056
0.70086041333
0.767769043363
0.440084075076
0.558662681053
0.361234177855
0.0617986352377
0.0662100813639
0.200604568734
0.109919843525
0.187534257416
0.53080333231
0.298733347578
0.376240193603
0.383251127566
0.344328073758
0.19829092136
0.253970149782
0.377172565628
0.378239811588
0.282067376226
0.3511344465
0.252356024545
0.275491008364
0.248708338972
0.261282370063
0.230346620837
0.16050024689
0.155738102249
0.140307286685
0.185987019844
0.107057370925
0.0527785344363
0.0367137512973
0.0482253067257
0.041671729112
0.065845641744
0.130811529381
0.14686383567
0.144354672021
0.163105821437
0.135886712264
0.138067626906
0.174625992205
0.194811586177
0.170521059301
0.251653856042
0.253798813884
0.235703347763
0.212090106698
0.243694334848
0.322187032592
0.234032505733
0.286945267198
0.307217557164
0.390541488506
0.34669592384
0.371281397272
0.392847489043
0.413404209927
0.423865793147
0.399174415711
0.391235150445
0.384411739889
0.330330992286
0.292550436882
0.308300562525
0.328024705293
0.251212462574
0.175232563183
0.175884962034
0.212310378637
0.123619060164
0.107379991559
0.0311028487486
0.0165482816086
0.0378846312871
0.082674301241
0.104681360018
0.104825562843
0.118222969053
0.115142653042
0.153636954702
0.112257988171
0.101629797297
0.117413591055
0.123537527512
0.109079567525
0.120941383856
0.130253130357
0.117997509261
0.139343848836
0.137286049727
0.140331063549
0.143066320616
0.148428806709
0.134142576595
0.110975489388
0.172689584424
0.164186797749
0.190556244003
0.192108469188
0.194119459082
0.156831922771
0.183110989426
0.191570849821
0.216220027082
0.209345109641
0.203919552223
0.203935703824
0.182484468583
0.210357382541
0.217773934837
0.214865154017
0.219901536191
0.210175636067
0.231346488579
0.212674479619
0.236468361468
0.246889792485
0.260511693787
0.248570392721
0.261935310868
0.260827550977
0.262658284562
0.281237120588
0.301484671378
0.281817743493
0.328767131657
0.310164341187
0.342430018331
0.329935002438
0.326004735742
0.350601914624
0.355920499402
0.344363031953
0.409705586916
0.397860136575
0.397456482067
0.405229338604
0.448777404712
0.457390989329
0.475860712975
0.459172015255
0.482429027484
0.506395038426
0.522582543558
0.53274112007
0.551700802307
0.74849160781
0.499313237527
0.657067639068
0.558101947447
0.751538416139
0.57049525584
0.921753133395
0.56382463402
0.943018914877
0.834610204615
0.613423626268
0.910113577125
0.729000506914
0.950125128469
0.786582476858
0.846804151568
0.917871100022
0.962745238306
0.826540046655
0.953704921651
0.844521948745
0.92277675368
0.960520561098
0.973728953275
0.870268295581
0.925620865086
0.952946523124
0.95950589117
0.981971935835
1.05113466703
0.934865519771
0.83079736284
0.966896915333
0.859667565287
0.899747340442
0.911832688123
0.820999429543
0.919961886775
0.815207161745
0.818083465805
0.840714239545
0.589293390331
0.802589435378
0.556319629418
0.765159994193
0.523829692653
0.591398348607
0.557264590788
0.581359356311
0.423920984744
0.42335375167
0.44422279233
0.402779624488
0.393112519575
0.364028276912
0.367612600155
0.406113331195
0.371811095631
0.351548622997
0.316674083176
0.319773258146
0.328339160132
0.293307087977
0.0256267486068
0.0672727223042
0.0810867724597
0.183342906199
0.362353373354
0.417082318
0.24848450423
0.28892877507
0.373894368832
0.244374686045
0.175685835016
0.24635304284
0.221037316993
0.132822497106
0.0744803671035
0.111412498761
0.260692110869
0.286037963503
0.290937033874
0.279849197898
0.2947329069
0.25416591633
0.291261315245
0.313262749483
0.292329190548
0.278428995217
0.279094012882
0.27720113563
0.261086495211
0.282001671044
0.264973701904
0.268528444987
0.327541155201
0.29248931754
0.27811612422
0.304119177914
0.317522514527
0.308881134712
0.294315729659
0.334387796691
0.343509180666
0.334580391481
0.377643407796
0.404284161695
0.404706907526
0.38651831699
0.410593910133
0.40463746697
0.405167417689
0.439084725757
0.449868908458
0.472849639301
0.460452805268
0.485166323718
0.50368882881
0.544552359361
0.614686458817
0.515401688217
0.556594397735
0.563207592884
0.690834540896
0.622529915721
0.551061828303
0.772276358838
0.548029314129
0.875097288549
0.566248629977
0.887381413379
0.587480996739
0.888223923894
0.573433342993
1.03850225878
0.639542635082
0.952060649761
0.7013802953
0.929001336609
0.672227829327
0.783817867064
0.89233156395
0.70149618279
0.982970055132
0.663879924658
0.741908741962
0.780230708056
0.886154499539
0.770608116871
0.888060054116
0.872987672914
0.809940230573
0.827893020763
0.905605637185
1.23315605799
0.57407771243
1.45757079944
0.463536133906
0.941741765225
0.551318779959
0.90533179163
0.516800111156
0.81673296257
0.660404134192
0.511236151026
0.556716552231
0.515929433015
0.521699480946
0.430444239881
0.428105774562
0.493921537175
0.46773976016
0.473210772791
0.444864754842
0.438086907714
0.419462705818
0.421789865052
0.408100364767
0.306696313952
0.262426417341
0.317038384993
0.312365303699
0.258186069835
0.207639443496
0.197614270494
0.164671953689
0.190229110483
0.181652185727
0.184734305504
0.250016815357
0.22169309956
0.118276732795
0.201501628888
0.12115568056
0.166947683459
0.428513961667
0.0262698078554
0.0684631614917
0.101565176053
0.159079125412
0.218516148103
0.0905992591109
0.0496963496416
0.0622213203551
0.049330313067
0.0500041113527
0.00764514932799
0.0227769065187
0.066055272167
0.197777083671
0.142001462689
0.264517901839
0.203228579973
0.199536801587
0.0270534734281
0.0178666439757
0.0778586993754
0.133808596803
0.00862044068955
0.0524881217411
0.0817998622541
0.0740928005458
0.0734854213181
0.0143716347241
0.0128456895029
0.0458691384924
0.0779920352905
0.0170011951595
0.0469633874562
0.0391699702928
0.0586069977795
0.0365904230986
0.0658657552391
0.0771480917327
0.114942412392
0.0865356746857
0.140988448535
0.0715052214892
0.0609115197272
0.0758235785823
0.114639705011
0.0752411014757
0.0473624820734
0.0395466915304
0.0721366131307
0.0463298278835
0.108053798133
0.102297674317
0.0732587401081
0.145262937517
0.14397992012
0.171437923638
0.245939982016
0.23095052974
0.216371259904
0.315862201627
0.367392868101
0.439881532053
0.540861014031
0.820428735134
0.908410180312
1.15885280692
1.30967027789
1.27289540254
0.825711547962
0.627022235267
0.616288191057
0.497287089753
0.838754009039
0.418846110295
0.452278758524
0.459658841674
0.308247804384
0.377355208737
0.524726190157
0.362493674902
0.761930077466
0.00177205937149
0.0693799721322
0.151307276585
0.190740255928
0.164863330588
0.156969081113
0.148219279174
0.156153012729
0.177364058967
0.190146051458
0.151053763627
0.133820911571
0.172847297902
0.145608400272
0.105819496331
0.146627319119
0.157352151583
0.141841525423
0.128590226013
0.127472697114
0.137645497276
0.157883939432
0.189093657092
0.143901305273
0.120496567392
0.201669799789
0.116002816465
0.141001771459
0.0880067228223
0.135306702571
0.114484067117
0.177945352363
0.268679671896
0.260138957554
0.226297350998
0.219666441015
0.234842241704
0.106266292433
0.123868835593
0.10433275512
0.116297986705
0.131180044138
0.219579974747
0.196471669837
0.162539023931
0.248589817387
0.22771691817
0.241977871723
0.244088272655
0.275083062302
0.27280023085
0.256271238648
0.3024954398
0.320687599698
0.31823306542
0.351301941828
0.378176782087
0.410916530756
0.553244956624
0.617483443049
0.741872773779
0.745673710074
0.701148043694
0.931353010137
0.653871668701
0.881060420132
0.518578713622
1.11709300784
0.447153652321
0.783967710593
0.517196377473
0.397515420845
0.43864852709
0.18452200943
0.40880713073
1.53374038608
0.0820242417189
0.148903043147
0.0614177420847
0.0834386141488
0.123293611014
0.0613118368583
0.060277134883
0.0644435374111
0.0797320316447
0.0672108771128
0.0661052853341
0.139432902794
0.0748667329613
0.149350123433
0.0634646458644
0.0507173230516
0.0855653887066
0.0126161964178
0.0148766536664
0.033647189253
0.125440861032
0.0482126631142
0.130530149507
0.0221146430255
0.0272436870923
0.0315326934599
0.0545269909274
0.0368907154873
0.110048333419
0.105010550509
0.264057073693
0.178338437446
0.209632403284
0.219771635543
0.131456363153
0.182750740898
0.308231468749
0.197252479861
0.111958352621
0.104500499887
0.207962133529
0.28555548121
0.307600546485
0.301512049553
0.264966840938
0.23404774969
logs/alpha_6.0/PGSD_1000steps_3.log 316.356669516 0.316356669516 0.21814504147 1.53374038608 0.00177205937149 -1
