Policy Parameters:	-2.53301650975 1.53577439661
Control Steps:		1000
Start Time:		1438437664.2582295

-- TESTING STOPPED --

Stop Time:		1438437768.0281012
Duration:		103.76987171173096
Cost Matrix:
0.10774406105
0.109597956815
0.0421412165177
0.0388172912212
0.0534149872998
0.143718143586
0.0905023424172
0.028149553566
0.0934575811548
0.0832731138576
0.195867392778
0.068540634947
0.0833041085686
0.0748223680804
0.0715478768748
0.13713599191
0.0647647440311
0.0343498754434
0.0206806151509
0.0926119004133
0.167409373452
0.139464384221
0.189023304032
0.216135053822
0.14737386742
0.319696082691
0.159942326349
0.0610649020919
0.056078410536
0.118869951994
0.16958896834
0.163516623667
0.249403883231
0.174238473602
0.117703038293
0.102037754264
0.351841100794
0.678764215012
1.32929513459
2.21965820634
0.720567188711
2.40035219369
0.927182213277
2.02760383292
1.24485676312
2.0294707013
1.08853246562
1.94489326946
2.00688809317
1.08618069018
1.12772774637
0.943384920162
0.197453383665
0.342154133558
0.323605654376
0.334698607248
0.330453259111
0.328314209703
0.239919807564
0.239595622134
0.308981275776
0.243404020248
0.188147547966
0.27191376853
0.301448220321
0.147258244703
0.132552750083
0.102259350598
0.144299727058
0.139822994594
0.128559512131
0.138607342367
0.101591003513
0.183007348639
0.0819782226877
0.0607353900548
0.0686979950219
0.0883913149449
0.0149537134078
0.0193253415489
0.0138507576273
0.0313360246807
0.0341725377085
0.013945450938
0.0256516631982
0.033266755069
0.0406083565484
0.0427265868448
0.05698105563
0.0578667873915
0.0889694293662
0.0857257796049
0.0712586691682
0.00272052078819
0.0762665073557
0.0319689379082
0.0844722016402
0.0708638932989
0.115744442102
0.122668226861
0.0567138767555
0.0592620465837
0.100385558011
0.114389440601
0.127240308762
0.147129530278
0.115315911364
0.084090672394
0.0768227982116
0.0736583853962
0.0804401269182
0.0688673370847
0.0744962650773
0.0721203781309
0.1117888637
0.120769318839
0.104561913514
0.0833497820429
0.0861520868391
0.0641571073089
0.0392159132143
0.0797967291895
0.0214644708548
0.034097868113
0.0186388064271
0.143819529169
0.309553844966
0.215998966678
0.298607281017
0.190381749713
0.21362195946
0.264138656079
0.302234070863
0.326538901666
0.381723940406
0.452941736917
0.513455068032
0.702144314047
0.810622224124
0.841730769039
0.895888533968
1.0213407172
0.849943697653
1.01283440634
0.995273441084
0.833574202029
1.12532541164
0.520417994616
0.864660463547
0.416698850204
0.331153940502
0.133366053222
0.162001570871
0.0818665072969
0.0488299951035
0.117289295736
0.0980592673995
0.021543108321
0.0206986547539
0.110597439223
0.0502205588807
0.0668543221363
0.0631593516023
0.0310699736241
0.0980232242235
0.157587600187
0.173268497175
0.0964238463298
0.164886035411
0.254024644886
0.22862100558
0.249740893296
0.352404264134
0.158838728308
0.293581754202
0.279415300895
0.26045675997
0.213907688276
0.253456072381
0.188771781419
0.115444429731
0.164231852081
0.252077177233
0.223647457398
0.227561018656
0.217725139932
0.162062280743
0.137637528675
0.0960027633782
0.120789951265
0.180433921836
0.110725621404
0.0601109315975
0.140469452964
0.105847749167
0.0923768334802
0.0194120974554
0.0175427783349
0.0417161976079
0.0955434456994
0.0201449120808
0.0231942329331
0.0700908323501
0.0383811733141
0.107429349466
0.184660067463
0.171328891953
0.103672402926
0.097067034857
0.170502294442
0.270835032339
0.336980139755
0.480067271632
0.754761969211
1.17422042586
1.31202165411
1.77088749986
1.44668844217
2.1196342672
0.4005732167
0.711142890138
0.369814320206
0.701197529383
0.444522879525
0.443359034481
0.309914452131
0.214882329062
0.233432255674
0.170952993739
0.156609425044
0.218948452498
0.271024940537
0.139846028538
0.0923712765696
0.106692732144
0.116108365254
0.0698019825092
0.0935809584973
0.108530218553
0.0357096329518
0.105416361875
0.130402944964
0.118312879799
0.0178868112876
0.103376976266
0.172466608875
0.0353526582281
0.126063596068
0.17332575359
0.170691078399
0.132317087336
0.21352326117
0.225552977756
0.217586609622
0.14933010848
0.285551314621
0.192035548475
0.202659424294
0.215701762644
0.294980529498
0.266246884916
0.325759485217
0.166418626412
0.16688553006
0.254703953097
0.285284305884
0.233114558047
0.255393500619
0.270579078758
0.234759708882
0.245216313416
0.207208494085
0.216563454036
0.176470573857
0.155524340624
0.164442780348
0.127804682804
0.101477395288
0.0960241861526
0.0872287179456
0.158028199382
0.242755686006
0.270065377777
0.292344777009
0.307413035768
0.304363121649
0.330635679085
0.325700632363
0.360522609739
0.336753002097
0.341743968819
0.363625357973
0.346758147469
0.320925554575
0.315339318048
0.308279350141
0.352477800386
0.326193707937
0.302094522656
0.284046383563
0.232130045242
0.163098297767
0.106836852869
0.0999775530143
0.093089821186
0.116320757365
0.128364734178
0.126032325126
0.154338639889
0.0919367484274
0.0808721018437
0.0865519650275
0.11494039825
0.122576817232
0.0716854110259
0.054786713665
0.0206094655587
0.0403054858529
0.0802117720796
0.125021327049
0.147111285492
0.179427911216
0.173726210085
0.175549485538
0.185241098546
0.188945007694
0.184262597285
0.172826802078
0.167368828468
0.185540310928
0.194172156185
0.178104493769
0.20771116201
0.197581558228
0.209455099407
0.223292818125
0.227987317077
0.247461758587
0.243652485543
0.249983430006
0.251551863411
0.252561283201
0.283712966379
0.263076664826
0.281917537085
0.298791460038
0.30999753226
0.320900686694
0.338545396287
0.347994431476
0.364437221872
0.360061937824
0.38528649746
0.408082490646
0.420815388442
0.43303991123
0.449170696497
0.456961414518
0.500324328741
0.515489023261
0.547937309648
0.578676213668
0.643270664335
0.568579651051
0.781799734414
0.566601481627
0.876892427711
0.63571872631
0.873196845717
0.754242379866
0.818887948474
0.879599362422
0.766715546967
0.957636622894
0.81795618004
0.924676568174
1.07477613287
1.10431856817
0.987956906859
1.08854404506
1.08516374403
0.961814444918
1.17092770926
1.01874445486
1.09716007189
1.1120640784
1.39150882976
0.886972107245
1.1242605204
0.891936523472
1.12837429362
0.881296279238
0.968105350578
1.01420500697
0.86078445471
0.868447097095
0.622929979308
0.920725832033
0.565830005926
0.83195226676
0.506914232912
0.648360122635
0.5408586606
0.534621192483
0.538232002444
0.445392486973
0.463117083431
0.396306423174
0.363602019231
0.380447012997
0.337196720343
0.306733820925
0.291775650935
0.265227085011
0.303517645916
0.282955328986
0.268098655087
0.270905491774
0.251591886416
0.23773490062
0.237162966788
0.218574407926
0.193843443118
0.198063102175
0.204718968304
0.192595430049
0.207048156193
0.20416281553
0.197089687345
0.190219121003
0.201563001113
0.195349668189
0.221409732807
0.193292628536
0.159428939272
0.199101908185
0.206811011601
0.206768260735
0.204195031841
0.222004649847
0.208208596893
0.206595120585
0.189050480916
0.218810033808
0.20352427492
0.235934493693
0.259559951225
0.244582026953
0.263392948076
0.252445338834
0.204574264729
0.269108392665
0.288408771633
0.259994004672
0.156506466628
0.113970338772
0.157467714293
0.33781188922
0.568942920831
0.722690771311
0.874095086702
0.637483732017
0.548626599523
0.699629655737
0.433665928864
0.742496346362
0.930304637448
0.508080233009
0.651636924408
0.578091376917
0.544688512965
0.678239454688
0.864191623015
0.18504618138
0.0407782546926
0.20778868394
0.475287639187
0.771266982148
0.587840174515
0.950430638898
0.677442143912
1.02255403044
0.751232451322
1.04480428415
0.911761147016
0.9957870432
1.07398183058
1.01781581146
1.36841632019
1.2965133772
0.983419340292
1.41867807289
1.29853079409
1.06894624357
1.28767555227
1.21112915746
1.15736116592
1.3694522149
1.45069912947
1.4658053188
1.30312098753
1.42534091413
0.761529863141
0.729815197592
1.53737634949
3.77117426139
0.249736536254
1.01935928568
0.967869101661
1.08467339248
0.978294440431
0.7382287771
1.04202650189
0.571371408652
1.11928767413
0.476207197926
0.651415832883
0.493120960945
0.483090075896
0.456763638319
0.389561369378
0.35903453613
0.390183505732
0.443859231588
0.271595446236
0.230980131418
0.283836487218
0.187970605056
0.233516990867
0.34292446564
0.189289955337
0.137721417788
0.0879384257004
0.0842162486704
0.15794137541
0.22022422219
0.246832705451
0.233563297101
0.260362557705
0.227888186274
0.294498923631
0.286681909502
0.251704019525
0.270825756474
0.157431610718
0.1915172899
0.227928315762
0.236868022787
0.195618205107
0.16673564862
0.159089248371
0.0978936292753
0.0424667226928
0.0393498199706
0.0652665959298
0.0724656626901
0.0514360615781
0.0260271907479
0.0537783449403
0.103978613649
0.144161233458
0.0902867846048
0.0352877556436
0.118861488881
0.198190534384
0.152652272447
0.0842660113437
0.0908645888768
0.091916883463
0.138053789813
0.0495111735874
0.0798833466196
0.105841729696
0.243744194636
0.221418335052
0.0873342691926
0.0726865266205
0.10201048018
0.165076088263
0.189232419009
0.0211881824645
0.0221997956968
0.0725883750167
0.0342399797603
0.105434506513
0.171001842955
0.151825249673
0.0417477776919
0.0317242381935
0.0311126146061
0.0787865058028
0.12894212091
0.127848691319
0.0408465832395
0.103032686556
0.145088859001
0.146974143824
0.130975563142
0.09973011343
0.0593832489401
0.0506997980568
0.219209010989
0.523268104685
1.74562473327
2.17776542637
0.499766531858
2.0340673381
0.986322960128
1.86762725246
1.95804761684
1000000.0
0.0
0.0
0.0
0.0
0.0
0.0
0.0
0.0
0.0
0.0
0.0
0.0
0.0
0.0
0.0
0.0
0.0
0.0
0.0
0.0
0.0
0.0
0.0
0.0
0.0
0.0
0.0
0.0
0.0
0.0
0.0
0.0
0.0
0.0
0.0
0.0
0.0
0.0
0.0
0.0
0.0
0.0
0.0
0.0
0.0
0.0
0.0
0.0
0.0
0.0
0.0
0.0
0.0
0.0
0.0
0.0
0.0
0.0
0.0
0.0
0.0
0.0
0.0
0.0
0.0
0.0
0.0
0.0
0.0
0.0
0.0
0.0
0.0
0.0
0.0
0.0
0.0
0.0
0.0
0.0
0.0
0.0
0.0
0.0
0.0
0.0
0.0
0.0
0.0
0.0
0.0
0.0
0.0
0.0
0.0
0.0
0.0
0.0
0.0
0.0
0.0
0.0
0.0
0.0
0.0
0.0
0.0
0.0
0.0
0.0
0.0
0.0
0.0
0.0
0.0
0.0
0.0
0.0
0.0
0.0
0.0
0.0
0.0
0.0
0.0
0.0
0.0
0.0
0.0
0.0
0.0
0.0
0.0
0.0
0.0
0.0
0.0
0.0
0.0
0.0
0.0
0.0
0.0
0.0
0.0
0.0
0.0
0.0
0.0
0.0
0.0
0.0
0.0
0.0
0.0
0.0
0.0
0.0
0.0
0.0
0.0
0.0
0.0
0.0
0.0
0.0
0.0
0.0
0.0
0.0
0.0
0.0
0.0
0.0
0.0
0.0
0.0
0.0
0.0
0.0
0.0
0.0
0.0
0.0
0.0
0.0
0.0
0.0
0.0
0.0
0.0
0.0
0.0
0.0
0.0
0.0
0.0
0.0
0.0
0.0
0.0
0.0
0.0
0.0
0.0
0.0
0.0
0.0
0.0
0.0
0.0
0.0
0.0
0.0
0.0
0.0
0.0
0.0
0.0
0.0
0.0
0.0
0.0
0.0
0.0
0.0
0.0
0.0
0.0
0.0
0.0
0.0
0.0
0.0
0.0
0.0
0.0
0.0
0.0
0.0
0.0
0.0
0.0
0.0
0.0
0.0
0.0
0.0
0.0
0.0
0.0
0.0
0.0
0.0
0.0
0.0
0.0
0.0
0.0
0.0
0.0
0.0
0.0
0.0
0.0
0.0
0.0
0.0
0.0
0.0
0.0
0.0
0.0
0.0
0.0
0.0
0.0
0.0
0.0
0.0
0.0
0.0
0.0
0.0
0.0
0.0
0.0
0.0
0.0
0.0
0.0
0.0
0.0
0.0
0.0
0.0
0.0
0.0
0.0
0.0
0.0
0.0
0.0
0.0
0.0
0.0
0.0
0.0
0.0
0.0
0.0
0.0
0.0
0.0
0.0
0.0
0.0
0.0
0.0
0.0
0.0
0.0
0.0
0.0
0.0
0.0
0.0
0.0
0.0
0.0
0.0
0.0
0.0
0.0
0.0
0.0
0.0
0.0
0.0
0.0
0.0
0.0
0.0
0.0
0.0
0.0
0.0
0.0
0.0
0.0
0.0
0.0
0.0
0.0
0.0
0.0
0.0
0.0
0.0
0.0
0.0
0.0
0.0
0.0
0.0
0.0
0.0
0.0
0.0
0.0
0.0
0.0
0.0
0.0
0.0
0.0
0.0
0.0
0.0
0.0
0.0
0.0
0.0
0.0
0.0
0.0
0.0
0.0
0.0
logs/alpha_1.5/PGSD_900steps_3.log 1000230.91994 1000.23091994 0.090394563511 1000000.0 0.0 610
