Initial Policy Parameters:	0.0 0.0
Learning Rate:			1.5
Learning Steps:			600
Start Time:			1437174162.2685313

-- LEARNING STOPPED --

Stop Time:			1437174255.877495
Duration:			93.60896372795105
Final Policy Parameters:	-1.43334637345 1.15451530106
