Policy Parameters:	-1.46496352698 1.19158023642
Control Steps:		1000
Start Time:		1438419764.854897

-- TESTING STOPPED --

Stop Time:		1438419918.5367434
Duration:		153.68184638023376
Cost Matrix:
0.0469602585459
0.0553489961045
0.019764917792
0.0335714617257
0.0823436992104
0.121181495741
0.107559538214
0.0796664893895
0.0661432390492
0.0708518424414
0.0928527070457
0.133985874439
0.138302457543
0.13996030908
0.175991036007
0.192843837755
0.195055879369
0.220809324805
0.203005743509
0.195271965038
0.242888849609
0.274307471461
0.290429224723
0.24164400544
0.240799963301
0.266685174303
0.275118178502
0.262640028753
0.249769593277
0.233946158063
0.238469486848
0.240181579078
0.229446730823
0.2309651905
0.229229166274
0.242002337593
0.221393536222
0.141187446247
0.11540949185
0.112789244974
0.099635323332
0.120193006261
0.114805889392
0.120159905134
0.110996366983
0.11775475614
0.0965546374272
0.129390283733
0.0837729395461
0.0868990554167
0.0666933949559
0.0664864049056
0.095923490807
0.0958092231049
0.0718496464963
0.0955520745994
0.0482217876122
0.0448863578989
0.0686666330001
0.137483585938
0.18331572633
0.113431039826
0.0475886214572
0.0471725846889
0.061199400744
0.0730974059971
0.0752682794359
0.106705069257
0.0942427909153
0.101788496453
0.0974745249782
0.122995245826
0.0442041052977
0.0621370112099
0.104457838701
0.1024672052
0.0858096125913
0.0965449448866
0.134138262161
0.17391533873
0.150802487932
0.136692073231
0.143534787972
0.138554431556
0.147662819726
0.13492262748
0.119190147343
0.136199875696
0.161429274392
0.162847568238
0.162339589243
0.125966512182
0.09049590409
0.0942123368388
0.128551485125
0.132307569401
0.130145463981
0.116052900222
0.121230980954
0.117581156118
0.0907316980194
0.0624623864005
0.000968778212956
0.0428976940463
0.0831038816589
0.0687090550261
0.0677396890767
0.144096566612
0.175937412569
0.188150213643
0.191308527725
0.192512319274
0.258036829811
0.334054380418
0.321167712702
0.299901693776
0.321079356273
0.357101870608
0.403050246777
0.398922427831
0.439357345731
0.433364277085
0.430970245135
0.438603298141
0.411525560862
0.420923507773
0.410710150587
0.403133743628
0.352895306048
0.317011350184
0.219442722308
0.172918149582
0.19184326591
0.132731027135
0.113706490539
0.0317318942621
0.033541539573
0.016964354717
0.0358951309114
0.0634975356924
0.0853462463113
0.0520517902271
0.0872167779462
0.0528506764484
0.0655559380975
0.0417502191546
0.0235098199257
0.0634843568155
0.115389494452
0.118987324781
0.094305977705
0.097247622708
0.133059637167
0.12755856254
0.119310819135
0.110824727643
0.117971774256
0.103314335422
0.103329559222
0.174104037606
0.204207401632
0.207358679307
0.231842122137
0.234887712429
0.242412915514
0.295270947809
0.372876489886
0.3714901515
0.397682344616
0.42979423264
0.411008218557
0.392266937723
0.497955930337
0.517254142826
0.553337155446
0.573133327432
0.534140893987
0.435000822778
0.407582061871
0.387046807405
0.377762648802
0.397297122625
0.283769101989
0.259023026183
0.254285093283
0.195721962741
0.120394520095
0.0547800672672
0.0562194407857
0.0538172459206
0.0320219578011
0.0213365186919
0.0537265590553
0.0746283122264
0.0463996021092
0.0343415468823
0.0481297860971
0.0530812101519
0.0565571467251
0.0834961375353
0.110896740068
0.0968109901745
0.063066962118
0.0738409784389
0.0319930546019
0.0219488763722
0.00932223619307
0.00750327035263
0.0400127399761
0.118503278192
0.166167101588
0.157310574
0.156250612331
0.163941706049
0.1809409291
0.233392712413
0.289937763155
0.339492018464
0.372735710697
0.382335162057
0.396481926519
0.418215293613
0.444182804411
0.459157981804
0.496161264421
0.550063014778
0.552956273251
0.565470121392
0.623333815184
0.53504617488
0.461720780821
0.481269889743
0.439200274349
0.419656805964
0.404463838269
0.321188745345
0.221496969588
0.155868978796
0.115697733262
0.0550885274019
0.0403607448798
0.0243751337319
0.0310036101503
0.0313896148268
0.048154338673
0.0675069485793
0.0403667094553
0.0432378596551
0.0154097911604
0.0374440284372
0.058471394829
0.0662778936232
0.0507111131782
0.088681559696
0.11297877439
0.0928648137614
0.0606875778806
0.062639016781
0.0696805522105
0.0662030403765
0.107621084906
0.128202309655
0.155923998681
0.218285074321
0.217920825978
0.277470759146
0.367664325544
0.414526852217
0.461628233408
0.479949863646
0.51098981539
0.559825181694
0.618837506971
0.675419216255
0.623171604684
0.773315930763
0.495276403102
0.577917874424
0.577410179142
0.540915546958
0.507341975606
0.388434434242
0.322704373481
0.420578958888
0.477002632277
0.0811427160621
0.117571858159
0.17780388661
0.196755127561
0.211677106687
0.214263732007
0.232990851295
0.244558077466
0.272367480806
0.304380536437
0.31790341469
0.307263265846
0.321047227171
0.349825319753
0.373071178749
0.385685962633
0.375736487842
0.377302223129
0.377430459844
0.338026841269
0.342650432394
0.341978768404
0.28918601321
0.276818402603
0.288071363873
0.277077347219
0.220411204655
0.215599015035
0.197830052482
0.104395045414
0.051538981828
0.0324895664168
0.0361509910371
0.0580546935712
0.0558912271097
0.0465220302356
0.0569531513861
0.0645869314464
0.0606621881287
0.0751926190873
0.0788076611116
0.0725530672474
0.0818409946387
0.0857790167172
0.070495116064
0.0315653695613
0.0176834478973
0.0507451628803
0.0662054849597
0.0630655674593
0.0881212533223
0.289048455192
0.335228917233
0.109378619856
0.116152361313
0.0820910605559
0.0513968048585
0.0175034982191
0.0201728481327
0.0173210099703
0.0760920323472
0.093346142849
0.0595057974707
0.0594748658425
0.0349687519564
0.00501452048548
0.0132370549726
0.0153883672266
0.0319141988189
0.0687951136568
0.104039275275
0.081374224517
0.0985120285824
0.0790521564497
0.0874524253003
0.184406329961
0.242539882624
0.226273910474
0.218150936123
0.273653610901
0.294037801442
0.347756133955
0.37643172284
0.421145852189
0.434804643976
0.429061668073
0.485375607458
0.506817240782
0.530243255144
0.52829796382
0.507377644958
0.541642518936
0.504279631346
0.445851543738
0.346037641523
0.285506428248
0.231219501544
0.220489744864
0.195311839174
0.208295010713
0.184183441922
0.154205514989
0.0611464971706
0.0162933169898
0.0179032990457
0.0390215519294
0.345570851974
0.501017072044
0.0301494695425
0.0294133855133
0.110198256296
0.195958571968
0.15416740953
0.0561654613857
0.0591070639389
0.0419216147815
0.105902156548
0.226067807743
0.375689161365
0.446164974497
0.0815947199164
0.0359434859597
0.0822766703776
0.0947209613575
0.0827129375174
0.105654641353
0.0648136531949
0.113784544861
0.1357692156
0.134102880469
0.142372427884
0.153036961712
0.179092615694
0.15512119551
0.119262059344
0.198800990004
0.255269731039
0.318786273909
0.341902165098
0.358646161173
0.375196989693
0.385667094253
0.440333437817
0.46069993693
0.478823251128
0.477505974416
0.431374947607
0.379166822452
0.353472174888
0.369242882693
0.335297169766
0.307019637575
0.297472401172
0.264058709075
0.202260684277
0.165012716996
0.108487493194
0.0695486563131
0.113650801952
0.0974038703309
0.103435722314
0.0712653362607
0.0296006480913
0.0376824588169
0.0112784446022
0.00781378627446
0.00895912270265
0.0145208944566
0.0338349761819
0.0388694208063
0.0179810522862
0.0325886507634
0.00393348375414
0.0204809225236
0.0297977690325
0.0218231400113
0.0261286007442
0.0313777584022
0.0181814452509
0.0197510439255
0.041512632876
0.0313926750312
0.0329482501391
0.045449134189
0.0414026899638
0.0236151486571
0.0258321442707
0.0389792210064
0.0445228912951
0.0376663745596
0.0641855509549
0.111992198812
0.148322130888
0.159256416912
0.155753545254
0.167526372786
0.187242568506
0.214544039449
0.286510011076
0.360097245105
0.477296241535
0.610638199678
0.683344477965
0.785560734016
0.885238621677
0.948887940373
1.0474140473
1.00981968416
1.11803509827
1.02234038035
0.969299042666
1.37602572608
0.685633288974
0.00686780525459
0.0694463603179
0.18446832571
0.287836132524
0.3490585354
0.412691088235
0.408354535389
0.315728162781
0.223895732948
0.134051576678
0.13330711457
0.131173302345
0.125761530706
0.111194830018
0.122388511699
0.12843881016
0.143518008055
0.160748356289
0.15310770656
0.160702699677
0.166362551351
0.175474216749
0.182069244081
0.170198247598
0.173908977689
0.182684318065
0.191568162974
0.198720682625
0.204298827774
0.205253945104
0.213548798499
0.224609242152
0.246133496002
0.25862077253
0.255515855344
0.257938684605
0.260592041499
0.272965921228
0.28916088437
0.30167961078
0.311030890638
0.320523394433
0.341685992807
0.371724047575
0.389956426079
0.414547997864
0.427412293756
0.442587255079
0.464684949531
0.482947710145
0.502022365551
0.514192322149
0.521290174148
0.541907753023
0.604039387884
0.625855209872
0.637528708337
0.682762378039
0.567620147208
0.23815995325
0.276934714199
0.876300087248
1.51283250864
0.0404481135725
0.124751564107
0.148239647672
0.224698675219
0.275393539376
0.314644635657
0.321728741745
0.32368246955
0.342535046501
0.322673197424
0.935901637025
1.60406304411
1.30095422469
2.17448501132
0.407242213211
0.725252686799
1.20064906775
1.70043472037
1.540359585
0.911568564227
1.24780409994
0.785168593183
1.16301600374
0.572993388689
0.794923895206
0.56047503709
0.537606627661
0.617985679167
0.622501180888
0.740373431374
1.11757723995
1.167907572
0.776801883121
1.18004240391
0.41923944632
0.539141561113
0.646428742497
0.85416185641
1.19416426082
0.390566242302
0.436882146089
0.396721319651
0.425335518383
0.39926571091
0.335502277901
0.328427442074
0.385994256824
0.383082009545
0.382869413897
0.415957275684
0.370688021132
0.309650018378
0.352273968564
0.285251483842
0.245196530706
0.230510980365
0.207482897736
0.186187624037
0.204189062707
0.202588953419
0.191984036724
0.182911212407
0.150873676753
0.133848938594
0.150283173556
0.160281517753
0.150569122722
0.16773878554
0.144076400729
0.115833022264
0.0964948000269
0.0944015512978
0.102713373614
0.102441446751
0.0794173160165
0.0789995729926
0.0996136773446
0.0968749140821
0.106168529297
0.0811276615131
0.0629275908121
0.0558281587468
0.0248844962852
0.0159203099058
0.0367126455148
0.0782819230999
0.0336653713208
0.109240549797
0.148474328898
0.0548389587556
0.0268178305867
0.037248834397
0.053544194368
0.0225026832269
0.0139919273027
0.0153665680717
0.0235980102096
0.0108888400773
0.0244062426166
0.0557064737324
0.0935657631163
0.0824885040632
0.0502687446234
0.069565785776
0.0630181656688
0.116937607563
0.113731348761
0.110795091106
0.120155858081
0.117189654757
0.105100412335
0.0639090005512
0.0926999410721
0.0369134332141
0.0270459347008
0.0728789551527
0.0992754096766
0.0384926564017
0.00813110880801
0.0301691936566
0.0961682400177
0.13401736607
0.0940911002664
0.0383991854448
0.0379227533592
0.0505547836061
0.0634817899459
0.0871144498767
0.0859904781099
0.0147224974243
0.00938082762678
0.0358447490542
0.0298456913874
0.00828632154592
0.00680518121507
0.00984382672512
0.0300858088185
0.0547006180302
0.0892265975752
0.0640531828669
0.0584141023626
0.0425573150069
0.0849469192238
0.151332131045
0.163311908994
0.135901216849
0.0960915085629
0.117673817641
0.119703114608
0.15010222245
0.155446384075
0.144785230004
0.179693973556
0.14052256692
0.184887841086
0.273237419219
0.264757260135
0.17176487053
0.18853531119
0.246064677552
0.180096210927
0.27028084025
0.36513401025
0.301915780958
0.201654488321
0.201284605528
0.365730176404
0.432690258167
0.17563875993
0.174816334064
0.171042886619
0.128347084902
0.143191062588
0.149127773869
0.157831205009
0.0743062326354
0.120984207949
0.201959610256
0.0668575977858
0.075331859395
0.075849085233
0.0648716508014
0.115431407616
0.1597967167
0.153318832818
0.0945015933703
0.0714711018863
0.0728632116207
0.0715363640494
0.123392734239
0.164811508581
0.175946067804
0.186484804815
0.197907636964
0.24041190405
0.277719596291
0.251779277869
0.242965272848
0.257408757275
0.260216664462
0.282292976499
0.30821918087
0.323053064445
0.331776775799
0.313021714171
0.307628622862
0.282809589237
0.295609174227
0.316090608467
0.304386627375
0.281525858261
0.278124949262
0.274219114043
0.220701065603
0.209581065799
0.207867536026
0.166699504014
0.111234111155
0.300998847723
0.337512870933
0.0330921926515
0.0402528527314
0.0503672454053
0.0798812663003
0.0804079375659
0.14326585812
0.151083520901
0.111969827014
0.120263223898
0.110621673227
0.136275626923
0.207791315796
0.185634118161
0.195848023947
0.178632165614
0.180534286789
0.201630574673
0.213522408672
0.267681159064
0.298998126302
0.32795801604
0.395755235866
0.38199285336
0.364735424855
0.429433285525
0.43919226272
0.44115810661
0.449949285713
0.447846357276
0.400039948571
0.368908013815
0.308917759868
0.301345092187
0.273163977371
0.31331608016
0.237490683052
0.202898082559
0.164647040102
0.138594301674
0.0611091693244
0.0655079877099
0.0317518760132
0.0135309347106
0.0195149526196
0.0264512663883
0.0338389797349
0.0446356040894
0.0351258986868
0.0244942688577
0.007675533561
0.013428049402
0.0131016204088
0.00583844569417
0.0131660941518
0.0835368798571
0.125068955466
0.057446775486
0.0771996925556
0.099619811321
0.0815751607582
0.0449519395207
0.112749298359
0.195667828172
0.178920389133
0.129064358082
0.128490584958
0.129888528169
0.199692657568
0.239951839201
0.224912398351
0.291268735314
0.377519304322
0.216428909719
0.234587125505
0.284208072192
0.291172592256
0.284520866332
0.28551410047
0.292740577733
0.264236384692
0.256828192999
0.251926797076
0.250270964684
0.253424658751
0.238473565784
0.178108424956
0.115431244641
0.100901421393
0.165720198371
0.208970882309
0.106959391647
0.0724911747625
0.0771574311352
0.0765827826918
0.0776095075733
0.0822651661117
0.0940828481355
0.0990264663545
0.116175688945
0.116813118299
0.0849988049251
0.0489620719812
0.0478878395301
0.0470918181936
0.0581828192142
0.100806351027
0.133941702611
0.151872076911
0.145999477033
0.119876441906
0.109052198138
0.118105874925
0.131643221146
0.12428333621
0.133301411707
0.158050547918
0.180359027217
0.194520913556
0.213811672
0.222164087715
0.238170024823
0.252196559394
0.250412451526
0.2587571383
0.2785525706
0.298908887734
0.313768677573
0.32315914256
0.32572485486
0.364632914537
0.390952758727
0.401446827377
0.426521584229
0.430180371337
0.455356203393
0.50948464195
0.567833638886
0.613726605558
0.640672235402
0.742368048238
0.776999990765
0.832618213918
1.01646909061
1.0344316119
1.16482152248
1.09797940641
1.26422279137
1.57334257559
1.38695552789
1.40247197819
1.84460671823
0.788730901072
1.69935788398
1.33539590212
1.93339394174
1.4150506438
2.39018203079
1.18965564661
1.28229546132
1.62794272238
1.27270708639
1.61508413816
2.53588098555
0.679456027432
1.12524728557
0.955087867783
0.992445217161
0.877704617855
0.810744715105
0.905290153862
0.775134263196
0.74987298511
0.646540867372
0.79603033316
0.64268514811
0.80514027649
0.780536425241
1.263229421
0.711086467764
1.13577133777
0.889748649909
1.0212584658
0.497524473847
0.373889005715
0.100897162281
0.147949204615
0.286283126234
0.525482364453
0.644080355692
0.413567650883
0.361962581727
0.320665241278
0.138466148948
1000000.0
0.0
0.0
0.0
0.0
0.0
0.0
0.0
0.0
0.0
0.0
0.0
0.0
0.0
0.0
0.0
0.0
0.0
0.0
0.0
0.0
0.0
0.0
0.0
0.0
0.0
logs/alpha_1.5/PGSD_200steps_0.log 1000265.3108 1000.2653108 0.1671129384 1000000.0 0.0 974
