Policy Parameters:	-1.21077475248 1.78891660645
Control Steps:		1000
Start Time:		1438430389.4412355

-- TESTING STOPPED --

Stop Time:		1438430536.0549026
Duration:		146.613667011261
Cost Matrix:
0.00710844103327
0.0824988838911
0.138311833271
0.00128704973686
0.0296331784085
0.0685759265173
0.117024216659
0.137518893411
0.131996038437
0.0462705732435
0.0332178237431
0.00329494775739
0.0259896161099
0.0388901823777
0.0966009165472
0.137025077133
0.178076306493
0.100383175442
0.0851831983106
0.105783511191
0.156651994505
0.114658797626
0.13965581405
0.165128020875
0.188190274354
0.170591904406
0.227067915246
0.232322977119
0.210330911341
0.18700610015
0.184536035418
0.265918846238
0.153110309831
0.0826753151147
0.0442463539383
0.0578389994316
0.072467513962
0.0694748286069
0.0567629346957
0.0532846248676
0.0916056473922
0.163277915938
0.24628091681
0.264237693059
0.281669225848
0.281791367201
0.269668600778
0.2614091091
0.255888901286
0.238603483278
0.225157177319
0.268034237263
0.295601596669
0.294545837902
0.263245268142
0.223323083494
0.222343673742
0.174912035908
0.0767423242932
0.0103775383709
0.0070581674203
0.0128514030094
0.022867385316
0.0509216026459
0.0214616351652
0.0284747883578
0.03468947446
0.0568126645781
0.03575901128
0.0264223082202
0.0283310623737
0.0257064659249
0.0577627578072
0.0618488019086
0.0252395563505
0.0503009470764
0.0893609150619
0.0572023550079
0.0787778845485
0.0147760096711
0.00695134038271
0.0358282373196
0.040738872568
0.0673039692466
0.109195639345
0.0952626853739
0.0585786174654
0.0809048386328
0.0670786553143
0.0198498704896
0.0133656967995
0.0560422331406
0.106508015785
0.13247654336
0.121636510995
0.145316464625
0.190200664998
0.23320492171
0.242143951403
0.322478861305
0.4478236913
0.537721395762
0.763445539444
1.14168415161
0.964838355115
1.18314631621
1.09957601489
0.915619543538
1.07143379551
1.33286580639
0.979217713322
0.751057994197
0.732061039431
0.885423834172
1.3313025811
0.32760883432
0.355503482645
0.233502967868
0.2537219921
0.209677128207
0.20330430688
0.162427620938
0.0893351692275
0.103739469886
0.174228746059
0.224645321065
0.226624938705
0.203288290404
0.190616700819
0.233455487746
0.218200189227
0.157684790092
0.193596822744
0.209593816569
0.172361186161
0.155704897681
0.180503853532
0.202600601182
0.132100725859
0.130710222737
0.148312749703
0.083372795094
0.0807904833249
0.147462087202
0.160438419268
0.115750091945
0.0736057291521
0.0694955930046
0.0201857852511
0.00751766660943
0.0436911606259
0.069578573147
0.100885421596
0.11886136303
0.130683057497
0.0963925678961
0.104683902871
0.145691344222
0.174596317513
0.159913391624
0.177807848524
0.166644416046
0.139227118222
0.13154014672
0.184722662712
0.26787312195
0.327564126883
0.372080370491
0.491333872144
0.57740365556
0.561464430256
0.645042677828
0.885506547299
0.907447832707
0.867526890364
0.940998896146
1.37090194244
0.616844900617
0.560209666651
0.132014105564
0.176250602987
0.163284189497
0.164142467292
0.113722154675
0.0616424942607
0.076455564044
0.123545412896
0.15326171172
0.15532649354
0.0622337953703
0.0627237912549
0.100597498251
0.104940973442
0.132726931433
0.0785604945694
0.0952271371833
0.0922677024828
0.0697787984963
0.0834153837689
0.0763289068824
0.0804491581194
0.122265900575
0.169030325454
0.0482780945593
0.0148653695563
0.0641252780192
0.0326888105777
0.0775898872524
0.073238591412
0.109965563221
0.136364534737
0.123220158425
0.0950727078153
0.0322179036832
0.0378285559558
0.0586528009922
0.0622058823303
0.0846187387917
0.122247191542
0.143580294212
0.106514280548
0.0542910565049
0.0639622532645
0.123497203442
0.141891924518
0.0888021124413
0.0504114941173
0.0409684106253
0.0490977131409
0.0239333307293
0.020406660155
0.0462694831892
0.0878734368223
0.0381588925518
0.0260770278729
0.0465822258243
0.0597880498564
0.0518764519585
0.0273015389764
0.040879694488
0.0101120620075
0.0302555720269
0.0156993695614
0.0133808641252
0.00384919804384
0.0252987125438
0.0613363089816
0.095992287081
0.0115459568951
0.0227927321014
0.0341463719634
0.0397050585485
0.0315384336066
0.00500218214329
0.0517951711306
0.0645043358875
0.027304794753
0.0286854065805
0.0145144461185
0.0107356247054
0.0241963034254
0.023141746099
0.0118783357889
0.0392035435999
0.0466272579824
0.0565073797187
0.0531535467446
0.0149111719561
0.0422034904962
0.0113999199115
0.0932055038623
0.134687751095
0.10263823927
0.066020999012
0.0212956877714
0.0411848689359
0.0248937029838
0.0225961288747
0.0569033598063
0.0905720855936
0.107332981409
0.0972327652089
0.0298044265191
0.0208239660752
0.0417453117667
0.101486918861
0.0995014305956
0.154841442847
0.222887212989
0.283762023884
0.335108885172
0.467438166553
0.724567877894
1.08425906997
0.899076047758
1.16844219881
1.14853305053
1.28933078265
1.44729643698
1.37183494685
1.56491974196
1.35188005928
1.90164621382
2.67772987681
0.765852671551
1.64938348616
0.0621311433116
0.114731220961
0.0672432964861
0.124093904271
0.045888000239
0.0954522190635
0.128502292342
0.0682180468056
0.130147629339
0.0569182771871
0.0562193695405
0.0250557336215
0.0112019525678
0.0224953120832
0.0906072134479
0.159243757997
0.0666187184538
0.135322521173
0.147266462311
0.140519536279
0.210124481697
0.234077204159
0.250119617193
0.282001519994
0.309930328639
0.3179941516
0.362969432645
0.493083039718
0.589673127713
0.980207513815
1.08375746571
1.5835751141
1.29415273161
1.1144184407
1.74347737523
1.79663692306
1.22945663856
1.44597445496
1.21062928402
1.78238442194
0.714015606818
1.52661004747
1.35093642108
0.056076366696
0.102411499298
0.159264303594
0.197433470727
0.186107661925
0.175025555379
0.17605638792
0.14782623966
0.181253602415
0.198219982793
0.0731175776812
0.0740356887953
0.113425056251
0.101422417367
0.0461077970575
0.0124929049352
0.0422499578878
0.0828524696605
0.0518906095845
0.0397381214045
0.0391346989834
0.0450868876422
0.0524630897557
0.103487044319
0.0837016041354
0.0186237018258
0.0407795109524
0.0130822289796
0.0417004959894
0.05287310226
0.0114785757675
0.0195811763993
0.0226209940574
0.0327639357909
0.0192536070295
0.0292316591431
0.00625338155764
0.0349206350048
0.0414516184366
0.0190524406402
0.00761717652643
0.00653136930643
0.041480850651
0.0471380644259
0.0303757478343
0.0752679019113
0.110590447793
0.0533157782552
0.0714848896129
0.0679650486566
0.0690691896127
0.0312084901537
0.0282402052775
0.0110294611387
0.0104001152958
0.0506607135606
0.117482127154
0.15148014231
0.0751685762325
0.155661229514
0.127004352064
0.115666609873
0.097153139988
0.0821317928023
0.110518678953
0.100568980628
0.099916304719
0.144651433378
0.121808814963
0.106062518687
0.0959959228695
0.110880562804
0.127153646839
0.101977601055
0.161486606577
0.163244999582
0.101828599793
0.132230890229
0.0962147620203
0.12500444761
0.110907812972
0.142268381136
0.166054507894
0.167365103043
0.205457501126
0.221068713571
0.176405478558
0.263489634802
0.305971614432
0.415951334632
0.541049528283
1.02330582778
1.17069897879
0.791667983675
1.23981442764
1.14151576939
1.24168802585
1.47713506877
1.65416676603
2.00433344296
0.775235997109
1.37085860865
0.0835476066034
0.22467133326
0.374041238771
0.507074093187
0.407149087817
0.30747152211
0.116427619585
0.0931121567001
0.0278243659532
0.0387834704019
0.0428096992698
0.0595209542558
0.0605902588816
0.0696302703411
0.0652828250491
0.0650202073508
0.0795865704186
0.0853139904862
0.0756924520801
0.0894189913744
0.0890775310645
0.0820223528362
0.105816579991
0.162096456891
0.184678060454
0.21538193478
0.250686176445
0.289519952879
0.362327662475
0.436676808614
0.505326058641
0.551392084451
0.628978740399
0.622115684562
0.57631253706
0.829314068825
1.18587775611
0.614183044124
0.822501506552
0.672273859702
0.799329927543
0.552070697542
0.675841915811
0.817007954259
0.389768301256
0.491178113146
0.454704791933
0.377660010248
0.155741555912
0.0578184127135
0.0616883536883
0.00717269938631
0.0299539430865
0.0603403192989
0.0558584769757
0.0105738746168
0.0407500442765
0.0426799224726
0.0249691253539
0.02537713087
0.0188146890692
0.0104771998413
0.0210505233276
0.0296200613883
0.0877484894854
0.0976508221398
0.0802005463816
0.0848254001913
0.0535884181837
0.106681754339
0.129224838307
0.0931915766551
0.0845495725579
0.0803852626319
0.093555736506
0.0922099590947
0.0757514688487
0.0869668524714
0.0593912995821
0.0794752230996
0.136487533759
0.157850658196
0.127367743492
0.14580863821
0.198472990711
0.235853455685
0.28095509839
0.319745295469
0.404844893763
0.520499166671
0.593445903011
0.665820267715
0.721028596691
0.700219758744
0.99681459382
0.844558963802
1.29744569154
1.05584418621
1.21068478463
1.19021750107
0.706896028133
0.591070893322
0.147086148668
0.167642875163
0.209370519761
0.187461082239
0.0858085397664
0.0814827897346
0.0916879163406
0.10623138173
0.0525171271473
0.0263706103561
0.0718609787127
0.0978313665168
0.0587108651606
0.00771049452257
0.048668182793
0.0950413644656
0.0370789544293
0.0278862635509
0.0580919338697
0.0857377289313
0.131782725129
0.143819841603
0.0954996483568
0.0902659992741
0.0774464559377
0.0865107209007
0.0773464357171
0.0578854269225
0.0199202781041
0.0449248406658
0.0195583629881
0.0501125527622
0.0267238460387
0.0312816067121
0.0600536675934
0.0505968141233
0.0249099979113
0.0677986381071
0.0461298503708
0.0898066361343
0.0161010111186
0.0348074922694
0.0232978102159
0.00990680068042
0.0176796077419
0.037843488494
0.0110744489517
0.0789549335349
0.153648055016
0.038031986513
0.0648930997935
0.034672609055
0.0802659646312
0.0700213229475
0.0920548333236
0.140576642723
0.0467641969566
0.0699860628824
0.0570800173991
0.050149909355
0.0506958173444
0.0407851337761
0.126994578954
0.237188015823
0.222386948388
0.148240839565
0.0682485712468
0.0779510031366
0.16093580952
0.175370731053
0.195128803595
0.27548110818
0.287298923621
0.424084628022
0.57859452739
0.885570080152
1.16285877383
1.32946737348
1.58589355065
1.77570855381
0.469277943417
0.157243095453
0.239475617329
0.315732415971
0.266324788488
0.251421571015
0.25783507916
0.254347457416
0.283548052019
0.359822105949
0.413334398216
0.455560347788
0.408067449167
0.396987909323
0.395768509771
0.31998781432
0.344982375711
0.305236507221
0.234033241233
0.196624749834
0.079813222416
0.0264998773672
0.0489075394061
0.105705334734
0.135356214174
0.14384581461
0.125582253388
0.0685963549676
0.089324204526
0.112277034731
0.145821735614
0.179062048146
0.147676003539
0.106473347889
0.119024746736
0.128254362754
0.123044002914
0.124510785528
0.0852140402987
0.134698390236
0.176486567844
0.152862094948
0.146095682177
0.139570254675
0.160865682501
0.162620531526
0.0997528666655
0.101249927573
0.103313391938
0.0791191171947
0.0297378962105
0.0430439656297
0.0507691474389
0.0392966916165
0.0177923932964
0.017226226604
0.00427479506573
0.0246667531793
0.0457479404061
0.0530241965782
0.0753549637299
0.0875305592804
0.0910541387927
0.0731460711329
0.0601562854091
0.0417449442307
0.0284744013348
0.0198518543659
0.0306220060081
0.0237617465904
0.0462275142561
0.0528140851665
0.0639030260277
0.0675939254942
0.0777121269092
0.0848554930816
0.0799560862068
0.0820363513702
0.0932626423612
0.105268488728
0.108345989552
0.104530132613
0.101640618059
0.0997897262272
0.110344978461
0.107798659621
0.119948784993
0.130198206092
0.124945637825
0.113309000697
0.106173952714
0.108886785237
0.106771236429
0.109006035292
0.110128789111
0.131827520545
0.151339760023
0.142625211018
0.145730063617
0.15639621402
0.155510786194
0.150080189554
0.156142856319
0.166480183243
0.177363851383
0.177083362038
0.170664857622
0.186415908175
0.186398590336
0.180224638235
0.180902676462
0.212924536197
0.211382111395
0.223087692968
0.232341423935
0.239190761931
0.256560697196
0.264547104248
0.270847570995
0.291612791506
0.313908412393
0.323150600342
0.320070683064
0.342315186321
0.356739684298
0.370209226263
0.373014868248
0.39608808327
0.430171782751
0.46738118246
0.504719292587
0.528127320958
0.536244906611
0.638779996097
0.874570381059
0.573774775284
0.820470475259
0.699067167249
0.969925964261
0.781720627941
1.07230246234
0.971243241782
1.18497137783
1.16631310263
1.12304026051
1.40406319882
1.63415827199
1.37709901817
1.50039980802
1.75249362324
1.728240036
0.849489365332
1.70741344786
2.19989043739
1.7448665999
1.89250332668
2.10062467864
1.86486221501
1.23430646636
1.81220772803
1.32959022448
1.34833187259
2.27135763796
0.627307171093
1.45971589728
0.689582595288
1.19051353522
0.605722974795
0.877322328169
0.602570620701
0.801842928541
0.531276461152
0.555613554074
0.51620806498
0.476890877288
0.430570113415
0.374700326971
0.363155920287
0.380984325818
0.344906417021
0.261136025113
0.277469251348
0.280626530493
0.255386457598
0.278292627713
0.264006792708
0.262680241072
0.228789022447
0.161494490588
0.157027622069
0.142470563525
0.13956443343
0.147835304606
0.15218933874
0.132374964605
0.149255336783
0.112584190689
0.114921449272
0.148146510617
0.099671876307
0.10107621483
0.105911201474
0.0861498196203
0.114914513884
0.103707166432
0.128862501315
0.0972387589102
0.0592474261899
0.0927534612467
0.0895328494403
0.0545307959926
0.0715651523483
0.0855855133092
0.0790355190624
0.0483828573977
0.0442665097921
0.077852063781
0.0789674054706
0.0524130567836
0.0292585780765
0.0398617421542
0.0453671573045
0.087627429479
0.102185877935
0.0735150422683
0.0776807123918
0.0764063703563
0.0506780935209
0.0199134810783
0.0222447379762
0.032204097636
0.0273845609671
0.0326750633005
0.0410318445953
0.0709751247992
0.0957716604743
0.0975319567017
0.0932504552785
0.0804612873919
0.0490778517437
0.0233876892055
0.0335754573327
0.055019647702
0.077513559581
0.0917311205108
0.0960504716957
0.0962610188139
0.0625106783953
0.101843493382
0.0405017415573
0.0560517379253
0.0590096434121
0.0305788450125
0.0437852077716
0.0555721291908
0.0456861820754
0.0589444524166
0.042089688832
0.0227865780407
0.0576090045451
0.0169861504084
0.0325589870447
0.0622798323327
0.0208114914536
0.00924521390566
0.012903298969
0.0222877353421
0.0417958349756
0.0682829259565
0.0616822466032
0.0781666880994
0.0966214523282
0.0654215697755
0.0181790596665
0.0134351464228
0.00368134788994
0.0243435318886
0.0183870092261
0.0614515996543
0.120323258731
0.164038124399
0.267184323378
0.373284099158
0.58306996173
1.10791875872
1.52150434106
1.52648969707
0.732036639143
1.73016031509
1.6277174454
1.93024969661
1.23494457233
1.91038822565
1.22743868081
1000000.0
0.0
0.0
0.0
0.0
0.0
0.0
0.0
0.0
0.0
0.0
0.0
0.0
0.0
0.0
0.0
0.0
0.0
0.0
0.0
0.0
0.0
0.0
0.0
0.0
0.0
0.0
0.0
0.0
0.0
0.0
0.0
0.0
0.0
0.0
0.0
0.0
0.0
0.0
0.0
0.0
0.0
0.0
0.0
0.0
0.0
0.0
0.0
0.0
0.0
0.0
0.0
0.0
0.0
0.0
0.0
0.0
0.0
0.0
0.0
0.0
0.0
0.0
0.0
0.0
0.0
0.0
0.0
0.0
0.0
0.0
0.0
0.0
logs/alpha_1.5/PGSD_600steps_4.log 1000262.47557 1000.26247557 0.101836046588 1000000.0 0.0 927
