Policy Parameters:	-0.974084156438 2.44851503464
Control Steps:		1000
Start Time:		1438418601.1782477

-- TESTING STOPPED --

Stop Time:		1438418638.2279556
Duration:		37.049707889556885
Cost Matrix:
0.0733237386526
0.16318442465
0.165808134506
0.209582105436
0.26915828503
0.426677890768
0.479121811977
0.575404280561
0.92000785138
0.779132760166
1.14381005823
0.951680179108
1.16671225062
1.06863694454
1.21298718333
1.06763826007
1.41961910447
0.538717785571
1.24863468073
0.592233321603
1.06022207582
0.304242169456
0.269228492567
0.027058693647
0.0669919270076
0.0777408680551
0.0615148272644
0.0776298986753
0.0785262596996
0.0625282943653
0.0526516953019
0.0459680324105
0.0661766993022
0.0634961045202
0.0469842578048
0.0357875629777
0.0273224574233
0.0275817225569
0.0573121483101
0.101282815383
0.0519945044402
0.0734213663958
0.0786116961199
0.129255543075
0.125281088445
0.146156768785
0.195306237414
0.194704830969
0.261724368765
0.301805265134
0.293655339388
0.313277815205
0.302159881954
0.303297523597
0.34899488812
0.498591170637
0.482290247287
0.502793274975
0.54257973307
0.536407359817
0.525459610168
0.520677296376
0.46368259323
0.481294440973
0.478607962675
0.345321692353
0.33527280522
0.351217332245
0.309039580804
0.225173576543
0.2636056267
0.127644925958
0.144390783754
0.0997345911374
0.10593321262
0.0856810258327
0.019501480615
0.0750822211785
0.04472746561
0.0374339593383
0.0327045507988
0.0371821633848
0.0460433581001
0.0196152697075
0.0187048084318
0.0747459268348
0.0296703970276
0.0359349352986
0.0402321998292
0.0622062383048
0.0989507785586
0.098143064939
0.0690617380243
0.0555908973224
0.1064410023
0.143806229933
0.156016566381
0.179670306156
0.172022646457
0.171966849145
0.202410107271
0.235699278085
0.312849197485
0.411678115525
0.501244778367
0.58520504897
0.66674562608
0.644500331338
0.606738997669
0.739527748612
0.929387284467
0.948272085403
0.84734724382
0.966899022733
0.882548674378
0.158829902589
0.153250360108
0.0899626421446
0.0671692290108
0.0808420481698
0.0787061544579
0.0603800265067
0.0875216792609
0.102758177026
0.312156311229
0.525019346293
0.49717717227
0.36975460728
0.346248981499
0.22178442135
0.0105291656332
0.0658621200105
0.1236657012
0.15012918264
0.126918932578
0.144134344834
0.150635293621
0.108970792741
0.124732342547
0.0339662418738
0.0336308207889
0.0825249122507
0.195454811933
0.173567411421
0.0817965374486
0.0877729678814
0.167425866648
0.129760710711
0.199929954031
0.196153877423
0.128402131137
0.126066166832
0.148603632825
0.166831280816
0.185468218083
0.260929115042
0.397064272048
0.399568121692
0.33752459205
0.398572986484
0.41252408855
0.430477667059
0.401446229012
0.35206198415
0.310368300564
0.41107402038
0.345637048447
0.242915836823
0.318951121297
0.305729176719
0.264567375663
0.161125954128
0.111491356301
0.107663366738
0.161782130117
0.026829891208
0.0259168793845
0.0624933237606
0.0633743471207
0.0205698266362
0.014438473783
0.0580423498744
0.0153295476042
0.0543595210773
0.00528583259759
0.0419747569103
0.014186646224
0.016477791056
0.0309229822885
0.033495832109
0.0396641946753
0.039058336383
0.0549855687296
0.0191309447225
0.0547541955541
0.0477407219651
0.056422249063
0.0667051614325
0.133711690955
0.0747730694478
0.0330000553988
0.069527823675
0.1349291644
0.115210586508
0.161437427205
0.141467357385
0.0606764688569
0.0439196153708
0.0573439469423
0.019952158007
0.138123112766
0.171375876964
0.110287244534
0.219685782006
0.27642066661
0.334049337131
0.414965721408
0.56984175327
1.39315291596
1.49748112176
1.98005723732
1.5864500599
2.06305122293
2.24900416224
2.03246204001
2.2215533036
1000000.0
0.0
0.0
0.0
0.0
0.0
0.0
0.0
0.0
0.0
0.0
0.0
0.0
0.0
0.0
0.0
0.0
0.0
0.0
0.0
0.0
0.0
0.0
0.0
0.0
0.0
0.0
0.0
0.0
0.0
0.0
0.0
0.0
0.0
0.0
0.0
0.0
0.0
0.0
0.0
0.0
0.0
0.0
0.0
0.0
0.0
0.0
0.0
0.0
0.0
0.0
0.0
0.0
0.0
0.0
0.0
0.0
0.0
0.0
0.0
0.0
0.0
0.0
0.0
0.0
0.0
0.0
0.0
0.0
0.0
0.0
0.0
0.0
0.0
0.0
0.0
0.0
0.0
0.0
0.0
0.0
0.0
0.0
0.0
0.0
0.0
0.0
0.0
0.0
0.0
0.0
0.0
0.0
0.0
0.0
0.0
0.0
0.0
0.0
0.0
0.0
0.0
0.0
0.0
0.0
0.0
0.0
0.0
0.0
0.0
0.0
0.0
0.0
0.0
0.0
0.0
0.0
0.0
0.0
0.0
0.0
0.0
0.0
0.0
0.0
0.0
0.0
0.0
0.0
0.0
0.0
0.0
0.0
0.0
0.0
0.0
0.0
0.0
0.0
0.0
0.0
0.0
0.0
0.0
0.0
0.0
0.0
0.0
0.0
0.0
0.0
0.0
0.0
0.0
0.0
0.0
0.0
0.0
0.0
0.0
0.0
0.0
0.0
0.0
0.0
0.0
0.0
0.0
0.0
0.0
0.0
0.0
0.0
0.0
0.0
0.0
0.0
0.0
0.0
0.0
0.0
0.0
0.0
0.0
0.0
0.0
0.0
0.0
0.0
0.0
0.0
0.0
0.0
0.0
0.0
0.0
0.0
0.0
0.0
0.0
0.0
0.0
0.0
0.0
0.0
0.0
0.0
0.0
0.0
0.0
0.0
0.0
0.0
0.0
0.0
0.0
0.0
0.0
0.0
0.0
0.0
0.0
0.0
0.0
0.0
0.0
0.0
0.0
0.0
0.0
0.0
0.0
0.0
0.0
0.0
0.0
0.0
0.0
0.0
0.0
0.0
0.0
0.0
0.0
0.0
0.0
0.0
0.0
0.0
0.0
0.0
0.0
0.0
0.0
0.0
0.0
0.0
0.0
0.0
0.0
0.0
0.0
0.0
0.0
0.0
0.0
0.0
0.0
0.0
0.0
0.0
0.0
0.0
0.0
0.0
0.0
0.0
0.0
0.0
0.0
0.0
0.0
0.0
0.0
0.0
0.0
0.0
0.0
0.0
0.0
0.0
0.0
0.0
0.0
0.0
0.0
0.0
0.0
0.0
0.0
0.0
0.0
0.0
0.0
0.0
0.0
0.0
0.0
0.0
0.0
0.0
0.0
0.0
0.0
0.0
0.0
0.0
0.0
0.0
0.0
0.0
0.0
0.0
0.0
0.0
0.0
0.0
0.0
0.0
0.0
0.0
0.0
0.0
0.0
0.0
0.0
0.0
0.0
0.0
0.0
0.0
0.0
0.0
0.0
0.0
0.0
0.0
0.0
0.0
0.0
0.0
0.0
0.0
0.0
0.0
0.0
0.0
0.0
0.0
0.0
0.0
0.0
0.0
0.0
0.0
0.0
0.0
0.0
0.0
0.0
0.0
0.0
0.0
0.0
0.0
0.0
0.0
0.0
0.0
0.0
0.0
0.0
0.0
0.0
0.0
0.0
0.0
0.0
0.0
0.0
0.0
0.0
0.0
0.0
0.0
0.0
0.0
0.0
0.0
0.0
0.0
0.0
0.0
0.0
0.0
0.0
0.0
0.0
0.0
0.0
0.0
0.0
0.0
0.0
0.0
0.0
0.0
0.0
0.0
0.0
0.0
0.0
0.0
0.0
0.0
0.0
0.0
0.0
0.0
0.0
0.0
0.0
0.0
0.0
0.0
0.0
0.0
0.0
0.0
0.0
0.0
0.0
0.0
0.0
0.0
0.0
0.0
0.0
0.0
0.0
0.0
0.0
0.0
0.0
0.0
0.0
0.0
0.0
0.0
0.0
0.0
0.0
0.0
0.0
0.0
0.0
0.0
0.0
0.0
0.0
0.0
0.0
0.0
0.0
0.0
0.0
0.0
0.0
0.0
0.0
0.0
0.0
0.0
0.0
0.0
0.0
0.0
0.0
0.0
0.0
0.0
0.0
0.0
0.0
0.0
0.0
0.0
0.0
0.0
0.0
0.0
0.0
0.0
0.0
0.0
0.0
0.0
0.0
0.0
0.0
0.0
0.0
0.0
0.0
0.0
0.0
0.0
0.0
0.0
0.0
0.0
0.0
0.0
0.0
0.0
0.0
0.0
0.0
0.0
0.0
0.0
0.0
0.0
0.0
0.0
0.0
0.0
0.0
0.0
0.0
0.0
0.0
0.0
0.0
0.0
0.0
0.0
0.0
0.0
0.0
0.0
0.0
0.0
0.0
0.0
0.0
0.0
0.0
0.0
0.0
0.0
0.0
0.0
0.0
0.0
0.0
0.0
0.0
0.0
0.0
0.0
0.0
0.0
0.0
0.0
0.0
0.0
0.0
0.0
0.0
0.0
0.0
0.0
0.0
0.0
0.0
0.0
0.0
0.0
0.0
0.0
0.0
0.0
0.0
0.0
0.0
0.0
0.0
0.0
0.0
0.0
0.0
0.0
0.0
0.0
0.0
0.0
0.0
0.0
0.0
0.0
0.0
0.0
0.0
0.0
0.0
0.0
0.0
0.0
0.0
0.0
0.0
0.0
0.0
0.0
0.0
0.0
0.0
0.0
0.0
0.0
0.0
0.0
0.0
0.0
0.0
0.0
0.0
0.0
0.0
0.0
0.0
0.0
0.0
0.0
0.0
0.0
0.0
0.0
0.0
0.0
0.0
0.0
0.0
0.0
0.0
0.0
0.0
0.0
0.0
0.0
0.0
0.0
0.0
0.0
0.0
0.0
0.0
0.0
0.0
0.0
0.0
0.0
0.0
0.0
0.0
0.0
0.0
0.0
0.0
0.0
0.0
0.0
0.0
0.0
0.0
0.0
0.0
0.0
0.0
0.0
0.0
0.0
0.0
0.0
0.0
0.0
0.0
0.0
0.0
0.0
0.0
0.0
0.0
0.0
0.0
0.0
0.0
0.0
0.0
0.0
0.0
0.0
0.0
0.0
0.0
0.0
0.0
0.0
0.0
0.0
0.0
0.0
0.0
0.0
0.0
0.0
0.0
0.0
0.0
0.0
0.0
0.0
0.0
0.0
0.0
0.0
0.0
0.0
0.0
0.0
0.0
0.0
0.0
0.0
0.0
0.0
0.0
0.0
0.0
0.0
0.0
0.0
0.0
0.0
0.0
0.0
0.0
0.0
0.0
0.0
0.0
0.0
0.0
0.0
0.0
0.0
0.0
0.0
0.0
0.0
0.0
0.0
0.0
logs/alpha_1.5/PGSD_100steps_0.log 1000070.52591 1000.07052591 0.0 1000000.0 0.0 226
