Policy Parameters:	-1.21077475248 1.78891660645
Control Steps:		1000
Start Time:		1438430537.9920917

-- TESTING STOPPED --

Stop Time:		1438430621.3103986
Duration:		83.3183069229126
Cost Matrix:
0.420235852875
0.734603061277
0.513729092602
0.268331217468
0.268694791403
0.149768381564
0.120322956463
0.167610940171
0.218940529759
0.128463995732
0.203445409271
0.257952997114
0.184933149278
0.141545796483
0.14312046041
0.162786787667
0.169506156484
0.20443816357
0.198951665328
0.186800452911
0.176667228779
0.162661066296
0.135230329524
0.165953938037
0.146184717161
0.125047607596
0.179626615908
0.244569133303
0.199413030155
0.181197899787
0.0900556369515
0.0283357509858
0.0710756472379
0.129627229898
0.0506706953616
0.0926318519834
0.172820651705
0.345665833434
0.388816748151
0.202325748897
0.168059299083
0.139723601239
0.131489120512
0.120517865253
0.162287692983
0.0953917328677
0.0731486780578
0.111544619122
0.060220540674
0.103106322065
0.0442637798501
0.0607430851966
0.0969768469895
0.0901898902906
0.135571521753
0.0668399805571
0.0839285894256
0.0415684984824
0.00720099625671
0.0353497888215
0.0579936038989
0.082805951301
0.028528150635
0.0478985273578
0.0146168523303
0.0658473205004
0.0601242689736
0.0524317249185
0.123189136402
0.0584011292548
0.078861677255
0.101745504797
0.110370847932
0.132287700143
0.154055184772
0.145259338312
0.148519859554
0.183882121455
0.159857189836
0.137331350427
0.149901527743
0.172192544595
0.184490738907
0.154240491864
0.14623670259
0.159000793177
0.176405295181
0.177888806129
0.119423376342
0.128409479566
0.134156814188
0.158899746609
0.16468688594
0.110395277862
0.107245515397
0.109239670092
0.0450347682329
0.0450805821778
0.0423188543824
0.0433429712458
0.0572163908709
0.0517668524228
0.043613182469
0.080721440287
0.100791909784
0.12576704247
0.189504761741
0.192385645159
0.218557835761
0.228215560937
0.238978103582
0.268316852804
0.309540771149
0.332075430717
0.37500388217
0.43970476187
0.532051996864
0.609856385682
0.711241295938
0.677822508155
0.797254313819
0.635944929746
0.74711752801
0.615458601202
0.87079194069
0.558675906447
0.517265451648
0.508610999774
0.402862045408
0.337088985197
0.317398464507
0.0472462330696
0.0511036305527
0.0649621331339
0.0516677594682
0.0437165619622
0.0315117359438
0.0174025122959
0.0339892800335
0.0571958958131
0.054143258696
0.0458843591296
0.0398763199355
0.0124199190171
0.0172590067089
0.054631760714
0.0980565569594
0.0454599343813
0.0548315034484
0.0880621338841
0.022278199711
0.0133839412268
0.0188491151351
0.0573419910791
0.0646610356321
0.0219616038224
0.0220189158535
0.0106710441663
0.0167974615218
0.00889627318507
0.0335247277592
0.0221963148344
0.023070386279
0.0136857300359
0.0340105384301
0.0389304732228
0.0205424557037
0.043249186308
0.0630184963729
0.0986497444669
0.105699750308
0.0500973336013
0.050183096073
0.047082538522
0.0375215348074
0.0395800552981
0.0336175366851
0.0719040543657
0.11860010591
0.0707836905879
0.0966607301998
0.08853813403
0.100736705681
0.085771029179
0.0312935531796
0.0503653517126
0.0384721883181
0.0215008637031
0.0180621477899
0.0603515675448
0.131596265403
0.155778247514
0.215682066399
0.24266342294
0.325991622598
0.450420420311
0.534355969685
0.768690352252
1.16059436353
1.12314403264
1.21324494616
1.20395543459
1.29374676232
1.29662968945
1.3750043896
1.42536114338
1.19482533712
0.976801295872
0.877172655078
0.942125090513
0.828407002704
1.05956038881
0.246329293408
0.0751116016068
0.00688559972514
0.0905843301122
0.158744436618
0.202995474486
0.247446306252
0.291826849652
0.319926093818
0.354111131349
0.393688657963
0.403599866039
0.411468388322
0.435469758061
0.425281873835
0.456600354175
0.480452072181
0.458599046725
0.490514092936
0.507247580922
0.473029111504
0.441464752164
0.392903951165
0.30461900054
0.275853874739
0.24183014455
0.221971138861
0.177371550193
0.110837745504
0.0755404971634
0.0438268803149
0.0377507436562
0.0190377444883
0.0202743931657
0.02218152973
0.00994590350518
0.0280082994388
0.0445576251184
0.0774152189321
0.0678932998028
0.0910678162081
0.0858777973055
0.0858879096727
0.0826869140845
0.0339451284109
0.00404411113113
0.0687544629472
0.0775069836319
0.00750803832415
0.029192073871
0.0496722081664
0.0923233852191
0.0175555400376
0.0342218544326
0.0406566788391
0.0260501319069
0.0847829227269
0.148407499383
0.0749417015551
0.0673424619938
0.0996260442244
0.0470657971954
0.0539622087239
0.0812169264465
0.0493353162786
0.0184823559816
0.100404851984
0.191310177526
0.134271873902
0.149710623832
0.12566518742
0.159311034965
0.122736521225
0.165131696817
0.205248644247
0.245033948861
0.319028177776
0.259934512258
0.293190595875
0.338173264827
0.368481304204
0.428676781238
0.419967888716
0.420064951246
0.420157134795
0.508640083013
0.528252938136
0.512700355058
0.492173468078
0.417428144048
0.362196667207
0.29045641408
0.300568620237
0.394910118201
0.280877529223
0.232082736121
0.126450831193
0.111227941751
0.0876278702395
0.0634579171456
0.0289771520845
0.0247157113789
0.0386187578372
0.0457167540491
0.0809334722755
0.0369693112165
0.0860599213554
0.115931519869
0.119928624155
0.00566807896176
0.0376664449719
0.112946349101
0.128208720441
0.0850414779306
0.0786993892166
0.239968039853
0.419879522287
0.0423041518311
0.0411090591644
0.0592035415178
0.0568042241184
0.0882343914093
0.119228868971
0.0573111948227
0.0852324130134
0.0829970022974
0.0230720173559
0.0494495640468
0.0738013939693
0.122764803606
0.164091612705
0.170073544583
0.216364039743
0.305792709244
0.375556866548
0.41242062747
0.446832477868
0.493436763775
0.543044389264
0.602767135283
0.642671730348
0.72260312851
0.960184435819
0.777716190844
0.620293907733
0.666728250096
0.67084216794
0.538703302533
0.513196677917
0.458667212283
0.44324342946
0.418548052081
0.261658943829
0.0879712203738
0.016171266877
0.107611038717
0.224699271576
0.236608054447
0.190808650314
0.184263267823
0.109717488819
0.0624630197839
0.0968924958517
0.0868636480892
0.142890067931
0.0630463054106
0.0552317455488
0.0934552965904
0.0906451578215
0.0336066525153
0.064438602289
0.0234184203505
0.0456177319222
0.108460391846
0.117443529294
0.0408224654371
0.0149052709277
0.0426682692328
0.0852926376553
0.0912798382696
0.047749306572
0.00608220177679
0.025673868752
0.081009530559
0.0947606310016
0.0389058914993
0.0563586936795
0.0700065224115
0.0808288182054
0.108028817593
0.119541041358
0.105507990648
0.0520709164891
0.082013232436
0.131145392829
0.160040139701
0.144165139275
0.118317574498
0.126382098773
0.154245596504
0.162586582812
0.155261105994
0.17858249578
0.137921535665
0.152428144745
0.16973235508
0.160664396311
0.167965104654
0.175444756601
0.175804383904
0.171140456293
0.142171814907
0.1224046684
0.138305146672
0.112861260011
0.126907068931
0.128646415548
0.124381903402
0.119239985332
0.117631895381
0.109365014861
0.0949919516057
0.0812564435498
0.0755916873135
0.0672876699765
0.0494525818179
0.0356291810519
0.0152184195437
0.0306277201426
0.0204800174316
0.0262198746619
0.0256771307617
0.0441325683367
0.0637374993347
0.0760578515498
0.0762042724505
0.0606504453954
0.0634693008942
0.0748009605169
0.0969537785067
0.109423920379
0.101375721971
0.0877476180926
0.0888251946254
0.114132058487
0.102926796054
0.0868306866931
0.0620211126088
0.0727671230071
0.0879960737321
0.0837870086274
0.076329760916
0.0726608213999
0.0671223880348
0.0829885356888
0.0987938460917
0.110598987865
0.123233463923
0.138107189182
0.140974526832
0.159945670236
0.176182381956
0.18012721849
0.193295504329
0.210520191336
0.21719746007
0.210286259697
0.23081256071
0.242688602809
0.257990276621
0.269001270434
0.28944634609
0.303098531102
0.310083026707
0.326572621848
0.333786171069
0.362142313827
0.377967444655
0.397309307043
0.434881900538
0.46450772116
0.466755892932
0.496811071254
0.545670131575
0.565951441057
0.6873064559
0.674473683831
1.06756435427
0.895957936174
0.92248168558
1.17383816059
0.908650782355
1.10903032103
1.15088520214
1.51246582764
1.33436813457
1.20414629277
1.70188661211
0.863395897225
0.624742504346
0.102993705588
0.232850299747
0.313086851661
0.348482293089
0.333577445378
0.27353866671
0.184826006353
0.167172323324
0.137946053608
0.217951511264
1.06761619307
0.223754413492
0.186008769455
0.182285799363
0.293246528207
0.148615581683
0.0209531265677
0.0746719752211
0.0361651255145
0.100789078968
0.101449652637
0.00511424921211
0.229558758661
0.119993732461
0.0632537650825
0.0612122091056
0.0169402136688
1000000.0
0.0
0.0
0.0
0.0
0.0
0.0
0.0
0.0
0.0
0.0
0.0
0.0
0.0
0.0
0.0
0.0
0.0
0.0
0.0
0.0
0.0
0.0
0.0
0.0
0.0
0.0
0.0
0.0
0.0
0.0
0.0
0.0
0.0
0.0
0.0
0.0
0.0
0.0
0.0
0.0
0.0
0.0
0.0
0.0
0.0
0.0
0.0
0.0
0.0
0.0
0.0
0.0
0.0
0.0
0.0
0.0
0.0
0.0
0.0
0.0
0.0
0.0
0.0
0.0
0.0
0.0
0.0
0.0
0.0
0.0
0.0
0.0
0.0
0.0
0.0
0.0
0.0
0.0
0.0
0.0
0.0
0.0
0.0
0.0
0.0
0.0
0.0
0.0
0.0
0.0
0.0
0.0
0.0
0.0
0.0
0.0
0.0
0.0
0.0
0.0
0.0
0.0
0.0
0.0
0.0
0.0
0.0
0.0
0.0
0.0
0.0
0.0
0.0
0.0
0.0
0.0
0.0
0.0
0.0
0.0
0.0
0.0
0.0
0.0
0.0
0.0
0.0
0.0
0.0
0.0
0.0
0.0
0.0
0.0
0.0
0.0
0.0
0.0
0.0
0.0
0.0
0.0
0.0
0.0
0.0
0.0
0.0
0.0
0.0
0.0
0.0
0.0
0.0
0.0
0.0
0.0
0.0
0.0
0.0
0.0
0.0
0.0
0.0
0.0
0.0
0.0
0.0
0.0
0.0
0.0
0.0
0.0
0.0
0.0
0.0
0.0
0.0
0.0
0.0
0.0
0.0
0.0
0.0
0.0
0.0
0.0
0.0
0.0
0.0
0.0
0.0
0.0
0.0
0.0
0.0
0.0
0.0
0.0
0.0
0.0
0.0
0.0
0.0
0.0
0.0
0.0
0.0
0.0
0.0
0.0
0.0
0.0
0.0
0.0
0.0
0.0
0.0
0.0
0.0
0.0
0.0
0.0
0.0
0.0
0.0
0.0
0.0
0.0
0.0
0.0
0.0
0.0
0.0
0.0
0.0
0.0
0.0
0.0
0.0
0.0
0.0
0.0
0.0
0.0
0.0
0.0
0.0
0.0
0.0
0.0
0.0
0.0
0.0
0.0
0.0
0.0
0.0
0.0
0.0
0.0
0.0
0.0
0.0
0.0
0.0
0.0
0.0
0.0
0.0
0.0
0.0
0.0
0.0
0.0
0.0
0.0
0.0
0.0
0.0
0.0
0.0
0.0
0.0
0.0
0.0
0.0
0.0
0.0
0.0
0.0
0.0
0.0
0.0
0.0
0.0
0.0
0.0
0.0
0.0
0.0
0.0
0.0
0.0
0.0
0.0
0.0
0.0
0.0
0.0
0.0
0.0
0.0
0.0
0.0
0.0
0.0
0.0
0.0
0.0
0.0
0.0
0.0
0.0
0.0
0.0
0.0
0.0
0.0
0.0
0.0
0.0
0.0
0.0
0.0
0.0
0.0
0.0
0.0
0.0
0.0
0.0
0.0
0.0
0.0
0.0
0.0
0.0
0.0
0.0
0.0
0.0
0.0
0.0
0.0
0.0
0.0
0.0
0.0
0.0
0.0
0.0
0.0
0.0
0.0
0.0
0.0
0.0
0.0
0.0
0.0
0.0
0.0
0.0
0.0
0.0
0.0
0.0
0.0
0.0
0.0
0.0
0.0
0.0
0.0
0.0
0.0
0.0
0.0
0.0
0.0
0.0
0.0
0.0
0.0
0.0
0.0
0.0
0.0
0.0
0.0
0.0
0.0
0.0
0.0
0.0
0.0
0.0
0.0
0.0
0.0
0.0
0.0
0.0
0.0
0.0
0.0
0.0
0.0
0.0
0.0
0.0
0.0
0.0
0.0
0.0
0.0
0.0
0.0
0.0
0.0
0.0
0.0
0.0
0.0
0.0
0.0
0.0
0.0
0.0
0.0
0.0
0.0
0.0
0.0
0.0
0.0
0.0
0.0
0.0
0.0
0.0
0.0
0.0
0.0
0.0
0.0
0.0
0.0
0.0
0.0
logs/alpha_1.5/PGSD_600steps_4.log 1000122.23349 1000.12223349 0.0251947900654 1000000.0 0.0 539
