Initial Policy Parameters:	0.0 0.0
Learning Rate:			1.5
Learning Steps:			1000
Start Time:			1437176391.8071475

-- LEARNING STOPPED --

Stop Time:			1437176555.3808477
Duration:			163.57370018959045
Final Policy Parameters:	-2.70102794319 2.49745969862
