Policy Parameters:	-6.35788119131 2.05964702893
Control Steps:		1000
Start Time:		1442104321.3390288

-- TESTING STOPPED --

Stop Time:		1442104497.6864128
Duration:		176.34738397598267
Cost Matrix:
0.120452697136
0.880394311096
0.444494844178
0.530982208927
0.722413585113
0.293751353931
0.527445742418
0.324857019304
0.179545602027
0.267157846122
0.335023391049
0.187945864665
0.270081534837
0.055727601578
0.193451388921
0.294522104605
0.137374776109
0.130096688194
0.206017213813
0.257540260439
0.1104702701
0.170590565946
0.155678408301
0.0709785627739
0.114543570264
0.0177662165899
0.0806709823071
0.534289999184
0.045008269588
9.23980956538e-05
0.173973829843
0.229844470846
0.0225541158304
0.0425956278794
0.133295345801
0.300080554703
0.274185175094
0.0459946205753
0.102247842263
0.00267273165759
0.109320258308
0.0452648533402
0.037131396764
0.041636663734
0.0375100242053
0.185516031371
0.00857295076384
0.0170126015456
0.0879814903195
0.180862212007
0.0375979920543
0.0421315243105
0.135396464117
0.178293021334
0.134052229263
0.291934872804
0.197298922297
0.0366429320522
0.073729915196
0.0252167070472
0.0521857024751
0.100414166434
0.100798558621
0.157452032996
0.149944313372
0.0985467563309
0.0971968445934
0.170171058661
0.251680941074
0.298641423175
0.415658612686
0.539384975279
0.553593047313
0.610560534749
0.804892082159
0.619757668388
0.936892924706
0.644091083505
0.955198969027
0.595134975642
0.68973748273
0.565934977927
0.801120055367
0.509692237657
0.475844677783
0.375502437813
0.263883552273
0.320840336181
0.174036262754
0.0526045848464
0.00971399415788
0.0672258719381
0.0874393105467
0.0130669210914
0.229092670711
0.260880966753
0.340336336524
0.158803984322
0.445733261197
0.310733762385
0.510005384918
1.1087353123
0.984629546365
1.77191541009
2.39471280884
2.13098421301
2.58600169702
2.47115103286
2.94796014656
0.338547878716
3.22755281529
0.133886831586
1.42686749897
0.0592164939982
0.0302090774297
0.18905949375
0.266827281888
0.102115161103
0.0239656372479
0.204100501117
0.259260919226
0.511518841419
0.252030197236
0.271391171701
0.395541270119
0.234532537505
0.0677665168637
0.0231938891493
0.0349347874537
0.0225489264784
0.0350401393437
0.350387157315
0.0362785912761
0.0512406637618
0.306800226749
0.151708820211
0.527703264442
0.00781067258596
0.0147609104645
0.167184289012
0.0476519215792
0.103744421806
0.0755186699094
0.123736530433
0.0301929642469
0.0377942582174
0.0593894964685
0.01105780528
0.0149401375215
0.101299552316
0.0462328875926
0.0664782699867
0.0598770340861
0.105983862313
0.104178804691
0.0819267286505
0.117963118805
0.107764564879
0.0935120055924
0.0977055341262
0.132363514126
0.297035150053
0.365671566935
0.672136842355
0.232251106147
0.386103462682
1.30036972302
0.773075496193
1.72539335692
0.985195882643
2.27133466093
1.79767840874
1.96202369801
1.60825861987
1.77383415857
1.27807903503
1.57386585769
1.16012929897
0.780740875724
0.325253049388
0.195704729145
0.557237460502
0.508805308651
0.441685489224
0.662254583703
0.260265642055
0.274220703116
0.431427404399
0.465842879672
0.529674154658
0.503360876792
0.382588867477
0.748956556896
0.402292593323
0.543447430296
0.956838127605
0.488740816921
0.919735925253
1.07585670738
0.933291312678
1.12054175615
0.998603372385
1.32050726935
1.0005104463
1.1606627972
0.933203066491
0.81616756251
0.630347850559
1.16379027368
0.159641925212
0.936775789899
0.210769899885
0.301846044892
0.337958148892
0.318196995192
0.404341645918
0.831379206586
0.324905861898
0.485316173569
0.763460258538
0.433186619032
0.269797675077
0.385638648885
1.09852773966
0.374237056447
0.485992393594
0.538217882445
0.320523018881
0.328183037907
0.396515465084
0.4847821155
0.927426439145
0.154054476
0.0379532842064
0.164761016206
0.10517102042
0.187149613194
0.233038144375
0.519996591843
0.631583049601
0.0799406525982
0.0946607243486
0.455620715053
0.380455579083
0.498236837948
0.445270234275
0.489688613107
0.443097478768
0.386214245353
0.383967701122
0.602876182376
0.281747856822
0.394018181712
0.293388326648
0.430486614601
0.515871512785
1.07487959439
0.520428411092
1.38177945914
1.0408280958
1.44700719794
1.27922182711
1.39558151255
1.38287310378
1.15461074814
1.28322113678
1.08086328597
0.970641781158
1.00589921183
0.499860937257
0.390615492325
0.391470319194
0.404115336542
0.530585511843
0.504968150673
0.361019445769
0.507730212278
0.444978557041
0.202800237365
0.236660661341
0.434642461328
0.387834833901
0.435388802061
0.235438480139
0.169887569215
0.158400584461
0.167859026489
0.255015648637
0.275565147842
0.217005421663
0.301339282525
0.626921450599
0.491960269423
0.403667729504
0.518504257271
1.7907012388
1.60166309974
3.01092873194
2.16763421088
3.23043934901
0.494604987661
3.77305592361
1.13929409745
2.18842447266
0.610213605619
2.14211485605
0.0486581816475
0.0615127515535
0.0817461460574
0.451228492272
0.0434794702103
0.224355559589
0.032582967624
0.128172861989
0.397205954141
0.384481058245
0.359956915219
0.478647117716
0.356349393703
0.16699102333
0.336236519224
0.275915810326
0.249595440334
0.286997195357
0.386418825881
0.249802149312
0.169894645098
0.405310821312
0.0917117923551
0.173804233951
0.265281477071
0.175911700679
0.332913432672
0.067194703819
0.162740389511
0.182728226924
0.0332283633233
0.301351453402
0.183330386278
0.166624120383
0.0831587219584
0.153176697405
0.235918985931
0.246282070651
0.274864652185
0.34538139212
0.454633724218
0.663704077895
0.519594812354
0.565623781935
0.706493362498
0.548767958199
0.565453568866
0.56639722458
0.567927808527
0.559015947055
0.536304219952
0.353993454691
0.486562163788
0.362563404249
0.308345946356
0.0673484920494
0.0418843103169
0.0840313401864
0.15709204788
0.182941713394
0.0959230691917
0.0863278395469
0.0563931262311
0.210011284224
0.195374840231
0.392010117495
0.418085880162
0.522442879086
0.367886807618
0.454685368155
0.367142968736
0.382390309074
0.503749898624
0.748629659207
0.295946111957
0.422657978371
0.316349573066
0.382875232318
0.599412703724
0.475946622431
0.528488129847
0.495046127809
0.521934134055
0.318250774333
0.444552348429
0.948699064818
0.301389277115
0.479716123679
1.28576958378
0.429382117863
0.494100984553
0.680575940635
0.644157909566
0.610252633188
0.389038484658
0.774567306786
0.15076115077
0.0339847868255
0.195272632012
0.0531006129325
0.19202534349
0.0936148266047
0.097769633518
0.0421834446555
0.0707402449803
0.469961281848
0.190420850312
1.2138659976
0.0466288626882
0.0496827070028
0.060956378804
0.10603826522
0.130694866724
0.210740951946
0.245427450443
0.245393396529
0.231891294685
0.233703945441
0.228721733805
0.271663350484
0.332350723243
0.315022498378
0.424724992284
0.388702739305
0.390399934175
0.398516480564
0.433276158822
0.451744611624
0.385352639479
0.470192868621
0.470005823576
0.499658424998
0.390370915092
0.390223293322
0.413765731306
0.236267797954
0.259328690441
0.222516619441
0.178802636148
0.157230744475
0.169493963655
0.169888364235
0.0594645774059
0.0236095576643
0.132368471329
0.243447457759
0.222967030786
0.411247400951
0.412588285787
0.40441174366
0.368281089069
0.485202804731
0.418775249887
0.392663655622
0.437310562102
0.340354208595
0.449466769922
0.433868233944
0.442559275594
0.527346442759
0.145068649003
0.0229473285301
0.126488004931
0.172979054438
0.152541444171
0.300397304713
0.00788360802127
0.228191624327
0.0947855392614
0.14644174669
0.161791346625
0.157103261109
0.125846208008
0.0893645436819
0.0782509239535
0.174730978951
0.192929290253
0.293095393073
0.300869206437
0.330674730996
0.379253236848
0.411031612306
0.446031894772
0.539252050002
0.731693930088
0.664922207915
0.819011408281
0.824255262845
0.874361915697
0.90200977554
1.0105838518
1.00618875581
0.682104214559
0.616006716059
1.27252033516
0.384109326587
0.547049497424
0.429866000948
0.246079373203
0.243075622526
0.135611154602
0.0980682584321
0.0516981411912
0.153798537499
0.278886587619
0.0427742602715
0.11236393961
0.222609170367
0.0769289752203
0.0798426427383
0.175945051275
0.177338161067
0.0482945231499
0.00259596502454
0.0266943723398
0.0667008716077
0.148601200141
0.300849994366
0.704102427507
0.0194514535643
0.0242769998112
0.0999115972392
0.0782137924088
0.296125353693
0.208601075966
0.239200552604
0.00286455600902
0.04233592523
0.112148275269
0.304101156836
0.069772107966
0.0187062531844
0.0778539143124
0.227278815805
0.0497084817815
0.340370160151
0.278508444919
0.379059041762
0.133979108356
0.179430354556
0.330849013356
0.268345761623
0.217655486055
0.344559848044
0.415564333696
1.18932539887
0.483342101678
1.33965459151
0.811575021388
1.52090304584
0.603995283192
1.32466797973
0.640509642643
1.57507783822
0.577270323539
1.59014617624
0.175401113373
0.946411742156
0.348010941145
0.351043502268
0.164910809756
0.0846566145431
0.373471337084
0.0702190372105
0.0950360405211
0.00411592021164
0.207763399149
0.0890038373649
0.00839659341554
0.108570976722
0.212723786854
0.0332229345142
0.0562967273071
0.0406343057472
0.0528328379834
0.0298098875004
0.043596850827
0.0558802305591
0.13490330097
0.239697660995
0.0514665663203
0.00781342284743
0.0623598222254
0.070630864285
0.0671437102543
0.0601973514144
0.0465833485432
0.0319855182784
0.194912030624
0.129773154564
0.0204511339352
0.221586198943
0.0037348961404
0.331500016672
0.198842301786
0.344699907219
0.329675014374
0.173288669929
0.424912942362
2.7831799237
0.101489159405
0.89828389783
1.18227191728
0.926040750908
1.65756286358
1.14466381295
1.25910642347
1.44686999036
1.45306384751
1.16047605169
1.04537785203
0.682815188837
0.708498233836
0.297962473315
0.230912208833
0.407046209636
0.141407292863
0.347258249488
0.402204618735
0.0391784144085
0.529713087652
0.251352714999
0.458895945045
0.225833112159
0.306764377068
0.402273268729
0.364500300656
0.500702209801
0.806827053472
0.254324030778
0.527492761918
0.303274529041
0.377524201979
0.297402494175
0.229180375683
0.250080814788
1.30482256367
0.0175529515916
0.129225690024
0.110138304066
0.108017750463
0.225484892623
0.0498616282674
0.0664657278502
0.142541174006
0.24583358207
0.201481071972
0.139874929366
0.159987386942
0.207215826059
0.1682703087
0.227783309711
0.167870730525
0.154367622541
0.182464844312
0.148719652503
0.136165215942
0.111453244341
0.163425465152
0.186524401413
0.231606208662
0.162430953638
0.176067029135
0.121668709061
0.0784400145466
0.0349682761478
0.0270433205773
0.031755266051
0.117863033542
0.357455286226
0.176607805101
1.607768372
0.00515828478743
0.155639098688
0.523765686372
0.375875625219
0.491807693796
0.538883293337
0.700693896251
0.629049087421
1.47031904077
0.972131184161
1.5462798467
1.16625421153
1.45227251735
1.20523581355
1.67764224241
0.892936283627
0.888093710629
0.897382889804
1.11643456036
0.346779579172
0.120748812673
0.161426329007
0.246513834421
0.117515934406
0.208551040294
0.448562278703
0.483924182165
0.495063681922
0.435720400109
0.362012742106
0.307426957424
0.26201229726
0.216331443786
0.286654525555
0.218139334529
0.12201877026
0.0725585322093
0.0390824543707
0.0462836896289
0.00513025860718
0.182364455269
0.316398220673
0.0209803059799
0.257885901076
0.368625676424
0.0955479348986
0.210965431857
0.0752592515741
0.115081346877
0.0562580010991
0.0745445454491
0.440393047681
0.144879966799
0.522023949593
0.620890022545
0.189356463658
0.203168691876
0.478418717304
0.176642072923
0.265510687455
0.483375743242
0.572445683855
0.305975630062
0.381925527734
0.215643269283
0.335413747641
0.482622772862
0.231814103741
0.0693084671035
0.107235836109
0.200895071612
0.31847898907
0.205306280724
0.218631239007
0.330680284374
0.310229759331
0.3621925406
0.266484216514
0.325623463106
0.348980701484
0.415313581854
0.324951308664
0.272829890899
0.160230448226
0.125052456407
0.126563178113
0.216970362394
0.309256935917
0.245506989056
0.172960765361
0.237071448675
0.160073963595
0.201797146266
0.0711177676537
0.0891860291696
0.0561374201019
0.0807353273514
0.120234699992
0.325752018135
0.01172940245
0.108885295962
0.174573620124
0.132026631588
0.0168130769279
0.125815806127
0.131835866013
0.199757012443
0.0342129843772
0.0534680779924
0.104798413938
0.0606997725968
0.11133840731
0.309730633809
0.0557100124889
0.1255008566
0.152656496171
0.131719877655
0.102972762254
0.080680075428
0.161291356508
0.0702913049507
0.0379521145164
0.119692215903
0.122896944894
0.331594549827
0.274138650625
0.243476921371
0.0232750021001
0.226541162913
0.302157733735
0.268977855792
0.0948974465804
0.0708899612839
0.0886319143823
0.0511038503512
0.35295176587
0.168660006935
0.164250200806
0.251742674781
0.258176188559
0.378440802215
0.124629697194
0.380538274315
0.0328690489104
0.0467895573326
0.312671029489
0.0345320796542
0.355765809083
0.469214122952
0.195552125896
0.489915871723
0.355974114913
0.477738473531
0.449203076154
0.537001372276
0.900304694256
0.878092068668
0.55113126618
1.73707839286
0.592289874897
1.16524903982
0.522478055944
1.65387972858
0.204718628887
0.635760853344
0.424713715412
0.382048374416
0.31520527664
0.193044554936
0.306371143881
1.19272205301
0.0270617698774
0.0280139116778
0.0298593639632
0.027903780755
0.102023497677
0.151820178075
0.0864790991634
0.0495666597422
0.107200261072
0.141341299984
0.179696032032
0.191512260367
0.267344974592
0.182235835078
0.186118256253
0.28213830104
0.252957056827
0.19806785849
0.301551143288
0.257821035512
0.276133278899
0.380832012308
0.437673175586
0.472529246518
0.481921636469
0.526980044563
0.539038610789
0.59246474295
0.717698773646
0.545131450504
0.695933445938
0.441808037158
0.504415021351
0.629233811271
0.410529605634
0.494464517822
0.481271514543
0.409541321869
0.209957366816
0.343354970873
0.426770687059
0.0309800853347
0.0236236545686
0.150329748835
0.505057294616
0.29815452995
0.24307767806
0.31780817781
0.294764285779
0.294555574866
0.358423965167
0.876470066952
0.468546220284
0.503773465449
0.530688593568
1.07110116721
0.399711933977
0.981017891088
0.065833265434
0.302058324834
0.402210485913
0.377506936844
0.504950787427
0.474266867943
0.395746024196
2.0036438084
0.00723238736633
0.209875048673
0.0406472539292
0.155499496574
0.390960391187
0.308129313283
0.332847308413
0.291240147005
0.312213303162
0.0698702142401
0.365297111388
0.164424067859
0.196811794266
0.266899536634
0.31511674318
0.334531928954
0.247884410987
0.105853759226
0.176136740112
0.191506809297
0.0967993767111
0.148593949551
0.104207024696
0.121632614176
0.092649363502
0.0497905935956
0.103518128014
0.165657776234
0.147956277638
0.164129884074
0.203363295287
0.172560181646
0.136871907707
0.228878044953
0.0805424929692
0.110799796611
0.184198341336
0.0852054099278
0.131201266688
0.0997967423953
0.044294181471
0.129816852017
0.207713432246
0.280176382779
0.299981122041
0.357945958478
0.214306486057
0.0609435418898
0.339224403328
0.46671102767
0.0306060146192
0.219385750767
0.176558304085
0.46613362261
0.397770022325
0.411413135029
0.406090736346
0.613577028761
0.505622623377
0.828123577892
0.841810002381
1.42741895432
1.45700731554
2.39345447105
1.3537287857
3.19272500999
2.21525221543
2.78615065128
3.77520281471
0.296936662952
0.321915472099
2.6436201032
0.069310022637
0.14182320329
0.0345431840181
0.1787635434
0.254021769601
0.249229655579
0.450817627815
0.315525156728
0.306681335485
0.213671430065
0.136018760701
0.359643934419
0.540786440922
logs/alpha_5.0/PGSD_1000steps_3.log 411.405188602 0.411405188602 0.274542677651 3.77520281471 9.23980956538e-05 -1
