Policy Parameters:	-1.05745642681 1.65677628915
Control Steps:		1000
Start Time:		1442375536.7359874

-- TESTING STOPPED --

Stop Time:		1442375693.1618721
Duration:		156.42588472366333
Cost Matrix:
0.247333158889
0.40977022641
0.499862772063
0.552888943811
0.598891083575
0.588975381992
0.629281243438
0.71876382352
0.73147840934
0.694026790152
0.74932280281
0.853991242852
0.419422907102
0.493932952395
0.523225542155
0.234007962084
0.122385730143
0.0790644829132
0.0695399319566
0.0641407117908
0.0587252584005
0.0700748602957
0.0798096150138
0.047060310635
0.0227859285891
0.060136252799
0.053319654492
0.0181952053488
0.0173749475997
0.0470749880946
0.00920085799303
0.0241257473686
0.0441086733491
0.037404014333
0.0299530826948
0.00125237703667
0.0278618458568
0.0370203242369
0.0858660336305
0.147836869414
0.153242213373
0.148796816304
0.167550988619
0.211866174101
0.200107850785
0.205415455575
0.185266478288
0.747475739717
1.85547690572
0.216050730471
0.268990607116
0.309422841304
0.303280972635
0.310980583146
0.296109993781
0.301882210555
0.292442270445
0.304434832377
0.267861750498
0.257515510015
0.228687560362
0.273756325433
0.3176873136
0.277912915573
0.305453718044
0.236750043555
0.21294886945
0.182405021554
0.151134949008
0.110908304564
0.0657427959365
0.0601641234039
0.0669832371335
0.101688270031
0.0926413286314
0.0505079736674
0.0270774901302
0.0141519804223
0.0349512193604
0.0210293491302
0.0204271096214
0.0633246816466
0.125374756673
0.112412169613
0.0708438326111
0.0836093651471
0.101990510394
0.0688613614732
0.0693424616188
0.0440692688783
0.0263410287564
0.00985049119066
0.0426720585924
0.0504034410476
0.0413220339201
0.0807797721255
0.0376791492563
0.0426529464684
0.0746791686205
0.0745566705328
0.0361938506364
0.0408738008606
0.0202848243466
0.0127921848886
0.0414352130273
0.0393064513137
0.0114526982274
0.0410944621153
0.0231000321517
0.0143474922144
0.069672806868
0.0818175133449
0.0782783212355
0.0699081839272
0.0369811301178
0.014654499105
0.0214832100071
0.0344467457137
0.0390654638399
0.0325089651373
0.0375793045146
0.0401372568479
0.0642627570523
0.101762507554
0.119167273524
0.131147358526
0.117108005798
0.0907252041284
0.125591961281
0.129936393116
0.136364648196
0.124403373603
0.0863038921368
0.0850507464426
0.10546400038
0.102690577249
0.0783757233929
0.0586179235431
0.0211686110721
0.0282651018612
0.0675968066616
0.0607371169166
0.0432363237324
0.0353442098862
0.0488831799622
0.0581678734161
0.0680461978542
0.0655884132759
0.0616797982554
0.0768072485891
0.10856754166
0.10108902212
0.0516059070185
0.0818072838278
0.106863933002
0.026721325314
0.0776733255348
0.102900490705
0.127957524974
0.146635179803
0.126058415145
0.148322457495
0.16567525148
0.236000252847
0.279335035096
0.293867209313
0.34082829002
0.402490023271
0.480152806901
0.556850023136
0.656221026183
0.810742820397
0.786748572843
0.838235637328
1.18105599116
0.75076302825
1.04944229596
1.10686898775
0.998594065369
0.978942538475
0.959950216484
0.858090235071
0.888186473952
0.768797165604
0.532524488274
0.526099372947
0.26836841861
0.0703197184214
0.00947849085853
0.0299215415334
0.0202008924275
0.0205801056914
0.0337929550355
0.0612788674381
0.0926025981794
0.0860635279674
0.0342900887268
0.0216869056825
0.0305204065572
0.0228573210922
0.0329136721108
0.0584060951952
0.0922204410309
0.0526263284685
0.0593860352497
0.0557707483731
0.126081529565
0.0696917461027
0.0802761248008
0.0972768926974
0.0149944788916
0.0495101475149
0.100093370578
0.0963532893514
0.0185075640166
0.0234834173818
0.0623275862316
0.0540174031889
0.0123260133286
0.0149729487055
0.0206711705331
0.104426635048
0.161328677257
0.170140599488
0.0651106126342
0.0868677861676
0.15134420499
0.119337839947
0.103530519705
0.148889854495
0.141636923314
0.170136249071
0.214164411454
0.22869524749
0.219862690924
0.164363741958
0.198496684736
0.248924781467
0.212640506201
0.229932359526
0.237521225402
0.258905925544
0.238593692258
0.241619159248
0.22812853584
0.295404399025
0.304372683372
0.230556290004
0.243192902887
0.259642759269
0.262294091348
0.282787613534
0.247819786023
0.237562372204
0.168763451643
0.238212295199
0.278219983004
0.259780746779
0.216490575547
0.254851172234
0.220014428054
0.171379233854
0.191931267107
0.148259010548
0.108252235696
0.0147769623932
0.0390506857709
0.0730677838085
0.0771323469732
0.0523160821188
0.02423201501
0.0510084258909
0.0278606794294
0.0339261889954
0.0306973339048
0.0467096205735
0.0452928527341
0.107019904688
0.125709580401
0.0635744774547
0.0954873204789
0.0902258408657
0.0900586478231
0.0818191690885
0.0762378052051
0.0585336482094
0.0621166753232
0.0279814411425
0.0634109534094
0.0711909714504
0.0784263488879
0.0958784337837
0.0245500439417
0.0609442739956
0.0319433105578
0.0175108827962
0.059322189482
0.0880922667453
0.0898954781144
0.0341436497019
0.0601266435986
0.0347245182232
0.0517412093813
0.0670866275118
0.115317634456
0.0410480073118
0.0642932821848
0.0822466490942
0.0769148044992
0.0591452230868
0.0923120082537
0.135274880026
0.151156801936
0.159648689386
0.17296742622
0.20701901436
0.24511821261
0.288600292772
0.351378492672
0.422402310999
0.49690631523
0.560325667421
0.643052262379
0.7553801539
0.905177870993
0.860463968365
0.841549246039
0.943128438411
0.951524852427
0.792362019106
0.84061644938
0.459940753744
0.308172416576
0.324076423849
0.2845400848
0.262423820285
0.241745147605
0.241475517096
0.227747244372
0.123013082048
0.0435868425956
0.0810006508953
0.144514426335
0.215937119867
0.224431631315
0.188752426703
0.221617115507
0.190015807647
0.17305588522
0.171101776434
0.234499874967
0.248249828073
0.18848764845
0.232247412073
0.185276474361
0.146176193993
0.17945581065
0.229527306234
0.235162629116
0.195803820311
0.209730615483
0.192825533626
0.139824448787
0.164863827978
0.107906571382
0.153964344119
0.165548924199
0.196976750372
0.280956391364
0.135802274479
0.126217475874
0.0397257314266
0.0760404578035
0.118311599734
0.112381036138
0.125879108119
0.166212328495
0.134761430767
0.103658621604
0.0993706422111
0.0709148365769
0.0450494078376
0.0793221804474
0.0923149573246
0.207514938352
0.208399650391
0.0379854489384
0.0357753786882
0.0697376119825
0.0984869250581
0.0860610267377
0.0602388760122
0.0911194576896
0.146501883488
0.0361186095459
0.0572401768041
0.0418012833095
0.0309802969888
0.0256208502293
0.0326104901741
0.0510751757913
0.10148696159
0.0946229876906
0.0389227145126
0.0404138165461
0.0396858644042
0.0509032581346
0.0640956454605
0.0569597113672
0.0582712203291
0.092843830965
0.147291744057
0.15072005302
0.160059582901
0.17563802019
0.174538710305
0.18694833293
0.241807353849
0.325898500965
0.383829492532
0.445210676607
0.592080865943
0.90839301542
0.897117851439
0.969352281139
1.07685867451
1.18378982366
1.07938379217
1.32768195555
1.2168419991
1.13466393741
1.21795061228
2.62254469282
3.77117392197
0.0230611192488
0.0599378732121
0.0610665902189
0.055335031891
0.0508992271974
0.0514027724994
0.0252058982133
0.0702318827931
0.112405730599
0.11151246211
0.119336735197
0.146713811599
0.0913214374676
0.123018926049
0.198820518256
0.230258078273
0.208283715066
0.134860575596
0.18009057631
0.182168551858
0.214700450023
0.262680138828
0.241031240487
0.329612042214
0.396016741688
0.29046578361
0.28915311006
0.315796062779
0.309168175152
0.309776769966
0.290120270794
0.27321803605
0.3332264126
0.322083937782
0.295915965625
0.280152895909
0.278093942738
0.243405253641
0.245467895033
0.237047805196
0.178813014695
0.125473947787
0.103868382072
0.0936626788751
0.0892694649769
0.0905680598686
0.098057327473
0.113576397073
0.112851138919
0.109918695444
0.117616284292
0.115660281768
0.106906786231
0.102656791887
0.107058481532
0.0982045055776
0.102633843574
0.0873652866338
0.103531874902
0.12883135387
0.122380812495
0.122592385956
0.115507844913
0.116991951079
0.121421584139
0.117783935241
0.123840090076
0.138991686988
0.135939699812
0.132223695831
0.123283203213
0.141935303027
0.148761054772
0.127422545696
0.120869849989
0.129052767908
0.137642857391
0.147311701923
0.157917908616
0.143030329428
0.133050689905
0.121694580541
0.143820789487
0.151504649795
0.150647423689
0.151340838665
0.156663761005
0.154173113335
0.156388767166
0.150532454582
0.149808357347
0.15340342296
0.156004897599
0.146855185428
0.134978343743
0.150792249891
0.165057197678
0.164688540762
0.16665827607
0.170003712975
0.171602371238
0.176853016371
0.177395216907
0.170013524187
0.146759575044
0.12375536662
0.114200622816
0.127367575202
0.144288994552
0.12774385984
0.122794032137
0.085376908309
0.126280422539
0.151876265617
0.15406967292
0.159747592505
0.149569606828
0.141496574234
0.177151033387
0.192426914879
0.179780816183
0.207129038612
0.208801763964
0.205307256998
0.184091387024
0.139185157856
0.129152393838
0.105423415011
0.119033145027
0.133548265725
0.113793602995
0.155125807808
0.15407215396
0.214124102519
0.235032291565
0.237575620884
0.217985560379
0.214998731004
0.251459771941
0.244125996165
0.223167562527
0.221702501098
0.222644182027
0.242050430641
0.247413222574
0.245851172747
0.256292935298
0.266764343329
0.272322338211
0.266128693648
0.2640493835
0.263459877036
0.26264146222
0.265961938917
0.261033176883
0.240858098453
0.268461233615
0.269269671367
0.27692276382
0.271941905926
0.282264136695
0.276990251765
0.284685601062
0.292678223723
0.291377860615
0.289375444634
0.278373305439
0.280441411513
0.281399209388
0.279544560399
0.278217577733
0.27513248405
0.278777750144
0.281398035399
0.283033085427
0.281521816372
0.280932172554
0.279655534216
0.283155383933
0.275807817424
0.275336759784
0.274404496744
0.288537077518
0.280274638389
0.269850659393
0.267274306678
0.266951227904
0.26384834581
0.263044430667
0.266477990946
0.266895395558
0.262884165286
0.258759746427
0.25783987671
0.247923345706
0.255132646642
0.252904675673
0.241239495056
0.239197852729
0.253180528237
0.244152061215
0.23563968945
0.248472680328
0.229009140703
0.217196411589
0.213004405972
0.218609165555
0.227409415372
0.207560166677
0.208342750942
0.198369868954
0.210905341477
0.237133302923
0.210045753786
0.198752108722
0.195377727225
0.199396907871
0.201144961163
0.221747464761
0.213717978867
0.222079806484
0.204094849905
0.204697683107
0.199892156113
0.201988734637
0.194672992004
0.187480713204
0.187963848197
0.184566949497
0.174516417141
0.165342122989
0.160653057258
0.156711492287
0.153938867298
0.146152584139
0.1423298195
0.161482192257
0.15871151989
0.162146235176
0.165987851031
0.164739754001
0.143375792985
0.138762153856
0.156609101258
0.133739992872
0.0952989339796
0.125807978763
0.134197479668
0.159687336051
0.149048239533
0.159820632338
0.126495241671
0.13305386437
0.149152110343
0.138811994764
0.154037108423
0.154958618791
0.156317692632
0.161654487371
0.170876878516
0.170242147739
0.175747016456
0.185468078816
0.176810419301
0.178414060242
0.188156415389
0.194856278368
0.175800582873
0.178704266733
0.201978092735
0.204894282977
0.209102818599
0.212343772644
0.215004903425
0.21902771986
0.230301280913
0.249829477736
0.24626224227
0.25862431332
0.263910956893
0.269865570183
0.272904545158
0.279556230039
0.288672571349
0.294896998253
0.312364112922
0.330064709726
0.326911223282
0.337222832303
0.350284403203
0.383745408171
0.410118727462
0.397093132913
0.415855554275
0.428888103411
0.454716787507
0.472823540324
0.551391453932
0.75200195932
0.499701454587
0.578837092202
0.628838230229
0.646939909958
0.832673546545
0.764970751
1.08820238982
1.0893172498
2.16895071262
0.503846646807
1.06190018348
0.931577078555
0.871962066347
0.990203589067
0.923390989206
1.05873285469
0.666483024823
1.03094095733
1.04094923667
1.22312076543
0.641659652339
1.04866726707
1.15254880979
0.448538445822
0.324412632357
0.713654805045
1.57071408975
0.597866912929
1.30153646878
1.09715788247
1.66683389357
0.846940106227
1.33106849167
1.05918886391
0.819085809462
1.31730680051
1.04720298686
1.45593830347
0.940245647679
1.17652890704
1.10303496751
0.854355859788
1.66174205536
0.494162359729
0.777628191838
0.620519598198
0.667590598985
0.524518425914
0.538831993576
0.515781581722
0.508187051132
0.440064361084
0.439395927296
0.367477765478
0.352641627957
0.337872206853
0.316822036262
0.286473195161
0.265169324302
0.347598143099
0.318826211745
0.326686665767
0.2776440117
0.281834872302
0.186520680954
0.206427765097
0.179422632395
0.209899298704
0.162561309041
0.188882356435
0.151200722561
0.135829964328
0.143445012273
0.131241993225
0.119743292441
0.113799398283
0.134418052117
0.126341761845
0.119406016353
0.0939970636907
0.102153534348
0.089510381857
0.0690703669075
0.0605941876546
0.0622546714686
0.0831301585894
0.111171607007
0.100673345765
0.0640893422693
0.0604172246753
0.0979537174085
0.119143358862
0.0700446471189
0.0833196638393
0.0812773266434
0.040660041464
0.0555806198786
0.071921270781
0.084299759311
0.0857419878407
0.0886771095182
0.120898852284
0.149484531907
0.155110519961
0.173216924132
0.211838179048
0.220581157392
0.236242798935
0.263715852957
0.353906165923
0.422739652796
0.432400367757
0.446228906031
0.496287924143
0.554764572363
0.592785633361
0.65383792997
0.707043652523
0.653740471678
0.573106661904
0.606557929623
0.638757462378
0.518900880328
0.334694819115
0.297559425945
0.232615158915
0.293531245192
0.333766616448
0.261971071677
0.21590164423
0.199820792702
0.077329443207
0.0552955094592
0.0576028990141
0.0544036522666
0.0712351657693
0.125755473302
0.0778405636758
0.072314752268
0.0982267433312
0.0773938251926
0.070107244139
0.112560072312
0.10339104237
0.0554825118755
0.0361250094763
0.021469795485
0.0322664726164
0.065146104111
0.0625656084233
0.0334723338436
0.0260791635456
0.0496247238102
0.0398639478763
0.0858262682488
0.125443686817
0.0882153970662
0.0383042204773
0.0159954950146
0.021693116879
0.0068454801565
0.0529202730407
0.0395138069054
0.0645596295012
0.0304258251356
0.114190033643
0.159236257058
0.19014821648
0.21939817153
0.202150475281
0.157117451211
0.176018221019
0.180813952624
0.204401851565
0.171301433389
0.229686606365
0.246538011043
0.222860214619
0.268851292666
0.297203886015
0.266686575271
0.293741484244
0.342450235679
0.331709554653
0.307621608557
0.320009234648
0.330423676848
0.329684931748
0.30547893421
0.277267015751
0.355811786517
0.438496181236
0.440318424591
0.445157813882
0.270695395571
0.251179933271
0.41173863759
0.643187176401
0.199728369037
0.189579618558
0.245999747811
0.439346543954
0.0738281780396
0.081600527713
0.0483250843299
0.0904432374502
0.0905026635195
0.0658418867647
0.0490105349141
0.0822265647843
0.120713265709
0.0900362000271
0.0528244805589
0.0318910066734
0.0544202355372
0.0638317223988
0.0367530138796
0.0296743557023
0.032669418218
0.0304873624052
0.0523594962573
0.04628885372
0.0434764978554
0.0618366677171
0.0570483331329
0.064221826593
0.100312664472
0.0634961910071
0.110646431145
0.0699765537888
0.0699036650475
0.121935539431
0.179242825677
0.16236407549
0.111541513054
0.125551083516
0.137026679225
0.18734903136
0.238405964586
0.224791624091
0.23140772179
0.232291598606
0.327134364905
0.292446445355
0.25521697857
0.243835197572
0.210147268616
0.197884064874
0.172030565049
0.202672097369
0.283820242863
0.313085012796
0.227792111659
0.179795671588
0.17521914644
0.153081510939
0.133752456217
0.161251005032
0.137779198775
0.0847666960167
0.0559190054995
0.059798297103
0.0136294136142
0.0206452814304
0.0827789265651
0.0528896177241
0.0342684495875
logs/alpha_5.0/PGSD_500steps_2.log 246.574735229 0.246574735229 0.163462525499 3.77117392197 0.00125237703667 -1
