Policy Parameters:	-5.1166240759 2.82869495216
Control Steps:		1000
Start Time:		1442373532.3339581

-- TESTING STOPPED --

Stop Time:		1442373707.3101723
Duration:		174.97621417045593
Cost Matrix:
0.131705241608
0.190997939595
0.181751427535
0.0551907419843
0.0500234435443
0.0854982461443
0.218653969431
0.249392648934
0.073656560004
0.0427366937633
0.0532183581699
0.118128601494
0.112022657602
0.132314464364
0.0826476356918
0.0581645404269
0.0637061475485
0.117787957825
0.0925432735691
0.107210541517
0.0910017739103
0.0162891678355
0.120946031898
0.301202194746
0.0552777285863
0.217111703839
0.211670243905
0.152827170245
0.294663800084
0.285835170373
0.421817934619
0.509261568174
1.08013322483
0.688858140345
1.28177649841
1.13296648072
1.20076968745
1.44305846733
1.35548869528
1.20205713178
1.35611042876
1.27014641767
0.72249135469
1.2363422939
0.475038960724
0.686995841429
0.434650483967
0.24614098955
0.0843114551741
0.138668641461
0.239491088107
0.343165864368
0.298764114636
0.303452602229
0.377284208088
0.398451718574
0.482515028677
0.454167621043
0.466675392869
0.347620394754
0.319190828834
0.338991343309
0.114793545225
0.0918654080166
0.25128632057
0.203668062953
0.206914167852
0.11948426736
0.138348681906
0.0635900944655
0.0443019873652
0.126450924897
0.206513322646
0.109558431364
0.150956019432
0.0947671684668
0.155691600822
0.353556355093
0.354961781421
0.331230868634
0.245633344615
0.169819249301
0.351799636249
0.280522948704
0.204743670445
0.077636733332
0.19041992482
0.167154004707
0.267613948787
0.0162940217614
0.176531387278
0.274856661814
0.215893345927
0.00667660556019
0.0519089478675
0.0624185150788
0.10369509752
0.121135220286
0.129375042781
0.206586355907
0.1436981029
0.232778768675
0.346780147231
0.368546061933
0.26251450724
0.430908853563
0.559502709258
0.948014103081
0.539621416808
0.588487160574
0.568546505931
0.859235669912
0.56644786717
0.959092880972
0.34272541616
0.5355212181
0.554726375006
0.520806379453
0.441414111813
0.136105044946
0.142395714317
0.18825329944
0.196919315696
0.124248370432
0.283702119314
0.0981316015388
0.0779849480358
0.0594272404827
0.0688244125104
0.0588863592935
0.175582184764
0.244709177243
0.328094201803
0.0926665286707
0.204154822622
0.286573904491
0.0322691435467
0.103522265247
0.237515267786
0.189407812922
0.116440986944
0.128039417343
0.260762462307
0.157570797257
0.0802224135686
0.126838814031
0.000303913176056
0.0703201792288
0.0606602314369
0.0809590379162
0.111785180037
0.109768265893
0.186939340427
0.148912174884
0.205755660698
0.235342995609
0.246323804366
0.196791026962
0.297641444249
0.315817528234
0.376047365011
0.389974499912
0.322450597906
0.386419573599
0.41060932141
0.515574505881
0.5070449078
0.411741285772
0.408757119864
0.398560002566
0.424266830004
0.406520630541
0.382191962508
0.41816344132
0.293799236904
0.347659834785
0.311335905821
0.222199574482
0.210577493719
0.173419223038
0.13900961654
0.219997542104
0.101481083678
0.140178694088
0.142530830755
0.095793872385
0.14034177984
0.112076977615
0.093904988294
0.0731157435856
0.138076123906
0.141453698004
0.0541840848849
0.117295776646
0.27410041982
0.0172262202025
0.0347296347688
0.0566770350428
0.128800769853
0.081927882696
0.121788636052
0.0467979936225
0.133684418475
0.185926418111
0.131427514101
0.0884471842797
0.139396073656
0.137456469584
0.0381649237435
0.0520540231876
0.0401269479975
0.0284848257147
0.147104167999
0.178346392113
0.336089930814
0.000126375477462
0.0103429804444
0.113751100656
0.200253920481
0.442640428809
0.323731014131
0.504595819871
0.451696718273
0.314605713419
0.441266813121
0.655221988511
1.08843094609
0.88997135159
1.16807767689
1.38722558805
1.68831399475
1.92862147733
1.81915908934
1.90805836573
1.89011974374
1.62047815362
1.60145691757
1.41860404365
1.06954075447
1.31335532166
0.107164413865
0.0647360976089
0.108569184431
0.276789653401
0.498342675195
0.472599176263
0.276911497632
0.38019635297
0.439293478889
0.377650067687
0.308335727273
0.314085040774
0.290558522951
0.230333929539
0.240539888391
0.0809078013836
0.0240917024004
0.146314498242
0.368051321369
0.56184142824
0.465728326043
0.364038413163
0.360638511517
0.322816407694
0.187532370766
0.262252509035
0.465298767965
0.189342249901
0.295823320229
0.395427388064
0.217194523964
0.296841878733
0.256878811131
0.216808135052
0.207126225803
0.392629002314
0.0133320752058
0.0823343252274
0.155358304695
0.296918152556
0.14238229877
0.754617157068
0.232666142147
0.221925340729
0.205140318625
0.220586708856
0.124943294242
0.215270216429
0.206665272054
0.245583283445
0.245154750209
0.334018131738
0.141718501975
0.464823350597
0.892269135507
0.573820072451
0.892028600689
0.497359891247
0.97715227288
0.505982094216
0.923205990752
0.537060449836
0.762257054127
0.482134553005
0.642510324997
0.465043024382
0.422609133018
0.265078934131
0.278727534045
0.177522540383
0.043817344756
0.0649811551059
0.226268062398
0.341300219595
0.231590072999
0.345565732425
0.405070657863
0.218400572909
0.283329344568
0.256638419511
0.372902206141
0.222751380378
0.215492170469
0.293968790569
0.456167173243
0.205230639697
0.519338723058
0.504938185492
0.160967346413
0.19372697224
0.363472547545
0.350177586005
0.263595699674
0.300166598814
0.489080015533
0.463767164089
0.519825653738
0.479317174309
0.475614572019
0.453081414687
0.439524038029
0.500340802682
0.440720366505
0.438738594607
0.345166768254
0.360961439628
0.394096646041
0.460553377018
0.247276543823
0.261122029188
0.313776246899
0.209504024363
0.251349278281
0.276532036801
0.288005337107
0.277480386093
0.283050701773
0.303067369375
0.277138138952
0.306226970262
0.324057229225
0.347160689544
0.432967604666
0.35613127078
0.381682530773
0.403606125002
0.364764770355
0.419765159044
0.393451099573
0.418363304564
0.417277829626
0.41918058042
0.412759498705
0.438167105119
0.480100961975
0.457452498776
0.461420165237
0.490986044304
0.573709080897
0.512990365511
0.630209601861
0.516516538315
0.75587477528
0.594418811757
0.763876446776
0.569820375645
0.807893299641
0.651550952223
0.900182764162
0.755908235917
0.841838594756
0.781330765232
0.882051155615
0.849971174357
0.915435041411
0.865024084814
1.0546328364
0.720297585993
1.07957805994
0.894567686136
0.923729371316
1.03238060428
0.994204502651
1.06699208887
0.905999444064
1.0947246226
1.00859729092
1.03848864866
1.02285680422
1.00011566345
1.02150718925
0.963307578983
1.08315882306
1.01625289546
0.965407925084
1.10899795728
0.779955296889
1.14642013167
0.71141877794
1.1150768359
0.816625699516
1.04968539821
0.753730044633
0.915662803579
0.850657286441
0.789750129095
0.896678754902
0.646281903697
0.887149995716
0.650137212908
0.718077144704
0.616537704718
0.811330265274
0.521651718484
0.713927469309
0.491965487535
0.531563304059
0.454282573831
0.380185805084
0.433211166809
0.442756223483
0.408257182033
0.4606511158
0.38723530315
0.295763853958
0.324107751814
0.304044183427
0.261266774591
0.237391795477
0.269663847252
0.247774174591
0.31678062598
0.293356798125
0.280482553729
0.29615396319
0.24688498862
0.265668957607
0.15307920552
0.271140628582
0.0929218951635
0.154124951666
0.133942053584
0.134603013116
0.127437439459
0.115118302846
0.0868426266673
0.17663077379
0.0857408607454
0.142960767445
0.0637793575572
0.0806815534127
0.0335003764202
0.0473143359541
0.0761373386698
0.0529343854131
0.115963903384
0.157437495148
0.166746017356
0.0211990330522
0.0738397573481
0.102325048552
0.0371711131331
0.0502201966263
0.140594144651
0.222551639481
0.0130718864628
0.140597163735
0.0419258062226
0.0613182467569
0.22798403886
0.00779158073115
0.0381272402107
0.0725140819064
0.0353360689522
0.0178873903865
0.0664486891705
0.139043490945
0.0698472743861
0.0285822545069
0.0119639614784
0.0463002791403
0.0855147881137
0.101958071477
0.176394498266
0.0623339423394
0.0933537687304
0.0134759071638
0.078790073579
0.135621506381
0.0411126010282
0.121039901053
0.0344934265769
0.0594355072996
0.080234613268
0.114949002543
0.193931477373
0.219934742916
0.146118906862
0.147683097063
0.0337536567912
0.188897945437
0.0447725692532
0.120219070881
0.0559217237521
0.148823643071
0.1143551318
0.177546166003
0.255033293522
0.176366080816
0.0699860705047
0.152452956916
0.0647630674207
0.0968647051539
0.131139332802
0.0765509556285
0.122294241204
0.127446878821
0.143734950351
0.148090967271
0.203698843782
0.330294149561
0.398821961279
0.360530851609
0.453232435572
0.496306422804
0.677907137247
0.951414641491
0.796627573039
1.12191334691
0.835176652517
1.23958136305
1.24626822372
0.792513410092
0.968940980825
0.575570469125
1.17284388359
0.842372200766
0.799158119455
0.491006538357
0.772801571383
0.236734929494
0.487058033019
0.0345131342733
0.234823724849
0.291966163694
0.27389353431
0.218621126497
0.273637191026
0.325560390718
0.298014058319
0.256363357183
0.294563459779
0.313559267899
0.1958253378
0.267234173626
0.275132850631
0.257455130732
0.231130439794
0.233605771082
0.245857720617
0.230362974766
0.206548164442
0.179935769984
0.242095238411
0.221650971831
0.221398563589
0.356588769099
0.268118726324
0.290751454612
0.176264798687
0.328415710535
0.121393120511
0.146593644978
0.144504683787
0.135542936878
0.106366788064
0.140942852584
0.114413768368
0.0874153157601
0.11089170383
0.1660049236
0.118220982796
0.102189173269
0.205928858785
0.115072010473
0.11236690283
0.115035042107
0.156282290935
0.113749094423
0.135076054801
0.0684296329221
0.00680986492315
0.0325840558525
0.101083685218
0.142842011421
0.141863648633
0.260666734867
0.0503040059575
0.0544589100351
0.111455484228
0.203524980981
0.264966732751
0.235679335108
0.195222652981
0.2521793909
0.138359422158
0.0334742013537
0.0535233174249
0.11200261141
0.198628001362
0.213783491114
0.240552055766
0.26376843048
0.263053797524
0.313515397836
0.3293301448
0.513255532748
0.499855177664
0.419849238356
0.321492354536
0.425148477831
0.359707620927
0.250512515391
0.255685047763
0.381098133466
0.359057081573
0.217818524083
0.36818866414
0.194054650767
0.445955155173
1.74118312075
0.0168048987664
0.141773996019
0.203360238341
0.20418450921
0.176713273118
0.201472884228
0.379266666134
0.447272408111
0.38460652447
0.140443980148
0.216249559367
0.129771463137
0.149976650789
0.14728158878
0.174869855175
0.435780315201
0.309881833618
0.424384179077
0.324591463895
0.489538141706
0.474844538583
0.40910222233
0.456226273823
0.405838457178
0.179365266344
0.490256190775
0.426536674938
0.331787904934
0.446483325321
0.523412058387
1.15682368143
0.532734776871
1.32110742836
0.811667268743
1.6737022329
0.49932950552
1.34370371221
0.482470822091
1.31136119081
0.378018364695
0.813819703344
0.50201509874
0.563637798652
0.322926286892
0.427210693649
0.0935314139176
0.162607589276
0.181371659223
0.256830884252
0.169689948603
0.183720921424
0.0388715428136
0.25391272127
0.173438550065
0.18986879007
0.0859373323556
0.0485293712497
0.0486283584601
0.11093813049
0.286777533441
0.328076882126
0.48826976216
0.648083909412
0.51439965753
0.505381094822
0.553568787247
0.675826379482
0.526323897261
0.552601926206
0.612887899901
0.567491171907
0.319919118789
0.245232873607
0.388051093649
0.323351450067
0.373564623067
0.142781794362
0.131504787863
0.0993963503738
0.112646694854
0.0745507893186
0.0819255723619
0.104735738108
0.211802391108
0.293814599131
0.100750874531
0.12588861303
0.123256369789
0.199943263964
0.226469389311
0.191813281323
0.362222738557
0.26442295522
0.223798786858
0.225147635792
0.34425856324
0.283600161416
0.311240056491
0.26884890008
0.194080339288
0.284695881627
0.276608553595
0.274319106942
0.243465413608
0.231141727907
0.222296439951
0.219746001972
0.237420370231
0.229060027437
0.191108549536
0.211808010241
0.187009081212
0.20392452584
0.208354073735
0.223919688482
0.228108088546
0.232956962485
0.230219048098
0.234188053823
0.269100442154
0.244477223336
0.272714256913
0.268506212736
0.278999581561
0.286492615051
0.315846178528
0.303480596501
0.337895070358
0.344971809105
0.369104420789
0.385235505504
0.43580859872
0.469495019511
0.478594146574
0.479180782235
0.499237790681
0.562715925383
0.563882053293
0.658396069165
0.630798763881
0.740925534946
0.834847746771
0.910236953781
0.870362530673
0.921210029729
0.86409912581
1.05242743502
1.25053872072
1.02268124104
1.12190709363
1.10312097168
1.29248804881
1.0573778692
1.09725023902
1.3272229885
1.42512127863
1.07582311917
1.37127722205
1.40329228384
0.802021678253
1.55994712269
0.530674016669
1.62836145455
0.453764013797
1.41176139417
2.77667538127
0.286570591484
0.921218918802
0.594573404086
1.83561894266
0.52111355975
1.20043731201
3.65272296911
0.345734018954
1.33054366296
0.980860602114
1.48428135989
1.10956886796
1.23336252781
0.821972499061
1.02220198372
0.727134109708
0.764542095054
0.70071911178
0.5659966098
0.652448719412
0.493800111975
0.53206054177
0.491612823452
0.486646026318
0.431720601863
0.418783616123
0.407699212836
0.407055192347
0.404737247492
0.452688742932
0.439635987134
0.39809854025
0.435855254613
0.455214791297
0.458443577203
0.472437869535
0.488840172587
0.516206428425
0.527022936219
0.541030359747
0.562117063427
0.63782088921
0.542759836731
0.69614679979
0.554274067852
0.856661145073
0.579347928551
0.960665323825
0.570611905191
0.961861199358
0.55625251925
1.07519493523
0.589032133804
1.08584096296
0.624354397188
1.06483187207
0.76333834756
0.984589366776
0.958278731828
0.820106422002
1.07021890603
0.917661350958
0.969594755683
1.02598195583
0.977161397602
1.02364860578
0.941697352943
1.1456784818
0.971739891457
0.891064865336
1.25970297572
0.729740778482
0.998170718442
0.79118804763
0.827907330575
0.929157190387
0.661145225737
0.860181270354
0.650862610174
0.770096683678
0.78206265982
0.566934153638
0.83358517913
0.49882371487
0.719636482458
0.493187422519
0.525613203477
0.532087230746
0.456634790466
0.474377209584
0.4616004101
0.392901584044
0.443957500512
0.39014819215
0.362577896736
0.332387062763
0.332740702678
0.329803630827
0.331491436901
0.308380516087
0.27737766779
0.29086278527
0.252497145008
0.206532753456
0.263736528602
0.224548882055
0.243175133353
0.227778439119
0.201599324238
0.158376924549
0.112895948139
0.180949160439
0.174677630082
0.165656299707
0.143552379669
0.139545393179
0.189291143005
0.111677777384
0.142645324456
0.102304758217
0.0615336109659
0.364001762
0.0460534390638
0.0112901561132
0.141012486279
0.156220055011
0.206006708559
0.272074237343
0.443946218004
0.332682303149
0.254226081625
0.384258329646
0.237464598629
0.00422232667179
0.0583391029105
0.024482798919
0.0542212756838
0.11080614634
0.127432915047
0.14319992247
0.153349405454
0.144927448679
0.124807013867
0.139030277846
0.118314393952
0.135939098587
0.124618249701
0.0806540659884
0.0872291128008
0.0290558599666
0.0630079224076
0.00505802506108
0.0388545237923
0.0756122955138
0.0834624492973
0.105879757604
0.120935195771
0.057722495272
0.081175714139
0.0629125285071
0.0856535409267
0.0473694781378
0.104808683443
0.160099773903
0.0610747802017
0.0473217831217
0.0508410361731
0.0593928322581
0.0578350120607
0.0320691749738
0.00474055841907
0.0351285952549
0.047714190367
0.058786635438
0.0271060552581
0.126090118001
0.0535089410454
0.224302994517
0.019342866487
0.0378849767548
0.170196692135
0.144882133118
0.136969346081
logs/alpha_5.0/PGSD_400steps_4.log 396.205924035 0.396205924035 0.277429026942 3.65272296911 0.000126375477462 -1
