Policy Parameters:	-4.37604479819 5.1945274354
Control Steps:		1000
Start Time:		1442377389.584086

-- TESTING STOPPED --

Stop Time:		1442377577.3111482
Duration:		187.7270622253418
Cost Matrix:
0.128598091254
0.359374838426
0.46828409018
0.370079421428
0.487935756659
0.854697033016
0.701061884516
0.902668921043
1.01686867901
2.64661168962
0.2872136047
1.63300079789
0.755819157193
1.55532954188
0.715384139934
1.41406499655
0.413217422266
1.13974436975
0.312426532914
0.201147368149
0.176913609276
0.092262009325
0.0183712611072
0.0612957930453
0.261365063119
0.137082125048
0.154983217831
0.304387183944
0.164612495316
0.320189572854
0.101711669263
0.0727322398129
0.108648037622
0.0940750006809
0.0585141200825
0.0959072498605
0.194384969122
0.0124711556995
0.0685347244034
0.140466967094
0.10860269386
0.132453002895
0.0886739860181
0.0446380453555
0.0475732849925
0.171585474811
0.0333351531454
0.11204421357
0.184565553122
0.500620534888
0.136191117611
0.160756693593
0.360135934023
0.0262867930599
0.0808495323189
0.0314065890965
0.231716716678
0.40377889368
0.126000721376
0.336986887469
0.0171708236736
0.10210642933
0.06397059064
0.300844500141
0.172812002063
0.504081764608
0.183210954966
0.428968382907
0.232463616498
0.445937215719
0.113649209733
0.484328822194
0.486390019671
0.568726796755
1.11175944757
1.02737450784
1.20761972553
1.58158837834
1.56414790003
1.66010678781
1.47878594542
1.54047176799
1.5602378543
1.36670865563
1.22059117146
1.52630451631
0.420626023502
0.86647499794
0.0173773172935
0.10429354998
0.0318024885592
0.154676098283
0.311670633722
0.360909370519
0.217231713981
0.126258036379
0.323010629154
0.440021125451
0.331097557895
0.482317576221
0.465916049869
0.584116780139
0.397348964699
0.48664169729
0.284457199944
0.286372952178
0.354941269683
0.301428095576
0.340380518052
0.361288489336
0.0802582736963
0.225542514734
0.696323009739
0.296285885811
0.326032275516
0.0573430492868
0.0643851429446
0.0982762980917
0.313926008394
0.405086045111
0.426240998692
0.498851986355
0.398792342583
0.691424460606
0.435156320932
0.86326810918
0.406728805667
0.474336233798
0.498855066181
0.138328044021
0.637189802737
0.134299203075
0.275337956778
0.218453407711
0.726546883049
0.4633573088
0.411052156336
0.483744330238
0.387362409605
0.452439545219
0.29339538516
0.05625901787
0.209996790939
0.284016606532
0.306229394891
0.339250500703
0.338882514734
0.263167848159
0.398201510161
0.18046599967
0.320599548498
0.357728908248
0.261958508328
0.317474246973
0.350336096008
0.102832466431
0.0350046332492
0.0601526387057
0.326487834864
0.0332553231523
0.122596041245
0.279755786457
0.272253108797
0.182733034904
0.326870931522
0.364871926373
0.273118688778
0.395657311614
0.244647091184
0.322489029776
0.277237046369
0.518539759241
0.29458906317
0.514144785646
0.198741264192
0.194861398186
0.20689869045
0.230665110457
0.215205257882
0.108170823432
0.142443071255
0.220416704352
0.20225582654
0.203169090006
0.00905906201039
0.0844747920959
0.287972404899
0.040730137225
0.242067892073
0.441766840383
0.416299133921
0.483506276462
0.497100375013
0.519181577679
0.766992666646
0.690438709416
1.33358174178
0.888352413018
1.36134694017
1.15559426371
1.09381922422
0.931776490712
1.04169396577
0.54754242683
1.23246475127
0.384688096716
1.00429575901
0.398883438717
0.482640516006
0.397989428223
0.127432624073
0.190015570877
0.821690928884
0.235750782362
0.348754850327
0.147097742123
0.147506932842
0.0514572465782
0.278909526713
0.162880500203
0.307797525117
0.479039170163
0.209261072741
0.350516004817
0.524203543989
0.510305158566
0.70495196436
0.447327604142
0.467042274151
1.19093957731
0.468689280065
1.5758051492
0.508059034517
1.32778117476
0.502257816175
1.47926582365
0.407620981806
0.89257308004
0.439308455927
0.362117981853
0.303435667583
0.285054320372
0.198933207598
0.146332020429
0.235840965854
0.217027173075
0.232121154519
0.284067726954
0.0684698823252
0.034034413457
0.0694746707399
0.307347266991
0.308514177798
0.263148856956
0.240345670677
0.254160792672
0.240295450441
0.238994501678
0.217025968874
0.195513516716
0.176371415445
0.202389367735
0.200554982845
0.191933022591
0.194953367119
0.168336150666
0.147102594074
0.151338483673
0.208806317147
0.198148630046
0.18732089235
0.172497323068
0.190105507165
0.152270851149
0.164854569109
0.231112735752
0.161961139085
0.155648190614
0.135213258349
0.172535868156
0.306715969107
0.278511318709
0.117825334938
0.133055434029
0.1611025292
0.312470651645
0.122625593753
0.165640742276
0.158482101203
0.151165361898
0.158587228141
0.142093997584
0.128573268892
0.201758344099
0.164966787765
0.270697124756
0.250013814413
0.315918578068
0.270558535815
0.303092635147
0.227141982107
0.199657922331
0.387672872175
0.374622816667
0.349602589749
0.400132753965
0.43023196839
0.71698822597
0.408491127641
0.654651420807
0.568620305513
1.26270359137
0.631668540209
0.777938911531
1.17015881602
0.999121018831
0.947196548639
0.97740866672
0.827132808702
0.931065048109
1.01610123753
0.659852976719
0.600688249216
0.657703283145
0.453754856684
0.472461699804
0.479491864649
0.503318648528
0.542560158832
0.548116526015
0.613281556888
0.517266145176
0.783075024409
0.556410872838
0.973715580178
0.531683412617
0.977430314706
0.530861745903
1.01164560524
0.681077323559
0.914607723511
0.901811167021
0.859278356709
1.05436745121
0.785590250039
1.13486730298
0.867624203317
1.0788930495
1.07946740954
1.03665683384
1.11804757241
1.21828127452
1.05289373124
1.12671723511
1.09045269062
1.10372994273
1.18198773216
1.06487324043
1.14634020768
1.18940785211
1.02455748632
1.19073214613
0.956363507425
1.22342460938
0.973609345883
1.00909411199
1.09015480361
0.887293951155
1.15950355454
0.670402505109
1.2343659061
0.816741480877
0.94770662935
0.900653887788
0.773545662673
0.82644629495
0.6272271101
0.908292760477
0.526718753878
0.968483988978
0.430901063267
0.694456087252
0.50851503633
1.42205893136
0.0597207749661
0.261187331838
0.513383637753
0.474086391028
0.451712081472
0.529716356371
0.382962102404
0.415583080591
0.40954038472
0.442094223931
0.320403009335
0.42412410831
0.302992740447
0.253100039005
0.240271714325
0.234087127323
0.211797724958
0.0866739181625
0.302766552299
1.58386332496
0.544392405762
1.81933181077
0.755449189384
1.49921346821
0.883159563717
0.314410898373
0.451127176307
0.238557927563
0.272612510816
0.0644472142222
0.261896471553
0.467706912852
0.587582243584
0.483779651964
0.468817933191
0.464916132984
0.473717918816
0.42405349845
0.406332853549
0.515023628979
0.399953600939
0.0378742084046
0.288795258323
0.22615047404
0.414372327114
0.176582390689
0.0787296082136
0.146171919197
0.287999653928
0.291373322626
0.0550417250996
0.23957318796
0.429542728927
0.455274074723
0.332023887656
0.298652271956
0.310565082493
0.507296382905
0.499411994097
0.355180537805
0.472275990227
0.450322835637
0.498399152685
0.497500779667
0.474261586847
0.554715025407
1.01885376197
0.669778101088
0.768711106519
1.14571853327
0.998653925467
1.18359562646
1.0098713682
1.13756839841
0.958688100397
0.874697768702
1.0761428708
0.563772419765
1.14498662428
0.296776782575
0.505286418874
0.239614493241
0.281654995176
0.19062557307
0.253841454892
0.189927927079
0.37285570462
0.191045926148
0.127903141845
0.00245119286393
0.0689489120867
0.379472253665
0.1524790148
0.712790589725
0.201388586671
0.393215895788
0.0135584146274
0.102860874806
0.00293321321341
0.00843892479272
0.0508358983731
0.209210237537
0.347209469459
0.171268671967
0.145864249027
0.0502611058516
0.182572078728
0.248588300269
0.224395054757
0.477034133941
0.336989945077
0.394338615308
0.264269636985
0.324057270515
0.336937698529
0.222257872667
0.350903193714
0.456899430366
0.289223825177
0.226626276851
0.171486274583
0.151940955542
0.358713029349
0.301599419545
0.142589069736
0.123299804121
0.278573344553
0.0967559437845
0.111986576212
0.0458595459824
0.316795354357
1.21512458178
1.25938542217
2.02772735942
2.62328505863
2.59439971695
0.644778515192
3.35207555472
1.40171078646
1.88316714784
1.08798177637
1.75564968829
0.862952029927
0.903591219667
0.185846545616
0.0765159016604
0.329665892262
0.624188079036
0.692938538603
1.05788640626
1.03680646045
1.09561254765
1.18512566498
0.952278617218
1.30428577253
1.16305524831
1.30169919782
0.753832161546
1.14096680788
0.470489177216
1.25000932544
0.187033982274
0.244859491805
0.520358462407
1.89135416112
0.013754365913
0.102063859159
0.16594440323
0.458632359498
0.236359745521
0.255932376357
0.118447972048
0.369920982579
0.424688505136
0.38581610566
0.507081556664
0.45750832501
0.509220109109
0.802383959355
0.530409944231
0.654337467438
0.373244636156
0.652139919679
0.560145841181
1.60957834302
0.438643056448
1.49523805726
0.533026525625
1.21471372041
0.473376691451
0.993655093882
0.5284334471
0.961630719601
0.434891576971
0.535892956488
0.272533216572
0.050856249327
0.0376267521349
0.162074693235
0.154635556025
0.0800597222575
0.261502609644
0.239628195492
0.151890463774
0.0742639143719
0.0270977051564
0.00436236689035
0.08059639351
0.397002682512
0.0224638863333
0.109087470631
0.132343824661
0.0673602299615
0.00510161359039
0.035253567645
0.206259710417
0.359857571247
0.293981237395
0.271112068363
0.465735879231
0.244124972772
0.273196446537
0.332254370802
0.517443801583
0.219466916765
0.889041639163
0.287051303061
0.503374802504
0.437103710585
0.351174264442
0.402031439564
0.607448691849
0.742806645922
0.471302628833
0.949681165884
1.10544759504
0.943427000496
1.366432344
0.832423538475
1.40110961007
0.978783768744
0.739594762007
1.15136896234
0.678620444631
0.902420039659
1.84562154091
1.91193962957
0.0173640876797
0.158680204612
0.355087308865
0.953841672024
0.0566581108801
0.256974503529
0.354367853156
0.372120667964
0.418222892594
0.409482078027
0.383433947445
0.420762939851
0.428579549053
0.38990735351
0.371120099071
0.407868594091
0.405872709829
0.419569431052
0.406924294408
0.450672506067
0.455971279954
0.43480038323
0.43965181457
0.428106437976
0.43620439687
0.203346966118
0.419211166685
0.451940372316
0.430029433066
0.489341404526
0.414878310561
0.451804504547
0.440288353055
0.428136148232
0.43734709834
0.458455680918
0.423801629853
0.410143104312
0.395999819396
0.455926605816
0.399712252778
0.396461583272
0.434621646763
0.35809614207
0.401052037471
0.36234771117
0.369047511979
0.374182165692
0.411260024857
0.304326189221
0.423464539896
0.340849832944
0.356579807149
0.320384824898
0.26601107405
0.202489296021
1.6909563092
2.24510060254
2.25507913633
2.19170504618
2.9252399004
3.77297891621
0.542249941167
1.01463772777
0.550668300055
1.06630488142
0.534271908653
1.01705213897
0.546858076837
0.966109657271
0.719460538045
0.991330727675
0.649268844809
0.952736701431
0.723909338273
0.883600711014
0.710072009956
0.89260028991
0.735054257097
0.778168467884
0.855651833413
0.67028842982
0.785890055061
0.769201712081
0.676885570312
0.779248078992
0.545882438537
0.927390141867
0.544347200951
0.899338993098
0.633934453092
0.66516896505
0.705814450356
0.554442662578
0.921234469096
0.444741812671
0.732577959074
0.540632476531
0.708178883073
0.467767450047
0.532304068909
0.484726968295
0.420331529629
0.484721838455
0.538833287744
0.594014500995
0.345005849275
0.356232628714
0.505535162637
0.434403131676
0.289008257212
0.487043747029
0.523620645318
0.508543466838
0.492942506345
0.445088892008
0.342992303071
0.368262281343
0.490958710206
0.387464840024
0.566800556303
0.541789124597
1.09447254247
0.831723120269
1.4697543046
1.08713974215
1.29083633449
1.13078114442
1.32914317488
1.13323582415
1.00271036937
2.81292732524
0.0447591782701
0.175618226751
0.317929119337
0.156744573086
0.109602670436
0.0909221990663
0.178874314299
0.132567884401
0.145921528967
0.0997108762436
0.187890405243
0.188741117698
0.174529810742
0.187588492954
0.23079797022
0.175891063291
0.232033515858
0.227325875011
0.195554386605
0.18687421039
0.224812151147
0.1801502719
0.204436153009
0.213735171027
0.214433399882
0.205244836589
0.173901984997
0.169087207851
0.208355926638
0.213823406498
0.216274054293
0.310281561056
0.169809356197
0.213153224252
0.401920690287
0.373581280815
0.40758525885
0.145174378308
0.178901035864
0.429395819981
0.402954752315
0.416542817108
0.415139497109
0.464557416137
1.01942941129
0.389200524308
0.969057861609
0.883513199322
1.1397887409
1.32719077244
1.66958460051
1.76245527996
2.37966859594
1.10232635542
2.85325121447
1.14317592773
2.05198947768
1.12240616522
1.23026529818
0.488127169533
1.24911507907
0.614197498948
0.508330448092
0.236197576139
0.501447338556
0.410964919034
0.420086431875
0.528067983449
0.392905540628
0.225497793672
0.437147373892
0.141014733337
0.457221801081
0.34002670009
0.113395254648
0.112024145399
0.23885452966
0.534273293192
0.589149666621
1.06069990285
0.588583310296
1.50832462622
1.19706592213
1.53047252819
1.37923169062
1.47970231384
1.25356900722
1.90866649264
0.539523569354
2.12218651846
0.437154484791
1.11551703911
0.754286309066
0.724880993113
0.247176047667
0.211940175337
0.16755074211
0.887453583862
1.12506869636
0.917520541133
1.16478043996
0.534478198686
1.10470316796
0.624544589854
3.0892032279
0.114103820109
0.507399531486
0.151449958643
0.00942715271735
0.00222812790466
0.0349998739539
0.186741629266
0.029028148248
0.0314774906207
0.00607946007106
0.0331158412115
0.186843437815
0.00129172131787
0.0530008632688
0.248420346869
0.132852493356
0.012202564784
0.0742815902767
0.0274070211466
0.12141039947
0.0595622219291
0.0533887741524
0.0700283061197
0.0342863452384
0.147000117368
0.0478465002485
0.0143055645703
0.0937190081124
0.23525137628
0.165137222528
0.131076208804
0.0542208984919
0.228555364498
0.275647742808
0.390236749791
0.36920007688
0.344100907746
0.646347630737
0.457413282089
0.352862523249
0.652434307468
0.376871585974
0.415192809817
0.360310054617
0.279981716385
0.377682198996
0.580250758762
0.510025689857
0.845812199547
0.312027949919
0.448896176257
0.502022206194
0.909477443536
0.251217925662
0.586482038551
0.398462115997
0.461260859715
0.419428545251
0.281086619259
0.220700507732
0.50169734185
0.0719188682237
0.00896553068097
0.0422830429097
0.165773661233
0.226043644759
0.246262293796
0.205991506553
0.208274321657
0.213262468979
0.219122189936
0.239461028027
0.193000498079
0.175849122195
0.205518308444
0.29537266465
0.319282542869
0.142580255883
0.156220684137
0.148251350753
0.170592497854
0.200148493132
0.17884585784
0.160827250573
0.174178446319
0.355363091375
0.207102979776
0.373133801659
0.342070421291
0.356259681485
0.230295822368
0.230723773897
0.195840345509
0.418894243532
0.431991864685
0.399483921042
0.416483737895
0.448966367961
0.48775083972
0.509476975479
0.828128192247
0.51405399503
1.28850132629
1.04412803399
1.2363472537
0.76459563465
1.41512365945
0.662264382258
1.18440501689
0.821606507034
0.607688429474
0.507393955273
0.857609880012
0.515234570702
0.514189997602
0.101172351075
0.102851890976
0.093908543346
0.0669591312319
0.358233845319
0.368834445795
0.448142911411
0.367358515032
0.346191505174
0.318643469116
0.370199698312
0.496360011218
0.636847863039
0.599514201152
0.876055957958
1.00129085693
1.01436453505
logs/alpha_5.0/PGSD_500steps_4.log 522.592297979 0.522592297979 0.39959808691 3.77297891621 0.00129172131787 -1
