Initial Policy Parameters:	0.0 0.0
Learning Rate:			5.0
Learning Steps:			300
Start Time:			1442257115.7528343

-- LEARNING STOPPED --

Stop Time:			1442257166.9147098
Duration:			51.1618754863739
Final Policy Parameters:	-1.39964070461 1.36976699501
