Policy Parameters:	-0.925872578962 4.19551893245
Control Steps:		1000
Start Time:		1442366612.0175855

-- TESTING STOPPED --

Stop Time:		1442366693.4143047
Duration:		81.39671921730042
Cost Matrix:
0.521592124008
0.142479998953
0.144947766993
0.0749207599021
0.258523196306
0.465936521637
0.267849230594
0.206456831534
0.233844108958
0.353306086936
0.355587311864
0.465011741925
0.296702281245
0.492443553353
0.424359797674
0.379818996056
0.256483788046
0.13130629009
0.194093411408
0.21435455322
0.301535777822
0.372167964429
0.456607993446
0.484309960553
0.499043149852
0.517404717209
0.554234240582
0.572259178471
0.573569214557
0.604968538175
0.631502127706
0.626849212879
0.632055013132
0.647243418956
0.545020257587
0.383896479661
0.383678693571
0.295282120379
0.117667677276
0.121556448952
0.10655828314
0.104699535255
0.09891149582
0.0549585233441
0.030483442001
0.0585339433687
0.0771063707194
0.0860323072172
0.0904092155157
0.0537153348623
0.0738817367082
0.153188782195
0.209762230424
0.259516559888
0.273616222688
0.0703964456691
0.085131366453
0.116537368853
0.161169033488
0.202717775723
0.237386602237
0.230024250734
0.209159776531
0.211360103527
0.260566955949
0.264547034916
0.273910922378
0.277896767168
0.265258775684
0.263058664394
0.267203179649
0.281092375458
0.282296398367
0.267721056493
0.289319721916
0.280797774967
0.239215347879
0.292514402115
0.280580089483
0.267478548719
0.286808561974
0.277809268819
0.233481370575
0.191195689156
0.198384657753
0.193360972922
0.137485322734
0.0788497761064
0.0344605927829
0.0607543627535
0.329326014652
0.298408788129
0.207577277781
0.0354888073283
0.0895654629115
0.271864519521
0.246866217114
0.192973420515
0.332991595815
0.213682215883
0.284711517785
0.305470088409
0.325194362313
0.432126679936
0.432396136426
0.327731817592
0.41237483354
0.249364229312
0.489733765253
0.4643839389
0.35161188008
0.276474632697
0.578223325121
0.11840377757
0.109095648589
0.226444878624
0.126148867402
0.260035299499
0.204637273198
0.310086804377
0.364686243377
0.158946706737
0.261647852449
0.301483736754
0.151753369877
0.164220337453
0.288132982479
0.486730310158
0.402583525534
0.200436572003
0.170619916407
0.309208415184
0.131461434056
0.35001010648
0.3006684182
0.270427814437
0.25131445233
0.316597614792
0.101449973501
0.0768641408381
0.0765773699156
0.16326915071
0.267751659567
0.108301858999
0.153243773687
0.163980594458
0.167332299611
0.164517607241
0.1608755159
0.181144693574
0.171860712704
0.147063271775
0.153150193193
0.12576325953
0.0802963580893
0.0240025018334
0.0344063792201
0.0582493684736
0.0155756660423
0.113430644188
0.294801861572
0.0531627194036
0.0287623087344
0.122871393867
0.0262501165115
0.139617049589
0.344407762963
0.216675246514
0.31454161457
0.144803830184
0.190505507623
0.279660944946
0.434588064321
0.279423243478
0.140890158464
0.345187603244
0.330012667814
0.266989068351
0.336816236321
0.320636298594
0.35625867154
0.398554788888
0.350845509753
0.310464180163
0.428902642336
0.240201005321
0.196120115953
0.269355949028
0.391526673794
0.281465113734
0.198173992828
0.154259306528
0.280174551113
0.0679789231995
0.20836530639
0.0816932159334
0.0332805012998
0.13216947536
0.0761983109296
0.272588046763
0.136445401282
0.160373029409
0.197155847828
0.213505905378
0.205493336057
0.281629140297
0.27290011564
0.282441273407
0.308295919975
0.313111668171
0.323604363079
0.323152485187
0.334432201766
0.35871705932
0.3220768793
0.294794349081
0.288375962247
0.275304686085
0.264803958973
0.230268178525
0.273737585759
0.234295075223
0.160173300873
0.144326555132
0.0249000483142
0.15968770953
0.175216359816
0.153953866397
0.241748591883
0.228491772221
0.193924493402
0.153649016478
0.0914639733915
0.0740023460471
0.00586875957092
0.0816278391788
0.0530009340018
0.0851017364639
0.0483322352224
0.09746716558
0.0171663971866
0.112989788957
0.207686139035
0.113990534854
0.0839598966572
0.0146460353283
0.10352061191
0.0355714776574
0.00782163357483
0.0405308692637
0.0757912725703
0.130085673936
0.109659531175
0.130156524099
0.118672066454
0.0941477597352
0.111832053319
0.0912920880112
0.120713068944
0.0718770138539
0.110922924637
0.110172958619
0.0693482574087
0.112965447362
0.135908395664
0.154518427092
0.14786966148
0.162601206552
0.227987916232
0.24400526621
0.283027089473
0.42068571284
0.5190476363
0.562121435642
0.599006229313
0.638447289201
0.672592901474
0.738539592614
0.807436485251
0.858558443738
0.884405861665
1.05835313694
0.738134988733
0.733752319493
0.771514691451
0.74246061643
0.744707088948
0.510889985133
0.0155583225223
0.102493818632
0.169964647926
0.153579650402
0.147289995075
0.139199102165
0.292991013057
0.208039235717
0.0884985565919
0.185335843831
0.412558292004
0.300483608792
0.0406084599519
0.180293441526
0.15381651188
0.182341293897
0.273822722219
0.114515047063
0.0629097603656
0.0795744222177
0.0348969859569
0.165158953514
0.0631674292821
0.114643487224
0.088788967361
0.0705014722928
0.0955798928297
0.0816287387194
0.0717532832051
0.0436078852032
0.0365136896553
0.135187282673
0.281029125861
0.163604122999
0.109227016386
0.0351573254046
0.103010600496
0.108058180633
0.259592606365
0.121249478631
0.306828302419
0.267589318498
0.237294299199
0.308091857069
0.161819191197
0.136490454636
0.376417040154
0.139958473326
0.0973901587886
0.136870074769
0.0213432320672
0.0423099390624
0.14235411752
0.21470371659
0.21092574631
0.232083858339
0.0454451658096
0.191974946084
0.14310482832
0.275177312499
0.241250348677
0.178919070626
0.280945021052
0.0942014933184
0.208841285987
0.212600522173
0.260438711281
0.362927631928
0.319401647124
0.427964628935
0.541360460555
0.698438844107
0.290837424828
0.527380071636
1.09797214682
1.1962037981
1.74297208845
2.05531584951
2.54752072668
0.222641689963
2.7833042398
1.44686553261
0.183142039043
3.78065626135
1.92210902358
3.77117392197
0.00317228461111
0.116347639117
0.129280202783
0.262057438849
0.140705547963
0.574124660113
0.0497210529741
0.244227502984
0.00126488154643
0.0684960021058
0.039687405367
0.070822083293
0.0747817772945
0.0470878114487
0.0143187678169
0.134142891521
0.374617616113
0.0506683260132
0.066701097772
0.0344780034557
0.114528098957
0.0492130989624
0.0688281268176
0.129838306404
0.166393463425
0.0179005782991
0.194603300494
0.376687604611
0.0227175025231
0.0689732204061
0.240694356947
0.0527362761758
0.355274907346
0.246448629341
0.045767920623
0.295340150136
0.0114206782651
0.134041653179
0.156295844973
0.200650463135
0.454551467162
0.0685874360809
0.128866231618
0.83529117248
0.283988982439
0.247271978173
0.340421658674
0.459241483952
0.752130610544
0.873566791258
1.25201990833
1.86158221796
1.70569988276
1.67463876443
1.70442231697
1.57649987673
1.71011520877
1.20259513561
1.34055311868
0.812479906711
1.09858736905
0.482587894982
2.57078238805
0.0364482055408
0.044012339861
0.0307979497138
0.218673841146
0.0
0.0696642564021
0.0651613043357
0.00697419934306
0.0099422548275
0.0712140095189
0.0343355612153
0.0922510357808
0.09122966979
0.0372244412499
0.0118492360172
0.114432734048
0.0785536371231
0.10930121731
0.0255292560368
0.0221925247997
0.0477753591382
0.0339365624535
0.0628612366076
0.0435909329462
0.0327606133985
0.158855411771
0.0497007609811
0.0101310443209
0.167490816233
0.0796871424289
0.0877384799886
0.0215570752394
0.186573955554
0.0270103397913
0.208280815446
0.231367867581
0.107421518432
0.15406533791
0.276491782193
0.28766404223
0.243537351876
0.301570045389
0.403149318795
0.484952535905
0.548073304573
0.607516775532
0.673678350305
0.634123120611
0.63153192021
0.814615418833
1.00468640227
0.828022527837
0.716435921762
0.99012239124
1.16328547732
0.12958819118
0.0613415625387
0.055565171225
0.0308242931791
0.0502214048982
0.0766512936882
0.0508675935774
0.0808696080495
1000000.0
0.0
0.0
0.0
0.0
0.0
0.0
0.0
0.0
0.0
0.0
0.0
0.0
0.0
0.0
0.0
0.0
0.0
0.0
0.0
0.0
0.0
0.0
0.0
0.0
0.0
0.0
0.0
0.0
0.0
0.0
0.0
0.0
0.0
0.0
0.0
0.0
0.0
0.0
0.0
0.0
0.0
0.0
0.0
0.0
0.0
0.0
0.0
0.0
0.0
0.0
0.0
0.0
0.0
0.0
0.0
0.0
0.0
0.0
0.0
0.0
0.0
0.0
0.0
0.0
0.0
0.0
0.0
0.0
0.0
0.0
0.0
0.0
0.0
0.0
0.0
0.0
0.0
0.0
0.0
0.0
0.0
0.0
0.0
0.0
0.0
0.0
0.0
0.0
0.0
0.0
0.0
0.0
0.0
0.0
0.0
0.0
0.0
0.0
0.0
0.0
0.0
0.0
0.0
0.0
0.0
0.0
0.0
0.0
0.0
0.0
0.0
0.0
0.0
0.0
0.0
0.0
0.0
0.0
0.0
0.0
0.0
0.0
0.0
0.0
0.0
0.0
0.0
0.0
0.0
0.0
0.0
0.0
0.0
0.0
0.0
0.0
0.0
0.0
0.0
0.0
0.0
0.0
0.0
0.0
0.0
0.0
0.0
0.0
0.0
0.0
0.0
0.0
0.0
0.0
0.0
0.0
0.0
0.0
0.0
0.0
0.0
0.0
0.0
0.0
0.0
0.0
0.0
0.0
0.0
0.0
0.0
0.0
0.0
0.0
0.0
0.0
0.0
0.0
0.0
0.0
0.0
0.0
0.0
0.0
0.0
0.0
0.0
0.0
0.0
0.0
0.0
0.0
0.0
0.0
0.0
0.0
0.0
0.0
0.0
0.0
0.0
0.0
0.0
0.0
0.0
0.0
0.0
0.0
0.0
0.0
0.0
0.0
0.0
0.0
0.0
0.0
0.0
0.0
0.0
0.0
0.0
0.0
0.0
0.0
0.0
0.0
0.0
0.0
0.0
0.0
0.0
0.0
0.0
0.0
0.0
0.0
0.0
0.0
0.0
0.0
0.0
0.0
0.0
0.0
0.0
0.0
0.0
0.0
0.0
0.0
0.0
0.0
0.0
0.0
0.0
0.0
0.0
0.0
0.0
0.0
0.0
0.0
0.0
0.0
0.0
0.0
0.0
0.0
0.0
0.0
0.0
0.0
0.0
0.0
0.0
0.0
0.0
0.0
0.0
0.0
0.0
0.0
0.0
0.0
0.0
0.0
0.0
0.0
0.0
0.0
0.0
0.0
0.0
0.0
0.0
0.0
0.0
0.0
0.0
0.0
0.0
0.0
0.0
0.0
0.0
0.0
0.0
0.0
0.0
0.0
0.0
0.0
0.0
0.0
0.0
0.0
0.0
0.0
0.0
0.0
0.0
0.0
0.0
0.0
0.0
0.0
0.0
0.0
0.0
0.0
0.0
0.0
0.0
0.0
0.0
0.0
0.0
0.0
0.0
0.0
0.0
0.0
0.0
0.0
0.0
0.0
0.0
0.0
0.0
0.0
0.0
0.0
0.0
0.0
0.0
0.0
0.0
0.0
0.0
0.0
0.0
0.0
0.0
0.0
0.0
0.0
0.0
0.0
0.0
0.0
0.0
0.0
0.0
0.0
0.0
0.0
0.0
0.0
0.0
0.0
0.0
0.0
0.0
0.0
0.0
0.0
0.0
0.0
0.0
0.0
0.0
0.0
0.0
0.0
0.0
0.0
0.0
0.0
0.0
0.0
0.0
0.0
0.0
0.0
0.0
0.0
0.0
0.0
0.0
0.0
0.0
0.0
0.0
0.0
0.0
0.0
0.0
0.0
0.0
0.0
0.0
0.0
0.0
0.0
0.0
0.0
0.0
0.0
0.0
0.0
0.0
0.0
0.0
0.0
0.0
0.0
0.0
0.0
0.0
0.0
0.0
0.0
0.0
0.0
0.0
0.0
0.0
0.0
0.0
0.0
0.0
0.0
0.0
0.0
0.0
0.0
0.0
0.0
0.0
0.0
0.0
0.0
0.0
0.0
0.0
0.0
0.0
0.0
0.0
0.0
0.0
0.0
0.0
0.0
0.0
0.0
0.0
0.0
0.0
0.0
0.0
0.0
0.0
0.0
0.0
0.0
0.0
0.0
0.0
0.0
0.0
0.0
0.0
0.0
0.0
0.0
0.0
0.0
0.0
logs/alpha_5.0/PGSD_100steps_4.log 1000153.03203 1000.15303203 0.000632440773217 1000000.0 0.0 500
