Policy Parameters:	-0.762674393876 -0.256998112164
Control Steps:		1000
Start Time:		1442366148.966581

-- TESTING STOPPED --

Stop Time:		1442366200.8995943
Duration:		51.93301320075989
Cost Matrix:
0.077098288389
0.0633893113992
0.032383374355
0.0976309514665
0.023103597614
0.0145434566761
0.0262913697753
0.0764678872488
0.0546009271169
0.026124787021
0.0776383859755
0.0277321500964
0.0237140348994
0.0682168555942
0.0380906268131
0.0336766789796
0.0500394751838
0.0687459029305
0.0403991479946
0.0284384745095
0.0265297955184
0.0343968712301
0.0701064201858
0.0512162754943
0.0610815787479
0.0348252888408
0.0296169979478
0.0611761718348
0.0413500854572
0.0384270640976
0.0926485465844
0.104509423651
0.0760146759474
0.0405993709774
0.142941727952
0.0897686409226
0.0613146599714
0.0763658638262
0.0944216206256
0.0880004053947
0.0553743315934
0.0401328464478
0.0549991751527
0.0723987447274
0.0324704714509
0.0647788591614
0.0830560245899
0.0566997027118
0.0540059942681
0.0942982891721
0.0860848181008
0.0563217536947
0.0724870084709
0.106027671525
0.140434725193
0.137457257719
0.152570232285
0.147515040886
0.187780105075
0.208021823565
0.273218686596
0.269457892693
0.284109467495
0.293560887452
0.265841162398
0.303188011101
0.304236835613
0.285813241673
0.316581525595
0.323348081235
0.342412784845
0.387065764459
0.35858058744
0.331883571417
0.319734186826
0.34055284188
0.389442531284
0.345583979221
0.313669408044
0.33447791705
0.267283014329
0.159826814785
0.0711223235248
0.0285091747495
0.0171874844373
0.0120155126484
0.0491597455752
0.101034596972
0.055132307701
0.0351282771344
0.0202120939449
0.0187113088079
0.0182255636714
0.0565544286336
0.0353104358034
0.0185676211868
0.0192641872083
0.0305288160409
0.0459346397833
0.0803329478418
0.0500611986558
0.045904805142
0.0357630012258
0.0431645275502
0.063361504511
0.0527029856266
0.0910859977021
0.0834296062358
0.102044818557
0.12178744964
0.119603415523
0.139693850247
0.134760950962
0.18725092441
0.224234158475
0.233019428448
0.246211013981
0.211320476425
0.323551049275
0.324146875469
0.388103794097
0.41472723487
0.418643345334
0.427763562025
0.444837974797
0.460609386007
0.466159739828
0.466624069328
0.483362100831
0.479633227269
0.481898950998
0.490599465386
0.46832066904
0.502480932021
0.471597500645
0.432557272819
0.347003728424
0.324799291876
0.227066650652
0.121327391536
0.127825110265
0.151809154308
0.152241761962
0.121399666967
0.130266070363
0.132892518986
0.11445064879
0.128211226502
0.114414864657
0.146560968977
0.11903895031
0.0958305422196
0.113869302
0.127926853775
0.13668245159
0.115464142741
0.146809467802
0.150464425444
0.126242123943
0.111833867469
0.124233984774
0.102351501292
0.088697850674
0.0752559196061
0.123856865917
0.107677471974
0.0952908939482
0.077949251549
0.0534178369726
0.0613601106305
0.0184376124587
0.045329759212
0.107239063071
0.0768700717443
0.0176592229113
0.0587892191116
0.0815398436255
0.062858229636
0.0247487822529
0.0282319362941
0.111618856383
0.0860183521613
0.0948533655297
0.0723631611657
0.0653097216041
0.0554602037718
0.0588452375959
0.0763113774525
0.0642996101787
0.0662181787057
0.0632126461436
0.0480169537094
0.0802860849875
0.11821107896
0.143241625601
0.142698250651
0.143026478806
0.133939990528
0.350214764441
0.308591208252
0.277692284823
0.328062822163
0.370016845532
0.397622510049
0.437881270599
0.493933903103
0.563149638199
0.652142962643
0.716138715395
0.680199558652
0.779316942129
0.657474864617
0.685382370315
0.530899892169
0.241338846426
0.193036378204
0.243860913777
0.227342586908
0.235378539815
0.257887975981
0.285727621607
0.252527915565
0.269795071425
0.219738882378
0.210615534636
0.203945736681
0.173254380235
0.19401683919
0.180047735585
0.0614180532489
0.0308994279439
0.065694143329
0.0370730134188
0.0550071652429
0.0478761840491
0.0436532748198
0.0478534940564
0.0561504126026
0.0979158418284
0.106175187531
0.107569961265
0.0967839947093
0.074488561221
0.0694815815651
0.0812275690877
0.066607084971
0.0991171665199
0.12418548894
0.110697725667
0.164130416145
0.109604628065
0.0800679657097
0.0829353050935
0.0751378933954
0.114935623452
0.111767788815
0.11579863247
0.121875133659
0.134545437561
0.118924337403
0.142709883881
0.122381496413
0.108360484831
0.0838185468721
0.0595419460453
0.0909564870807
0.105594921081
0.128810518312
0.125801624508
0.134244381853
0.112747027106
0.076224348112
0.0758680233849
0.0835542087863
0.0551085238912
0.0187886611637
0.0564053285562
0.0530203724473
0.0722596991517
0.049547498252
0.0297875669518
0.0424302299201
0.0285572853827
0.0239485185064
0.00840045166549
0.0420315591375
0.0171298828487
0.0432870977705
0.03545073942
0.0445761725836
0.015856548434
0.0902466827526
0.0282751485835
0.0115139302879
0.0485312026889
0.041132853381
0.0280568696828
0.0195829600751
0.0296686549186
0.0422282638685
0.020916481827
0.0053057132822
0.00795989932252
0.0110224670095
0.0182667973728
0.0429984938908
0.00764170388549
0.0320254208647
0.0394949927272
0.0168691945139
0.0121096732976
0.0442139339066
0.0448494494714
0.0240598413499
0.0220754373226
0.0101967193142
0.0287901038461
0.0389933246578
0.0338947521268
0.0318525440441
0.0373042741205
0.0177113007103
0.0215641479723
0.0622654571293
0.0477828038618
0.0888844771032
0.0485179868641
0.0258423210074
0.0794472755779
0.0649048943781
0.0856678618471
0.0906948224146
0.0898860712548
0.0801005925151
0.0967479353511
0.104985309084
0.142107845628
0.147832589154
0.149852068308
0.18069674539
0.219918101156
0.240627585922
0.206051624519
0.247866229061
0.303018810355
0.271495547924
0.352337096849
0.378517982838
0.328689818322
0.374639341026
0.411706627559
0.824467434776
0.54868338628
1.07711632832
0.645712828025
0.648450756272
0.489115086807
0.408906211625
1000000.0
0.0
0.0
0.0
0.0
0.0
0.0
0.0
0.0
0.0
0.0
0.0
0.0
0.0
0.0
0.0
0.0
0.0
0.0
0.0
0.0
0.0
0.0
0.0
0.0
0.0
0.0
0.0
0.0
0.0
0.0
0.0
0.0
0.0
0.0
0.0
0.0
0.0
0.0
0.0
0.0
0.0
0.0
0.0
0.0
0.0
0.0
0.0
0.0
0.0
0.0
0.0
0.0
0.0
0.0
0.0
0.0
0.0
0.0
0.0
0.0
0.0
0.0
0.0
0.0
0.0
0.0
0.0
0.0
0.0
0.0
0.0
0.0
0.0
0.0
0.0
0.0
0.0
0.0
0.0
0.0
0.0
0.0
0.0
0.0
0.0
0.0
0.0
0.0
0.0
0.0
0.0
0.0
0.0
0.0
0.0
0.0
0.0
0.0
0.0
0.0
0.0
0.0
0.0
0.0
0.0
0.0
0.0
0.0
0.0
0.0
0.0
0.0
0.0
0.0
0.0
0.0
0.0
0.0
0.0
0.0
0.0
0.0
0.0
0.0
0.0
0.0
0.0
0.0
0.0
0.0
0.0
0.0
0.0
0.0
0.0
0.0
0.0
0.0
0.0
0.0
0.0
0.0
0.0
0.0
0.0
0.0
0.0
0.0
0.0
0.0
0.0
0.0
0.0
0.0
0.0
0.0
0.0
0.0
0.0
0.0
0.0
0.0
0.0
0.0
0.0
0.0
0.0
0.0
0.0
0.0
0.0
0.0
0.0
0.0
0.0
0.0
0.0
0.0
0.0
0.0
0.0
0.0
0.0
0.0
0.0
0.0
0.0
0.0
0.0
0.0
0.0
0.0
0.0
0.0
0.0
0.0
0.0
0.0
0.0
0.0
0.0
0.0
0.0
0.0
0.0
0.0
0.0
0.0
0.0
0.0
0.0
0.0
0.0
0.0
0.0
0.0
0.0
0.0
0.0
0.0
0.0
0.0
0.0
0.0
0.0
0.0
0.0
0.0
0.0
0.0
0.0
0.0
0.0
0.0
0.0
0.0
0.0
0.0
0.0
0.0
0.0
0.0
0.0
0.0
0.0
0.0
0.0
0.0
0.0
0.0
0.0
0.0
0.0
0.0
0.0
0.0
0.0
0.0
0.0
0.0
0.0
0.0
0.0
0.0
0.0
0.0
0.0
0.0
0.0
0.0
0.0
0.0
0.0
0.0
0.0
0.0
0.0
0.0
0.0
0.0
0.0
0.0
0.0
0.0
0.0
0.0
0.0
0.0
0.0
0.0
0.0
0.0
0.0
0.0
0.0
0.0
0.0
0.0
0.0
0.0
0.0
0.0
0.0
0.0
0.0
0.0
0.0
0.0
0.0
0.0
0.0
0.0
0.0
0.0
0.0
0.0
0.0
0.0
0.0
0.0
0.0
0.0
0.0
0.0
0.0
0.0
0.0
0.0
0.0
0.0
0.0
0.0
0.0
0.0
0.0
0.0
0.0
0.0
0.0
0.0
0.0
0.0
0.0
0.0
0.0
0.0
0.0
0.0
0.0
0.0
0.0
0.0
0.0
0.0
0.0
0.0
0.0
0.0
0.0
0.0
0.0
0.0
0.0
0.0
0.0
0.0
0.0
0.0
0.0
0.0
0.0
0.0
0.0
0.0
0.0
0.0
0.0
0.0
0.0
0.0
0.0
0.0
0.0
0.0
0.0
0.0
0.0
0.0
0.0
0.0
0.0
0.0
0.0
0.0
0.0
0.0
0.0
0.0
0.0
0.0
0.0
0.0
0.0
0.0
0.0
0.0
0.0
0.0
0.0
0.0
0.0
0.0
0.0
0.0
0.0
0.0
0.0
0.0
0.0
0.0
0.0
0.0
0.0
0.0
0.0
0.0
0.0
0.0
0.0
0.0
0.0
0.0
0.0
0.0
0.0
0.0
0.0
0.0
0.0
0.0
0.0
0.0
0.0
0.0
0.0
0.0
0.0
0.0
0.0
0.0
0.0
0.0
0.0
0.0
0.0
0.0
0.0
0.0
0.0
0.0
0.0
0.0
0.0
0.0
0.0
0.0
0.0
0.0
0.0
0.0
0.0
0.0
0.0
0.0
0.0
0.0
0.0
0.0
0.0
0.0
0.0
0.0
0.0
0.0
0.0
0.0
0.0
0.0
0.0
0.0
0.0
0.0
0.0
0.0
0.0
0.0
0.0
0.0
0.0
0.0
0.0
0.0
0.0
0.0
0.0
0.0
0.0
0.0
0.0
0.0
0.0
0.0
0.0
0.0
0.0
0.0
0.0
0.0
0.0
0.0
0.0
0.0
0.0
0.0
0.0
0.0
0.0
0.0
0.0
0.0
0.0
0.0
0.0
0.0
0.0
0.0
0.0
0.0
0.0
0.0
0.0
0.0
0.0
0.0
0.0
0.0
0.0
0.0
0.0
0.0
0.0
0.0
0.0
0.0
0.0
0.0
0.0
0.0
0.0
0.0
0.0
0.0
0.0
0.0
0.0
0.0
0.0
0.0
0.0
0.0
0.0
0.0
0.0
0.0
0.0
0.0
0.0
0.0
0.0
0.0
0.0
0.0
0.0
0.0
0.0
0.0
0.0
0.0
0.0
0.0
0.0
0.0
0.0
0.0
0.0
0.0
0.0
0.0
0.0
0.0
0.0
0.0
0.0
0.0
0.0
0.0
0.0
0.0
0.0
0.0
0.0
0.0
0.0
0.0
0.0
0.0
0.0
0.0
0.0
0.0
0.0
0.0
0.0
0.0
0.0
0.0
0.0
0.0
0.0
0.0
0.0
0.0
0.0
0.0
0.0
0.0
0.0
0.0
0.0
0.0
0.0
logs/alpha_5.0/PGSD_100steps_3.log 1000055.34745 1000.05534745 0.0 1000000.0 0.0 358
