Policy Parameters:	-5.18521774017 3.65301637354
Control Steps:		1000
Start Time:		1438367048.5108764

-- TESTING STOPPED --

Stop Time:		1438367225.1889505
Duration:		176.67807412147522
Cost Matrix:
0.775051437788
1.38918820547
1.43993615906
1.51843636255
2.16066397144
0.370295103472
0.226131435523
0.369191880785
0.166312231482
0.329346822585
0.432350612399
0.110926640028
0.878431718907
0.100495898808
0.351066411415
0.358316111327
0.371655965879
0.460480620742
0.321201735179
0.277343640671
0.504253492013
0.508270328796
0.532474440483
0.232520566218
0.224141987053
0.194895457331
0.134850874622
0.285370513042
0.114468655994
0.20036130178
0.410219345321
0.282144871196
0.0893879125862
0.0531874255083
0.138527680979
0.477559508256
0.974585388966
0.831636615767
0.908771437124
1.24072778065
1.35703692568
1.25929499097
1.4972447923
1.60895158391
1.11491464323
1.53086001853
1.3346079619
0.581583938582
1.27011153845
0.807318886846
0.336001390136
0.328302318354
0.236692061926
0.206979698681
0.38706434445
0.122633914034
0.238795850946
0.370814367104
0.446740357864
0.650867736517
0.393310963055
0.452547424396
0.362801116102
0.348269930545
0.42235110499
0.385285651073
0.258086463779
0.413956689933
0.405033575523
0.293135947887
0.331403913762
0.0883460282318
0.231664081276
0.316924596562
0.253083571156
0.164346780945
0.174921441205
0.170063068651
0.102820565616
0.147596913611
0.0806139313039
0.016685841715
0.0903240466144
0.217816691372
0.406572169108
0.314785481808
0.513869081748
0.362773618463
0.324010940253
0.29042327225
0.384335395516
0.666231407358
0.4787966262
1.15899093187
1.06294546999
1.74852380158
1.28406260455
1.44098675322
1.22264343187
1.35917156998
1.44047008809
0.906848345111
1.30634765557
0.390118870382
0.87287805827
0.0179881707931
0.0466398837591
0.159351000974
0.49330453246
0.292069413425
0.375310098761
0.352005349657
0.487093773048
0.607796439551
0.355640127811
0.393796448657
0.486953797005
0.408471282926
0.376459286295
0.450657647785
0.480550856687
0.464993371179
0.506307181499
0.404099575334
0.448081432342
0.450756433469
0.159566434151
0.156841920391
0.149508609747
0.162749122369
0.122379825935
0.00422775516229
0.103863539447
0.391388576939
0.343780227852
0.292993763801
0.362392856718
0.882956678849
0.416996158764
0.86910390385
0.887061129138
0.796483024465
0.731875968069
0.586166600639
0.471219217106
0.782700303484
0.3495759373
0.394000490368
0.321980685555
0.295750181865
0.408621403277
0.0318937982338
0.104725515125
0.173537301553
0.280062303191
0.301706075083
0.299264951398
0.303660876361
0.327689384742
0.282663871781
0.364267350976
0.272254008457
0.209132599295
0.0556955964433
0.26719650875
0.213589128866
0.115213998015
0.132227626823
0.398749990608
0.434974519425
0.348729528547
0.368315428766
0.284254201747
0.27308296491
0.0865620242331
0.0344477507638
0.109423783199
0.0783243434379
0.0648344660067
0.129145064392
0.190521322973
0.247918848782
0.0103501531216
0.0698460524377
0.239229552626
0.296494562958
0.152133323651
0.300243414677
0.387907388547
0.0807205075971
0.0540153212177
0.189626307079
0.122176396026
0.44728467405
0.172262280062
0.226178035881
0.381355844068
0.351205284452
0.164031633819
0.1822366079
0.226774862592
0.232492930578
0.261032048016
0.34992770513
0.19996259534
0.351577009472
0.25889656817
0.321831708163
0.274718214197
0.26599182333
0.258026047932
0.18287447722
0.0265575831757
0.216394683108
0.468605668579
0.332156228156
0.396668573033
0.859417087869
0.971099958821
1.11782453956
1.22812130103
1.30591853559
1.17928559173
1.4103722029
0.856079666812
1.32624619842
1.01692167727
0.930858001403
0.854429418456
0.621620234423
0.483038083269
0.33159335356
0.407890982489
0.248767267582
0.3785616465
0.283509216427
0.290279686922
0.445219600249
0.459402062199
0.650750322137
0.404107603598
0.341997519392
0.235685585862
0.388686230428
1.30939415433
0.782244172083
0.68971269086
0.911455099925
0.509512116574
0.635488847254
0.232403520752
0.374102717666
0.194135501306
0.0290800346755
0.126180722148
0.768700865051
0.343815535061
0.369357770947
0.243866574487
0.525423374358
0.284538692515
0.209317660223
0.228533559332
0.152788557569
0.053992568134
0.207645683797
0.319150664152
0.153093914779
0.260267210224
0.345849605722
0.45768107109
0.286287314865
0.0829186982469
0.18937446866
0.280353790541
0.282596285297
0.054712905857
0.147034353594
0.218763636323
0.19978581728
0.16546137891
0.173197388029
0.269375355769
0.360855347304
0.257952647674
0.0193344069016
0.078746622523
0.0664967899313
0.143262401377
0.101162169556
0.321898558096
0.0673831513418
0.243458225948
0.140476201373
0.142692273088
0.0493014580564
0.122386714124
0.0208299740035
0.0266733328636
0.0978094660702
0.101720296437
0.0687849256844
0.00700670025039
0.0536213878487
0.28097972525
0.361302091853
0.256504655127
0.769403047911
0.246202602145
0.43601607966
0.342549881059
0.178446249567
0.336941767644
0.344935136282
0.30350683455
0.574442208047
0.637840655504
0.779862520031
1.36886803166
1.149216903
1.6698853208
1.6869495316
1.81601412759
2.15529149167
3.77499044987
1.33551469314
0.414950474824
0.167724153419
0.266232855475
0.596539921537
0.329686687481
0.0822752346986
0.0595109906402
0.191223887523
0.525146735933
1.04185597726
0.483925234228
0.833456684966
0.554816579522
0.976706339154
0.319222371956
0.477136045074
0.802627800859
1.74629883492
0.0400441418009
0.134060899852
0.0639762368517
0.0207822096032
0.125742318366
0.25132270067
0.459309361996
0.366495541457
0.832488941217
0.13241136906
0.439735294659
0.490838069308
0.310851397921
0.357804560394
0.393482357933
0.337491816184
0.363794460119
0.452893532981
0.121964557399
0.109710627225
0.324439593061
0.958392518628
0.071293609937
0.385595164353
0.039575918585
0.102609716974
0.429547797196
0.0759696715184
0.394295507203
0.284662364212
0.376865819463
0.467932446705
0.388326814975
0.544047694394
0.677282790216
1.04877151438
0.930698836657
1.55266481699
1.58831725433
1.93324155735
1.70269237434
1.74095588256
0.736741769172
2.28119890195
0.491170791919
1.92074464841
0.452440230669
0.707171707002
0.505027163143
0.526807213219
0.87386787841
0.441749600732
0.555586549414
0.313764977289
0.365655723862
0.500767332412
0.202254817729
0.0575919789416
0.102379458609
0.0800430765369
0.322886819079
0.289398677137
0.320526465574
0.234590302019
0.267168379508
0.0344218638187
0.139262214431
1.04343466971
0.0797681852414
0.157993672761
0.0401630741399
0.152561193642
0.0493906739216
0.187394326917
0.156756249009
0.123500971673
0.122555490281
0.110157397349
0.0790473192675
0.0848765906204
0.119819992392
0.016047777427
0.0470252940396
0.0347925273858
0.108708345227
0.00430533325683
0.0168551804726
0.132825869923
0.194516282307
0.18410904353
0.174989894244
0.207780493105
0.0317045803246
0.0509752708694
0.172446408475
0.308736031394
0.339363779036
0.417255834584
0.807246803406
0.645679142868
1.24934108547
0.702599791513
1.17012519913
0.735577229718
1.19446566887
0.684376250509
1.08964374449
0.592536794495
0.703840763246
0.475671492235
0.334642095851
0.368577000387
0.086495396871
0.221146648679
0.0980020105228
0.227471363422
0.191106930875
0.197780777114
0.166237580262
0.265790962988
0.187864730738
0.130990499774
0.158355870272
0.430961933046
0.361052288156
0.271866468845
0.408900244404
0.423725285934
0.534023328915
0.520416924792
0.504807993061
0.461612699667
0.397804312307
0.409219954188
0.408766166494
0.346960286864
0.44066761793
0.32334873849
0.248146436444
0.228659297435
0.267199908489
0.190998913298
0.18027019699
0.243116138048
0.220802287165
0.197871631766
0.16052960624
0.218552505395
0.207527979783
0.227539372852
0.176635952671
0.201838498055
0.182116820571
0.227581205594
0.254821709066
0.298833471663
0.265542750832
0.259974692423
0.305456423054
0.340941157736
0.383091257717
0.354419172061
0.253906932215
0.402170823234
0.419027643921
0.388813717143
0.432201991613
0.544355048662
0.917709799722
0.676225170127
1.40442686059
1.79145878602
2.20941345314
2.59235820487
0.739194931444
3.14349319715
0.44199707677
2.34730000323
0.322567693104
1.77209142608
0.342085490847
0.808058567509
0.232105670025
0.329536394036
0.242049402219
0.246926744828
0.331646251567
0.226497736259
0.128445106631
0.280328394888
0.138240934488
0.289953514072
0.251820995441
0.18386274231
0.121980867901
0.0404171775371
0.124262797502
0.0230043760636
0.148309827398
0.00647653976512
0.0591032095877
0.0652805490791
0.0337324649488
0.0964931601979
0.100691143944
0.111111273769
0.130877154452
0.163438141369
0.104057181912
0.116415851725
0.146323741807
0.158072482161
0.185342098228
0.196794287241
0.197253667302
0.184855847917
0.206352434842
0.221343622923
0.213496139078
0.201515865389
0.194249396516
0.223514283884
0.258754561913
0.241130409958
0.223988707097
0.198811098392
0.197916342921
0.230740572481
0.206188086922
0.178958064414
0.231653454606
0.262824217537
0.258619861444
0.230119010943
0.279960419719
0.245408613825
0.333485381742
0.211191029079
0.224858669446
0.396496653958
0.371232767639
0.236453095695
0.380528808594
0.420970183799
0.40440718517
0.46287149349
0.509562584194
0.833279109176
0.409845047481
0.92569429959
1.20006371447
0.94117494319
1.40375878833
1.54763128449
1.43675874893
1.58118861489
1.42137555237
1.37669563343
1.14762974268
1.48051121449
1.13017342246
0.51552439431
1.08827795315
0.161734468786
0.263621112857
0.28617606218
0.28512441467
0.260026986652
0.244970622664
0.285110565062
0.273767621648
0.264915923704
0.298384073158
0.305994926462
0.315828072123
0.262227957434
0.267120531855
0.305330911957
0.273546382046
0.294210948245
0.294078971488
0.275045476393
0.24529186529
0.247040676871
0.249567338792
0.236683751652
0.231491031858
0.236120221763
0.217761558248
0.226567140482
0.239743673408
0.223353806796
0.176757917829
0.202245560544
0.200202806845
0.2014755253
0.208496702656
0.205240176433
0.197515398434
0.190273136843
0.247326014673
0.226268501261
0.182530001489
0.21866760574
0.161491949474
0.0450925024145
0.246050933965
0.445464738599
0.317897029056
0.954978265045
0.288064903099
0.742481329524
0.374173623
0.522415036966
0.20779982299
0.0749215796721
0.105924191898
0.173822616082
0.275747876333
0.301226869897
0.319536692215
0.294567749901
0.254776441877
0.296462827363
0.286198073603
0.213372321712
0.256603638877
0.248461573187
0.250103571583
0.226945814202
0.215383017008
0.205139272083
0.187591412604
0.162795503793
0.203128664337
0.200100722197
0.191999878754
0.190666596099
0.236285068074
0.164600403958
0.180936817715
0.204043408095
0.160455245234
0.211258442137
0.168366096609
0.188166402058
0.166699240379
0.184099143286
0.163673687774
0.166466703516
0.208315913852
0.128483270704
0.124413491955
0.192724058097
0.142743793132
0.158215851102
0.193325803599
0.118199545244
0.0144740335758
0.141303317471
0.349328416004
0.139691125067
0.259157534173
0.22036977168
0.035375203093
0.130247550891
0.128577582612
0.124222849569
0.147326455278
0.174891774806
0.110459437332
0.144897281257
0.163087744308
0.133761702933
0.107474806088
0.192143549001
0.103627974484
0.148813297218
0.116760645918
0.252394296287
0.268841402163
0.284697550007
0.349328673995
0.414989440869
0.881643752624
0.827375092915
1.54210053986
1.6372206771
1.94482715642
1.93408675579
2.10611015189
2.01666583552
1.60490210555
1.60814711289
1.41684575978
1.52101675807
0.134153923294
0.236983642495
0.290791916999
0.0329820768014
0.115564706993
0.162299818269
0.029669768182
0.14949186825
0.1133019228
0.256300404928
0.307813672728
0.250777500053
0.436520580993
0.41709655414
0.449513293222
0.515003240017
0.986099694312
0.793501621642
1.12268025497
0.715397003956
1.190027658
0.513420315904
1.16959893936
0.471707676442
0.75841626312
0.311746677308
0.257998840914
0.353086689078
0.0572061856443
0.192527070775
0.295162657654
0.399834727065
0.252309435067
0.309833842955
0.69604026126
0.269626010334
0.463545266971
0.624968484719
0.370536180362
0.272213755869
0.161142781083
0.114196963703
0.119012305251
0.0679308363254
0.348746057947
0.0124098873798
0.0904882054263
0.170948049507
0.12036126671
0.0461596674324
0.166359640141
0.0439731323357
0.17323309334
0.352475636446
0.474421843503
0.354850419079
0.247376247865
0.150192174987
0.173715995909
0.397901947204
0.33136496977
0.38018982862
0.759714011306
0.384037350009
0.418816174849
0.36097045005
0.4264932031
0.525776590617
0.825434899336
0.284763223852
0.660126813214
0.305017730881
0.0199430433984
0.142215761346
0.384183495781
0.268896890591
0.259105039414
0.107562967736
0.0447911525565
0.240904669988
0.0765357090961
0.0453874967196
0.0316054733009
0.0852251118132
0.034805435071
0.0271771430235
0.152761000361
0.410860507969
0.045155226401
0.0727778951579
0.00808359583792
0.07726390589
0.325173680376
0.470547094518
0.198184885711
0.00984814428188
0.0345254413814
0.0425522551255
0.0955105346618
0.133546247142
0.258095326491
0.0845734568749
0.0798469192057
0.151746542724
0.0944260711958
0.28527345711
0.117240136897
0.289871166668
0.133459306771
0.091968444089
0.190396089237
0.351327006253
0.339121901472
0.403420232339
0.970510562994
0.700816498078
1.3706430516
1.37783973508
2.04329444598
1.9394188552
2.13341126968
1.86709887224
1.99865142792
1.79734781244
1.24207431083
0.828975982103
3.77117426139
0.00898037986356
0.106296313509
0.0731157047145
0.0778525590938
0.140912842374
0.349925722863
0.350937754957
0.192049067366
0.164117258754
0.0711759669932
0.0774204791223
0.0460633778595
0.165519650037
0.198438946581
0.214621356112
0.21595276492
0.208236386322
0.179701193404
0.200669698885
0.227316270162
0.231163674547
0.25409037059
0.187135290448
0.22601099565
0.247163089868
0.270472506281
0.262075165292
0.220876424236
0.210650372075
0.238460221834
0.226687738504
0.232121659758
0.249287263492
0.240599713089
0.246235553465
0.264887817717
0.22739467895
0.276487784828
0.289609387533
0.273437370732
0.280556455541
0.282704151453
0.29163336575
0.301065502149
0.308284190972
0.298421074253
0.0457030936686
0.125771876988
0.273960423005
0.281560770621
0.321315204212
0.30995440445
0.320560689031
0.339764260335
0.342533232156
0.349020407677
0.307987717157
0.313273710552
0.329358006436
0.347616145551
0.314957915662
0.328952519983
0.352110444936
0.322181362573
0.182455586289
0.298468390846
0.307630893099
0.345032816028
0.381812369487
0.354771890181
0.369745089809
0.37453446134
0.357082944438
0.355872032943
0.349825471106
0.360649540332
0.381073663137
0.360165054174
0.338328430544
0.339719144908
0.110102731364
0.29037506257
0.12149830879
0.306395750364
0.335415754618
0.320555851107
0.271300237704
0.29596652975
0.348018094514
0.299759316833
0.325827569308
0.314155344617
0.314706903516
0.274115889708
0.217060157487
0.270628170402
0.286812853494
0.164017620616
0.220566312524
0.268569259891
0.277357531822
0.271619865158
0.285066185022
0.309694421837
0.262842901524
0.259924648212
0.268005952871
0.259227612809
0.210918110703
0.246622140862
0.238539762278
0.24096938352
0.317721575937
0.271038505649
0.228054194335
0.223920587911
0.230742870247
0.245119664812
0.226513161115
0.188585399549
0.184506434794
0.224567377175
0.227537737382
0.232311336786
0.292864504172
0.294913715139
0.278876960821
0.3723769527
0.202978129064
0.168959059795
0.348696882963
0.277896979317
0.271643144098
logs/alpha_1.3/PGSD_200steps_2.log 414.066451577 0.414066451577 0.278386970069 3.77499044987 0.00422775516229 -1
