Initial Policy Parameters:	0.0 0.0
Learning Rate:			1.3
Learning Steps:			300
Start Time:			1437164146.9999337

-- LEARNING STOPPED --

Stop Time:			1437164191.774145
Duration:			44.774211168289185
Final Policy Parameters:	-1.32288398144 1.04367991112
