Initial Policy Parameters:	0.0 0.0
Learning Rate:			1.3
Learning Steps:			100
Start Time:			1437163929.174885

-- LEARNING STOPPED --

Stop Time:			1437163943.4960835
Duration:			14.321198463439941
Final Policy Parameters:	0.0026114883116 0.565910165591
