Policy Parameters:	-3.60717775566 3.33511080723
Control Steps:		1000
Start Time:		1438390459.3901856

-- TESTING STOPPED --

Stop Time:		1438390630.3178205
Duration:		170.92763495445251
Cost Matrix:
0.116061475264
0.354222725428
0.534586837231
0.336164625538
0.403907631947
0.434832898003
0.167839481864
0.17187429162
0.421233517834
0.49467878686
0.732630516837
0.292745790572
0.783006219818
0.215586106933
0.30015676712
0.159114031399
0.021117105489
0.0430269688006
0.073297096722
0.131971239001
0.143159274135
0.0759860783044
0.0356226492886
0.0719778831463
0.222980293511
0.183951964158
0.114958233238
0.0887723583912
0.102774863726
0.171160354716
0.0648175093009
0.00801221586226
0.0461148637761
0.0701198782325
0.0853402408099
0.051602132713
0.183552784961
0.065146082665
0.233948233101
0.0476483219028
0.0565051870413
0.0735143503509
0.1198160674
0.154112836915
0.212029124413
0.122191713075
0.249876320903
0.279549251086
0.0943822011554
0.180012122031
0.168908763748
0.209871395926
0.204497185662
0.187410539067
0.400517680142
0.20373403665
0.297093818082
0.207627888949
0.213884137784
0.216718348666
0.282420554948
0.318431214669
0.264346461991
0.27546406591
0.305253900984
0.137789595886
0.266644920703
0.224432096697
0.236505017185
0.329865560111
0.254531938559
0.247657836012
0.099356824737
0.161280375255
0.0632154784536
0.0771039849283
0.262038357914
0.098204011548
0.239595461342
0.136751190247
0.292098345304
0.148650288926
0.278827339402
0.189738895975
0.148595139737
0.383395436059
0.365001579248
0.435507128126
0.455873947642
0.521997900546
0.981542206932
0.956478162535
1.29605770767
1.43569914102
1.58820904951
1.69420688578
1.37278818537
1.50630378871
1.8131537535
1.25403388817
1.38837982092
0.795491196793
1.1989402876
0.996932517646
0.561247779215
0.936824432963
0.163118471359
0.358000133908
1.03149541465
0.448585410145
0.718466543613
0.521225642272
0.690026762755
0.335607067493
0.497144997611
0.26954678623
0.207254162176
0.248738813029
0.238782067766
0.338008266794
0.199233991983
0.130747569238
0.116131671522
0.0914275300351
0.192688230196
0.311466591535
0.266603289178
0.115005096049
0.150842295297
0.125606302673
0.224085185782
0.351142122087
0.361521049141
0.346783239399
0.347408757675
0.361189982123
0.386216717012
0.314317710589
0.165050570713
0.0846919413659
0.234391980676
0.0805594985673
0.186954716916
0.246958318033
0.465773628096
0.420394406865
0.332846511268
0.147318820192
0.256742356811
0.413595784232
0.239553099186
0.320153675206
0.244678924881
0.389270743317
0.27782013525
0.267335881872
0.284236814256
0.307676471365
0.203342949296
0.112801100224
0.162254815501
0.28970212999
0.0553624695677
0.0128900709882
0.0570805690945
0.145147415542
0.151499674707
0.093566174622
0.169520197932
0.0995058581687
0.127651956933
0.049795447867
0.153152990014
0.0729292168996
0.198357927018
0.100158628817
0.106706593972
0.145793632869
0.156764350402
0.174182799356
0.137949375442
0.191685880053
0.116938213733
0.219629633434
0.0789672548045
0.187307130059
0.291981377324
0.0869435867651
0.193603983444
0.0501364130582
0.112865676481
0.151517184084
0.133118402838
0.159382083894
0.249574097471
0.0213151635718
0.0846043809637
0.0221801630326
0.0758566446478
0.229339841328
0.171085679052
0.0853637730522
0.216256949947
0.280572154332
0.228418766605
0.199859822271
0.0590234997231
0.0308887240031
0.0590961154862
0.122688189748
0.0903362558074
0.156583922107
0.0625477688438
0.0792708772661
0.173071904417
0.220410877387
0.18304064959
0.281907309645
0.27613146182
0.193979892268
0.247725451252
0.412042715967
0.507260525318
0.885119548049
1.11348997114
1.6065312653
1.74637305159
2.17120127154
1.57985067797
2.42853793305
1.3209153513
2.54603303707
0.645988579934
2.86327365179
1.76676288702
0.658377970395
1.00415710561
1.4112282124
0.0722776796716
0.242385500549
0.142331407306
0.229965153248
0.145874102761
0.1392503827
0.175617031002
0.203890325081
0.288216213673
0.0641537242246
0.103268142675
0.087778003842
0.0152562322154
0.0404205788545
0.011079663795
0.0343736442539
0.0386651561354
0.0319320711882
0.0903365068972
0.240905937153
0.330392668474
0.258223156613
0.208216884987
0.245655412453
0.391543612459
0.389654675104
0.590108604851
0.638831611044
1.13704308744
0.938213154938
1.09286443301
1.27638803682
0.777139720657
1.15202595289
0.880838207234
1.06796266286
0.945888159056
0.388107727978
0.53264967851
0.386554686185
0.308342045965
0.218118507369
0.316130220458
0.311906335326
0.119429325411
0.187132065973
0.0579092042172
0.155589329937
0.268028945062
0.290183972522
0.203861793796
0.246879023854
0.22141368882
0.23740483283
0.144396514153
0.25122511998
0.159266276572
0.178673954498
0.204049172743
0.239583775991
0.177246434999
0.0836142111214
0.0714911966688
0.130297474205
0.0384798082988
0.154214310626
0.292833926571
0.228408637018
0.308027432789
0.316764052594
0.328868144964
0.414884568327
0.347350917834
0.429955446814
0.679017687363
0.488264377271
0.632466773588
0.514607144815
0.664367997156
0.523760460733
0.473748937229
0.389386661685
0.490356609983
0.266240012299
0.307389141016
0.46218980022
0.249003475526
0.208824249669
0.201676946243
0.207578646503
0.229234901819
0.163391057494
0.210984859966
0.242067591634
0.276939690428
0.302402497846
0.198510272296
0.198749269938
0.322264681559
0.339706574482
0.44295000224
0.270006192738
0.213934904204
0.307615303513
0.310157632867
0.204492338091
0.296328433171
0.359095336414
0.111257210838
0.123612914956
0.257704092574
0.116109871631
0.352186142948
0.167195962253
0.186357895534
0.15536561717
0.276541698068
0.151833689132
0.057358079656
0.153585740258
0.11183436835
0.248423674548
0.269138891954
0.220609138757
0.185739025751
0.0349817191145
0.0644943887871
0.225890453274
0.341491191249
0.14342125671
0.145638164011
0.184404319473
0.247700983627
0.341201157485
0.422645145405
0.441176165935
0.430164826644
0.469826944163
0.445580922174
0.383307372867
0.485227642204
0.457413448883
0.413979753282
0.451223463797
0.400284958327
0.37831267085
0.362123696953
0.307450487426
0.262387706264
0.239270501304
0.194045188058
0.197866367733
0.202918719367
0.21968019718
0.219436159534
0.216607392748
0.191304964887
0.246626121652
0.232868306092
0.267206502351
0.265113474815
0.246989644597
0.270842179313
0.282417966893
0.286263973576
0.274038019503
0.285422604346
0.310726033982
0.324298323765
0.336027567824
0.32695738745
0.350233658766
0.370169075565
0.369753530522
0.370959146743
0.379629297987
0.392053926859
0.424449166046
0.441045580235
0.457549248643
0.466194028963
0.486293317825
0.493690012118
0.533632947416
0.546083462241
0.618176715197
0.524355532143
0.756622254158
0.528599408573
0.790764654769
0.579896103513
0.93295093141
0.65782666172
0.849216609428
0.862128383658
0.840241185017
0.936921312544
0.999901298605
0.849882494723
1.09588501092
0.914929825402
1.04631258171
1.10336008347
1.0229601722
1.20818534267
1.03270375135
1.21219063924
1.16054520735
1.14397635025
1.07560230981
1.20955789014
1.07996625799
1.14528253522
1.47199432655
0.905192040906
1.22750445455
0.910424488698
1.27331716266
1.0826783864
0.936424158663
1.08666047097
0.866032128008
1.06695412833
0.703646352176
1.08946886142
0.653164846553
0.997191586645
0.546179544157
0.942598855553
0.542787973346
0.92366126688
0.51580284333
0.815789938711
0.462978805153
0.547085175314
0.522206839699
0.469077678334
0.430743363965
0.333564660419
0.162393324644
0.272693147117
0.342989488544
0.410540437493
0.316483443694
0.357632905151
0.160362839472
0.258391459151
0.300855228474
0.0387396450238
0.091551704787
0.159974830909
0.287633711632
0.199990986511
0.219222794228
0.188415522972
0.153852798841
0.155649626028
0.169072373376
0.104163152834
0.179621631367
0.0486809980652
0.0903307814844
0.168348328838
0.182316320304
0.175272093791
0.171192022318
0.194231388512
0.0476290518418
0.0516704401142
0.15475384266
0.0866864806216
0.0478675156248
0.0931877200282
0.117785646052
0.140421724632
0.0708641158112
0.050570096313
0.108997448755
0.0850084071239
0.0541733225316
0.105102928492
0.150561073712
0.042250368767
0.0817172164186
0.0314972602144
0.017920699166
0.0345457387062
0.0972293839956
0.0
0.00562433763418
0.0143630143606
0.0540991141779
0.181203833114
0.115708887295
0.140674174678
0.325593623531
0.209148224307
0.177573461414
0.153291502363
0.142710021056
0.0818705033002
0.0500300177293
0.0545068849575
0.00511440680144
0.000566028418431
0.0118449037648
0.044814610892
0.0795861195123
0.0707787974524
0.0486113142052
0.164477541186
0.200355019306
0.13862535956
0.166898714817
0.108172759243
0.100707804118
0.174997429565
0.0
0.00841806028633
0.0308799024906
0.0952490069975
0.0692867225424
0.155094873353
0.270698770824
0.0334657123457
0.0940601357412
0.268782798271
0.073549707001
0.157603795595
0.162977541381
0.328367480484
0.309304863599
0.212413588124
0.229034527197
0.401493481226
0.362674685971
0.23783491417
0.273763786365
0.42366197801
0.641796257847
0.354013930345
0.556165467823
0.528131506599
0.57628521875
0.458515226261
0.52022388804
1.43448206813
0.0798124813097
0.222814540327
0.730143966634
3.14684365558
0.0592330598318
0.237479415498
0.32764242177
0.337786138125
0.355047214594
0.356588568918
0.343100043834
0.35186723654
0.335342222491
0.311872985847
0.306269171599
0.316339338909
0.296609257281
0.346479646205
0.307243984721
0.275000119194
0.268275828251
0.28095148489
0.284707599969
0.288577229765
0.239001898385
0.251873221353
0.231413323631
0.247930863386
0.240089237073
0.254499040246
0.224531414612
0.232108302071
0.211396501474
0.162511429196
0.218426559601
0.192878939579
0.24449021575
0.188065973371
0.155205470491
0.175919316043
0.178130490413
0.17818782174
0.25266060133
0.141831232535
0.151735192432
0.147785496716
0.154515468302
0.170333117878
0.1535792677
0.139395567822
0.14751612704
0.158079687614
0.106369649058
0.099923441662
0.142916182493
0.148762070981
0.15269179221
0.214611622731
0.123766156748
0.141941186176
0.20748728211
0.0764539216048
0.144258570414
0.142972513435
0.124732055575
0.205928233103
0.316850427566
0.111661141129
0.0878995570976
0.0872188075498
0.0781674875735
0.0295062702724
0.0280629474685
0.12207544138
0.28559494248
0.189891245068
0.342060010232
0.464623744471
1.02840202868
0.16472367182
0.238045331185
0.31431726165
0.223848305103
0.289896827247
0.357318038059
0.162012727444
0.121623016341
0.0701395583414
0.0942684394339
0.219027476983
0.0929145387059
0.128039625539
0.240862731192
0.196458636502
0.12103792427
0.12843531476
0.105481324921
0.193599401837
0.109519492599
0.0206312472298
0.0497761022268
0.151155664596
0.171286758636
0.266995519312
0.277851332681
0.164529179188
0.159305465655
0.205430529786
0.145861730507
0.148711300697
0.152250796907
0.165383200841
0.244949913024
0.33943845041
0.105106093426
0.124024691808
0.188498156527
0.249777499626
0.163443911231
0.180841289539
0.192390717366
0.258067568356
0.0445774670175
0.0352715394652
0.144079188003
0.114704491455
0.301538228968
0.116624496422
0.492683755312
2.37754808033
0.0252592702157
0.130828184582
0.236311499558
0.293629683197
0.35537882826
0.514313806519
0.794363021242
0.494063811439
0.882439554367
1.23217606419
1.07810142488
1.22446262066
1.17368355653
1.03255857925
1.2028083805
1.02642713708
0.84449351511
0.835466261824
0.822749973752
1.35010762959
0.036340784749
0.0823113880629
0.137306121566
0.209680265925
0.193651383508
0.119632179016
0.226563520305
0.147466087486
0.0977229967303
0.0197971259803
0.026724579415
0.034092957433
0.0506766878012
0.0263616741413
0.0727898530243
0.0713718887363
0.110298603218
0.172717795442
0.170029679478
0.0700423824468
0.154230811985
0.473786667606
1.41484045198
0.4393755583
0.759704030381
0.528127187678
0.543309876995
0.986518923366
0.358098908223
0.865021087371
0.348887107118
0.506327128278
0.329202092025
0.296021843866
0.301072738589
0.0188343705891
0.0925527411409
0.185527446689
0.234231511408
0.218566867238
0.238045059755
0.241972534884
0.256014176555
0.253317435469
0.240756479885
0.265600815854
0.246364609592
0.294379554133
0.251200388222
0.296799599778
0.261070416942
0.267927470138
0.286630503352
0.314430670218
0.355737171325
0.323799933135
0.327941854068
0.337718170016
0.345861975626
0.345573979558
0.338074406051
0.373231745732
0.345595314497
0.347823670086
0.367236470776
0.366731768745
0.407697507839
0.389625253135
0.406823939076
0.371589904967
0.389235347214
0.385680275749
0.412734402133
0.406108001292
0.378099436083
0.430372501209
0.449554689836
0.425307468824
0.449431216212
0.472653493571
0.484363958539
0.418761859305
0.526533848304
0.541083261086
0.563694979239
0.919509586135
0.536320300379
1.27476869007
1.29893220263
2.28362455045
1.48882390691
2.35804043509
0.711083276805
2.67924115035
0.661921585208
2.39089745759
2.05105396291
1.25276151033
0.097783559048
0.38800777544
0.528411085723
0.00177200604257
0.0335166539072
0.0979105260602
0.268413032479
0.039158656144
0.127948810464
0.0488022564297
0.0615633879916
0.102327932995
0.209140859003
0.206707778236
0.173612830777
0.259983265805
0.287669358963
0.360172750438
0.339107040907
0.27195120388
0.337040396216
0.365531696673
0.804068162252
0.372483910662
0.407020017558
0.333277429975
0.413858891309
0.311039933515
0.509576363567
0.420165746502
0.320002764435
0.57126813983
0.327666279931
0.320360239615
0.40940734366
0.33966182485
0.385095084756
0.207448230783
0.126402919352
0.129217153092
0.278277050981
0.236119318903
0.190491221381
0.394898492074
0.403653115679
0.279385367644
0.193375604613
0.37842778377
0.33428766975
0.412469887911
0.309524966777
0.212525104463
0.189750837721
0.267732511002
0.226287479959
0.185627619923
0.262138704056
0.134514706495
0.126510814037
0.108936806753
0.0775673962051
0.0976390140469
0.266797881135
0.362841205734
0.349914178789
0.345702267688
0.145811934467
0.329868352225
0.2709406564
0.309164947305
0.359768259455
0.34487795583
0.329673014871
0.307293310763
0.258897016399
0.339984722971
0.319139473287
0.280794173299
0.263501239632
0.315694490651
0.277086258618
0.26446764576
0.264184245685
0.227793889336
0.114137617335
0.0488607189101
0.193310540774
0.292938315753
0.270353740076
0.248725466993
0.242648342486
0.224914439103
0.229019542733
0.238628565527
0.239048874345
0.249827223901
0.233308099023
0.189464486348
0.247341820791
0.181565970065
0.19395667492
0.168839279528
0.181739017537
0.229839515869
0.162283705886
0.17624673215
0.182182826225
0.125148765463
0.133545079832
0.166456445585
0.156178014146
0.271489979428
0.106955271144
0.163341349795
0.295338814467
0.0656847649877
0.142871082616
0.153868142883
0.144364808844
0.125805337555
0.137900304272
0.271718222177
0.108967366827
0.0558039087076
0.178702479494
0.169204897969
0.167239880763
0.244900879148
0.246529202399
0.257263439938
0.140685948601
0.144740375134
0.195105292118
0.355115453003
0.255515092624
0.326124205405
0.352622258976
0.394469735665
0.44273810046
0.510335057178
0.712676303418
0.909213094971
0.800728830253
0.926388004817
0.510434764031
1.09000377862
0.788503597275
0.75825842165
1.04471553659
0.537605600563
0.651809115606
0.480295566558
0.34067637928
0.28343444996
0.317735428876
0.0603339248761
0.209855208479
0.152363118542
0.0974752832749
0.148074870914
0.119059461498
0.214440185541
0.192829995926
0.153201792158
0.19832512497
0.281644916631
0.335593867687
logs/alpha_1.3/PGSD_1000steps_2.log 356.106133904 0.356106133904 0.246918670943 3.14684365558 0.0 -1
