Policy Parameters:	-2.58904205456 3.2786709369
Control Steps:		1000
Start Time:		1448991742.36

-- TESTING STOPPED --

Stop Time:		1448991827.55
Duration:		85.1850318909
Cost Matrix:
0.019263915934
0.0637388455962
0.059185495005
0.220006050996
0.125205891108
0.287301756136
0.322637934655
0.328396095839
0.444111593878
0.78002478315
0.893564973493
1.09770852315
1.38941465162
1.41470289361
1.45253068347
0.867696065933
0.495646028843
0.497716171656
0.436136348768
0.452843344209
0.386750747918
0.2565796488
0.459897695663
0.265206679841
0.122893096474
0.200419651139
0.192772676427
0.483763587839
0.529788094013
1.06965513255
1.21891285871
1.33969206396
1.18235950083
1.02440024871
1.18270139463
0.216276850426
0.867755767263
0.502577098345
0.720588619305
0.483154117326
0.466516266573
0.911929323579
0.485633974356
0.420671479924
0.463022671187
0.455824097139
0.368488867315
0.579007973031
0.907536882687
0.800245010158
1.28823959848
2.40003566578
0.417800779001
2.4092604283
0.0016
0.110295691769
0.224713991963
0.449761168934
0.320009794633
0.351388240329
0.469137011829
0.545181389275
0.361889827539
0.0598142056873
0.155493135513
0.0699195381745
0.0587631048976
0.178214368765
0.0826153825811
0.0993605622005
0.119495689134
0.0598991424131
0.0799712261345
0.128288266489
0.131558892327
0.090646893743
0.0563327552723
0.0815719195488
0.121957919345
0.083212428403
0.126666080777
0.149852136507
0.128953451982
0.134256215722
0.0764332863746
0.0728288559002
0.0498832539299
0.0505087512102
0.0843845380617
0.026095796676
0.00784811218636
0.055201240907
0.105856434495
0.132446473541
2.40032792835
0.00370069526388
0.0104658829836
0.15913035789
0.412551602562
0.506589915049
0.455892241276
0.2296428466
0.535800164503
0.691227544202
2.00469625357
1.57632591777
0.466301759432
0.290437376951
0.166773778969
0.155159522683
0.277466547185
0.251950601243
0.411483537288
2.40095615521
0.0033863610292
0.0227868296158
0.18186424274
0.308759623465
0.203703141649
0.191565538262
0.147777128597
0.145747024053
0.075718917587
0.0509249724889
0.0981291210613
0.160950601833
0.217755529045
0.184687188997
0.223402802708
0.260404129259
0.157185623702
0.184337550529
0.173713187316
0.122373456136
0.228955361368
0.303507285022
0.369522253279
0.298224751944
0.0288089628135
0.0855559447694
0.193414614395
0.183111583979
0.0940469632829
0.320657872155
0.0221975925915
0.13010669405
0.061091866761
0.201507113547
0.142849589328
0.158366971348
0.110150233531
0.153789613613
0.224206958696
0.229615681191
0.314295217028
0.391281763033
0.514772698736
0.32094321313
0.346844203787
0.314451298795
0.151217384044
0.220796518719
0.0668158348433
0.176092644606
0.0372734206188
0.0624276337755
0.0453775775973
0.0452574516159
0.169783769117
0.114106968231
0.280332423684
0.365443791753
0.440376922555
0.209104288249
0.0988191893736
0.189788315219
0.314974778389
0.382209080381
0.751926325075
1.06621069389
0.576030452538
1.64482018792
0.480863834229
1.19936653521
2.00102928001
2.06577488636
1.11801862519
0.888534113825
0.285618473161
0.591320633553
0.519583924263
0.850244604931
1.02801446801
1.88894209797
2.04820103008
1.65772663586
0.79912397495
1.12449595876
1.06707104648
2.47853644576
0.347608180886
2.14000199885
1.11651401013
0.0278905477576
0.129455708244
0.419460486544
0.768197157515
0.986822023582
1.04087264779
1.65251697221
1.15758912352
0.430232086773
0.854367400969
1.60488365552
2.00983322561
1.94477564287
0.617798097437
0.083066607471
0.33199648964
0.389098524833
0.778499798234
0.237130552052
1.31655052489
0.425499161607
2.22889633369
1.37768271924
0.0432031320566
0.159402510794
0.431084971302
2.11096913921
1000000.0
0.0
0.0
0.0
0.0
0.0
0.0
0.0
0.0
0.0
0.0
0.0
0.0
0.0
0.0
0.0
0.0
0.0
0.0
0.0
0.0
0.0
0.0
0.0
0.0
0.0
0.0
0.0
0.0
0.0
0.0
0.0
0.0
0.0
0.0
0.0
0.0
0.0
0.0
0.0
0.0
0.0
0.0
0.0
0.0
0.0
0.0
0.0
0.0
0.0
0.0
0.0
0.0
0.0
0.0
0.0
0.0
0.0
0.0
0.0
0.0
0.0
0.0
0.0
0.0
0.0
0.0
0.0
0.0
0.0
0.0
0.0
0.0
0.0
0.0
0.0
0.0
0.0
0.0
0.0
0.0
0.0
0.0
0.0
0.0
0.0
0.0
0.0
0.0
0.0
0.0
0.0
0.0
0.0
0.0
0.0
0.0
0.0
0.0
0.0
0.0
0.0
0.0
0.0
0.0
0.0
0.0
0.0
0.0
0.0
0.0
0.0
0.0
0.0
0.0
0.0
0.0
0.0
0.0
0.0
0.0
0.0
0.0
0.0
0.0
0.0
0.0
0.0
0.0
0.0
0.0
0.0
0.0
0.0
0.0
0.0
0.0
0.0
0.0
0.0
0.0
0.0
0.0
0.0
0.0
0.0
0.0
0.0
0.0
0.0
0.0
0.0
0.0
0.0
0.0
0.0
0.0
0.0
0.0
0.0
0.0
0.0
0.0
0.0
0.0
0.0
0.0
0.0
0.0
0.0
0.0
0.0
0.0
0.0
0.0
0.0
0.0
0.0
0.0
0.0
0.0
0.0
0.0
0.0
0.0
0.0
0.0
0.0
0.0
0.0
0.0
0.0
0.0
0.0
0.0
0.0
0.0
0.0
0.0
0.0
0.0
0.0
0.0
0.0
0.0
0.0
0.0
0.0
0.0
0.0
0.0
0.0
0.0
0.0
0.0
0.0
0.0
0.0
0.0
0.0
0.0
0.0
0.0
0.0
0.0
0.0
0.0
0.0
0.0
0.0
0.0
0.0
0.0
0.0
0.0
0.0
0.0
0.0
0.0
0.0
0.0
0.0
0.0
0.0
0.0
0.0
0.0
0.0
0.0
0.0
0.0
0.0
0.0
0.0
0.0
0.0
0.0
0.0
0.0
0.0
0.0
0.0
0.0
0.0
0.0
0.0
0.0
0.0
0.0
0.0
0.0
0.0
0.0
0.0
0.0
0.0
0.0
0.0
0.0
0.0
0.0
0.0
0.0
0.0
0.0
0.0
0.0
0.0
0.0
0.0
0.0
0.0
0.0
0.0
0.0
0.0
0.0
0.0
0.0
0.0
0.0
0.0
0.0
0.0
0.0
0.0
0.0
0.0
0.0
0.0
0.0
0.0
0.0
0.0
0.0
0.0
0.0
0.0
0.0
0.0
0.0
0.0
0.0
0.0
0.0
0.0
0.0
0.0
0.0
0.0
0.0
0.0
0.0
0.0
0.0
0.0
0.0
0.0
0.0
0.0
0.0
0.0
0.0
0.0
0.0
0.0
0.0
0.0
0.0
0.0
0.0
0.0
0.0
0.0
0.0
0.0
0.0
0.0
0.0
0.0
0.0
0.0
0.0
0.0
0.0
0.0
0.0
0.0
0.0
0.0
0.0
0.0
0.0
0.0
0.0
0.0
0.0
0.0
0.0
0.0
0.0
0.0
0.0
0.0
0.0
0.0
0.0
0.0
0.0
0.0
0.0
0.0
0.0
0.0
0.0
0.0
0.0
0.0
0.0
0.0
0.0
0.0
0.0
0.0
0.0
0.0
0.0
0.0
0.0
0.0
0.0
0.0
0.0
0.0
0.0
0.0
0.0
0.0
0.0
0.0
0.0
0.0
0.0
0.0
0.0
0.0
0.0
0.0
0.0
0.0
0.0
0.0
0.0
0.0
0.0
0.0
0.0
0.0
0.0
0.0
0.0
0.0
0.0
0.0
0.0
0.0
0.0
0.0
0.0
0.0
0.0
0.0
0.0
0.0
0.0
0.0
0.0
0.0
0.0
0.0
0.0
0.0
0.0
0.0
0.0
0.0
0.0
0.0
0.0
0.0
0.0
0.0
0.0
0.0
0.0
0.0
0.0
0.0
0.0
0.0
0.0
0.0
0.0
0.0
0.0
0.0
0.0
0.0
0.0
0.0
0.0
0.0
0.0
0.0
0.0
0.0
0.0
0.0
0.0
0.0
0.0
0.0
0.0
0.0
0.0
0.0
0.0
0.0
0.0
0.0
0.0
0.0
0.0
0.0
0.0
0.0
0.0
0.0
0.0
0.0
0.0
0.0
0.0
0.0
0.0
0.0
0.0
0.0
0.0
0.0
0.0
0.0
0.0
0.0
0.0
0.0
0.0
0.0
0.0
0.0
0.0
0.0
0.0
0.0
0.0
0.0
0.0
0.0
0.0
0.0
0.0
0.0
0.0
0.0
0.0
0.0
0.0
0.0
0.0
0.0
0.0
0.0
0.0
0.0
0.0
0.0
0.0
0.0
0.0
0.0
0.0
0.0
0.0
0.0
0.0
0.0
0.0
0.0
0.0
0.0
0.0
0.0
0.0
0.0
0.0
0.0
0.0
0.0
0.0
0.0
0.0
0.0
0.0
0.0
0.0
0.0
0.0
0.0
0.0
0.0
0.0
0.0
0.0
0.0
0.0
0.0
0.0
0.0
0.0
0.0
0.0
0.0
0.0
0.0
0.0
0.0
0.0
0.0
0.0
0.0
0.0
0.0
0.0
0.0
0.0
0.0
0.0
0.0
0.0
0.0
0.0
0.0
0.0
0.0
0.0
0.0
0.0
0.0
0.0
0.0
0.0
0.0
0.0
0.0
0.0
0.0
0.0
0.0
0.0
0.0
0.0
0.0
0.0
0.0
0.0
0.0
0.0
0.0
0.0
0.0
0.0
0.0
0.0
0.0
0.0
0.0
0.0
0.0
0.0
0.0
0.0
0.0
0.0
0.0
0.0
0.0
0.0
0.0
0.0
0.0
0.0
0.0
0.0
0.0
0.0
0.0
0.0
0.0
0.0
0.0
0.0
0.0
0.0
0.0
0.0
0.0
0.0
0.0
0.0
0.0
0.0
0.0
0.0
0.0
0.0
0.0
0.0
0.0
0.0
0.0
0.0
0.0
0.0
0.0
0.0
0.0
0.0
0.0
0.0
0.0
0.0
0.0
0.0
0.0
0.0
0.0
0.0
0.0
0.0
0.0
0.0
0.0
0.0
0.0
0.0
0.0
0.0
0.0
0.0
0.0
0.0
0.0
0.0
0.0
0.0
0.0
0.0
0.0
0.0
0.0
0.0
0.0
0.0
0.0
0.0
0.0
0.0
0.0
0.0
0.0
0.0
0.0
0.0
0.0
0.0
0.0
0.0
0.0
0.0
0.0
logs/lernen/4-5_erfolge_in_simu/median/1/PGSD_400steps_8.log 1000121.34838 1000.12134838 0.0 1000000.0 0.0 230
