Policy Parameters:	0.0336258443161 0.663666266915
Control Steps:		1000
Start Time:		1438279388.788599

-- TESTING STOPPED --

Stop Time:		1438279419.5812871
Duration:		30.792688131332397
Cost Matrix:
0.0818026642058
0.0061994551132
0.010771851712
0.0153886271197
0.0337348127228
0.0168652067967
0.0205582401504
0.035315526255
0.023079440495
0.0371830012301
0.055747782235
0.0250434376578
0.0241132198129
0.0168681198485
0.0216676571262
0.0561771396413
0.0455099240465
0.0268185140965
0.0677531650377
0.0410917887561
0.0456877891938
0.0852495303819
0.0576581366326
0.0982246816506
0.0979069366981
0.136153853618
0.159424136009
0.159496436529
0.138245099764
0.216473311413
0.23475524577
0.30732824595
0.36118745907
0.396742952353
0.453099032335
0.505069938133
0.581463382162
0.582824103827
0.585502573549
0.663294582706
0.716323291108
0.649924620266
0.778248081754
0.64932966329
0.706865260809
0.730481040304
0.747308349564
0.640205049749
0.474344621681
0.594697621991
0.453735607696
0.332921206667
0.216975262389
0.0842523276619
0.0377920826443
0.0478485127966
0.0652902052918
0.0704554104437
0.0537261658679
0.066693119695
0.0271012842556
0.0553662120947
0.0335026703761
0.0477361512871
0.0544467511446
0.00846549509504
0.0391169309629
0.0312649778223
0.0214373520571
0.0555649719519
0.040728216109
0.079996479141
0.0300704687031
0.0145340650052
0.0562679886808
0.0441325277718
0.0271550864849
0.0505755686233
0.0379897915568
0.0291917592191
0.0366830920506
0.0486123030383
0.0579292468385
0.0462844894787
0.0528633909065
0.0868804724968
0.0646626207466
0.065906362815
0.0407097502318
0.09154579804
0.098334261875
0.0519915316837
0.052100263349
0.0337199899551
0.0855468573516
0.0866052016007
0.0794962789125
0.0737849677215
0.174096838032
0.129318105998
0.0986311947482
0.0994319186211
0.096540819875
0.0910041422065
0.0774002271788
0.107797799993
0.0784121215952
0.0530297111736
0.0508580756545
0.0530599192471
0.0628361675072
0.0471028215184
0.074082623005
0.067816406276
0.0810572804545
0.0881314923236
0.0832181059082
0.0462157197383
0.0340501581743
0.0307203332706
0.0692145900174
0.0265659762388
0.0727108389168
0.0360152821152
0.0425383225684
0.0598221485067
0.0907929273402
0.0539224689269
0.059870705168
0.0650634114198
0.0593179117916
0.127883611027
0.134709325546
0.136012458094
0.0905601312809
0.108968129445
0.0895418612275
0.098761895693
0.136801585903
0.0728658021659
0.131234964975
0.171968009528
0.133364734165
0.162149547074
0.135712555108
0.138373040413
0.155380700945
0.194868347625
0.157781797862
0.184542584579
0.177811781921
0.217811069512
0.197977061486
0.181721745187
0.177207481484
0.18664532612
0.162653266792
0.17013775144
0.159309699161
0.0992295284537
0.101184198157
0.0688036081183
0.139381749583
0.0725525424899
0.10190164144
0.0317408001283
0.040470610179
0.0384986694283
0.0281747257601
0.0187490460237
0.0642668563987
0.0400220294816
0.0152055983972
0.0494722992403
0.00940626639845
0.0381193243029
0.00960814705845
0.0399733668973
0.0173016837546
0.0149666198879
0.0335098916192
0.0285194341
0.0439740160929
0.028559590217
0.0642270238711
0.0465440215957
0.0530486685775
0.0371212775142
0.0501447191718
0.0785942408253
0.0809503106516
0.0862860049106
0.108809034424
0.139099913944
0.188087659248
0.197151956914
0.212975934613
0.251383758913
0.323735542321
0.403362360151
0.472530823102
0.569428344776
0.596001875181
0.782654501176
0.862369122839
0.725336037752
0.706793091195
0.642740865482
0.60993123652
0.511930256078
0.973936445575
1.00664436791
0.57760268639
0.353223507626
0.245828506592
1000000.0
0.0
0.0
0.0
0.0
0.0
0.0
0.0
0.0
0.0
0.0
0.0
0.0
0.0
0.0
0.0
0.0
0.0
0.0
0.0
0.0
0.0
0.0
0.0
0.0
0.0
0.0
0.0
0.0
0.0
0.0
0.0
0.0
0.0
0.0
0.0
0.0
0.0
0.0
0.0
0.0
0.0
0.0
0.0
0.0
0.0
0.0
0.0
0.0
0.0
0.0
0.0
0.0
0.0
0.0
0.0
0.0
0.0
0.0
0.0
0.0
0.0
0.0
0.0
0.0
0.0
0.0
0.0
0.0
0.0
0.0
0.0
0.0
0.0
0.0
0.0
0.0
0.0
0.0
0.0
0.0
0.0
0.0
0.0
0.0
0.0
0.0
0.0
0.0
0.0
0.0
0.0
0.0
0.0
0.0
0.0
0.0
0.0
0.0
0.0
0.0
0.0
0.0
0.0
0.0
0.0
0.0
0.0
0.0
0.0
0.0
0.0
0.0
0.0
0.0
0.0
0.0
0.0
0.0
0.0
0.0
0.0
0.0
0.0
0.0
0.0
0.0
0.0
0.0
0.0
0.0
0.0
0.0
0.0
0.0
0.0
0.0
0.0
0.0
0.0
0.0
0.0
0.0
0.0
0.0
0.0
0.0
0.0
0.0
0.0
0.0
0.0
0.0
0.0
0.0
0.0
0.0
0.0
0.0
0.0
0.0
0.0
0.0
0.0
0.0
0.0
0.0
0.0
0.0
0.0
0.0
0.0
0.0
0.0
0.0
0.0
0.0
0.0
0.0
0.0
0.0
0.0
0.0
0.0
0.0
0.0
0.0
0.0
0.0
0.0
0.0
0.0
0.0
0.0
0.0
0.0
0.0
0.0
0.0
0.0
0.0
0.0
0.0
0.0
0.0
0.0
0.0
0.0
0.0
0.0
0.0
0.0
0.0
0.0
0.0
0.0
0.0
0.0
0.0
0.0
0.0
0.0
0.0
0.0
0.0
0.0
0.0
0.0
0.0
0.0
0.0
0.0
0.0
0.0
0.0
0.0
0.0
0.0
0.0
0.0
0.0
0.0
0.0
0.0
0.0
0.0
0.0
0.0
0.0
0.0
0.0
0.0
0.0
0.0
0.0
0.0
0.0
0.0
0.0
0.0
0.0
0.0
0.0
0.0
0.0
0.0
0.0
0.0
0.0
0.0
0.0
0.0
0.0
0.0
0.0
0.0
0.0
0.0
0.0
0.0
0.0
0.0
0.0
0.0
0.0
0.0
0.0
0.0
0.0
0.0
0.0
0.0
0.0
0.0
0.0
0.0
0.0
0.0
0.0
0.0
0.0
0.0
0.0
0.0
0.0
0.0
0.0
0.0
0.0
0.0
0.0
0.0
0.0
0.0
0.0
0.0
0.0
0.0
0.0
0.0
0.0
0.0
0.0
0.0
0.0
0.0
0.0
0.0
0.0
0.0
0.0
0.0
0.0
0.0
0.0
0.0
0.0
0.0
0.0
0.0
0.0
0.0
0.0
0.0
0.0
0.0
0.0
0.0
0.0
0.0
0.0
0.0
0.0
0.0
0.0
0.0
0.0
0.0
0.0
0.0
0.0
0.0
0.0
0.0
0.0
0.0
0.0
0.0
0.0
0.0
0.0
0.0
0.0
0.0
0.0
0.0
0.0
0.0
0.0
0.0
0.0
0.0
0.0
0.0
0.0
0.0
0.0
0.0
0.0
0.0
0.0
0.0
0.0
0.0
0.0
0.0
0.0
0.0
0.0
0.0
0.0
0.0
0.0
0.0
0.0
0.0
0.0
0.0
0.0
0.0
0.0
0.0
0.0
0.0
0.0
0.0
0.0
0.0
0.0
0.0
0.0
0.0
0.0
0.0
0.0
0.0
0.0
0.0
0.0
0.0
0.0
0.0
0.0
0.0
0.0
0.0
0.0
0.0
0.0
0.0
0.0
0.0
0.0
0.0
0.0
0.0
0.0
0.0
0.0
0.0
0.0
0.0
0.0
0.0
0.0
0.0
0.0
0.0
0.0
0.0
0.0
0.0
0.0
0.0
0.0
0.0
0.0
0.0
0.0
0.0
0.0
0.0
0.0
0.0
0.0
0.0
0.0
0.0
0.0
0.0
0.0
0.0
0.0
0.0
0.0
0.0
0.0
0.0
0.0
0.0
0.0
0.0
0.0
0.0
0.0
0.0
0.0
0.0
0.0
0.0
0.0
0.0
0.0
0.0
0.0
0.0
0.0
0.0
0.0
0.0
0.0
0.0
0.0
0.0
0.0
0.0
0.0
0.0
0.0
0.0
0.0
0.0
0.0
0.0
0.0
0.0
0.0
0.0
0.0
0.0
0.0
0.0
0.0
0.0
0.0
0.0
0.0
0.0
0.0
0.0
0.0
0.0
0.0
0.0
0.0
0.0
0.0
0.0
0.0
0.0
0.0
0.0
0.0
0.0
0.0
0.0
0.0
0.0
0.0
0.0
0.0
0.0
0.0
0.0
0.0
0.0
0.0
0.0
0.0
0.0
0.0
0.0
0.0
0.0
0.0
0.0
0.0
0.0
0.0
0.0
0.0
0.0
0.0
0.0
0.0
0.0
0.0
0.0
0.0
0.0
0.0
0.0
0.0
0.0
0.0
0.0
0.0
0.0
0.0
0.0
0.0
0.0
0.0
0.0
0.0
0.0
0.0
0.0
0.0
0.0
0.0
0.0
0.0
0.0
0.0
0.0
0.0
0.0
0.0
0.0
0.0
0.0
0.0
0.0
0.0
0.0
0.0
0.0
0.0
0.0
0.0
0.0
0.0
0.0
0.0
0.0
0.0
0.0
0.0
0.0
0.0
0.0
0.0
0.0
0.0
0.0
0.0
0.0
0.0
0.0
0.0
0.0
0.0
0.0
0.0
0.0
0.0
0.0
0.0
0.0
0.0
0.0
0.0
0.0
0.0
0.0
0.0
0.0
0.0
0.0
0.0
0.0
0.0
0.0
0.0
0.0
0.0
0.0
0.0
0.0
0.0
0.0
0.0
0.0
0.0
0.0
0.0
0.0
0.0
0.0
0.0
0.0
0.0
0.0
0.0
0.0
0.0
0.0
0.0
0.0
0.0
0.0
0.0
0.0
0.0
0.0
0.0
0.0
0.0
0.0
0.0
0.0
0.0
0.0
0.0
0.0
0.0
0.0
0.0
0.0
0.0
0.0
0.0
0.0
0.0
0.0
0.0
0.0
0.0
0.0
0.0
0.0
0.0
0.0
0.0
0.0
0.0
0.0
0.0
0.0
0.0
0.0
0.0
0.0
0.0
0.0
0.0
0.0
0.0
0.0
0.0
0.0
0.0
0.0
0.0
0.0
0.0
0.0
0.0
0.0
0.0
0.0
0.0
0.0
0.0
0.0
0.0
0.0
0.0
0.0
0.0
0.0
0.0
0.0
0.0
0.0
0.0
0.0
0.0
0.0
0.0
0.0
0.0
0.0
0.0
logs/alpha_0.9/PGSD_100steps_2.log 1000036.26867 1000.03626867 0.0 1000000.0 0.0 215
