Initial Policy Parameters:	0.0 0.0
Learning Rate:			0.9
Learning Steps:			500
Start Time:			1437147940.6722503

-- LEARNING STOPPED --

Stop Time:			1437148018.1840088
Duration:			77.51175856590271
Final Policy Parameters:	-0.796837681793 1.2411207036
