Policy Parameters:	-0.738552972998 0.576009052328
Control Steps:		1000
Start Time:		1438279991.8084147

-- TESTING STOPPED --

Stop Time:		1438280076.8945844
Duration:		85.08616971969604
Cost Matrix:
0.0533262819708
0.088045121273
0.0900218250136
0.0905458337167
0.101556003322
0.115037745361
0.134482049072
0.147867313963
0.156079008123
0.153977955337
0.153640937135
0.149062012456
0.1674299862
0.172320849564
0.180996820475
0.189858130866
0.244692743999
0.207366613826
0.166883196468
0.171035167551
0.167052086455
0.176255202716
0.180951859907
0.174371047363
0.181579966052
0.176064583797
0.151304942158
0.142120997146
0.129000686606
0.104412100251
0.0756623744812
0.0612909796592
0.0394534884304
0.0348513942394
0.0657065676712
0.0552074766604
0.0561278481868
0.0743004803322
0.0802070254279
0.0762541417442
0.063154008532
0.0688451647282
0.086503522796
0.0930627799723
0.0977399476402
0.107881589973
0.112024039862
0.0848423611689
0.0643621135512
0.0712478185894
0.0903812402635
0.116862897181
0.114796244055
0.0872516464355
0.103716103074
0.12720511368
0.124631239465
0.130486335901
0.132163977339
0.120888015653
0.155095530258
0.133197134536
0.137154687815
0.143312723649
0.124704900039
0.161702316297
0.164607674253
0.138693066192
0.12558815996
0.101111960923
0.071473819326
0.0631465292932
0.149935309795
0.120933439632
0.0472846382204
0.0188034181966
0.0378460283938
0.0479172113575
0.0590317902755
0.0527760728093
0.0747766569162
0.0340366137654
0.0584825208672
0.0581966275581
0.0722319386763
0.0707229097255
0.112903441274
0.141496224078
0.13099240989
0.129966437878
0.128756439449
0.147576139631
0.1654752779
0.189524783522
0.146269237447
0.0939264853268
0.123128775956
0.133788722863
0.15462760136
0.165372232821
0.197866775289
0.180547274629
0.177123158946
0.211119525619
0.249169586108
0.214518308437
0.17683575898
0.171490967782
0.181404402016
0.158794752655
0.0933805331708
0.0452419652492
0.00848488990972
0.0374822614957
0.0367415378608
0.0396856931203
0.0595399526457
0.102988328767
0.128497164362
0.103622941281
0.0636876473878
0.0615535491357
0.0852868874249
0.110545293178
0.109193095243
0.0784494340813
0.0409128859731
0.0254090773683
0.0313389898363
0.0259519667065
0.00478575697974
0.00993534089913
0.00596295943042
0.019035813142
0.0832808755179
0.0985483754379
0.0657156715096
0.041492869724
0.0317538093538
0.0197622609738
0.00954146316772
0.0191551852868
0.024646734039
0.0121753253526
0.0131230769022
0.0080809088963
0.0116541428493
0.0159653886512
0.0255867842895
0.0215280186891
0.0310878934846
0.0498298345254
0.0275182463438
0.0275692665536
0.0366140072584
0.049152153769
0.0414870621659
0.030680961455
0.0109029354237
0.00360035505466
0.0146854444716
0.0233965361584
0.0214882029658
0.0205244280082
0.0406031153227
0.0507212079778
0.0856083114275
0.0512986641142
0.00628261304662
0.0566409587959
0.0645411310371
0.0655670748495
0.0755488011518
0.0998512045616
0.130994757556
0.128691157519
0.133515183834
0.133156412613
0.196689647764
0.241765031354
0.253204962124
0.263245108275
0.280054214722
0.28905568059
0.298868610907
0.330575688233
0.323380328129
0.348794830085
0.379777823729
0.358937968186
0.382594115823
0.402031786041
0.377447916403
0.38237591736
0.412087162378
0.328079630604
0.260090777108
0.184282538316
0.128928431368
0.139401437577
0.273083396261
0.153378867398
0.0622997098519
0.070416487169
0.0466312817519
0.0505784941831
0.031386733697
0.0524758043757
0.0385626874715
0.0919349568599
0.0652471081501
0.0294644530387
0.0328831688278
0.0307018032741
0.0515498814953
0.0537441079803
0.0939870115215
0.0652392307191
0.129391543298
0.100196458491
0.0919965817046
0.0862116708701
0.111292772084
0.166154979815
0.202679984892
0.180906832082
0.168022436718
0.146048193138
0.181680626519
0.192304596367
0.204338524525
0.23280766946
0.23090706237
0.240390959622
0.252502925945
0.257555646949
0.256452136585
0.286428846196
0.264729560416
0.254781269673
0.295079307495
0.29939671757
0.273809896756
0.272640925561
0.249991419998
0.218431029518
0.245938280921
0.241718367394
0.213842002551
0.156194844425
0.206546108864
0.192511649441
0.293632526126
0.163176130553
0.0234262822055
0.0826343617731
0.0889373190176
0.092063170495
0.0822056904007
0.0564546623035
0.0489768925869
0.0480273532966
0.0736018917754
0.0867975503244
0.102372185894
0.0714712995875
0.0679404054483
0.0905923957119
0.109116910579
0.0762119341856
0.109643230939
0.110645706153
0.114746089821
0.13033696823
0.148854386087
0.142852446809
0.148753037181
0.194648912816
0.222797140126
0.295424580849
0.396725874517
0.463006017383
0.604216484429
0.632695976353
0.635111853764
0.728218689154
0.75287920081
0.446918749648
0.736261335712
0.65726941197
0.515000851595
0.462696442445
0.536453322874
0.668364364261
0.674044146252
0.561964713441
0.375230516736
0.29593838083
0.183819248477
0.0615174978888
0.0590935223359
0.025027756146
0.0314874112748
0.0280305080594
0.0776202106254
0.061770722376
0.0308728043964
0.0416704033621
0.0191273120086
0.0425523355395
0.0910102343548
0.126103922941
0.159530862472
0.144350800648
0.185146776755
0.240720744234
0.278945418938
0.299453019691
0.244356391513
0.186183291935
0.155051492491
0.121609412261
0.13993136079
0.181307680376
0.198058682391
0.19473812692
0.211247135748
0.231257748076
0.27740827943
0.295469756765
0.305642480838
0.327911335232
0.326103197517
0.335249231167
0.323929344589
0.310834004516
0.334175093661
0.354807967445
0.344165934556
0.343982252006
0.334197206159
0.323553141194
0.311571887654
0.330686298157
0.344995734874
0.325469683976
0.265792519487
0.181896731571
0.144515356465
0.103017404059
0.0400727948422
0.0178863986219
0.0564400766588
0.0655448264376
0.0374760955167
0.0590280241492
0.0292614115802
0.00456161882253
0.0142313843488
0.00391021821293
0.0108880383991
0.0120107683409
0.0403966010174
0.0748749503843
0.0543251324048
0.0335024848534
0.0662616888836
0.0976498697242
0.0729166002355
0.0606292613318
0.0590722832244
0.047998490036
0.0568185723431
0.0478097834899
0.0693205973647
0.0575520775106
0.0280413135659
0.0201773121315
0.014357392184
0.0130878582728
0.00661846584483
0.0257208200494
0.0339321059781
0.032650854533
0.0257430246304
0.0104048216491
0.0469034585373
0.0367997668985
0.0473781476789
0.0538605308752
0.0317876196186
0.0674992857682
0.0620584832911
0.0369665645555
0.0535052604156
0.0640167240507
0.0472864004313
0.0717905414315
0.0701320597991
0.0616263671263
0.0508222815594
0.0851747865462
0.105920800736
0.129377889618
0.121092838706
0.131880768939
0.16804134589
0.167186907397
0.176869240339
0.203185251296
0.208446087157
0.250382951449
0.297480804393
0.322971846988
0.347387520184
0.377082206689
0.396290987215
0.437152976395
0.488804228437
0.505040736706
0.590783790368
0.657995083176
0.624048511863
0.654262313457
0.645618366284
0.582219221582
0.57804280712
0.580115858244
0.539458627024
0.502952535893
0.397010867415
0.366373184588
0.320555259277
0.284381932782
0.177481197725
0.0327627768721
0.0412610478709
0.048923953089
0.0593796694089
0.0345080863877
0.0688114297542
0.0707901629046
0.0700081386015
0.0672406188276
0.0595119140221
0.0702078156876
0.0625702849464
0.0736710145484
0.0741259974559
0.0635003128687
0.0498498765564
0.0518994773331
0.0841001761965
0.0648380499198
0.0293037428652
0.0395207415084
0.065056313584
0.0568304712836
0.0438287301011
0.0567626386927
0.0346151472433
0.00952725186114
0.0190346274193
0.0287047093967
0.0158810753158
0.0136893429399
0.00103491600102
0.00441674673021
0.0181505241928
0.0153946723833
0.00851369907961
0.0172257138839
0.0183751490716
0.029575786767
0.0131874016662
0.0501619742637
0.0577996152182
0.0529938272073
0.0394603531592
0.0178065620047
0.039767608858
0.0427456923896
0.060515157769
0.090494957431
0.136576149289
0.14879827614
0.158301868497
0.158856322289
0.191219213954
0.251832046239
0.270195647998
0.282107916841
0.305375990768
0.338853326861
0.363174430824
0.391531701834
0.424289098216
0.436748413297
0.42803035538
0.515984178269
0.540928968088
0.568913916385
0.500598039807
0.415843869673
0.506636474758
0.484374862169
0.384367727409
0.404122442944
0.407370908352
0.367588656535
0.292121769049
0.232210136514
0.13697568583
0.032103812625
0.0220249054506
0.0205982223256
0.0265175515816
0.0462166376119
0.0494364897522
0.0498334928923
0.049697922866
0.0481892210227
0.0428108663668
0.0487335750431
0.0581909491266
0.0549433149534
0.0522049999457
0.0573636366157
0.0561408546905
0.0531377472482
0.0512615398712
0.0589563555859
0.0685230894152
0.0665879927811
0.0684282882666
0.0760871296644
0.0815506537213
0.0804886215389
0.0770260429685
0.0801921236833
0.0823909363299
0.0851152848827
0.0898379019815
0.0912974346412
0.0817403030089
0.0842690308737
0.100699322127
0.105023189469
0.113728885181
0.114981354705
0.118515313306
0.130946719037
0.137830053089
0.1368776625
0.138137709907
0.128082565238
0.126944231213
0.151153911326
0.169892172157
0.182177561974
0.178236419178
0.191385352377
0.205356757614
0.208805065947
0.225680488851
0.237735975955
0.246145618286
0.251056756235
0.257016954865
0.283168469372
0.313363767366
0.358603403206
0.397467237766
0.436644782076
0.480553778433
0.510708587713
0.650262559734
0.711757242092
0.647725977126
0.878601462346
0.834765840027
0.17082954913
0.196064245761
0.132401764279
0.0792556818328
0.0346980159993
0.139540664681
0.120769204143
0.121942810308
0.134494891941
0.113276313333
0.0268759104404
0.0273895045327
1000000.0
0.0
0.0
0.0
0.0
0.0
0.0
0.0
0.0
0.0
0.0
0.0
0.0
0.0
0.0
0.0
0.0
0.0
0.0
0.0
0.0
0.0
0.0
0.0
0.0
0.0
0.0
0.0
0.0
0.0
0.0
0.0
0.0
0.0
0.0
0.0
0.0
0.0
0.0
0.0
0.0
0.0
0.0
0.0
0.0
0.0
0.0
0.0
0.0
0.0
0.0
0.0
0.0
0.0
0.0
0.0
0.0
0.0
0.0
0.0
0.0
0.0
0.0
0.0
0.0
0.0
0.0
0.0
0.0
0.0
0.0
0.0
0.0
0.0
0.0
0.0
0.0
0.0
0.0
0.0
0.0
0.0
0.0
0.0
0.0
0.0
0.0
0.0
0.0
0.0
0.0
0.0
0.0
0.0
0.0
0.0
0.0
0.0
0.0
0.0
0.0
0.0
0.0
0.0
0.0
0.0
0.0
0.0
0.0
0.0
0.0
0.0
0.0
0.0
0.0
0.0
0.0
0.0
0.0
0.0
0.0
0.0
0.0
0.0
0.0
0.0
0.0
0.0
0.0
0.0
0.0
0.0
0.0
0.0
0.0
0.0
0.0
0.0
0.0
0.0
0.0
0.0
0.0
0.0
0.0
0.0
0.0
0.0
0.0
0.0
0.0
0.0
0.0
0.0
0.0
0.0
0.0
0.0
0.0
0.0
0.0
0.0
0.0
0.0
0.0
0.0
0.0
0.0
0.0
0.0
0.0
0.0
0.0
0.0
0.0
0.0
0.0
0.0
0.0
0.0
0.0
0.0
0.0
0.0
0.0
0.0
0.0
0.0
0.0
0.0
0.0
0.0
0.0
0.0
0.0
0.0
0.0
0.0
0.0
0.0
0.0
0.0
0.0
0.0
0.0
0.0
0.0
0.0
0.0
0.0
0.0
0.0
0.0
0.0
0.0
0.0
0.0
0.0
0.0
0.0
0.0
0.0
0.0
0.0
0.0
0.0
0.0
0.0
0.0
0.0
0.0
0.0
0.0
0.0
0.0
0.0
0.0
0.0
0.0
0.0
0.0
0.0
0.0
0.0
0.0
0.0
0.0
0.0
0.0
0.0
0.0
0.0
0.0
0.0
0.0
0.0
0.0
0.0
0.0
0.0
0.0
0.0
0.0
0.0
0.0
0.0
0.0
0.0
0.0
0.0
0.0
0.0
0.0
0.0
0.0
0.0
0.0
0.0
0.0
0.0
0.0
0.0
0.0
0.0
0.0
0.0
0.0
0.0
0.0
0.0
0.0
0.0
0.0
0.0
0.0
0.0
0.0
0.0
0.0
0.0
0.0
0.0
0.0
0.0
0.0
0.0
0.0
0.0
0.0
0.0
0.0
0.0
0.0
0.0
0.0
0.0
0.0
0.0
0.0
0.0
0.0
0.0
0.0
0.0
0.0
0.0
0.0
0.0
0.0
0.0
0.0
0.0
0.0
0.0
0.0
0.0
0.0
0.0
0.0
0.0
0.0
0.0
0.0
0.0
0.0
0.0
0.0
0.0
0.0
0.0
0.0
0.0
0.0
0.0
0.0
0.0
0.0
0.0
0.0
0.0
0.0
0.0
0.0
0.0
0.0
0.0
0.0
0.0
0.0
0.0
0.0
0.0
0.0
0.0
0.0
0.0
0.0
0.0
0.0
0.0
0.0
0.0
0.0
0.0
0.0
0.0
0.0
0.0
0.0
0.0
0.0
0.0
0.0
0.0
0.0
0.0
0.0
0.0
0.0
0.0
0.0
0.0
0.0
0.0
0.0
0.0
0.0
logs/alpha_0.9/PGSD_200steps_1.log 1000096.213 1000.096213 0.0374791785062 1000000.0 0.0 593
