Initial Policy Parameters:	0.0 0.0
Learning Rate:			1.1
Learning Steps:			500
Start Time:			1448472171.65

-- LEARNING STOPPED --

Stop Time:			1448472285.87
Duration:			114.22172904
Final Policy Parameters:	-15.2091283408 18.3188024245
