Policy Parameters:	-1.7704192185 1.65364990816
Control Steps:		1000
Start Time:		1438466498.5871415

-- TESTING STOPPED --

Stop Time:		1438466660.4913056
Duration:		161.90416407585144
Cost Matrix:
0.0181870106241
0.0420366416027
0.0733308756577
0.0224458756066
0.0352185927439
0.0487158363754
0.00574918301553
0.0194764370035
0.0435184247406
0.0433653643762
0.0815220587656
0.112911246028
0.165909091798
0.220690298365
0.250803144808
0.269488741167
0.353570665237
0.44993283975
0.529109858397
0.69319792076
0.730304853132
0.889092213515
0.984757099324
1.02185660485
1.52484982345
1.1211350703
1.24099720373
0.711679843661
1.20131241095
0.488888647032
0.152095695348
0.11402537154
0.139023656692
0.233930973203
0.385271081124
0.452521141784
0.336975260361
0.184531898578
0.155491432713
0.270660959208
0.310359179711
0.324882850616
0.371253188522
0.320207822678
0.402645509492
0.418033840733
0.433821998257
0.395387335203
0.400673570857
0.409744948669
0.382407827309
0.36485133001
0.361382676752
0.373765545968
0.326476410198
0.29174767488
0.144587299167
0.174016120078
0.200032653271
0.297714250955
0.372536414609
0.0232295163286
0.0505531362499
0.0635820916584
0.0520553634236
0.040141387116
0.0458712936956
0.0390044993333
0.0497351440547
0.0383200531046
0.0708848620588
0.0580968466511
0.0613149160883
0.0358314654903
0.0582385226551
0.0259122562901
0.058190915509
0.0994551826451
0.133004579027
0.103307557291
0.128198374004
0.105733185971
0.132905896219
0.135888709052
0.116482448977
0.169646031464
0.178576764202
0.204184707095
0.190696806844
0.213095679229
0.217778599071
0.223078311728
0.271622073007
0.282024514615
0.294783784057
0.404892799908
0.437974112232
0.422381377889
0.485186913178
0.503362638019
0.488207586984
0.535575836422
0.564339042192
0.559876962359
0.602704072275
0.559641040403
0.451161343703
0.427154157931
0.388327346308
0.282057257936
0.199171881365
0.203817294309
0.20570963027
0.306566442854
0.159467931864
0.126753315111
0.127163547413
0.0967232224678
0.0295113166021
0.0290236461798
0.0374871439205
0.0210682310694
0.0362467990359
0.0218700975249
0.0152676144209
0.0489033652936
0.102819911509
0.103981992212
0.0367974903527
0.0747041195859
0.0980833898016
0.105741600928
0.119987403577
0.0848851937797
0.0773137108102
0.0948835371181
0.0632462003593
0.0835094516127
0.0832493640936
0.109268460418
0.121289836778
0.162407458557
0.266545440059
0.399788372952
0.250094452372
0.249863147146
0.282541167389
0.329442065412
0.327729699557
0.402975978502
0.524191649145
0.52312867327
0.626548235829
0.685154036685
0.672291855723
0.81596759081
0.818900789927
0.906795925728
1.21975804622
1.66732009432
0.614906289329
0.956603227137
0.525570148067
0.474779432242
0.318858569499
0.254353966238
0.193804331973
0.124406034068
0.0621454372054
0.0453066962943
0.0381151732617
0.0666401062078
0.124000852269
0.129152605504
0.0786798598261
0.132601234158
0.137529718729
0.157704074553
0.162320948571
0.127457386259
0.145482310335
0.138939298998
0.190603332399
0.142785146545
0.130542529165
0.127264293094
0.168149940893
0.195842281272
0.239255232097
0.266892893
0.335522444611
0.350114529186
0.416898221752
0.406700244179
0.444592283604
0.445291827898
0.426265775783
0.389087567955
0.43780128204
0.444744997059
0.412663031432
0.350981595633
0.367210373433
0.35923535797
0.295634239526
0.262913905852
0.160030641024
0.139847176048
0.14404401034
0.00393755008737
0.0390042162421
0.0713097120031
0.0523335138606
0.0327614766251
0.0594530873256
0.0574431946119
0.110098043787
0.165000448764
0.0787937918865
0.115579028788
0.0861137280626
0.0409187476236
0.0645123813476
0.0922593965755
0.0666869473663
0.0355092801679
0.0414690449429
0.0432471868815
0.0735140043275
0.045380057326
0.0800253300716
0.0747042050423
0.0140349342709
0.0249875984057
0.00360738385268
0.00258316990828
0.0297931001963
0.080690832752
0.12437432745
0.130793583911
0.0247544741429
0.0268599476282
0.0570220517248
0.0567622615904
0.0867362640143
0.139069372922
0.140991489099
0.0969152985779
0.140430387199
0.108099243818
0.177773705781
0.243812252328
0.241814248944
0.242419829998
0.265036328606
0.304617983771
0.34263586208
0.392989524467
0.465412129304
0.56340831322
0.679298302618
1.05890172502
0.761044085169
1.04541688758
0.959108223534
0.815524927948
1.18141677714
1.02449556534
1.0751148839
0.782162330832
0.619229581891
0.943842592906
0.287671712942
0.250589382518
0.0232052445454
0.0409935569643
0.0758182277941
0.0735772589099
0.0566872854708
0.0987557517511
0.075790861708
0.0287308345877
0.00546849108361
0.0330804529305
0.0899726628929
0.114881971717
0.013573067286
0.0125313341851
0.0172609815157
0.0272006315212
0.0185412511235
0.0197264065339
0.0513032349044
0.109012879754
0.104026637747
0.0802292617323
0.127233293747
0.00856384762197
0.0158770637017
0.0107218919243
0.00819636179984
0.00705155332185
0.0203404315665
0.0447163316902
0.0693937065961
0.0623211086175
0.0872504673449
0.0149217648448
0.0278561919147
0.0109497769626
0.00378372705815
0.0178525532207
0.0310411324906
0.0134476212229
0.0129829093454
0.0301949495496
0.0642431820992
0.0921108764532
0.0863527547293
0.0539294331374
0.072963035475
0.10549119051
0.117775120886
0.112944141719
0.128767522019
0.152615087487
0.164015385432
0.134680413101
0.151503487153
0.193447557526
0.213770246399
0.288235371741
0.427619193318
0.528486364073
0.631125253837
0.844915492773
0.795588385115
1.0129384376
0.697230037966
1.15496773469
1.13245503889
0.639335396652
1.07229544737
0.829534125025
0.861904260901
0.580913314079
0.618098605897
0.516774442367
0.946399881283
0.160069293136
0.0886548201671
0.0761206433474
0.0739067866156
0.0642582963367
0.0554991614708
0.0436457444552
0.0510725922394
0.0374671611125
0.0409564831308
0.0394754910369
0.0508611397253
0.0596528387587
0.0550624780202
0.0452642631048
0.0116752440868
0.031281448307
0.0534677619475
0.0621878936964
0.0763426355181
0.0983744555549
0.109484287523
0.114822128384
0.115963741185
0.107200682607
0.124081018739
0.132216382416
0.132311264231
0.125890902872
0.122203400902
0.110360869602
0.134024504457
0.140786431136
0.136109548735
0.133128815278
0.135572250252
0.133962751014
0.155784915243
0.159628927103
0.142535080514
0.141196759724
0.155526098793
0.150648083706
0.162015264775
0.168389522231
0.169119346315
0.172244207014
0.175801953128
0.175322120103
0.183960837095
0.191868882041
0.209258611382
0.214071446953
0.216256211415
0.220333060202
0.227508822536
0.229068742475
0.239309969133
0.259596103353
0.268407497932
0.281457294953
0.287343158125
0.294569981496
0.30147211963
0.325967321655
0.349291877328
0.351276082175
0.368864270419
0.37406392412
0.408348186178
0.424058537839
0.468539856618
0.511264678423
0.516144090609
0.53716536375
0.595575880514
0.714464140269
0.629181225008
0.798899292792
0.643450743009
0.990957656174
0.794889044906
0.835549584033
1.00677566116
1.05160526164
1.1735170085
1.21214442245
1.30988601036
1.19445439582
1.49610583276
1.21279228792
1.21306045083
1.29272456934
1.08057141171
1.27342470838
0.846954048332
1.45878712928
2.28406036399
0.854273916853
2.00208514252
1.22789538246
1.43243284646
0.941194615284
2.1311328276
1.07633317912
1.50489551882
0.924618864922
1.05704578694
1.21190839473
1.290359922
1.29680125273
0.847185399014
0.744493511604
0.807143438811
0.615143874827
0.830283212323
0.488581101347
0.583368386843
0.496974360629
0.440235496993
0.39910894574
0.403567285072
0.380851906079
0.297935722835
0.290778434727
0.29120348996
0.280152754443
0.267267505152
0.238401614286
0.231784787372
0.215308880926
0.192700014437
0.173124064231
0.18106317654
0.157115084491
0.196646324438
0.234829942211
0.133232361121
0.10973046505
0.0178246119313
0.0350902223262
0.0565743439077
0.0493776042156
0.0628282219253
0.100847631423
0.0743757174392
0.0708202022151
0.0298847195556
0.0666091603941
0.105868049583
0.106050681182
0.106914074046
0.168787724608
0.171232673547
0.137920540551
0.11114502653
0.107668109231
0.0655924518369
0.0642842039835
0.113199771745
0.104668251329
0.112918336232
0.138894577624
0.0843368731841
0.0624227706317
0.043842394231
0.0428361639258
0.0519016636639
0.0920801603173
0.109984894137
0.100322513059
0.0385512261306
0.0314172750336
0.0422632510721
0.0140617902688
0.0306600892843
0.0492421693982
0.0443240434516
0.02590820761
0.0568471845869
0.108889961019
0.116306662578
0.0837591916169
0.021383875913
0.0200916298795
0.0597007318209
0.0949855286579
0.0815457326384
0.0335067771867
0.0339485593619
0.0403089575954
0.00857793937603
0.00850546921699
0.00275253483153
0.0114149055584
0.0210066280857
0.0212095799071
0.0141714273929
0.0266781536945
0.0436222343838
0.0513713651025
0.0905678089114
0.0658286411223
0.061075106794
0.0397773144162
0.025372359757
0.00907347383696
0.0258547715621
0.0541250827417
0.0779206101768
0.0522686779016
0.0315079075619
0.0397663693745
0.032573853168
0.0438029756942
0.0632176080632
0.0933618599123
0.0900067290215
0.0866614102877
0.0990788604484
0.115742468419
0.170228152581
0.262843018957
0.25187557705
0.338886813148
0.362584396333
0.384274034393
0.477032821982
0.74146065577
1.12925924229
1.14291178048
1.17204308613
1.4844259266
1.54688433951
1.65747922104
1.88140845432
0.366319787111
1.22752692896
2.3493305991
0.00174195518865
0.0865148602552
0.31097819896
0.497836700166
0.336741408562
0.257450000441
0.0716959693099
0.105457757446
0.162383027681
0.205441810633
0.220067479045
0.202160623513
0.197590640484
0.212805476951
0.209168861345
0.212558600051
0.215374850455
0.22387952627
0.2265867891
0.215494602429
0.2212952245
0.211670760216
0.206677459638
0.207501507705
0.218437381293
0.217019595799
0.222487670575
0.224800216219
0.215285267084
0.211110454498
0.20566450888
0.210544628236
0.212952386655
0.20563518803
0.201952799563
0.207438123701
0.202488112811
0.196701656905
0.203185378153
0.193161449276
0.196331973349
0.195111724499
0.182877489132
0.181082012401
0.179214257606
0.194328992932
0.183771362851
0.181201843019
0.184705440964
0.189529139018
0.153589033202
0.164402817695
0.273026334287
0.135314415578
0.0377938436367
0.107819932906
0.16924778522
0.180871699859
0.175383578485
0.181993620875
0.179524107349
0.167792534749
0.174383114397
0.162632321487
0.162805936084
0.172668457566
0.176805304379
0.176197498398
0.155620339782
0.147438385247
0.146110975134
0.165284868335
0.154410217673
0.133069362719
0.112021690965
0.140168829044
0.140044504206
0.126984284964
0.113971640485
0.0936648910723
0.136468844686
0.159550025411
0.140726130203
0.159056064029
0.135659977948
0.117791073312
0.111018561798
0.157876728633
0.0757802093815
0.126408945317
0.127593573527
0.157775007505
0.132436746731
0.0476202427192
0.0157242767167
0.0319798043798
0.0340212460833
0.0156029811032
0.0247561637316
0.0697457276548
0.105448741827
0.102395324477
0.103330892388
0.100588954628
0.10403706606
0.138477865034
0.178840245369
0.175272600387
0.176141106081
0.157437374432
0.101119074367
0.09121330523
0.0926862036537
0.111922518905
0.118243177683
0.137179498091
0.128174725748
0.146083815305
0.166875312458
0.119900495508
0.133601025524
0.187603707212
0.193648944432
0.195635804212
0.170945613897
0.0736084170414
0.13787651568
0.208560929934
0.221516832149
0.236368906081
0.248324021698
0.264640137748
0.305928222882
0.404344727592
0.459709970945
0.492211218533
0.496312468006
0.555359186775
0.538690466089
0.604924684881
0.751516638109
0.619522280111
0.840081911993
0.714446413493
0.501560504002
0.463923066279
0.398199331076
0.469631060071
0.294385792205
0.205302839556
0.159313532268
0.118341715884
0.0435457690641
0.0592031343083
0.086533803856
0.0626046337826
0.130461354334
0.175839271135
0.145629672712
0.11361886044
0.0419082585708
0.0539212854982
0.038901919134
0.053287077472
0.0899732228937
0.0773915127863
0.150015559163
0.126669373432
0.155668650347
0.166048040233
0.103372567006
0.139616217236
0.174034698036
0.0961551829087
0.0831462589025
0.131791608099
0.139311353949
0.175765773937
0.149198294703
0.142910696743
0.149989568438
0.134306036469
0.199241290158
0.217947977276
0.15531671955
0.0794749726577
0.0969905373038
0.110025724942
0.129749180503
0.15374141379
0.132410746626
0.144964740442
0.146215586742
0.146295159598
0.146124466368
0.127572349902
0.109145898908
0.0872316928424
0.0910134211486
0.0880504098818
0.0942590768844
0.0821281353174
0.0799530570204
0.0409977934713
0.0618728847724
0.0477331656802
0.0547169453164
0.0981442079368
0.162336764927
0.178609471931
0.117068929207
0.119219887218
0.15684862794
0.167648254703
0.200867173188
0.242243215071
0.206736481491
0.223114287321
0.274872061532
0.350989800478
0.385848775601
0.361617739602
0.353199261446
0.341764027473
0.36022079982
0.364545424245
0.354384779534
0.350002659806
0.313553408283
0.328770073587
0.402460103698
0.347397321572
0.265350082647
0.255469583752
0.184877584939
0.0719860511755
0.0395902436259
0.10509937316
0.175737584642
0.212272251489
0.236359185026
0.258919271475
0.256897695719
0.261778440776
0.276035930715
0.277990500999
0.264530824663
0.282660673937
0.306753467035
0.318759895385
0.321820680623
0.337556342916
0.354406760956
0.374304399446
0.378422331283
0.397012902492
0.412780127771
0.418599811135
0.445106594884
0.430590928989
0.454711397116
0.486233550057
0.505029347774
0.536101229312
0.561400398258
0.599666787672
0.604190117514
0.65162877784
0.568241165566
0.610931622217
0.758983660068
0.605411488005
0.716254213304
0.661672826756
0.844557456217
0.650812934542
0.997969908559
0.629296882124
1.00673547678
0.840916655155
0.917419635751
0.617241443139
0.98355749112
0.837626428172
0.884204191453
0.749603327035
1.06987371452
0.643702233339
0.795621619254
0.916937559073
0.807093595622
0.810608986855
1.02799268048
0.815159484003
0.58060970388
0.964033896535
0.955286276123
0.885318996619
0.981803473107
0.582539575789
0.564818036178
0.827613963521
0.63859318984
1.10392778742
0.611877507918
0.779503319593
0.589938681302
0.60548749061
0.511889978847
0.460940141718
0.448324769528
0.494967386945
0.494986930655
0.401110252562
0.375821826892
0.381286582923
0.3527951605
0.291790061295
0.299664811407
0.332154006957
0.305320974242
0.222780089364
0.233388385451
0.230835021177
0.187733316334
0.20083515613
0.164397069007
0.157112459133
0.174178397265
0.160583701701
0.204253988191
0.25347974566
0.178578545925
0.210618541195
0.193081933762
0.133901096892
0.107914773706
0.111574693867
0.078161339892
0.12767084826
0.122849505968
0.126025116727
0.141918174878
0.110186836701
0.137479159402
0.175028468644
0.195098585845
0.189368884423
0.20662502355
0.179172142204
0.230650036293
0.263989303533
0.296668209862
0.380023696031
0.455686800009
0.587563427277
0.599087331751
0.669793860946
0.667196910184
0.786308538949
0.784504720099
0.854617047809
0.824546255958
0.89177452554
0.617634924361
0.925486494048
0.402329125864
0.333991821224
0.0379386893029
0.0406123327782
0.0279030616634
0.0643065543316
0.0949156771447
0.0812407755011
0.142349952433
0.134419350166
0.0664102056729
0.103181453494
0.0990607010386
0.0462396233156
0.0664528927567
0.0780294986818
0.0386377105277
0.0397648234485
0.0696004317788
0.130726981254
0.189084404945
0.249358702958
0.230117204382
0.190113826865
0.111401319815
0.141267561136
0.192191280168
0.160649849584
0.0932664028933
0.106479001106
0.142010616003
0.105595830759
0.116315332402
0.0746020125385
0.0695702353031
0.0784902511763
0.0235894518294
0.0367971894156
0.0614913108012
0.11269495498
0.13040449813
0.112746022511
0.0984123217834
0.184868808825
0.261988982094
0.346179739672
logs/alpha_1.7/PGSD_200steps_0.log 297.537202135 0.297537202135 0.172896260898 2.3493305991 0.00174195518865 -1
