Policy Parameters:	-1.18259296475 1.42795490454
Control Steps:		1000
Start Time:		1438477205.4236968

-- TESTING STOPPED --

Stop Time:		1438477256.8613632
Duration:		51.43766641616821
Cost Matrix:
0.0681797889912
0.0765326289925
0.070938533012
0.0230470436097
0.0749055796959
0.113743529298
0.0818483515515
0.0625203816406
0.0602538705622
0.0929017660114
0.157428046831
0.180348807211
0.16328085484
0.167145497118
0.172405165651
0.175764131018
0.172268838338
0.181046240828
0.205105071241
0.235874043591
0.179716968316
0.19859067695
0.182514634443
0.241910628035
0.266182512527
0.213933446177
0.195991901713
0.232268174764
0.231367493939
0.199167292595
0.170285406418
0.227222417703
0.223446871075
0.18312088959
0.137168472173
0.138218467599
0.149439780113
0.131835162244
0.120267356525
0.148341532639
0.120349210738
0.0534455482248
0.0399074541205
0.0115570571572
0.0306289977586
0.0486572594409
0.0497756700856
0.0202240625797
0.0221305120355
0.0123226401127
0.0068572291224
0.0154567594469
0.0333402239435
0.0373935932253
0.0267446955429
0.0319600514886
0.022472558508
0.0339500934673
0.027712379621
0.009093433527
0.0257417904668
0.0225066884875
0.0364196650558
0.0623584567952
0.0092642024151
0.00301669217224
0.014492478981
0.0222007177395
0.0284396955379
0.0344013256199
0.0352561708223
0.0122084239037
0.0124235197957
0.0254151611917
0.0308386635288
0.0549626474552
0.0533083082708
0.0304791960354
0.0252327642287
0.0298840472853
0.0450096752986
0.0557759641879
0.0489985997811
0.0436476311934
0.0128264504096
0.015081417659
0.0453507912125
0.0747446514898
0.0726750625658
0.117660581249
0.172646873496
0.231209702326
0.270754424975
0.291074051706
0.279189482166
0.296066155688
0.341506956716
0.3942001727
0.419307558018
0.410842056712
0.390542727395
0.408543197469
0.411614462571
0.400446738687
0.37962876272
0.39982200589
0.373449738126
0.322700598968
0.264685454491
0.233189497092
0.326254638
0.309521412275
0.120671258523
0.0721578106387
0.0490360165331
0.107301579191
0.167992108955
0.216770228351
0.193048230935
0.167285045773
0.160328413313
0.182491778353
0.120316944184
0.0841075840666
0.0978235866355
0.140743306009
0.196508480841
0.117426817816
0.0529867823034
0.0360520766943
0.0216509785418
0.0268420790652
0.0199726196592
0.0382194601604
0.04029711932
0.0257164236164
0.0447331464182
0.0549169300337
0.0159283828338
0.025534366735
0.0343970996017
0.0302849063206
0.0515678952654
0.071044191107
0.0521705350669
0.0205683636625
0.0253121949592
0.0235391182545
0.0318647014342
0.0172982708344
0.0525942783979
0.0708537331258
0.0422101031584
0.0400266629733
0.0133347754254
0.0558708811349
0.0753601757687
0.0464162675186
0.0704934089104
0.0406047728031
0.0333309331574
0.0680479718107
0.0868069531378
0.0757542450338
0.0894451084151
0.0901631266573
0.152349082167
0.154276471522
0.143739235543
0.129853888866
0.191626229529
0.198111145723
0.203113035251
0.20972080321
0.247337776155
0.251966936866
0.265941448786
0.300480896894
0.32236843559
0.318695036519
0.318586510573
0.353334567562
0.35914071
0.343838374904
0.354908950295
0.384064342627
0.41872405818
0.457363605627
0.377548127678
0.397669817489
0.415868077215
0.319555922092
0.267418161408
0.298668830288
0.302313797371
0.172744933779
0.13335028431
0.144756927487
0.121194513034
0.0244539917176
0.0346795466231
0.0428146861161
0.0940444011406
0.138235782105
0.168670029862
0.191319414618
0.216350377732
0.249465544026
0.284422898688
0.332651278581
0.361190776115
0.386455428452
0.39800882324
0.402521943401
0.423112158745
0.469765458857
0.510759618938
0.533410198793
0.546986508
0.580629684461
0.584191721637
0.51432371656
0.468815142541
0.462432879102
0.435731359057
0.386265470929
0.311662619026
0.257919501783
0.266302266465
0.248121712487
0.18088042375
0.126762217592
0.134758289134
0.102466985003
0.110381823939
0.0976287137345
0.114307603786
0.12618565334
0.0903325218139
0.0690702959605
0.0409628627815
0.0629235000689
0.0612693144506
0.0328615454186
0.0454575498346
0.0325633813604
0.0246526240242
0.0405343097843
0.064808586047
0.0765236410668
0.0278090047823
0.0515797199409
0.0437750961132
0.0560552824476
0.0830608122503
0.0823243320877
0.108648525071
0.121138118003
0.111255042793
0.122358820624
0.142164450427
0.122720503816
0.098275988723
0.103784667411
0.125404128591
0.160674457433
0.101987717711
0.0948320539284
0.0353590539649
0.0538360816751
0.136085254391
0.162280514937
0.0681926972228
0.0449889561153
0.0648201062925
0.0302613179236
0.0411143147514
0.0308161620159
0.0512684383261
0.0251943601896
0.0559232865033
0.0817542970805
0.0730537263734
0.0256462305373
0.0382483167547
0.0476287382181
0.0398003788432
0.0289102148691
0.0536934185975
0.0821871536886
0.079651470044
0.0533378485093
0.0290908793691
0.0331339115045
0.0146015315517
0.0046167541107
0.00879338628047
0.0211716553496
0.0374798790046
0.107889855762
0.142923005542
0.0818313309423
0.0195484365247
0.0291304263245
0.0653614908601
0.0747206905365
0.0671642410225
0.0705677430539
0.100349116014
0.0863772807889
0.0450135394389
0.0131795194161
0.0338839133198
0.0456230352121
0.0420669938905
0.0292728217538
0.0107494376992
0.0255175101462
0.0699067570286
0.0801708014273
0.0296850274336
0.061514186858
0.0638930149363
0.0562431216173
0.0667246914151
0.0339350250536
0.028560919591
0.0748027150425
0.126049602193
0.113217948386
0.0857882909233
0.0848970591502
0.0713747405164
0.0523810099011
0.0250473603066
0.0618368628625
0.0662093329008
0.0563443931041
0.0683087954727
0.0591206650717
0.0871288731233
0.119254299986
0.153208459371
0.102064221939
0.0454146033986
0.234115110452
0.595252713621
1.1252099809
0.405073297548
0.558599024405
0.313296050337
0.0411343959871
1000000.0
0.0
0.0
0.0
0.0
0.0
0.0
0.0
0.0
0.0
0.0
0.0
0.0
0.0
0.0
0.0
0.0
0.0
0.0
0.0
0.0
0.0
0.0
0.0
0.0
0.0
0.0
0.0
0.0
0.0
0.0
0.0
0.0
0.0
0.0
0.0
0.0
0.0
0.0
0.0
0.0
0.0
0.0
0.0
0.0
0.0
0.0
0.0
0.0
0.0
0.0
0.0
0.0
0.0
0.0
0.0
0.0
0.0
0.0
0.0
0.0
0.0
0.0
0.0
0.0
0.0
0.0
0.0
0.0
0.0
0.0
0.0
0.0
0.0
0.0
0.0
0.0
0.0
0.0
0.0
0.0
0.0
0.0
0.0
0.0
0.0
0.0
0.0
0.0
0.0
0.0
0.0
0.0
0.0
0.0
0.0
0.0
0.0
0.0
0.0
0.0
0.0
0.0
0.0
0.0
0.0
0.0
0.0
0.0
0.0
0.0
0.0
0.0
0.0
0.0
0.0
0.0
0.0
0.0
0.0
0.0
0.0
0.0
0.0
0.0
0.0
0.0
0.0
0.0
0.0
0.0
0.0
0.0
0.0
0.0
0.0
0.0
0.0
0.0
0.0
0.0
0.0
0.0
0.0
0.0
0.0
0.0
0.0
0.0
0.0
0.0
0.0
0.0
0.0
0.0
0.0
0.0
0.0
0.0
0.0
0.0
0.0
0.0
0.0
0.0
0.0
0.0
0.0
0.0
0.0
0.0
0.0
0.0
0.0
0.0
0.0
0.0
0.0
0.0
0.0
0.0
0.0
0.0
0.0
0.0
0.0
0.0
0.0
0.0
0.0
0.0
0.0
0.0
0.0
0.0
0.0
0.0
0.0
0.0
0.0
0.0
0.0
0.0
0.0
0.0
0.0
0.0
0.0
0.0
0.0
0.0
0.0
0.0
0.0
0.0
0.0
0.0
0.0
0.0
0.0
0.0
0.0
0.0
0.0
0.0
0.0
0.0
0.0
0.0
0.0
0.0
0.0
0.0
0.0
0.0
0.0
0.0
0.0
0.0
0.0
0.0
0.0
0.0
0.0
0.0
0.0
0.0
0.0
0.0
0.0
0.0
0.0
0.0
0.0
0.0
0.0
0.0
0.0
0.0
0.0
0.0
0.0
0.0
0.0
0.0
0.0
0.0
0.0
0.0
0.0
0.0
0.0
0.0
0.0
0.0
0.0
0.0
0.0
0.0
0.0
0.0
0.0
0.0
0.0
0.0
0.0
0.0
0.0
0.0
0.0
0.0
0.0
0.0
0.0
0.0
0.0
0.0
0.0
0.0
0.0
0.0
0.0
0.0
0.0
0.0
0.0
0.0
0.0
0.0
0.0
0.0
0.0
0.0
0.0
0.0
0.0
0.0
0.0
0.0
0.0
0.0
0.0
0.0
0.0
0.0
0.0
0.0
0.0
0.0
0.0
0.0
0.0
0.0
0.0
0.0
0.0
0.0
0.0
0.0
0.0
0.0
0.0
0.0
0.0
0.0
0.0
0.0
0.0
0.0
0.0
0.0
0.0
0.0
0.0
0.0
0.0
0.0
0.0
0.0
0.0
0.0
0.0
0.0
0.0
0.0
0.0
0.0
0.0
0.0
0.0
0.0
0.0
0.0
0.0
0.0
0.0
0.0
0.0
0.0
0.0
0.0
0.0
0.0
0.0
0.0
0.0
0.0
0.0
0.0
0.0
0.0
0.0
0.0
0.0
0.0
0.0
0.0
0.0
0.0
0.0
0.0
0.0
0.0
0.0
0.0
0.0
0.0
0.0
0.0
0.0
0.0
0.0
0.0
0.0
0.0
0.0
0.0
0.0
0.0
0.0
0.0
0.0
0.0
0.0
0.0
0.0
0.0
0.0
0.0
0.0
0.0
0.0
0.0
0.0
0.0
0.0
0.0
0.0
0.0
0.0
0.0
0.0
0.0
0.0
0.0
0.0
0.0
0.0
0.0
0.0
0.0
0.0
0.0
0.0
0.0
0.0
0.0
0.0
0.0
0.0
0.0
0.0
0.0
0.0
0.0
0.0
0.0
0.0
0.0
0.0
0.0
0.0
0.0
0.0
0.0
0.0
0.0
0.0
0.0
0.0
0.0
0.0
0.0
0.0
0.0
0.0
0.0
0.0
0.0
0.0
0.0
0.0
0.0
0.0
0.0
0.0
0.0
0.0
0.0
0.0
0.0
0.0
0.0
0.0
0.0
0.0
0.0
0.0
0.0
0.0
0.0
0.0
0.0
0.0
0.0
0.0
0.0
0.0
0.0
0.0
0.0
0.0
0.0
0.0
0.0
0.0
0.0
0.0
0.0
0.0
0.0
0.0
0.0
0.0
0.0
0.0
0.0
0.0
0.0
0.0
0.0
0.0
0.0
0.0
0.0
0.0
0.0
0.0
0.0
0.0
0.0
0.0
0.0
0.0
0.0
0.0
0.0
0.0
0.0
0.0
0.0
0.0
0.0
0.0
0.0
0.0
0.0
0.0
0.0
0.0
0.0
0.0
0.0
0.0
0.0
0.0
0.0
0.0
0.0
0.0
0.0
0.0
0.0
0.0
0.0
0.0
0.0
0.0
0.0
0.0
0.0
0.0
0.0
0.0
0.0
0.0
0.0
0.0
0.0
0.0
0.0
0.0
0.0
0.0
0.0
0.0
0.0
0.0
0.0
0.0
0.0
0.0
0.0
0.0
0.0
0.0
0.0
0.0
0.0
0.0
0.0
0.0
0.0
0.0
0.0
0.0
0.0
0.0
0.0
0.0
0.0
0.0
0.0
0.0
0.0
0.0
0.0
0.0
0.0
0.0
0.0
0.0
0.0
0.0
0.0
0.0
0.0
0.0
logs/alpha_1.7/PGSD_600steps_4.log 1000049.90395 1000.04990395 0.0 1000000.0 0.0 352
