Policy Parameters:	-0.654315526637 0.91575609102
Control Steps:		1000
Start Time:		1438468425.6532152

-- TESTING STOPPED --

Stop Time:		1438468453.4401672
Duration:		27.786952018737793
Cost Matrix:
0.173055857003
0.24408966528
0.221835113945
0.156363449915
0.170479778583
0.24153679522
0.327167110059
0.441973154915
0.681860667593
0.697204520418
0.617386235901
0.631954320041
0.578153866358
0.779767896242
0.915624876976
0.744462109547
0.880592246435
0.798097730886
0.809433142714
0.643837437147
0.487890316535
0.496445231966
0.529628025456
0.325000308901
0.0815916861888
0.0377124398653
0.0322798509778
0.0412905111291
0.0635847990105
0.0499753042228
0.0219590267434
0.024585736409
0.0288006302162
0.0161907203692
0.0359533806667
0.0568188195098
0.0539585941919
0.0297165295898
0.0206185640091
0.0152521991345
0.0915230119126
0.0628138421005
0.0689428670848
0.0464959278456
0.0543387069246
0.0300587954199
0.0320750221668
0.0197858926351
0.0407112678279
0.0339252813119
0.0408302942561
0.0246526250003
0.0107417412772
0.0157514795452
0.0471498041904
0.0682994906705
0.0353206696892
0.0493548091253
0.110084390688
0.153552142987
0.154696854853
0.128464059338
0.0916606753032
0.0676717340313
0.0918316861353
0.102227833829
0.0754316127654
0.0220081147936
0.0648332090391
0.0841748693814
0.0894931162137
0.0964334986829
0.0918814987549
0.124003192992
0.114351925678
0.109270673294
0.112694106543
0.0767627953355
0.0461750538954
0.0607109075439
0.0892170026095
0.0919822240588
0.0635143170668
0.0415263950501
0.066844687597
0.0925429944232
0.0924928868867
0.0573807353029
0.0336039806314
0.0224981916639
0.0177377157311
0.0341298563363
0.0140924404067
0.0246145549469
0.00758536289456
0.0392571999696
0.0505255315423
0.109336066454
0.0839819971252
0.0237929897933
0.0762325652715
0.0877209773104
0.0898597206681
0.0725548155871
0.105115529129
0.124678981856
0.13733807712
0.153750019882
0.183150475442
0.182373600847
0.228136896191
0.21938337009
0.202194966338
0.191614164608
0.223851244447
0.202462378058
0.171951470077
0.219097650751
0.235082848409
0.221653873717
0.24486687166
0.22464768998
0.202939169422
0.230966287378
0.210125386203
0.238414576187
0.185823199798
0.155544078063
0.143215909086
0.127744749902
0.119158415825
0.0804382204488
0.0624932719876
0.0704013439216
0.0524646249431
0.0611540033703
0.0524168549364
0.0535364302225
0.0220104644441
0.0135656744438
0.0233939087627
0.0472524486235
0.039593917582
0.142328914879
0.227022303787
0.14427548838
0.0318860211888
0.0135416774974
0.0048271330796
0.0349415264678
0.0233739592453
0.0399023287748
0.0290819627531
0.022646020594
0.0514939651608
0.0329303652936
0.0140664323618
0.0272289885087
0.0133110577173
0.0246918131572
0.0395327034589
0.0339229754002
0.0469429985952
0.0703426546053
0.0443038319008
0.0427284372553
0.0729920185065
0.051354038933
0.0443331559994
0.0415857031446
0.0442589387773
0.0590989905928
0.0361818997183
0.0487817546985
0.0558072057165
0.112996572379
0.134481714837
0.200812169428
0.369518474107
0.509711852582
0.680298777279
0.616690395276
0.797222602562
0.746618282516
0.901894554272
0.716791589122
0.702965026272
0.774963908641
0.787718431498
0.531312501116
0.331637183558
1000000.0
0.0
0.0
0.0
0.0
0.0
0.0
0.0
0.0
0.0
0.0
0.0
0.0
0.0
0.0
0.0
0.0
0.0
0.0
0.0
0.0
0.0
0.0
0.0
0.0
0.0
0.0
0.0
0.0
0.0
0.0
0.0
0.0
0.0
0.0
0.0
0.0
0.0
0.0
0.0
0.0
0.0
0.0
0.0
0.0
0.0
0.0
0.0
0.0
0.0
0.0
0.0
0.0
0.0
0.0
0.0
0.0
0.0
0.0
0.0
0.0
0.0
0.0
0.0
0.0
0.0
0.0
0.0
0.0
0.0
0.0
0.0
0.0
0.0
0.0
0.0
0.0
0.0
0.0
0.0
0.0
0.0
0.0
0.0
0.0
0.0
0.0
0.0
0.0
0.0
0.0
0.0
0.0
0.0
0.0
0.0
0.0
0.0
0.0
0.0
0.0
0.0
0.0
0.0
0.0
0.0
0.0
0.0
0.0
0.0
0.0
0.0
0.0
0.0
0.0
0.0
0.0
0.0
0.0
0.0
0.0
0.0
0.0
0.0
0.0
0.0
0.0
0.0
0.0
0.0
0.0
0.0
0.0
0.0
0.0
0.0
0.0
0.0
0.0
0.0
0.0
0.0
0.0
0.0
0.0
0.0
0.0
0.0
0.0
0.0
0.0
0.0
0.0
0.0
0.0
0.0
0.0
0.0
0.0
0.0
0.0
0.0
0.0
0.0
0.0
0.0
0.0
0.0
0.0
0.0
0.0
0.0
0.0
0.0
0.0
0.0
0.0
0.0
0.0
0.0
0.0
0.0
0.0
0.0
0.0
0.0
0.0
0.0
0.0
0.0
0.0
0.0
0.0
0.0
0.0
0.0
0.0
0.0
0.0
0.0
0.0
0.0
0.0
0.0
0.0
0.0
0.0
0.0
0.0
0.0
0.0
0.0
0.0
0.0
0.0
0.0
0.0
0.0
0.0
0.0
0.0
0.0
0.0
0.0
0.0
0.0
0.0
0.0
0.0
0.0
0.0
0.0
0.0
0.0
0.0
0.0
0.0
0.0
0.0
0.0
0.0
0.0
0.0
0.0
0.0
0.0
0.0
0.0
0.0
0.0
0.0
0.0
0.0
0.0
0.0
0.0
0.0
0.0
0.0
0.0
0.0
0.0
0.0
0.0
0.0
0.0
0.0
0.0
0.0
0.0
0.0
0.0
0.0
0.0
0.0
0.0
0.0
0.0
0.0
0.0
0.0
0.0
0.0
0.0
0.0
0.0
0.0
0.0
0.0
0.0
0.0
0.0
0.0
0.0
0.0
0.0
0.0
0.0
0.0
0.0
0.0
0.0
0.0
0.0
0.0
0.0
0.0
0.0
0.0
0.0
0.0
0.0
0.0
0.0
0.0
0.0
0.0
0.0
0.0
0.0
0.0
0.0
0.0
0.0
0.0
0.0
0.0
0.0
0.0
0.0
0.0
0.0
0.0
0.0
0.0
0.0
0.0
0.0
0.0
0.0
0.0
0.0
0.0
0.0
0.0
0.0
0.0
0.0
0.0
0.0
0.0
0.0
0.0
0.0
0.0
0.0
0.0
0.0
0.0
0.0
0.0
0.0
0.0
0.0
0.0
0.0
0.0
0.0
0.0
0.0
0.0
0.0
0.0
0.0
0.0
0.0
0.0
0.0
0.0
0.0
0.0
0.0
0.0
0.0
0.0
0.0
0.0
0.0
0.0
0.0
0.0
0.0
0.0
0.0
0.0
0.0
0.0
0.0
0.0
0.0
0.0
0.0
0.0
0.0
0.0
0.0
0.0
0.0
0.0
0.0
0.0
0.0
0.0
0.0
0.0
0.0
0.0
0.0
0.0
0.0
0.0
0.0
0.0
0.0
0.0
0.0
0.0
0.0
0.0
0.0
0.0
0.0
0.0
0.0
0.0
0.0
0.0
0.0
0.0
0.0
0.0
0.0
0.0
0.0
0.0
0.0
0.0
0.0
0.0
0.0
0.0
0.0
0.0
0.0
0.0
0.0
0.0
0.0
0.0
0.0
0.0
0.0
0.0
0.0
0.0
0.0
0.0
0.0
0.0
0.0
0.0
0.0
0.0
0.0
0.0
0.0
0.0
0.0
0.0
0.0
0.0
0.0
0.0
0.0
0.0
0.0
0.0
0.0
0.0
0.0
0.0
0.0
0.0
0.0
0.0
0.0
0.0
0.0
0.0
0.0
0.0
0.0
0.0
0.0
0.0
0.0
0.0
0.0
0.0
0.0
0.0
0.0
0.0
0.0
0.0
0.0
0.0
0.0
0.0
0.0
0.0
0.0
0.0
0.0
0.0
0.0
0.0
0.0
0.0
0.0
0.0
0.0
0.0
0.0
0.0
0.0
0.0
0.0
0.0
0.0
0.0
0.0
0.0
0.0
0.0
0.0
0.0
0.0
0.0
0.0
0.0
0.0
0.0
0.0
0.0
0.0
0.0
0.0
0.0
0.0
0.0
0.0
0.0
0.0
0.0
0.0
0.0
0.0
0.0
0.0
0.0
0.0
0.0
0.0
0.0
0.0
0.0
0.0
0.0
0.0
0.0
0.0
0.0
0.0
0.0
0.0
0.0
0.0
0.0
0.0
0.0
0.0
0.0
0.0
0.0
0.0
0.0
0.0
0.0
0.0
0.0
0.0
0.0
0.0
0.0
0.0
0.0
0.0
0.0
0.0
0.0
0.0
0.0
0.0
0.0
0.0
0.0
0.0
0.0
0.0
0.0
0.0
0.0
0.0
0.0
0.0
0.0
0.0
0.0
0.0
0.0
0.0
0.0
0.0
0.0
0.0
0.0
0.0
0.0
0.0
0.0
0.0
0.0
0.0
0.0
0.0
0.0
0.0
0.0
0.0
0.0
0.0
0.0
0.0
0.0
0.0
0.0
0.0
0.0
0.0
0.0
0.0
0.0
0.0
0.0
0.0
0.0
0.0
0.0
0.0
0.0
0.0
0.0
0.0
0.0
0.0
0.0
0.0
0.0
0.0
0.0
0.0
0.0
0.0
0.0
0.0
0.0
0.0
0.0
0.0
0.0
0.0
0.0
0.0
0.0
0.0
0.0
0.0
0.0
0.0
0.0
0.0
0.0
0.0
0.0
0.0
0.0
0.0
0.0
0.0
0.0
0.0
0.0
0.0
0.0
0.0
0.0
0.0
0.0
0.0
0.0
0.0
0.0
0.0
0.0
0.0
0.0
0.0
0.0
0.0
0.0
0.0
0.0
0.0
0.0
0.0
0.0
0.0
0.0
0.0
0.0
0.0
0.0
0.0
0.0
0.0
0.0
0.0
0.0
0.0
0.0
0.0
0.0
0.0
0.0
0.0
0.0
0.0
0.0
0.0
0.0
0.0
0.0
0.0
0.0
0.0
0.0
0.0
0.0
0.0
0.0
0.0
0.0
0.0
0.0
0.0
0.0
0.0
0.0
0.0
0.0
0.0
0.0
0.0
0.0
0.0
0.0
0.0
0.0
0.0
0.0
0.0
0.0
0.0
0.0
0.0
0.0
0.0
0.0
0.0
0.0
0.0
0.0
0.0
0.0
0.0
0.0
0.0
0.0
logs/alpha_1.7/PGSD_300steps_1.log 1000033.61769 1000.03361769 0.0 1000000.0 0.0 191
