Policy Parameters:	-3.87175848484 2.85236333463
Control Steps:		1000
Start Time:		1438482213.7403815

-- TESTING STOPPED --

Stop Time:		1438482385.3632228
Duration:		171.62284135818481
Cost Matrix:
0.0329660057875
0.0455935875815
0.0787597001526
0.261077985985
0.068916556515
0.0498374412878
0.187686010437
0.0643348050752
0.0232417264037
0.120446180584
0.00182766773992
0.0751644320458
0.145192808347
0.23135012283
0.301383072198
0.250127073796
0.24944838483
0.18124647337
0.167017912704
0.20910529279
0.363672022723
0.573802681082
1.29160638984
1.32989025835
3.77117426139
0.54051797382
2.93376308938
1.20344409662
2.343954833
1.84181246897
2.33152061665
1.36539183059
1.24393950179
1.05507617049
0.184391631796
0.204101884755
0.238526231917
0.376782155996
0.265954002174
0.4285002011
0.0926966563961
0.0627693019891
0.0751270491023
0.201194006529
0.377184089385
0.519311646654
0.525456593932
0.503454027986
0.431221424563
0.481056640053
0.417165840066
0.340390886054
0.261141390351
0.245445896186
0.181368313556
0.0708933273404
0.111358626889
0.222217872739
0.0391613709609
0.0115402384183
0.0145873323657
0.0295220689135
0.0952690607986
0.167024654751
0.0905115432038
0.0847314141964
0.0502411224321
0.145439773298
0.131621171433
0.234780913517
0.00464025340956
0.027185000932
0.0725527491435
0.0915197762335
0.227694309453
0.235361984283
0.237209731795
0.0829998082196
0.172499357091
0.156518943777
0.146124611745
0.197179008704
0.14250298585
0.17266836611
0.257865461485
0.341398669712
0.180850758785
0.29769226355
0.191914439025
0.159959290014
0.0864008636898
0.0961597337671
0.0852081787799
0.122226316728
0.187795129681
0.188344354377
0.177503072946
0.101333624944
0.111769787748
0.108467727871
0.0680467992949
0.117616980615
0.0559422078847
0.143505211731
0.225719655417
0.0776252754343
0.145891695222
0.0893756072786
0.31911075061
0.0558665412731
0.264285584462
0.0868896357768
0.124974517488
0.0777828232633
0.298458171217
0.0583795210491
0.0342027584873
0.079296700176
0.128777613422
0.106533230282
0.19455583689
0.203242883725
0.238911180176
0.193428046284
0.24968439053
0.337688268004
0.332730206681
0.184254727427
0.473525451843
0.60303127203
1.34092654871
1.25349225196
1.48095952059
1.54028012023
1.56715454941
1.67627646117
1.19791480271
1.63822227205
1.85679737253
1.14940608022
2.06602333062
0.867791421174
2.1347440532
0.149176777743
0.0990878071847
0.0954046795849
0.0538363668238
0.198167803237
0.0246647657789
0.0673716004121
0.287511337179
0.0823263030851
0.32946897862
0.212113815752
0.176804135597
0.182974974167
0.229795878579
0.26288877081
0.255819919249
0.295404358798
0.195159999571
0.240468620756
0.152954903844
0.110615301551
0.205198960525
0.274947142441
0.141106568876
0.108070162406
0.0909582859503
0.226019728356
0.275760544515
0.232998377289
0.354292206361
0.387602032479
0.0887475525471
0.16327086558
0.11893358676
0.136708160203
0.348928084764
0.307645340007
0.249395828716
0.299014368697
0.561016315576
0.692891653139
0.604026990998
1.31710101871
1.07986866327
1.3752407166
1.2569291638
1.31578903383
1.31257508793
1.27916421156
1.22566486454
1.26151989825
0.974157618867
0.998291987496
0.58487699685
0.97994514006
0.0921863559639
0.113533262588
0.454003758286
0.440680327972
0.509957498084
0.410448929966
0.289582004285
0.42255876092
0.43157753898
0.37886503423
0.263669583299
0.260279012401
0.409100587228
0.0537395039341
0.159777481051
0.183579435226
0.217399232917
0.135118692637
0.240133130233
0.281092151942
0.344435779905
0.316440196872
0.243752959045
0.289315183953
0.242183812319
0.243658836273
0.276260422824
0.275916187798
0.258394476998
0.258174708089
0.266260309709
0.216566602077
0.180426346303
0.174656347785
0.196341217815
0.190431120139
0.138384045455
0.105535533666
0.179872136711
0.137447054156
0.0492567643534
0.0618537859772
0.0482667570458
0.187173206107
0.0443766466477
0.0686179457449
0.0930036949933
0.0945715445499
0.164890217423
0.232974972656
0.1646075903
0.236291416009
0.300954928964
0.177194677363
0.225980344357
0.333744116393
0.408390032592
0.42582860109
0.512656806872
1.02852229119
1.41912821168
1.64253764595
1.80654959048
1.9698912935
0.680598469673
2.60108059215
1.0708167436
2.87761625538
0.42933234224
0.430963680559
0.745337264775
2.33427091509
0.0
0.0207793308226
0.0175910402955
0.0240814843477
0.0591932565932
0.0656508024248
0.0729262620616
0.0597043993131
0.0361172204495
0.0593801892913
0.0604330658445
0.0463146910716
0.0948293715847
0.0710593396507
0.0404805935478
0.115185892634
0.156336639309
0.140475081323
0.225783579002
0.264146520372
0.107586296295
0.106995661157
0.104295288533
0.0742043309394
0.0882751474584
0.109792310327
0.0251613435472
0.0952525329567
0.115474840859
0.120427003344
0.0426834975952
0.0357940467847
0.0974053166746
0.242359635519
0.0586692831157
0.0596767508699
0.0654633857859
0.137350889215
0.0501091994093
0.0572755799009
0.0422141117709
0.0361823046205
0.0988598843753
0.115837775325
0.157048058438
0.0904422504586
0.135115064781
0.111096703242
0.231122423548
0.199691021754
0.177983865835
0.221947035345
0.294133105412
0.316747556478
0.405859330515
0.47853267229
0.734535485279
0.777897611857
0.939514506362
0.830697031597
0.919883199387
0.896697571055
0.939740547125
0.945105828209
0.570911106845
1.13736274816
0.435923931592
0.476151067395
0.509357312657
0.0333343739615
0.12609168226
0.26027983513
0.246770790183
0.229859528367
0.117850204356
0.0784551208066
0.151913302889
0.325277026198
0.284968866066
0.388990041456
0.331911675466
0.356872878886
0.353088273693
0.389075995704
0.378904074137
0.518534474694
0.359744221966
0.505220496026
0.832772011144
0.75591077631
0.755458108244
0.733128808737
0.731461743518
0.52384579883
0.831869355362
0.601887036045
0.48214699132
0.5186678009
0.425401887186
0.428551792249
0.0101113080451
0.0296237248316
0.0748377376074
0.0975186820881
0.0777576466577
0.0121570942989
0.0368453880532
0.140619263334
0.250075684047
0.259035995078
0.315359964076
0.192941161454
0.209366852323
0.26238709154
0.194323790524
0.266904748531
0.23624932344
0.27421038765
0.339602184168
0.246668464584
0.292581785136
0.239455618983
0.16569413106
0.147992164101
0.0409737120773
0.0611464232962
0.212110428958
0.584771672621
1.10314869392
1.00688615022
1.23132465545
1.24978673536
1.26078383906
1.36301716139
1.29814902387
1.36573795437
1.11576842173
1.13356690628
0.524757433623
0.792633720563
0.0492664417583
0.270320010113
0.441238411721
0.502811210642
0.52155045078
0.542470982729
0.434552504337
0.474813355576
0.407896858218
0.418111575548
0.42038995714
0.209104599732
0.228782316748
0.294207954496
0.507116556739
0.0565598502827
0.126493790155
0.0759656926128
0.146956013967
0.19726039712
0.200818853799
0.14897819008
0.107862486487
0.145866017328
0.135192339695
0.128105344483
0.0208855759754
0.0468318828906
0.0788746693078
0.147275673137
0.114053274826
0.0239081362003
0.0180850808307
0.0387602089286
0.0600371177407
0.0891058805825
0.0858177199206
0.0232746581578
0.0282555753858
0.115201635589
0.340282739722
0.302031091521
0.354336865936
0.296208078283
0.289942113937
0.33014769799
0.499979048444
0.502897277001
0.438007674202
0.33857541497
0.280403334147
0.30174181681
0.305591520168
0.289172217673
0.154559161339
0.281138239069
0.457906684455
0.212389402967
0.060960529339
0.104003219295
0.122317479711
0.0912218634551
0.0789136677393
0.020036519014
0.0674061267265
0.0639596964095
0.0274556801303
0.0810254929825
0.16194434074
0.181373618873
0.190435749616
0.130804873716
0.173348066962
0.176557325106
0.19655410609
0.250766236094
0.243302864555
0.229334725041
0.226638397236
0.233089927811
0.233825689451
0.267589857299
0.261351067785
0.273309266762
0.314970152963
0.300274248138
0.29505477717
0.296946758518
0.303142183272
0.311523927791
0.334200952242
0.334612898659
0.334002188359
0.336450421932
0.339048800096
0.372723510003
0.352914687773
0.355832717059
0.355544023637
0.374397976976
0.418230986638
0.410236563636
0.42974505561
0.427854756644
0.409822160147
0.435394406241
0.440899424264
0.417068654429
0.435405540466
0.480554065694
0.451307334367
0.47667679826
0.516773559407
0.67711720658
0.431373305831
0.48372596077
0.502974356788
0.536806418783
0.532909846016
0.526886921078
0.625342038655
0.496220610544
0.534034454413
0.618415284152
1.00449544709
0.45769708354
0.602818506303
0.518042852617
0.61644212839
0.534740532045
0.52571740102
0.640562956635
0.513110342992
0.65125606976
0.547830712361
0.640673695172
0.515798703449
0.541133445999
0.534003261491
0.541745933751
0.517817728717
0.507526749997
0.486881841018
0.473283597552
0.425863070473
0.441350123876
0.467943798393
0.464345427174
0.427864207921
0.415307269575
0.38948088351
0.411215631882
0.421615394712
0.365735378299
0.35655257976
0.362647352009
0.353909130064
0.35027164153
0.327705139502
0.293755732944
0.305858641233
0.290650931651
0.257510912372
0.251629267413
0.260624931834
0.311034110488
0.204572443148
0.20165405643
0.217652370554
0.339220501107
0.328554455173
0.286549193144
0.209798382802
0.272517747219
0.301289498636
0.316266758449
0.364887095205
0.377459158936
0.364721544597
0.419716276271
0.471432953244
0.820211679267
0.624393888758
1.50999469232
1.04751939278
1.43619084878
1.43065676581
1.58927592498
1.54048320053
1.60394383158
1.42568682036
1.22021576488
1.09391388208
0.928959592002
1.30396933108
0.325439568557
1.2420499083
0.0166959902001
0.0461586299468
0.0451421544526
0.0494454075526
0.0105836086071
0.0731144810822
0.192368102308
0.147186164325
0.183991816203
0.164869666139
0.0546120953152
0.0656427555443
0.0596644376962
0.245931341588
0.074472749804
0.0610126635815
0.0427905517719
0.0679849438503
0.0195687064797
0.107783787125
0.203217375403
0.0373280699872
0.133148519462
0.12912788122
0.0192163409487
0.0747742699141
0.232230277235
0.337902003209
0.155812319575
0.0888961568125
0.214209346741
0.257455839287
0.341941827789
0.295992133448
0.417193807209
0.403805559181
0.526023352222
1.07544560261
0.647282101261
1.44869304173
1.08903763595
1.40706594174
1.34702948725
1.48873384842
1.47729908579
1.48039118188
1.28954634312
1.30240198992
1.20675345171
0.855804322679
0.0102475197903
0.0902839854266
0.06156356826
0.227206295192
0.291498930046
0.109062060826
0.208468713638
0.111840946356
0.177245798558
0.0363460517898
0.0970966596147
0.120089531657
0.214703939137
0.145208909775
0.352144429383
0.243993178115
0.164984985335
0.279799204804
0.318915100984
0.322186489294
0.376929995599
0.298774223535
0.330402906588
0.335867696739
0.41867046054
0.371140607041
0.345320688698
0.424293551588
0.26216740239
0.284397177926
0.258434864243
0.255065032686
0.19716333075
0.13267965955
0.186471276204
0.160110645187
0.102067520636
0.215996231784
0.104442061702
0.0533112421828
0.214524944606
0.117852946416
0.0768581656606
0.215547168394
0.251766531027
0.238086603357
0.212689632758
0.0634393749006
0.109274981183
0.109660167138
0.27987350817
0.203192877835
0.215422547359
0.151330873983
0.220019985872
0.0924975594695
0.282421363441
0.385177923751
0.268317206084
0.437516072514
0.323933172859
0.370124774926
0.478243592249
0.633159207662
0.453791855178
0.476325770964
0.394367234752
0.390508836888
0.365200509887
0.365561172631
0.348383995444
0.414056809725
0.369602851991
0.791756693224
0.195604045099
0.155826748371
0.162663211289
0.259605672119
0.187219250152
0.0773209770697
0.10422637197
0.219758448705
0.188035262253
0.238222955825
0.22638771514
0.353468035413
0.0628079182627
0.158128088807
0.0375917529931
0.103019949456
0.105511242655
0.0484587597983
0.094674166457
0.213935980738
0.188274915974
0.185836640021
0.204510131607
0.230214019323
0.130135957501
0.327779782827
0.192442171365
0.19225456438
0.0201352094471
0.0454256035888
0.0163120066202
0.0303540792109
0.146487303919
0.138013093992
0.0389126991174
0.0827188332572
0.107511246667
0.194686281691
0.116478812574
0.140291947587
0.0998259571471
0.0280838594449
0.0406328675117
0.0442034157376
0.106371088826
0.232723405686
0.225265274801
0.0838768479774
0.124518362901
0.232796580444
0.121650398893
0.209230051612
0.220400538605
0.252459164385
0.218106504277
0.129888700949
0.157099313723
0.289190861216
0.296199048442
0.278116329863
0.223983114929
0.332465784214
0.350603818175
0.399927348727
0.490343128712
0.933848795626
0.909065095014
1.90611303191
0.687647830822
1.59775433235
1.1938818833
1.4567659144
1.14834869028
1.14324108466
1.09098178521
1.03565661258
1.05408971023
0.53850743952
0.912759750263
0.234550271253
0.18237560335
0.029329371931
0.126223043443
0.161159831989
0.229343753564
0.39844631679
0.255929945016
0.216929030076
0.19665977163
0.311619181346
0.0570772842245
0.106576824627
0.138445170949
0.365911533317
0.30301133207
0.166080009015
0.26050139791
0.208412752283
0.198034756318
0.280136249119
0.131586987851
0.154833643785
0.240902261439
0.154642264437
0.256402827032
0.387298676983
0.0269742550018
0.100954685128
0.182696336141
0.138086164993
0.154029160602
0.0600080559399
0.157795569866
0.146593665906
0.224053548981
0.110014683645
0.0473881536054
0.0958807580442
0.129871811616
0.176756939777
0.09412816257
0.0661603459713
0.0561321756115
0.0546590160172
0.00808448417813
0.0206484793124
0.0320457405012
0.0789000333245
0.316300805252
0.229467039831
0.178236587398
0.196994996811
0.28901107206
0.309907153291
0.313877064913
0.271008941776
0.466067715147
0.414822001852
0.389832130055
0.842306946898
0.714629901347
0.618877251128
1.05759209798
1.07456110971
1.11259566698
1.12210003587
1.07517067176
1.09868839226
0.976148819394
0.741417335444
0.826056558564
0.824012082701
0.393604300432
0.48240033949
0.150766150776
0.232790680893
0.343175365156
0.186783037057
0.275007321285
0.0440335797802
0.203442909489
0.144327111063
0.0372155331778
0.118004995556
0.160964779454
0.257924954514
0.155425573821
0.271519433204
0.147918835211
0.164238218045
0.293682541112
0.269494963552
0.161309936247
0.179154313587
0.229447096296
0.259558132501
0.189392010505
0.176854347146
0.186571836333
0.138424041843
0.226151993213
0.362117346054
0.411183925337
0.516414138796
0.653178300665
0.636712547654
0.98740520076
1.15564276696
1.24716688132
1.3845300153
1.54731483698
1.62325643842
1.47201947045
1.56832458331
2.08562171596
0.497659006871
1.1385792491
0.428995697796
0.815330439099
0.308066908804
0.223342704759
0.071422829526
0.317541161754
0.531352445516
0.376016209677
0.417723359247
0.309942663438
0.21659336798
0.307703828008
0.376749985516
0.411031265895
0.320482018035
0.202466717401
0.171732590328
0.274373638627
0.193973460494
0.296697928822
0.137252661178
0.0939052270033
0.0406544511831
0.0333220557506
0.102614706298
0.0816151319473
0.0455724042189
0.0466375667283
0.0030507835506
0.0239742022696
0.108491642027
0.137402010746
0.154933683163
0.318520187046
0.133684927057
0.132534172125
0.282246913194
0.273544132363
0.183947236643
0.225070528725
0.0332924868068
0.0188461838302
0.0418246544497
0.207008404544
0.284188683622
0.234686286065
0.165939307601
0.0177283550567
0.0457642725368
0.0345840982298
0.072318316624
0.0902709226675
0.162580396184
0.0845486843961
0.0788704782932
0.190430079975
0.231858425029
0.225027397699
0.0902473336425
0.10639285094
0.189203004186
0.0330953108817
0.015839380771
0.0500538493695
0.0227552023683
0.034458916603
0.0852689931923
0.17377535622
0.308724909105
0.205544649544
0.143284365006
0.124462818142
logs/alpha_1.7/PGSD_800steps_1.log 374.45217638 0.37445217638 0.236750573902 3.77117426139 0.0 -1
