Policy Parameters:	-7.00460943891 7.32361408357
Control Steps:		1000
Start Time:		1438476262.3190522

-- TESTING STOPPED --

Stop Time:		1438476455.9138231
Duration:		193.5947709083557
Cost Matrix:
0.0294903094254
0.216230239565
0.564134934775
0.599759132408
0.510732731544
0.79054065548
1.71319375305
0.56504202917
3.50744230327
0.264045723943
2.63899674526
1.76563633877
2.27824662228
0.302583003361
2.385381199
0.0391714224911
0.33131899176
1.02047740447
0.0223647179391
0.196052974979
0.520413778938
0.0203449107174
0.168549552696
0.0267031215814
0.196027436014
0.292988414928
0.0485116017553
0.368287471576
0.0326310571026
0.257360820362
0.19455206969
0.0847743463363
0.200236684458
0.583129879574
0.0697537356972
0.184423319261
0.466183146413
0.341256767219
0.383030850855
0.303535689957
0.407359934007
1.02452551727
0.139934487604
1.12137294022
0.0336104322266
0.277286942217
0.522312664275
0.409579752384
0.327323196466
0.265188718939
0.477277786261
0.120039754265
0.496405382762
0.0200077294388
0.194861537369
0.642483125635
0.0453003514398
0.326220650657
1.25997449412
1.75354988522
2.40713283755
2.9194074329
1.06704343995
3.40991229947
0.219183149551
2.26245598285
0.520081464481
0.766815528919
0.130202254714
0.665922654266
0.480657844571
0.591408033802
0.178930663062
0.460169714244
0.391363168924
0.356336696914
0.239627688276
0.627804213935
0.00609856456817
0.0378620354966
0.190466815769
0.0398638897773
0.169131189841
0.28957019296
0.311449233868
0.0326267126807
0.184527628343
0.0579519213356
0.20417868543
0.754765739908
0.657265274698
0.513000817711
0.650501077387
1.30232652328
1.02190158977
1.66395842267
1.73887583526
1.92595955308
1.93488372376
1.28403996234
1.79643160222
1.23831661465
1.34154293173
0.28468688166
1.82500589384
0.0984044453497
0.985678784808
1.16960547342
0.965808756789
0.455089413165
1.31354230474
0.712351315748
0.298683820264
0.294321836557
0.0924874949885
0.158187052832
0.198115637287
0.199415046359
0.278075800295
0.376191508567
0.128193546032
0.163583363194
0.447827551781
0.711103310467
0.494807055255
0.973744625536
0.877447357092
0.0844913590022
0.0882932346605
0.27613800016
0.919868215793
0.316083477515
0.766768753725
0.115898579969
0.527762534584
0.694692686837
0.125121554211
0.160551494056
0.261894850116
0.17689200195
0.341323197219
0.0144813180945
0.0465424008091
0.22810568534
0.456629679316
0.474352833815
0.306412484092
0.0612646598094
0.0781344544047
0.476763789431
0.235226767639
0.383805320849
0.430850231833
0.310807042929
0.397708660941
0.231945524547
0.0383573380247
0.240325233499
0.191437392278
0.169714369463
0.369362054437
0.231590569129
0.941597024569
0.00130642179304
0.0436234020186
0.334595552816
0.0577305383451
0.416039592242
0.281243382661
0.741614839466
0.441253988894
0.503030714311
0.212271724199
0.214302224381
1.03744705589
0.0797017259105
0.308401661117
0.708344876152
0.887974813736
1.04810252045
1.39511019019
1.73606599475
2.0754136731
2.23942707739
1.78835943549
2.22600448486
1.45184895407
2.38248022602
0.191844952996
0.772871753322
0.307883865101
0.99089498536
0.194630631817
2.14519927596
1.37543934623
1.23130636394
1.6618852572
0.462147493162
1.64453142187
0.0879584631543
0.735267532327
0.144383397319
0.0782683849145
0.681852963381
0.244363153222
0.0478269344936
0.0784177564751
0.0500155357474
0.124218140411
0.0482452259566
0.118704027122
0.281454307259
0.532763523929
0.371982452487
0.801936645544
0.187931158626
0.447809591267
1.13986327618
0.414795188908
0.973288831165
0.358347057679
0.625280694077
0.47182270135
0.641912077818
0.34946368278
0.49125985629
0.402999044942
0.323902509449
0.33000788967
0.296410866376
0.431448647632
0.202905337635
0.268132579775
0.226996803643
0.241944110738
0.260592561144
0.23648095687
0.263396298512
0.276811027609
0.272344362967
0.276073129735
0.291682734819
0.27009057314
0.349152140455
0.344059693756
0.294362073309
0.306182084257
0.374050185741
0.379215653055
0.383143094066
0.375312732137
0.306891065662
0.355381276619
0.398027797465
0.437493503762
0.375607205137
0.40388518246
0.477215875734
0.443917344175
0.415929005344
0.394343929335
0.635376785676
0.442035991429
0.486651744729
0.434695181262
0.488789501027
0.499808434351
0.515211384514
0.747780810035
0.425042892723
0.507540263556
0.503533483591
0.626591123012
0.475336301818
0.684928034036
0.445555852327
0.51953961481
0.655959703107
0.466968989443
0.602452170977
0.493394985557
0.590954030403
0.453652482546
0.537037258841
0.653374348902
0.473898522163
0.53119266206
0.702259996676
0.496814820944
0.679669525301
0.479575377258
0.847810345573
0.525391450349
1.07913742993
0.5299432243
1.33581226367
1.02874832462
1.52792894803
1.27880810347
1.79650817656
2.33261023425
2.53188112661
2.30531926574
2.81699624973
0.288245192402
2.93466330039
0.291690930634
1.03587756481
0.245576851763
0.188278604304
0.103150241776
1.03815873774
0.227431153655
0.659540133318
0.472343395164
0.49394446412
0.508741283602
0.459550588642
0.517241259669
0.773525027995
0.41304881286
1.13918912707
1.12104388012
0.592200177723
1.98254520766
0.20172704577
1.29291441833
0.326406245486
1.21255378786
0.211446978618
1.72545614343
0.000471109863202
0.00924809130446
0.0586978030988
0.197382579148
0.223831579898
0.352340595452
0.434322156367
0.466546066683
0.168873358397
0.0266368211932
0.0712471870546
0.17985841646
0.137272913471
0.790576089574
0.0715919110659
0.0698540033048
0.186888351174
0.352164002925
0.288593600021
0.267388684109
0.245875109153
0.323077972863
0.0105500919728
0.0931412961352
0.145859422541
0.143680141869
0.513577002907
0.0779458090929
0.131524789038
0.456532351069
0.108785963443
0.143377927849
0.200423656527
0.280864526934
0.243592940188
0.301638407643
0.343345789943
0.196582556119
0.439835619574
0.044923840384
0.31178639989
0.858374960487
0.274255154692
0.318526151267
0.47309469921
0.37733838528
0.351792635205
0.495669531642
0.5728062279
0.644298281411
0.507099188866
1.69859013561
0.49707209995
1.15933288483
0.599987754257
0.983318565041
1.16382828121
0.447023122958
0.715963801136
0.399820275255
0.467553187854
0.3507162666
0.471758765851
0.528407411027
0.783683367779
0.334294094454
0.406808936534
0.658554048937
0.43607945725
0.82669707342
0.276398815352
0.416604540394
0.539574547019
1.08724335126
0.781426029972
1.04086846374
1.46959612955
0.525093107691
1.99993341944
0.352275549229
1.46650423508
0.388472210438
1.28352172466
0.465931509385
1.06033190081
0.508429603281
0.176623818392
1.81157649672
0.797651548396
1.65797117746
0.349466423179
2.62439163302
0.10708536822
1.0959217331
1.02782686714
0.790184970042
0.483525272248
1.27604129247
0.16587375138
0.211868724854
0.514628052486
0.203787442049
0.0160476897028
0.136866120804
0.268262380547
0.31554659784
0.463840661916
0.46613317956
0.689980355096
0.449032694219
0.644090053562
0.713133855903
1.42736226605
0.799528822186
1.78453661125
2.04252411738
0.756141577408
2.21549710446
1.14944175014
1.71543445892
1.48759362295
0.502494335248
1.0353760905
0.263753878083
0.437626780033
0.515600541931
0.435341877726
0.362719222856
0.238785058186
0.647134048558
0.366667167933
0.643222878505
0.291067008631
0.225426680895
0.212694409861
0.183568125779
0.693668511495
0.15890329469
0.305266725895
0.225345062692
0.276285618352
0.283406613019
0.311546815991
0.249433989832
0.148482663565
0.0762281596786
0.511283929102
1.51676838434
1.07502785405
1.35922797
1.87428894643
1.50103365539
1.81905729572
1.81984993227
1.08431567039
1.66487539464
0.399823132673
2.17985612607
0.0383280527526
0.273713604666
0.882572632334
0.132367107692
0.0201184238251
0.0646740560637
0.157030388503
0.556949756333
0.270886589077
0.377206364774
0.347433736802
0.337505239761
0.307839371698
0.313654434279
0.368974606558
0.373834168926
0.375352881932
0.448833724697
0.484063309537
0.423653839268
0.523123942419
0.509736689073
0.514419514623
0.551285617266
0.495471381366
0.533093414401
0.562330875124
0.670804358724
0.562142897684
0.810662022102
0.421480035295
0.890210566737
0.490440127947
1.00142610758
0.528104533884
1.27663753133
0.530371843693
1.28697094784
0.53759866091
1.35634316279
1.33513653479
1.23357466869
1.79022775833
2.03168920286
2.55642143647
3.55453136565
0.735737014138
3.77117426139
0.11370506111
1.16879871968
0.312662692562
1.48907130157
1.21967545633
1.23879692122
0.342085188809
0.750614163372
0.425841057502
0.4506359005
0.71416334376
0.474128701921
0.597027975805
0.498426036507
0.520470321093
0.554825895363
0.488461383916
0.610248330958
0.478324593076
0.635907520739
0.485760862678
0.717121820364
0.560467258246
0.731529186112
0.689174044344
0.537093854868
0.861555050003
0.506445915024
0.868758945955
0.535408003667
0.884085818617
0.658185614001
0.983507467193
0.814362520655
0.896788429364
0.941422028828
0.839669956113
1.06253313898
0.850974386081
1.20300751827
0.895761828611
1.14384950961
0.951266205012
1.11172295028
1.02699646402
0.988220981445
1.12028971359
0.961775565109
1.15683857231
0.929539463759
1.18627851032
0.928627981671
1.19888554186
0.872730095841
1.11452989974
0.999332507586
1.06847584721
1.04807644912
0.969070517426
1.03775314225
1.008793758
0.948883162481
0.897241981997
0.942332190298
0.899974148864
0.872344276533
0.868444200018
0.70912205454
0.82934821405
0.730434684755
0.706146443944
0.518601064966
0.883653882906
0.393993671789
0.52133254906
0.689622904507
0.380629531053
0.440319011967
0.389184513443
0.427971812748
0.368135649181
0.36031192443
0.434255095056
0.322167251799
0.310039279425
0.275410401148
0.416682663182
0.283802948724
0.197777747584
0.216268550673
0.191023265272
0.337220978529
0.280380423621
0.295056001562
0.363733818392
0.345705207972
0.281836931625
0.0665721535337
0.438108033154
2.06077657324
1.50539906792
1.74245108433
1.65463844667
1.56614869918
1.74301453491
1.0100074357
1.90671922166
0.371735802147
2.06879002325
0.257187053153
1.66095384678
0.0860045489794
0.138421433951
1.18017691665
0.80809967957
1.05401752626
0.86652657622
0.854894135616
0.875790399328
0.805206204444
0.774537554382
0.212757547699
0.958639323479
0.542522643567
0.900205736257
0.448875482012
0.757601063187
0.437173850845
0.526927927358
0.51631519924
0.454296930989
0.431263479908
0.403899853694
0.334825354712
0.313583851725
0.425450565616
0.287613415375
0.254351710922
0.258442911282
0.35087450067
0.24655718309
0.308980021391
0.231720457269
0.282131410562
0.226009768295
0.224078514065
0.358858402066
0.0528137348964
0.162186976684
0.257189842085
0.217107818476
0.232062035413
0.0563615234641
0.144480466631
0.174505675769
0.0556496931719
0.172799429748
0.391213974968
0.0842599126279
0.464323856333
0.254039460734
0.228086998471
0.144682275634
0.37262338157
0.366322958717
0.374482483385
0.0223947154596
0.16915265347
0.172797534823
0.0403747204416
0.211424472895
0.102712555148
0.148632051476
0.152615052028
0.177169617831
0.263895199113
0.305354622132
0.0311401715303
0.254148440106
0.245268066256
0.825268969799
0.0751416836288
0.128243337736
0.14326276253
0.0131010513186
0.0981269791098
0.151529740169
0.191494425472
0.340158248886
0.328099912659
0.405616945239
0.00335717627735
0.0708613937514
0.414207366974
0.228521031675
0.381706825622
0.472229327735
0.347994572283
0.507609831258
0.465134287482
0.369084116105
0.729098742716
1.3432835146
0.811458516115
1.58006837641
1.2158507014
2.17994934915
2.07887100074
2.05935977489
2.17525453762
1.44531665235
2.31724384368
0.0961124598848
1.07822270406
0.00497630482268
0.0917060469457
0.415040562494
2.48241014116
0.120687702378
1.28190850846
0.930640543377
1.27975164059
0.882623087854
1.3863925153
0.812161112561
1.35381248525
0.907005643966
1.27006443806
0.885548543202
1.30571795496
0.825054737591
1.25528186141
0.845766130316
1.0865185865
0.292923873947
1.2229848826
0.526888233221
1.38583665606
0.475397882192
1.19381424769
0.484309792416
1.11663251866
0.411970249907
0.830110244754
0.45205494395
0.740622229233
0.344765155424
0.459488593742
0.442620438629
0.430911380423
0.484542274443
0.371417579507
0.522820946794
0.486786038151
0.444904398267
0.167895970604
0.301910521262
0.245847043166
0.22408683153
0.219246849666
0.417618928292
0.392529173589
0.190640893196
0.182097022038
0.12259621453
0.17715367917
0.169874864656
0.195718692197
0.188556146072
0.392899844181
0.0530757643451
0.414459344734
0.940476450861
0.0123510590065
0.0959074574128
0.145683209106
0.245504277146
0.0933147863423
0.177224850323
0.171461647407
0.217334335783
0.304028140305
0.212422966052
0.26492973981
0.238659075554
0.00638579406285
0.0369735386738
0.0207956130577
0.07428423999
0.124914975505
0.402631361354
0.652661961998
0.225425125798
0.0672469411697
0.328213993521
0.0657946694618
0.205454332465
0.159915858373
0.148907811945
0.628304717496
0.278262087755
0.533985229364
0.233217397101
1.28071883939
0.0444711565031
0.361394672101
1.17398840041
1.13861033661
1.22358697975
0.658338213818
1.46877857455
1.18952207217
0.451005025314
1.1675753042
0.181598017362
0.617997958492
0.38416556995
1.21583180876
0.0186839373709
0.142492613384
0.470017985851
0.832465277982
0.469168341533
0.723885495192
0.494002578032
0.722391109868
0.36939204892
0.491475980875
0.513254308902
0.451773460559
0.386384594514
0.402149339413
0.441306639246
0.407751194372
0.456595739638
0.379883308555
0.300661380967
0.260803184114
0.0420180623535
0.169958129344
0.0639291749144
0.311573429416
0.0910332273968
0.449947890849
0.104315848751
0.0413013206054
0.247157364253
0.395354478893
0.177008485615
0.216401927633
0.334847459036
0.172892626275
0.104927325545
0.300421051455
0.300296347768
0.280172448614
0.476501002428
0.0254463027591
0.192104321122
0.237415624099
0.287028520916
0.242355923311
0.13163465455
0.336960327044
0.181653066064
0.216308306283
0.185593656876
0.356658251853
0.125736190069
0.136845166293
0.454280281257
0.022573274983
0.184606009239
0.281309173036
0.110666841078
0.0144074876723
0.0782212276788
0.200786646243
0.221739699047
0.463950887172
0.960938933997
0.270740401871
0.24024962598
0.27528419898
0.187276408284
0.348864439913
0.275015130864
0.331869620993
1.22302422781
0.494312583375
0.50135364099
0.581869982913
0.318129148308
0.339160532209
0.207134266024
0.426367816752
0.301886869846
0.316628479107
0.349455275991
0.100737056432
0.376523874887
0.495516117762
0.026209876544
0.197153370947
0.459660201495
0.0130364925644
0.0479212106079
0.112152003134
0.0421651362001
0.30980321968
0.451343854403
0.410594029602
0.560543195627
0.290692097403
0.389841689626
0.617382483057
0.174167967607
0.340074709787
0.22354604483
0.358608836345
0.578461571376
0.230816832135
0.387041038886
0.316271554692
0.311797164996
0.54677931839
0.480533780949
0.0474802041742
0.260907793524
0.98916566661
0.0695472965779
0.501867524815
0.522227451968
0.478498661873
0.202288312174
0.620438585575
0.504041247111
0.537989644736
0.565107258346
2.33689871209
0.495730944912
3.77117426139
0.059395006972
0.428834207238
1.05675081311
0.345574293138
0.588567339559
0.141855961846
0.36192511555
0.264753136261
0.623381003381
0.0276833373397
0.145556907939
0.117927434765
0.301628948119
0.199278831142
0.424745013065
0.0390342234006
0.245647065623
0.2491766643
0.293498896474
0.0237000673476
0.0854746958503
logs/alpha_1.7/PGSD_600steps_2.log 588.865559158 0.588865559158 0.417150795737 3.77117426139 0.000471109863202 -1
