Initial Policy Parameters:	0.0 0.0
Learning Rate:			1.7
Learning Steps:			100
Start Time:			1437181305.6644514

-- LEARNING STOPPED --

Stop Time:			1437181320.4485755
Duration:			14.78412413597107
Final Policy Parameters:	0.087394420285 0.852810229081
