Policy Parameters:	-0.551017199313 0.85166523601
Control Steps:		1000
Start Time:		1438468917.6510768

-- TESTING STOPPED --

Stop Time:		1438469009.2211552
Duration:		91.57007837295532
Cost Matrix:
0.0328755462946
0.0421903527214
0.0301748359757
0.0103791925883
0.034076840435
0.0418250782399
0.0647795964697
0.0447176030695
0.0176653797312
0.027794868293
0.0725554072109
0.0876246330228
0.0735741563362
0.049302979235
0.0415741013673
0.0386501661927
0.0665380631867
0.0516104468864
0.066244878097
0.0845991959385
0.100649533714
0.155148318822
0.223241381574
0.212725580471
0.163985549061
0.189705744901
0.211701492978
0.256681447861
0.319378756978
0.346911197988
0.358226133626
0.400144607488
0.457905955422
0.520876515042
0.571916861338
0.626866732768
0.581720193732
0.582068522512
0.630970453042
0.625501537697
0.692872067883
0.703465245035
0.584605104169
0.580567037343
0.641198667811
0.682595401455
0.586593739096
0.467588825388
0.341795860781
0.201102926181
0.119485846318
0.0562744334518
0.0268548476138
0.0281552426789
0.0330118936312
0.0245539230395
0.0185142513766
0.0228647412526
0.0202364874298
0.0418722149937
0.0389553322357
0.0350842249037
0.0353764461655
0.0352680588675
0.0294465273528
0.034082008215
0.0408701724427
0.0389420211537
0.0258839658196
0.0273693881057
0.00902087119649
0.00900287818567
0.0620850207109
0.024294652692
0.0152626740643
0.0668332557856
0.0755653354362
0.109994783995
0.0949571491412
0.0286662331452
0.0364933116324
0.0652926680162
0.112966505758
0.182949052579
0.204115252042
0.189317128407
0.185953979631
0.217745594401
0.246186921113
0.234027990801
0.226817808376
0.230402001144
0.261362449526
0.287921758352
0.266769432536
0.240958277915
0.237623109847
0.230458590805
0.225212809805
0.251368793276
0.282074504617
0.251402823632
0.201668808684
0.236476780007
0.265706095217
0.239054960673
0.219430583071
0.183206205147
0.132682420208
0.0827528776322
0.200297514189
0.174961153049
0.0431392816409
0.0271790466687
0.0604265211473
0.0655715270789
0.0368747708447
0.0422697090246
0.0663890637186
0.0569904933741
0.062910828844
0.0572594501847
0.0492973511593
0.0404772932907
0.0370695910004
0.0440740895477
0.0297659618182
0.0152422602504
0.0257309318458
0.0377199092872
0.111388817309
0.0922440499068
0.0425837396236
0.0681810368918
0.0512375933339
0.0357750382648
0.0501510810329
0.0734742855545
0.0653167230243
0.0325114201939
0.0148755440711
0.0276508546828
0.0407693052631
0.0267584876923
0.0155408774173
0.0361657833937
0.0365872783627
0.0398199748227
0.0485070062518
0.10149016293
0.0972288411294
0.0815384285998
0.110561810586
0.0946089606756
0.0908154912052
0.106883109464
0.103168414758
0.11292549234
0.142259699752
0.148029407011
0.15796321375
0.156499019284
0.16357524259
0.176788699849
0.187418157201
0.200504719197
0.211738787956
0.202165616597
0.203353616407
0.200683964887
0.202789839285
0.239333745186
0.24873216239
0.245247445017
0.236963040232
0.240271647712
0.233215427182
0.212547254715
0.166087723712
0.135240895445
0.112422017211
0.174227003257
0.16697829922
0.11145154812
0.11063279804
0.135429520804
0.101114294248
0.037270850487
0.0179481157099
0.0291106445035
0.079357723042
0.0717336842723
0.0939379015399
0.0876371913708
0.100912013248
0.0967969074533
0.0788724330802
0.0620811295487
0.0250119249687
0.0238085172009
0.0234132551255
0.0361218031316
0.0380586185319
0.0437337651469
0.0246150763884
0.0116084206921
0.0262092525728
0.00906424179892
0.0182139949165
0.0596381265227
0.0558131263124
0.00826670450983
0.0274039959077
0.0287066084301
0.0708410554931
0.039717433896
0.0154583029522
0.0251550986777
0.00741531251327
0.0206216009434
0.0481993014812
0.0612665496321
0.0506567846424
0.102251829082
0.0746454451546
0.0517119074372
0.0748657198344
0.0719083658041
0.1216802164
0.107182879322
0.129263699667
0.130955372168
0.148845832869
0.155581209126
0.234822082827
0.251297756669
0.26656579651
0.268244438613
0.307507478103
0.331841864931
0.366652420484
0.421151115949
0.44532511731
0.462168300159
0.512618572201
0.590969120645
0.577546259622
0.594047209364
0.654503009534
0.724452099425
0.581152203847
0.479473394153
0.57295022585
0.681360620926
0.530493257181
0.627223242184
0.506401543685
0.461388641346
0.386884825072
0.362449060377
0.391567304395
0.219055853702
0.0832141963142
0.0489998260418
0.0420994050515
0.0283583497904
0.00673134766597
0.0281805896917
0.0257340319708
0.0276247452103
0.0192274895172
0.0471947827459
0.0566995417018
0.0374181464577
0.0415817098153
0.0757865064396
0.113860961642
0.174178350064
0.212686039607
0.258647240856
0.27658635403
0.260588507023
0.248637427273
0.26218680291
0.280542716852
0.313745428945
0.32280221632
0.339279167758
0.357651591355
0.352886990439
0.340132785122
0.355877037697
0.351915986097
0.34386622885
0.3115979144
0.269626365292
0.277395432661
0.27189531592
0.290255270388
0.265018754212
0.203505312179
0.169122669351
0.119314863366
0.0830206779816
0.0704213725296
0.0524397181457
0.0368273633672
0.0143115313999
0.0284265340645
0.0161859809892
0.0122525449653
0.00461409621671
0.0156620473002
0.0195216046224
0.00967752896153
0.0510759146531
0.0451092247693
0.0250216716009
0.0418649386169
0.0357512740851
0.0339814389824
0.011136837152
0.0169864737531
0.0211280391107
0.0131735254484
0.0279868416746
0.026564017982
0.00314418968789
0.00861373377921
0.0476007160456
0.0584334160477
0.0715391154828
0.0625539354635
0.0504908044488
0.0502872097621
0.0349221899937
0.0329443007785
0.032031296242
0.0141247770576
0.042973436107
0.0527492293211
0.073042439931
0.0652893144121
0.0753752169746
0.098629014085
0.123977051486
0.143590689688
0.148922696006
0.158016816374
0.181813974874
0.166593029124
0.160877057611
0.187714517705
0.19672878552
0.201551658346
0.200141296278
0.229373851842
0.231026350214
0.223628415341
0.244151356717
0.218145220574
0.203864097518
0.222107481388
0.20234967441
0.173425572538
0.191731336524
0.174854723539
0.199450083035
0.209631673618
0.175584573844
0.161314353725
0.144240844294
0.114774570787
0.107189849162
0.0872648161071
0.0416937159036
0.00899102373051
0.0190461887811
0.0539812171912
0.0324591939644
0.0156204894317
0.0245437700073
0.0376190376864
0.040921994462
0.0483693589909
0.0567363123578
0.045027660743
0.00804913110291
0.0165611740609
0.00492194713529
0.0267706988705
0.0411026868525
0.00853840456319
0.048205800737
0.0496513186698
0.0217137139459
0.0608169596108
0.0405113257701
0.0130826580061
0.0138779712442
0.0198979333061
0.0487523214423
0.0248607042055
0.0977956452847
0.0632745819855
0.0418262464385
0.0798931007007
0.0700862205055
0.0800486360835
0.0669700451766
0.105775002746
0.135255395409
0.154276592512
0.130013335729
0.171149826001
0.203341913036
0.204413189083
0.213196465732
0.216653611946
0.225878171664
0.234670482516
0.247017847304
0.26151088744
0.263519738317
0.286496933522
0.295319977155
0.333245740566
0.364538121112
0.331245313719
0.314061276573
0.315916178426
0.318128698859
0.334412250757
0.33352256289
0.322145637889
0.28352802151
0.26492700075
0.250028904005
0.217134021574
0.253289956178
0.208057522532
0.159427255855
0.106030212222
0.0541368842227
0.0788219110758
0.0645755459568
0.0443216942267
0.0509810026716
0.0384257752964
0.0265173590779
0.0321302967229
0.0275737507591
0.012186486686
0.0310603249951
0.0459260036545
0.0583597928628
0.0640461524202
0.0563923952483
0.0677702298503
0.0809914039431
0.0834127552441
0.0589659639939
0.0813774412048
0.100823137229
0.078681049643
0.105097825966
0.15354339608
0.180770442976
0.151409764194
0.144536091936
0.163516485472
0.154071411704
0.148005048857
0.166218142093
0.178319325457
0.195329277979
0.199342315032
0.215706158907
0.229917484195
0.240465890015
0.249900097853
0.239491312256
0.233176111631
0.225301131167
0.183417701999
0.159212013984
0.162200664433
0.149246809477
0.131134787565
0.120595916537
0.121033940461
0.100699849074
0.100617474647
0.0807375438116
0.0434598373558
0.0307234156618
0.0499592812272
0.080600049544
0.0897571178478
0.0706839246719
0.0609929312432
0.0598870834734
0.0307170019884
0.0312669651121
0.0439845118383
0.0455967368559
0.0253927930434
0.00734228169103
0.0178103110374
0.0198597720272
0.0112353264766
0.021434742969
0.0226368901056
0.0192238087585
0.024191903588
0.0236427647359
0.0204129875249
0.0247774521168
0.024520675256
0.0178333377387
0.0167175823923
0.0166421962842
0.013290656141
0.0217708701814
0.0255888553314
0.0238272500244
0.028379911065
0.0271850823176
0.0193074788559
0.0298026773156
0.0313046375802
0.0259120797914
0.0296671264933
0.0305530315696
0.0257088181564
0.0186706090555
0.0195110140296
0.0175057047812
0.0114589064419
0.0172711351338
0.0175610116262
0.0244415007545
0.0286802215048
0.0275969924766
0.031801445973
0.0281432557799
0.0250569981693
0.0364113736848
0.0356033763185
0.0382260802399
0.0420798370554
0.0429929692984
0.0378269895587
0.0366187536644
0.0397842838509
0.0391636508348
0.0401820646886
0.0426716232925
0.04422580442
0.042199007091
0.0435829119091
0.0508883219907
0.0618975555913
0.0616856349526
0.0503437460105
0.0403046353719
0.0408981137465
0.0329647368198
0.0303329774411
0.0413797458586
0.0549891372551
0.0563790053607
0.0670260517553
0.0834343999344
0.0834452422237
0.0686598281139
0.0642207445049
0.0610474964832
0.0505718691118
0.0570977318098
0.0720060962487
0.075041397942
0.0695058443118
0.0689058068703
0.0784201168987
0.0891858514107
0.0843487386899
0.0818626340105
0.0804329682174
0.0907362186347
0.103019163833
0.10526173104
0.0992848356176
0.0923678215171
0.0965125673197
0.100517121294
0.114859011347
0.11582756553
0.120420552895
0.131207194033
0.132418800276
0.135361012105
0.141795435976
0.148417756681
0.15803280118
0.164117578644
0.171964744696
0.189132933746
0.198280845526
0.20920872082
0.22538222076
0.241845534198
0.261207543068
0.26189958798
0.280713441932
0.340642748218
0.383026342764
0.39297263679
0.456502159866
0.544941110531
0.610762066455
0.675351783134
0.713564194957
0.780663665761
1.03134400002
1.28840962546
0.921005894918
0.0998750742641
0.0162186825674
0.0925355461521
0.104084463734
0.485812124367
0.678611828975
0.768679894078
1.49886235924
0.861969630002
0.136223534331
0.143852996331
0.072110235176
0.00366729863455
1000000.0
0.0
0.0
0.0
0.0
0.0
0.0
0.0
0.0
0.0
0.0
0.0
0.0
0.0
0.0
0.0
0.0
0.0
0.0
0.0
0.0
0.0
0.0
0.0
0.0
0.0
0.0
0.0
0.0
0.0
0.0
0.0
0.0
0.0
0.0
0.0
0.0
0.0
0.0
0.0
0.0
0.0
0.0
0.0
0.0
0.0
0.0
0.0
0.0
0.0
0.0
0.0
0.0
0.0
0.0
0.0
0.0
0.0
0.0
0.0
0.0
0.0
0.0
0.0
0.0
0.0
0.0
0.0
0.0
0.0
0.0
0.0
0.0
0.0
0.0
0.0
0.0
0.0
0.0
0.0
0.0
0.0
0.0
0.0
0.0
0.0
0.0
0.0
0.0
0.0
0.0
0.0
0.0
0.0
0.0
0.0
0.0
0.0
0.0
0.0
0.0
0.0
0.0
0.0
0.0
0.0
0.0
0.0
0.0
0.0
0.0
0.0
0.0
0.0
0.0
0.0
0.0
0.0
0.0
0.0
0.0
0.0
0.0
0.0
0.0
0.0
0.0
0.0
0.0
0.0
0.0
0.0
0.0
0.0
0.0
0.0
0.0
0.0
0.0
0.0
0.0
0.0
0.0
0.0
0.0
0.0
0.0
0.0
0.0
0.0
0.0
0.0
0.0
0.0
0.0
0.0
0.0
0.0
0.0
0.0
0.0
0.0
0.0
0.0
0.0
0.0
0.0
0.0
0.0
0.0
0.0
0.0
0.0
0.0
0.0
0.0
0.0
0.0
0.0
0.0
0.0
0.0
0.0
0.0
0.0
0.0
0.0
0.0
0.0
0.0
0.0
0.0
0.0
0.0
0.0
0.0
0.0
0.0
0.0
0.0
0.0
0.0
0.0
0.0
0.0
0.0
0.0
0.0
0.0
0.0
0.0
0.0
0.0
0.0
0.0
0.0
0.0
0.0
0.0
0.0
0.0
0.0
0.0
0.0
0.0
0.0
0.0
0.0
0.0
0.0
0.0
0.0
0.0
0.0
0.0
0.0
0.0
0.0
0.0
0.0
0.0
0.0
0.0
0.0
0.0
0.0
0.0
0.0
0.0
0.0
0.0
0.0
0.0
0.0
0.0
0.0
0.0
0.0
0.0
0.0
0.0
0.0
0.0
0.0
0.0
0.0
0.0
0.0
0.0
0.0
0.0
0.0
0.0
0.0
0.0
0.0
0.0
0.0
0.0
0.0
0.0
0.0
0.0
0.0
0.0
0.0
0.0
0.0
0.0
0.0
0.0
0.0
0.0
0.0
0.0
0.0
0.0
0.0
0.0
0.0
0.0
0.0
0.0
0.0
0.0
0.0
0.0
0.0
0.0
0.0
0.0
0.0
0.0
0.0
0.0
0.0
0.0
0.0
0.0
0.0
0.0
0.0
0.0
0.0
0.0
0.0
0.0
0.0
0.0
0.0
0.0
0.0
0.0
0.0
0.0
0.0
0.0
0.0
0.0
0.0
0.0
0.0
0.0
0.0
0.0
0.0
0.0
0.0
0.0
0.0
0.0
0.0
0.0
0.0
0.0
0.0
0.0
0.0
0.0
0.0
logs/alpha_1.7/PGSD_300steps_3.log 1000096.69145 1000.09669145 0.0340291397087 1000000.0 0.0 640
