Policy Parameters:	-2.98372392919 3.26802659481
Control Steps:		1000
Start Time:		1438474784.4269912

-- TESTING STOPPED --

Stop Time:		1438474954.3439844
Duration:		169.91699314117432
Cost Matrix:
0.00118665640511
0.0338586657286
0.151242715881
0.299619304966
0.261727679257
0.278910417382
0.302528940301
0.388973535876
0.376182261963
0.494348656373
0.378356763388
0.562158669451
0.675913248359
0.53106715377
0.849598208807
0.474757648221
1.12393013061
0.429820166969
0.698071067001
0.448584934101
0.524113055067
0.441846365845
0.34812671732
0.113081176129
0.131656841534
0.180451639217
0.199281151274
0.266922237571
0.0
0.0460545693786
0.158381304512
0.0188320752214
0.0611964144506
0.0721814079665
0.209773531762
0.050803323245
0.072705994809
0.201679440904
0.209872012614
0.0997677684099
0.184720097122
0.217508259552
0.130218751866
0.19694895908
0.199751497714
0.170504527955
0.252962596548
0.323383018175
0.305639068468
0.234155825318
0.269117018692
0.25055656488
0.399003897055
0.38333206141
0.389835550102
0.460865147943
0.442736164686
0.502460492651
0.408477907639
0.39179310716
0.405756617246
0.42053639506
0.435245746565
0.359622181831
0.404141440371
0.396810961032
0.265455626026
0.211096246206
0.292958959989
0.282272419218
0.141598962506
0.114032042258
0.103983483602
0.102406712073
0.0648321843526
0.130493703934
0.180828543707
0.171776897431
0.131049188492
0.15804393416
0.189181106438
0.124503438161
0.0977461995235
0.149776180085
0.0786432051846
0.142329763848
0.0621685122403
0.144811429271
0.121485400485
0.116233952151
0.208451757451
0.323248562441
0.219649950285
0.142860223275
0.194274403597
0.125027976587
0.0438673696134
0.190549570267
0.363714173576
0.483265470729
0.517075517899
0.866282694016
0.631055379909
0.898604539285
0.522405188429
0.855583541306
0.597775014708
0.47493102123
0.507705556462
0.449763661031
0.385997906992
0.330615989987
0.24320145921
0.281052345173
0.0703453605683
0.0672179367137
0.121839522885
0.100314078458
0.0630365195747
0.157693971913
0.26162643283
0.0500933585076
0.173321799244
0.0146029637162
0.0466642621591
0.0503764857437
0.0557323280267
0.0677761730611
0.0720447036533
0.151102069301
0.156098126698
0.0718613534627
0.141537472772
0.0
0.0224477887225
0.00741303746403
0.00622039341174
0.0420610161019
0.154242879193
0.200406081067
0.156440236762
0.276876166778
0.0834896318052
0.134182280192
0.101891847275
0.0568905262262
0.0266534059213
0.096365654224
0.243268177967
0.244013662515
0.200653502761
0.305981631874
0.297445910216
0.323788243873
0.300998184795
0.49653380015
0.533970068617
0.968208474405
0.911219375241
0.922530782211
1.1277053115
1.04780634554
1.07415366603
1.128365271
0.723572782568
0.976583428902
0.938797352754
0.769517430978
0.401898644349
0.470935683836
0.409367292122
0.292107837117
0.211690007881
0.203437544405
0.0988722221153
0.123232071656
0.0601691834477
0.0323136279895
0.100429714781
0.241443142474
0.313255291722
0.394151003935
0.444938809562
0.503973148526
0.719200216659
0.78487514452
0.721379672559
0.82536154933
0.908971376828
0.965707329363
0.938737015084
0.846673540269
0.587315628741
1.2318399318
0.372901018201
0.853939143995
0.476084763877
0.443078898369
0.227820587216
0.237192752457
0.0411246210338
0.151461567304
0.200798014272
0.309005075829
0.288544998329
0.330741872066
0.182701369587
0.101881654993
0.189842299054
0.159872858319
0.136152282351
0.162155165714
0.174159497222
0.21257538959
0.112382687299
0.162909226099
0.0754493027354
0.0625310710823
0.00802638202132
0.0289331442956
0.0192637525785
0.0219135641637
0.0149941341546
0.0110952401077
0.0320474915524
0.0459881610056
0.0819412383846
0.0924139819808
0.00766560130885
0.0341430284424
0.0792821388542
0.0596358681055
0.048744420336
0.029185410251
0.101913649951
0.0583086181756
0.0572376271427
0.150760726398
0.291094728946
0.0978489308595
0.212950281911
0.027250415266
0.0811257379942
0.0468882451353
0.0934119004215
0.227760645477
0.249242712568
0.130022887212
0.23994051099
0.133354469933
0.294104144797
0.252813831596
0.282581802172
0.226078580578
0.43151206384
0.197937817205
0.0783113416103
0.240698348312
0.296879933384
0.376939081236
0.324902009275
0.287219148305
0.218090659155
0.34139261962
0.48098790785
0.457734491049
0.450704340536
0.970699668957
1.52165992579
1.44780648326
1.97295543656
1.776446047
1.3768110198
2.0408812036
1.26101469235
2.03405338994
0.714168968305
1.61733624706
1.54140897165
0.101978498137
0.322368018446
0.303783821726
0.169195517661
0.109898740743
0.239567224951
0.296628804923
0.3612732138
0.211849496115
0.306175057211
0.329508171673
0.309849818084
0.355642787579
0.373574400278
0.4360925874
0.43272185974
0.298850697311
0.255889637108
0.360370061203
0.369345931478
0.226618380049
0.331864204734
0.302318365206
0.191937174377
0.230560109615
0.280741355319
0.0838575219034
0.225943024943
0.0
0.058994565223
0.181925739125
0.143795128402
0.190497802544
0.229409646108
0.150566296915
0.0893860781969
0.162318519465
0.0710759952365
0.0785093051181
0.201345243601
0.268056353305
0.23712818186
0.18354631912
0.0633667683362
0.162779418775
0.1625019873
0.219734510634
0.182992373926
0.200278512701
0.246154518026
0.166381836674
0.206263547842
0.116254154368
0.298735319983
0.122016827611
0.0839553097519
0.0953589644328
0.117609461165
0.164310672953
0.340430895845
0.171715401349
0.220204584392
0.193775324693
0.230996186237
0.112380811099
0.187835737166
0.183984595759
0.300661492672
0.343478643639
0.354506277578
0.418493365999
0.570030372056
1.0734038763
1.31843714202
1.54820975561
1.61707226086
1.4076205269
1.88535269856
2.08998714924
1.19222185607
1.9418647389
1.77667091251
0.394942045992
1.54565235126
0.229031104227
0.496166114403
0.298525710788
0.147082047512
0.168968692147
0.235695033562
0.0981325542657
0.124257813257
0.313088173527
0.264411132992
0.17228430016
0.234271547838
0.212925085172
0.180974556166
0.0675797964281
0.0676892697157
0.106139393349
0.102216218643
0.0213258444054
0.0862386780964
0.129737117528
0.0769893889394
0.0372311181953
0.0687947358726
0.0114281781753
0.0499881078528
0.110564983279
0.0987821178407
0.0981858675083
0.19219606015
0.217396502986
0.194077401685
0.158691867354
0.229439339631
0.331946382832
0.10021503953
0.206939829699
0.329057547936
0.327510612297
0.243085071781
0.299406857199
0.488735678095
0.49755793655
0.411984222244
0.472197053189
0.495784650879
0.46478304925
0.320570463098
0.349901401226
0.338874775832
0.458433340291
0.475699501647
0.323607509125
0.28967092004
0.12607288724
0.107605146267
0.102215346016
0.166717872208
0.152418502362
0.3115634828
0.174440451162
0.130616303899
0.162625950046
0.289075602724
0.218048282645
0.172059643561
0.196311393654
0.127514961192
0.0495179285147
0.0771867354758
0.0566468234282
0.102909986217
0.225968888876
0.0818754797019
0.204621112245
0.265021942868
0.15296203209
0.202951634607
0.179363351378
0.121471990738
0.103937563092
0.104105550324
0.0955673175214
0.165490575766
0.397536078764
0.0608302521595
0.149843495455
0.15051292298
0.0566715619507
0.0935319678821
0.0679456946722
0.13524775713
0.168941940344
0.126412453965
0.0823540236725
0.0505550912643
0.0664529719663
0.0737932083144
0.0925621317802
0.14999767741
0.224003515434
0.188424556526
0.232306417538
0.301994608667
0.264643696476
0.307262385887
0.361381987427
0.506487476485
1.05864110206
1.03504570281
1.36709819534
1.37892457514
1.58644998268
1.59790124999
1.46197055985
1.33539724575
1.21470352808
1.34336323598
1.10496482777
1.2935663559
0.622624007331
0.533076922703
0.999306672817
0.0266947986692
0.0419038614258
0.0899901642841
0.0250801754037
0.0246573348657
0.103684097367
0.177704898625
0.279567963205
0.199603525533
0.188158746607
0.120157159362
0.0613164715644
0.195115685737
0.323178370614
0.144508424416
0.295670274342
0.15302960358
0.313301263911
0.226325490606
0.140476083069
0.214641909863
0.307846679712
0.295319811604
0.378264783508
0.350492592172
0.367233931675
0.425446574501
0.397847054977
0.362137241331
0.544735595192
1.27895795259
1.00635098792
1.41007467634
1.342593905
1.45562530249
1.46082383339
1.05681120782
1.74450024268
1.45086367224
1.31881211288
1.21151000489
0.54517688786
0.81101266134
0.101699867581
0.193699785573
0.222364110167
0.172919929704
0.293116613211
0.204406253201
0.103570338097
0.229499486293
0.303405881695
0.203728452313
0.200530631305
0.168330890091
0.0620827812598
0.217008316714
0.440686292574
0.635367384914
0.530307275563
0.55951823046
0.620871237444
0.527772519949
0.435302317625
0.730088182296
0.264233901443
0.379937849289
0.18582219158
0.297832525202
0.17369509786
0.00838589845547
0.0411070974517
0.149237280969
0.24166626552
0.193488257298
0.235148918179
0.194453019951
0.16007777966
0.194690690619
0.195233005323
0.173959030713
0.201961813089
0.192417560747
0.200793039597
0.196450548306
0.187087553763
0.218461119874
0.204931722281
0.209995726233
0.242237772026
0.231261874314
0.2048906739
0.227709353729
0.266490978371
0.236080434005
0.246575926651
0.243570890055
0.246413827459
0.237761606879
0.258379299306
0.256534266499
0.255956510924
0.255525939064
0.313109769936
0.236609046854
0.363958341056
0.37599602221
0.382297260426
0.393108705008
0.410915555345
0.433497381019
0.517794145934
0.890336369862
0.78830820991
1.15390088789
1.4768817251
1.84989319111
0.744440347562
2.44215457575
1.55200023234
3.25753087105
0.108161189542
0.422527543182
0.943115660655
0.503396723553
1.4702873424
0.583563865019
0.776405902663
1.5318453603
0.108521914994
0.313377479418
0.311550039877
0.344819302681
0.206040920275
0.249586514337
0.302000832527
0.477090865624
0.438564601661
0.448296156396
0.453309525853
0.426716528955
0.44653655556
0.289750407508
0.395793652865
0.377915842141
0.344041345033
0.347356292207
0.247869986921
0.194828134381
0.136401244437
0.0828230695905
0.0916514698031
0.175416582882
0.11329227496
0.167498886633
0.251541628578
0.293968254659
0.255027753659
0.283978918384
0.409837609082
0.250645336359
0.445830192976
0.937321580212
0.552498459152
0.774558332047
0.590662186839
1.12745629502
0.461002514842
0.745061201193
0.483261341899
0.571651401594
0.940364244894
0.418433573842
0.447396623285
0.237190246661
0.142846426371
0.0414794109936
0.00782081724831
0.0392837237314
0.14574079848
0.222874113065
0.234393049145
0.25546328205
0.243427330197
0.158129543793
0.220161035481
0.123572781329
0.233029237211
0.196861838084
0.165835975023
0.163017809244
0.0982475426337
0.0252645674844
0.101076187749
0.182933069723
0.182772144562
0.164488753461
0.110685432141
0.118324276936
0.0942470975324
0.0835263317617
0.0678659617871
0.0792811912381
0.0774029445028
0.129038827648
0.138694741778
0.150779866463
0.14768054624
0.112011177582
0.153350794453
0.159636633793
0.144846496892
0.150710049691
0.136491662336
0.21367173062
0.222946926615
0.175157679964
0.173314470167
0.172134209924
0.16837623316
0.188845721258
0.188833208994
0.197239293128
0.190535989413
0.200455866364
0.201378897114
0.190506830268
0.184908046461
0.221414441319
0.226282410436
0.219380854509
0.259653732098
0.305097418734
0.279629247028
0.200251696055
0.289047036539
0.15810096919
0.188990118824
0.339277107239
0.34087086441
0.258416324589
0.312383658344
0.276609466289
0.32534144117
0.459060938058
0.450211992021
0.516957804242
0.917222835059
0.9248229967
1.35436928233
1.78770188696
1.59474228221
1.68676561331
1.68321177854
1.66060252
1.48639415705
1.50825246188
1.45592095571
1.27441729857
0.549141534204
0.297838991317
0.290594021073
0.304154874361
0.305322756707
0.28780322558
0.286951024274
0.288217193455
0.280950760721
0.312116239404
0.314868177828
0.319773531894
0.288199924318
0.274089953841
0.308963652201
0.326168002224
0.315613543052
0.283508175523
0.279041296194
0.297727710962
0.29122240817
0.294545349172
0.293881378633
0.28553019495
0.284888830308
0.279325715625
0.291290086461
0.319517476217
0.291223981292
0.302291606833
0.31183962817
0.312184694943
0.279490177394
0.267097907222
0.28286694523
0.283524215224
0.253152947428
0.251285749414
0.260054297909
0.277023768294
0.280638665639
0.255330205897
0.254844498935
0.283536554708
0.279728418108
0.248144966494
0.241835629323
0.18890914405
0.188324217881
0.203896890754
0.185460929188
0.092757802726
0.0444185019196
0.069282767433
0.198520923118
0.241365176737
0.17065734213
0.190220040129
0.197085383871
0.266024229681
0.170597789973
0.292459397281
0.226742309088
0.157900430884
0.0820065212723
0.0833646152374
0.051573784155
0.18159152266
0.214483375083
0.240925650638
0.232228058315
0.234420304837
0.237694777956
0.203849226053
0.20352670365
0.213797399805
0.250217782769
0.206836302116
0.188598055646
0.187128605225
0.252416253697
0.239389247916
0.167984520709
0.177834962845
0.203756195662
0.209791489628
0.189546411022
0.157118596543
0.16737686185
0.147811439914
0.193087647243
0.173006585308
0.166818036754
0.194478742987
0.169948330189
0.146901319513
0.177231774121
0.122990782292
0.121449419284
0.125742882514
0.172127991211
0.152867031349
0.173350716267
0.174602351464
0.116495873732
0.104072220086
0.0479031289269
0.0376172732263
0.0267518148966
0.0440415358078
0.123604713966
0.12457705013
0.101094093776
0.135845843326
0.0170089316053
0.0633359450893
0.128036813795
0.133550019221
0.211257077897
0.224011792967
0.229157046001
0.297086146145
0.276639386901
0.223486399467
0.278118509167
0.341097176263
0.359280872696
0.447484672691
0.811827261429
1.48065771816
1.90241385564
1.81846948818
1.93880424772
1.79537153068
2.02598573497
1.77348944408
1.78137301144
1.84794981283
1.63036397293
1.49766046565
0.0121573639163
0.0353180282007
0.084992956076
0.224580100812
0.0740932707876
0.177537901343
0.158792972432
0.174249385864
0.241700330892
0.166392021765
0.242644207748
0.0438543448881
0.0325277698358
0.0425851240051
0.0858030733025
0.0815544682014
0.15481305881
0.164369397984
0.0719265112614
0.190175090957
0.115670730251
0.24361364285
0.304050177342
0.248518592393
0.156039499363
0.355590551995
0.343998163218
0.269323179556
0.495508157771
0.603624762126
1.28188880685
0.837253402326
1.17387614521
0.881021104248
1.05100801969
0.977675801388
0.765261169039
1.05720048917
0.65988684703
0.91014486594
0.313147868177
0.0893603240228
0.0175803489446
0.0653636791055
0.0620920958066
0.160612971389
0.164205131521
0.00943632566456
0.0414358784059
0.020661250732
0.0316399350287
0.0420032396097
0.0227285361876
0.0696253454224
0.0932624944781
0.084603823746
0.083288591652
0.122140999431
0.0083833992995
0.0321243850488
0.0893517369909
0.203344593117
0.224955956091
0.119543427266
0.0951963022246
0.0636028030203
0.0871497247311
0.198857044685
0.218228802083
0.308679592645
0.197271277574
0.31871210248
0.248688338474
0.384330871842
0.355824874839
0.325917724206
0.429166454813
0.283576777224
0.273608253686
0.405570879566
0.357805685566
0.234686152405
0.206765304549
0.355323470906
0.443500982838
0.51731503032
0.364244135489
0.318847644802
0.252696543798
0.0423141461576
0.0660956355775
0.117906088347
0.0286658163839
0.0856347090949
0.0323722769153
0.0298109833029
0.0628296729168
0.0930824771711
0.137953500779
0.109115477583
0.183695152589
0.156806998061
0.177793503261
0.123525865709
0.0842695331954
0.0705608239289
0.0944321290451
0.189554983406
0.20464062686
0.173181932806
0.1349123805
0.114380973993
0.141424174961
0.28011902324
0.279520104732
logs/alpha_1.7/PGSD_600steps_1.log 356.565805688 0.356565805688 0.226303950521 3.25753087105 0.0 -1
