Policy Parameters:	-3.87175848484 2.85236333463
Control Steps:		1000
Start Time:		1438481673.0356698

-- TESTING STOPPED --

Stop Time:		1438481848.7782776
Duration:		175.74260783195496
Cost Matrix:
0.287131050642
0.406452431485
0.611348938545
0.6228768466
0.296792014405
0.353351276214
0.525073058776
1.13118563338
0.645189312147
1.32479115634
0.798044923916
1.29356896601
0.718119911213
1.17608814593
0.506590991715
0.733457716775
0.44808698841
0.436667837871
0.0128135582624
0.0399214065218
0.0661084080992
0.136461902684
0.118629239957
0.16933821154
0.171737827536
0.187770498222
0.224059121394
0.163776835967
0.220686236329
0.132711309257
0.0792386681587
0.0236767152657
0.0318032687203
0.0644037522601
0.140785554495
0.269308918604
0.161907920737
0.129439893052
0.102307415902
0.19546069239
0.141857136413
0.083907795007
0.135258826808
0.10495467153
0.06874805293
0.0600961527312
0.0593485930434
0.101074502639
0.217133902364
0.238930224849
0.44456513253
0.464704955602
0.830361315683
1.39156547198
2.22736453938
1.69159581645
1.85714363058
1.90730515211
2.05595099994
1.75520860788
1.85767021776
2.20352687667
1.49845595783
1.76046495021
0.1052695249
0.187045923364
0.183720110351
0.0236008722633
0.0404366782106
0.128982708616
0.342039768729
0.345503954848
0.143453553391
0.235575846159
0.124622940382
0.0109791314617
0.0837636876499
0.245538156822
0.280819012492
0.139335927446
0.215432918951
0.124782737202
0.275306298722
0.351370780692
0.393451309649
0.320109418527
0.328756908759
0.366431152882
0.524230392689
0.350340696856
0.273215831952
0.376639570313
0.312871063361
0.339576292174
0.342657811817
0.350524732047
0.338399500153
0.341949548992
0.287269557349
0.0668203984516
0.168947738477
0.122956311679
0.241305183574
0.111777128054
0.0847062725526
0.0308634209319
0.1427039026
0.351377102406
0.292448669005
0.237391560396
0.325382778482
0.435756236682
0.552666140155
1.10235216551
1.16543273118
1.64902378116
1.41392598351
1.52631890755
1.50943001191
1.55548183624
1.5719652565
0.97879948879
1.60785395453
0.786779957458
0.876004377719
0.7119328963
0.12566674195
0.257266291346
0.329586698289
0.365523875173
0.328684209466
0.332073572715
0.0919555415393
0.175315735131
0.039315287801
0.0975706392701
0.0178018026994
0.0692402679473
0.0467712153264
0.183477704112
0.193456000284
0.019321651509
0.0576818298271
0.159238936066
0.0735978412765
0.0456852995588
0.138564377106
0.0299417075342
0.061913919576
0.0423534611977
0.117980128348
0.104643624159
0.117979230911
0.0989013502022
0.178876487904
0.1073150867
0.0754750138488
0.193198883439
0.262071031765
0.233382145044
0.185513085829
0.350911693603
0.378118575656
0.396245480112
0.467695824815
0.564900336437
0.98551352479
1.00141189813
1.22990839618
1.38858872004
1.38762896003
1.21069233175
1.64322136865
1.07169422496
1.33897578791
0.936929264734
1.33897462416
0.751285685535
0.881179968765
0.452745443937
0.0943778053513
0.0274020965413
0.0812298724876
0.0527912917122
0.103010413227
0.0938739538831
0.0309677898512
0.086103817483
0.0858179607632
0.0431564526539
0.0462133352652
0.102025765455
0.129941146728
0.217005249726
0.256191262785
0.254619121445
0.287997619932
0.123022737297
0.163841248975
0.442271816557
0.320100035096
0.21132394798
0.205874412903
0.379012417101
0.358683553616
0.383923730166
0.383054888534
0.502543009583
0.397806420582
0.223099960488
0.325463386784
0.387629424061
0.361505280289
0.209798348467
0.266444756298
0.359009831005
0.267134298352
0.0556840541304
0.0955377273416
0.0978484553411
0.0501493280345
0.119359531483
0.0619782844394
0.102053716464
0.187488285395
0.258311008455
0.182710051346
0.278303175296
0.224425608948
0.159981153718
0.281635786403
0.315450608571
0.382128692452
0.556831915666
1.19991652053
1.0879148698
1.25282415988
1.28716881203
1.52555371387
1.47577997042
1.48836470071
1.62658422652
1.5275090089
0.713202092563
1.07993321774
0.465709210773
0.733691998475
0.362337406769
0.411197891966
0.243209893161
0.24626476146
0.191130855305
0.135272506418
0.0842060286623
0.04827422128
0.0474776358714
0.135437007203
0.057914332595
0.219990800076
0.218049896729
0.161425049259
0.183211936688
0.343311820747
0.160316223922
0.239139466528
0.257799163834
0.308876145685
0.362031871726
0.339499892026
0.371978430011
0.303726704896
0.451921074347
0.262991050977
0.201882545785
0.340405912952
0.259759561761
0.301836955331
0.275663360254
0.180938919302
0.293432716097
0.182533248946
0.337980853248
0.288585700254
0.182082044303
0.130548201421
0.146385319124
0.260438120169
0.205578965506
0.119228736123
0.296107758208
0.223095317604
0.245408831861
0.253333675988
0.193087554503
0.150975401656
0.118640901305
0.1804344527
0.0297683544758
0.0352827407656
0.169087093232
0.239697801216
0.222320351876
0.179450510391
0.180121247389
0.152813846899
0.141419638141
0.107250706576
0.152413072965
0.109412387504
0.159958932451
0.164419089114
0.198664622012
0.190462241406
0.182446985392
0.173869452166
0.15089654905
0.157519407963
0.175235146061
0.196038560962
0.216594233955
0.200079870294
0.209523735729
0.198750956873
0.189004432941
0.214461657955
0.21540684344
0.222129342162
0.243813034119
0.276586997723
0.242507248765
0.25400288942
0.260028247202
0.236810680644
0.267216071593
0.281539947272
0.288697699315
0.277870028624
0.313756451266
0.340031335045
0.33488338494
0.353092452702
0.36096624742
0.366691912659
0.386676954112
0.38660674566
0.401173497056
0.414791006796
0.436969742928
0.456622383547
0.466823568229
0.489667589963
0.529211941193
0.537068574258
0.685794567611
0.515885265023
0.748604682453
0.572814052849
0.83336350477
0.626324420544
0.826098148176
0.705591332025
0.863482339703
0.842775432425
0.825420036633
0.988891164107
0.723640662769
1.02826027288
0.848655694003
1.02900251466
0.969630919066
0.935833450422
1.0968261245
0.94508970977
1.11774744075
1.12547777495
1.0909642613
1.06564505549
1.00235638366
1.16450126572
1.17617653712
1.12304162011
1.17973804818
1.15189485682
1.16171888991
1.21930523934
1.26654395432
1.04088268568
1.24886418079
1.01394588173
1.2439932802
1.01743313509
1.10643882312
0.986555272139
1.00363695343
0.969422478719
0.959646156439
0.900735055079
0.810808274015
0.9237380618
0.708563122107
0.780182180267
0.60133597778
0.64738057369
0.514177979284
0.707706108592
0.479354510951
0.484950752046
0.428477560739
0.381611245944
0.487224255787
0.484746185092
0.411058426217
0.433214447126
0.34600867396
0.293881171673
0.215180255971
0.214718322515
0.233448295515
0.19862817705
0.204563642459
0.202826125093
0.161620385671
0.160626041005
0.140375147543
0.15441535912
0.151886188068
0.140831214415
0.274566950347
0.201451554027
0.330020174878
0.130242813562
0.121092272145
0.194537962709
0.0831107095123
0.227630437376
0.0503203796034
0.0748753371329
0.079428957724
0.13079320162
0.167349525992
0.0612955841568
0.0780171547986
0.163807277188
0.135226191595
0.0814900934444
0.105214724719
0.0719168157408
0.121448029696
0.0823781014526
0.0471363002286
0.118065086414
0.170769794148
0.233061420167
0.291643313332
0.269562342305
0.23207692357
0.130425089248
0.217005621177
0.351383888318
0.208944133704
0.0908613277667
0.184151724004
0.220035493842
0.240043566401
0.234943605616
0.182570955215
0.138325118863
0.0839926737823
0.126772603954
0.169126182569
0.508372303594
2.03507436724
0.0346664838546
0.150035473479
0.174252166166
0.207313460696
0.147756620009
0.09942507184
0.114990548643
0.0788262670097
0.189605847693
0.165638733527
0.183545242468
0.131871036
0.144309672533
0.156482754015
0.277055114253
0.125384409923
0.132937346451
0.207169217347
0.193978415341
0.243423116192
0.232746821648
0.0772222318298
0.0991736714208
0.0786505924252
0.297207077581
0.30871847528
0.25133488245
0.152506402556
0.13787326646
0.386697855978
0.355789578792
0.370088469095
0.0584325491068
0.24420967177
0.0989878399894
0.254163823746
0.471470604005
0.308437475484
0.358080376066
0.374893009467
0.413341198613
0.408139762928
0.506588053836
0.947947666936
0.825968327551
1.34660892231
1.84122428813
2.22648287216
1.7040122923
1.80913638686
1.4782708296
2.56495148206
1.15735780924
0.631958389464
0.401601816742
0.385315108148
0.161263774599
0.135233178095
0.153530302893
0.0902173436194
0.156054770307
0.0550984761641
0.0778527163805
0.0367041637336
0.0810931066974
0.207795273294
0.0620174706381
0.165556866026
0.0720961967682
0.0953403318698
0.0609763307812
0.0363076456889
0.113454226747
0.233720486934
0.0219797301674
0.0331649911273
0.0289655695635
0.0320595523311
0.0412776572823
0.0867641857851
0.15085127291
0.242240791726
0.318574520456
0.230903772534
0.297249768899
0.346504677526
0.681016900343
0.842614276514
0.859418902023
0.933194136045
0.978009589899
1.0470421351
1.87012467356
0.970628243239
3.28669698424
0.524571493674
1.96701668787
0.0296298128808
0.14432670826
0.210300264423
0.219175351425
0.125514050287
0.214580827398
0.239913564288
0.256486865518
0.293264043114
0.322709611062
0.306681231872
0.328527474623
0.298150904817
0.288584938161
0.285452475402
0.308460872474
0.338852932235
0.309395245014
0.347977138554
0.37575160216
0.368214640954
0.33957507
0.377873549029
0.395869728307
0.38999441027
0.38790304231
0.409526701223
0.429025860392
0.444636020201
0.395809707598
0.457870855188
0.475726346526
0.467523958494
0.457071627486
0.468808734238
0.45255907749
0.473993123691
0.47752002125
0.518267575049
0.526646555112
0.505657181525
0.53761801389
0.536376410889
0.541610662328
0.730250321617
0.51493421957
0.769099452659
0.554453470175
1.21946196146
1.00612021673
1.48314101415
1.68961553367
2.1748706838
2.50737921465
1.6969178596
2.82739875582
0.71497995183
2.9322124961
1.74636191138
3.77207795174
0.241600544362
0.0941992311779
0.141733056045
0.0156523043088
0.0604729983898
0.152143823783
0.136115769361
0.0939298792559
0.0594745061735
0.0497779930728
0.0823960228323
0.0557797489674
0.140787870573
0.0713128734494
0.075276907632
0.144853397493
0.106977062236
0.00466734008221
0.0182122887698
0.0309049508839
0.0828260683246
0.0278093563704
0.029698105866
0.153935158836
0.251912477415
0.215694058053
0.304296122207
0.00540827006596
0.0424864567202
0.0982967795783
0.0170610747681
0.102054144043
0.0480426009204
0.186365093469
0.223594770859
0.12436917105
0.079122651768
0.0739565892155
0.0775295552843
0.101235778476
0.276189488016
0.17594555357
0.169364302445
0.186744827481
0.0458337408276
0.132694817889
0.395868146383
0.352432181855
0.64503023009
1.04851952477
1.20556159307
1.99240398736
0.92147016034
3.77117426139
0.205624994355
1.26770720822
0.0855554343128
0.457681558718
1.5514058194
0.0795445176138
0.376814077378
0.240465831451
0.651959872681
0.241593248264
0.360163312059
0.671247046608
0.392430878342
0.532203473337
0.20303922716
0.0374899934838
0.0735865715076
0.207546374767
0.424913157046
0.234637541984
0.184023622706
0.195257011485
0.257133446992
0.322079003798
0.163316464283
0.164678349317
0.0931611990597
0.0455852954955
0.182234129787
0.250657736631
0.0505166729034
0.00247484902867
0.0171531164987
0.106166947754
0.247476696626
0.212572625947
0.169037496997
0.245303513604
0.233483783316
0.0928581293366
0.0683878796095
0.0420560738804
0.0819660910507
0.0776908899277
0.00328649842914
0.0388025091821
0.0703441383658
0.134996384353
0.149922613635
0.181375646329
0.163297473577
0.230514761053
0.277212829921
0.00362237831573
0.0231131310125
0.0889678668095
0.0590944770115
0.186978782404
0.212695519394
0.019428024455
0.065600828433
0.126001015639
0.0989567676779
0.0172994956901
0.0489715223398
0.0611118956045
0.0891683826642
0.0676985632091
0.084578338428
0.093853100368
0.14556741727
0.132745435515
0.0889762508597
0.13712283414
0.0913673299685
0.101201402152
0.1661454787
0.253594592331
0.233842119455
0.288526511894
0.288951707625
0.420764156782
0.75948596026
1.17708231546
1.44324878735
1.2304651399
1.4349921102
1.49496001382
1.70837767496
1.63929747719
1.30910830506
1.62132693236
1.40517097096
1.45237265857
0.799025212901
0.0703862481751
0.140768549927
0.0270094475326
0.0861447929483
0.0852528914057
0.0570691888841
0.0282900657339
0.0700981181475
0.226054503301
0.270773625343
0.0586735218751
0.0642988269287
0.0319373517301
0.0294455476677
0.0831927904618
0.0896706993059
0.261108245894
0.31466380666
0.238935093612
0.232758093479
0.280302872674
0.200766649992
0.260434300755
0.287591585252
0.320396953389
0.246089261104
0.399886867619
0.491425034471
0.488794387614
0.596714731703
0.835124431726
0.833625000743
0.919708416039
0.959279382947
0.875456370935
0.76863262618
0.932860256864
0.88055576956
0.679771135199
0.850339914395
0.712989246947
0.541083863807
0.524628192434
0.321807001186
0.189262563843
0.358215190954
0.265303443536
0.234353735548
0.189097180245
0.138466632765
0.170451013234
0.195975567445
0.0835470247926
0.0185472855526
0.0374770368167
0.104770468669
0.283645397148
0.255495025793
0.15048173918
0.0473995677918
0.0856419921539
0.223712670111
0.315896731144
0.258825966424
0.280431050907
0.462188521446
0.357109874812
0.756844700231
1.11510547364
1.48461306707
1.43142011025
1.55329991084
1.45830504899
1.67012066555
1.49045191514
1.59843855937
1.07815853789
0.484019534471
0.521711956579
0.445558850234
0.350156106119
0.211258421114
0.207535294744
0.264441437461
0.165339714771
0.152972836887
0.431789592762
0.521179853794
0.676823302715
0.573646904563
0.795128486128
0.417974450777
0.51077773092
0.511000438445
0.521662238711
0.497312118811
0.416600056043
0.227355446696
0.318075086823
0.0391560340523
0.175116394317
0.172851182186
0.143684984493
0.139426118448
0.161578399827
0.215819860704
0.0520977689487
0.062792843691
0.0302205432586
0.123402326482
0.177361068411
0.272563372943
0.15542974037
0.0888826516425
0.117495793462
0.013005583592
0.0630632674727
0.136066994995
0.241520110452
0.20775440971
0.483007251897
0.0407110453493
0.0656831270908
0.206685515824
0.00588340796137
0.0168905092099
0.0667983782751
0.026630318152
0.120875636055
0.0681374363382
0.204528547429
0.200040927522
0.153435247422
0.034660475484
0.046910464176
0.143683893492
0.236314558515
0.259286930296
0.193123048603
0.238880749248
0.189280291683
0.20852607879
0.20291045369
0.265125202021
0.393204222234
0.278755004327
0.159342248747
0.15450915597
0.335031920484
0.371538507886
0.228625381323
0.211975553106
0.103178713706
0.132684206048
0.150975937433
0.310635337322
0.330730331986
0.2430371016
0.152587780398
0.182584404105
0.121480822347
0.0622551265252
0.157819003733
0.121667462381
0.0970902618135
0.075936099864
0.037237204411
0.184171155453
0.00805208645446
0.0468717210388
0.0801290869207
0.0732743869487
0.0789251874444
0.114406280613
0.112840312316
0.116387689741
0.0713370809163
0.0642252782271
0.0162953287686
0.113693907795
0.142608091343
0.121254083488
0.225122801895
0.0175524149932
0.0925259480131
0.119443669099
0.100714943229
0.0806470426367
0.0416761853637
0.0112197539957
0.0474815695261
0.214260249077
0.300143362876
1.79822960832
0.0758289399849
0.313985055559
0.553247171019
1.03246541127
1.2502680377
1.69271151609
2.70327368074
2.1643587509
1.81776715306
2.54209862011
1.47189550499
2.4416928521
0.636900670004
2.46380590212
0.0684445672497
0.311007209296
0.321964992967
0.291440291243
0.0173035706755
0.096977273618
0.189914509143
0.0243607961939
0.0286696607746
0.0552892798982
0.0176957187718
0.0132875331711
0.0621697610185
0.0965032385519
logs/alpha_1.7/PGSD_800steps_1.log 425.757722764 0.425757722764 0.235259725888 3.77207795174 0.00247484902867 -1
