Policy Parameters:	-2.51027670484 2.73008807623
Control Steps:		1000
Start Time:		1438392184.1157873

-- TESTING STOPPED --

Stop Time:		1438392348.199066
Duration:		164.08327865600586
Cost Matrix:
0.0442487223124
0.10043138091
0.0451826768494
0.115328720668
0.044109684363
0.058632324074
0.130797918849
0.0821018872487
0.151528499622
0.211310694834
0.000559918988781
0.0123242461993
0.0328622776627
0.0249330307248
0.0741467092776
0.0496953012033
0.106948384533
0.00562270074269
0.0247862672323
0.00299467526545
0.0597717125671
0.172123522437
0.120593300488
0.00573738793947
0.0178457768082
0.0277153458114
0.0655590307602
0.00452649829229
0.00997153787764
0.0515303216032
0.110960354511
0.200843249799
0.20480429269
0.172921124894
0.038915359101
0.123196729717
0.148994182911
0.148166468633
0.246370457632
0.146566298579
0.180124537272
0.143693821637
0.160572267313
0.180455677527
0.228661956196
0.218343232838
0.157756512938
0.179711119031
0.259928368861
0.105947786313
0.0829338358221
0.147620541901
0.207692617801
0.192266998548
0.313034124486
0.220356661893
0.279649600304
0.314892519615
0.366687002526
0.494155147957
0.849803891988
1.37823329554
1.23880443208
1.43842128288
0.78378076785
1.5171833859
1.33732554825
1.21202603762
1.92904607512
0.452733454542
1.75874456474
1.57840188316
1.83630533106
0.291275856273
0.44637416016
0.0721054378118
0.124836104842
0.135682374248
0.180187483427
0.147800024971
0.215000272901
0.108377530178
0.103852529265
0.182883434791
0.116532134508
0.12194692744
0.162928085386
0.18226760168
0.0592809231158
0.0570810792698
0.0959323242382
0.0830556734675
0.0922813069167
0.0541176964954
0.106689535528
0.0901870617828
0.142248122813
0.0510078986832
0.0292520940492
0.0909398596398
0.0487495878321
0.0166963058459
0.0416765526342
0.0865043426396
0.140060813211
0.0870563225596
0.00193283477334
0.00714902180767
0.0177321240995
0.0392079708621
0.0305284376076
0.0435781633328
0.121164538041
0.0266759570749
0.0906797701079
0.123434458705
0.0236310447102
0.0775113963591
0.15415997405
0.194896467969
0.057878626611
0.144336808509
0.213300108008
0.290648724874
0.359423543992
0.505254334737
0.907683617076
0.885841234015
1.15435401536
1.15527787966
1.21539544829
1.23129840177
1.411012468
1.3253315162
1.32028416877
1.39197748461
1.16226087999
0.816957802596
0.306818236304
0.294387916092
0.204513318886
0.12635139261
0.123026719494
0.0973878386156
0.13904021562
0.199783310368
0.0145569566735
0.0507712852949
0.128394039543
0.190105301933
0.0711928560655
0.101877092388
0.0473879794001
0.0508310466206
0.0604537112742
0.133265835566
0.00601655380691
0.0529081426574
0.124592475426
0.0405773618775
0.0600493717725
0.196251811264
0.285654363263
0.194371308297
0.0714435567278
0.135283252363
0.199831072313
0.206214392413
0.199837364379
0.235288258625
0.24089998659
0.181395409035
0.230567060826
0.186317653671
0.254830792316
0.192944803734
0.122786330646
0.141259380888
0.127003131983
0.12804186513
0.178534025934
0.171385376477
0.179861683566
0.0763548012891
0.0739260497829
0.0519764164686
0.124583841517
0.145363593508
0.172316535736
0.0313161295267
0.0346524949204
0.0909979920972
0.0737460141419
0.0907789172349
0.107050192271
0.134549255682
0.226943654387
0.194290153963
0.225265577925
0.219940315965
0.289408297065
0.245926829189
0.293937356381
0.305275268788
0.376251948085
0.414845484096
0.421469389387
0.418288396378
0.454863933723
0.398962082151
0.321182933788
0.485441133539
0.400477947908
0.341689925575
0.289143269779
0.270208492158
0.345317595179
0.189903641684
0.179391938304
0.0256018654321
0.0772993754832
0.0658356789609
0.100441879739
0.167077960978
0.264529819549
0.149018895451
0.0906974853008
0.163312532305
0.109403718253
0.23452754077
0.184591218767
0.263682456476
0.150676203374
0.236773815936
0.373064032414
0.372263633315
0.463091771744
0.409522408067
0.378290124156
0.444280909104
0.380040008176
0.326038511824
0.329861560791
0.384116085917
0.328398219752
0.223963404365
0.199249399358
0.302485382952
0.178574288329
0.0737290361737
0.00470323332452
0.0426249813784
0.101264602974
0.0131108699076
0.0250557889392
0.0340074936468
0.123765365546
0.213759383322
0.0371810499828
0.112104488212
0.247195196556
0.144881244419
0.105332552917
0.183261795776
0.215861894807
0.232334967206
0.120030808351
0.0731018348824
0.0352645548545
0.0931121032687
0.221245828464
0.345020866094
0.537779637214
0.965083237621
0.964620130152
0.959609934919
0.990977884055
1.0503958661
1.05071259318
1.0561798829
1.33120765734
1.0425974541
1.1243897286
0.608796060745
1.04986167353
0.232372414144
0.224011425266
0.0597384857136
0.148880645188
0.0872863707411
0.0715337162187
0.21108800762
0.19517814956
0.0282741370305
0.0791830830049
0.108386013639
0.134269329238
0.138598353142
0.111194178359
0.102722995353
0.144493208478
0.243564549451
0.292957194788
0.301115240388
0.367112853411
0.438289996605
0.592206273804
0.722530820396
0.674044975555
0.973881552566
0.717369090766
0.846397649998
0.827901169982
0.613518825006
1.2985604313
0.529977344386
0.689322405277
0.693554754517
0.318488151233
0.325686604307
0.0249463470106
0.0333849099593
0.0377875923753
0.0366986685008
0.0919333218114
0.10276168121
0.0739633346893
0.0506454745401
0.0895501225102
0.0419094240376
0.020270374736
0.0150886515624
0.0537631651897
0.0846350579383
0.197975404726
0.0996895036162
0.0840487179177
0.189293212409
0.084367902869
0.0412315691989
0.0936884058644
0.0881611568827
0.151090266843
0.128719932114
0.134935270532
0.0794680022667
0.0832792166703
0.119572724904
0.173664579515
0.0733076382867
0.0492373213377
0.141884626589
0.179845334837
0.274742540519
0.371349306535
0.214110796241
0.273609900296
0.213871213009
0.456969409993
0.755752529583
0.0597163490686
0.172468999069
0.144708750753
0.244533162413
0.208417122641
0.210519379389
0.222539752312
0.214381402367
0.262626922839
0.289153905944
0.224068952756
0.195017828694
0.12999845562
0.205856205948
0.149913002571
0.0657220613088
0.100773137115
0.173244037791
0.0856872187874
0.080207238276
0.214691621847
0.045621758064
0.118806879489
0.0658215792377
0.0494629937415
0.111504129157
0.153212907739
0.0913614341287
0.16359175531
0.13336233523
0.0832094265408
0.232085162576
0.108920759791
0.0807473485981
0.050023211559
0.118645208109
0.098220879737
0.201004638371
0.176369538278
0.117733508015
0.121993496299
0.182842077111
0.210989022821
0.261818459662
0.251533125362
0.291080976332
0.403246245838
0.663950834841
0.890795000771
1.39208849245
1.34495491474
1.50933976116
1.50412371657
1.51289865493
1.85248248194
1.63791168423
1.63546120468
1.67093503996
0.666369598883
0.779788533693
0.518759686582
0.400688903333
0.267470467458
0.275186937639
0.29581914579
0.228608970834
0.268017988958
0.288900470527
0.303815783367
0.256090644873
0.217942172011
0.310580257267
0.2664205217
0.417383873712
0.288037398377
0.26296408041
0.285790378724
0.369191438403
0.156208745992
0.193805979045
0.0559446518192
0.0392748393157
0.037751114028
0.0557032432891
0.144745674699
0.15944314268
0.230077774299
0.224727807213
0.22947084527
0.381512862328
0.384037372022
0.343367931244
0.295591111262
0.368175606221
0.379047101414
0.477534362685
0.35913999409
0.351353286338
0.47196784688
0.216958022682
0.297432304306
0.310102684371
0.268090747002
0.207922662477
0.214960709835
0.225126829367
0.144212033679
0.163897095369
0.0853422954153
0.00417177110021
0.0149380394696
0.0142581222842
0.0599188165733
0.141507154025
0.076503033004
0.193785910705
0.0797695034641
0.0428267110251
0.0328391981579
0.109877304823
0.10996715651
0.0358376531413
0.0346122857638
0.0556200461522
0.0389960159257
0.0946791291714
0.130341175435
0.0700796855165
0.0713674534508
0.13295566576
0.0993664258994
0.0536863419779
0.0648873489715
0.105707254944
0.1776649933
0.218201131089
0.145672923787
0.15087368858
0.161452443441
0.195209548511
0.22355083053
0.18254545966
0.0964336198937
0.0114633382578
0.0373606025682
0.0885096483168
0.159394600632
0.273140487847
0.328509253478
0.238036458832
0.237414542626
0.264353608714
0.333623227192
0.332780258839
0.321808845778
0.258725124608
0.277782380503
0.300217428663
0.204977037811
0.159177906796
0.148361720223
0.185504949847
0.0683507354764
0.0836362307678
0.0142543690417
0.0337393208568
0.0394907441813
0.0192762457589
0.0140231678933
0.0105568257617
0.026607449137
0.0507962281182
0.114628206292
0.0642526296178
0.152249718861
0.0512848922336
0.0418271720509
0.0505976539469
0.0318480674099
0.0954966198895
0.144523733776
0.0614921247272
0.0338703404812
0.0581552969011
0.113828076225
0.0628823836461
0.106448151037
0.0451527075232
0.0111458676607
0.0516971605606
0.121550901309
0.0597316165587
0.0882593182216
0.0446379714508
0.0650511425311
0.0618322913203
0.121491281392
0.0603082543773
0.143683684448
0.17847139495
0.077606710359
0.0632251104224
0.0921569514719
0.17487714072
0.0693754221691
0.109198975383
0.164986182832
0.0796620889967
0.093603161618
0.125108395952
0.125300147476
0.164022553433
0.195739700755
0.111402508556
0.121399658624
0.16308115228
0.228789295267
0.212062615069
0.261317471203
0.331447883692
0.278738650819
0.320142091716
0.396266055135
0.44120048851
0.466654050736
0.48738190052
0.419491367245
0.421844312522
0.447182866047
0.412033243856
0.374292144362
0.330736803823
0.330395926154
0.328226724772
0.328329551634
0.145564644214
0.192013261401
0.336477502919
0.0787853776616
0.0992582695221
0.206022702661
0.138185430518
0.111408870756
0.158754128174
0.242369848912
0.277042565421
0.118523079502
0.0807649100929
0.0605315085267
0.141535564255
0.250935832116
0.215625326618
0.336666024284
0.0622910496217
0.158348817652
0.255257915053
0.177573137021
0.212761627518
0.0244378679338
0.0183925106095
0.0407688247948
0.103314834892
0.135139923855
0.00138501271718
0.0139187161779
0.0297057631318
0.0993493623459
0.200851879667
0.188541173333
0.132713736126
0.148641358257
0.129579065649
0.153333502947
0.121855334666
0.11991079748
0.266317477313
0.151221721915
0.0799021638932
0.234400361541
0.393259976882
0.226868866852
0.311229967995
0.257770760981
0.215514761398
0.238853212166
0.260234074718
0.286522115852
0.374997742117
0.349074800283
0.614744931169
1.52996217869
2.01486088713
1.77893772973
1.57489195867
2.10565790363
1.51470292745
1.76448348208
1.10681916873
1.89384913647
1.53027970577
0.753054531072
0.56852859056
0.109545883892
0.172617400868
0.0924628252494
0.102786061195
0.122232082353
0.155742871593
0.124017198168
0.0702925753086
0.154305606101
0.268328347344
0.11836594492
0.148622144704
0.188320763064
0.365414628429
0.354997190696
0.377281161589
0.379577240822
0.367921095511
0.350321501393
0.43320322694
0.434613093342
0.418991746175
0.334132354527
0.383538358085
0.37061117276
0.364428464351
0.344365382903
0.340416837587
0.284406761938
0.282245890271
0.246877034046
0.218036336289
0.231285852736
0.244279613633
0.265148637921
0.277706842557
0.270757429626
0.299880312888
0.33305269322
0.316455846968
0.33346221447
0.364818220013
0.387501132915
0.395531315276
0.433996567084
0.465864829882
0.48189629225
0.524950100805
0.560530738235
0.667473760841
0.584236753526
0.927176580455
0.598922045707
1.09858762899
0.733763915552
1.0777050625
0.971329071756
1.21575918753
1.13690508115
1.25556178507
1.27480594469
1.50730710481
1.44807907964
1.7237763672
1.62194341783
1.9172418487
1.73607734888
1.87434390251
1.62291446354
1.87167583217
1.3914288507
1.86239208967
1.92008088376
1.24837253692
1.9386647274
1.53695858361
1.02992650594
2.07163971085
1.20247047876
1.78742006632
1.22155575968
1.30256011013
0.697729793582
1.55708062634
1.04375933257
1.26339024448
0.929454796003
0.963455219065
0.722189190694
0.925943055591
0.501716053032
0.824465814677
0.434276258667
0.503108574393
0.460494596075
0.431493810751
0.357498774961
0.409311623942
0.361126615303
0.326310063576
0.32391774595
0.338418149043
0.214257157218
0.280960917549
0.233084182704
0.151007460814
0.167690715479
0.156814655621
0.224734401603
0.163970035534
0.213545528207
0.107348288662
0.0670783179563
0.0956859603395
0.218155527129
0.116690837704
0.100891411731
0.150559477124
0.131339886947
0.208763463398
0.0351605765948
0.0731406293929
0.130486932857
0.0900409230024
0.036696655909
0.028700214105
0.0509267258337
0.0787256117437
0.0779405908611
0.00395396034911
0.0376505645173
0.107417903918
0.0419940930245
0.062329686966
0.11990649938
0.0465857983136
0.0263472887688
0.0181528817267
0.0491884585625
0.0601040860338
0.0120590341715
0.0246460101398
0.0730905821791
0.18828434111
0.00582081789701
0.0411720392158
0.0755769973198
0.0275747539923
0.00653670047232
0.00523143331695
0.0292277592215
0.0846234196945
0.140305562773
0.019895095132
0.0570864928538
0.111542850266
0.0979225624555
0.00382015884786
0.0708757885423
0.192535892773
0.215802379579
0.308284658489
0.197949178843
0.246574913475
0.316893854637
0.315707591552
0.429789356833
0.607512882503
1.28934815354
0.769422705906
1.70905678832
1.69202572673
1.9209450121
2.12905856441
2.09444633649
1.68353762974
1.92777506884
0.45126996738
0.396653681282
0.130793328173
0.264435569714
0.0434317024118
0.0571967774393
0.0690091832356
0.186619901017
0.193216235196
0.268266967858
0.267577462791
0.151162039502
0.050141521766
0.189895851864
0.419383152073
0.402309981958
0.209491945442
0.159593449423
0.159543016548
0.145989617411
0.0446529730954
0.0497529874741
0.0522382336032
0.0725789047397
0.135484361245
0.295326530719
0.32336069903
0.34667421168
0.310470564053
0.316848832852
0.245454890968
0.301983867349
0.325234949741
0.301547711475
0.298495714225
0.276491779533
0.28848319369
0.303799492635
0.258888458748
0.253670653738
0.264161041332
0.287333214948
0.265805325954
0.265407483632
0.261059864663
0.256633413022
0.251883116201
0.255603838888
0.21595794826
0.215804248997
0.154977294333
0.203343963079
0.194571726418
0.21628909216
0.181873199267
0.216240264243
0.231104788325
0.182838755585
0.191670471351
0.180756119416
0.184778481915
0.219906190182
0.169583576337
0.0802473489315
0.181676010939
0.167229595675
0.18713848456
0.191784963701
0.155859024357
0.194906599572
0.157379002719
0.152493904818
0.156675461383
0.132532052175
0.121127921575
0.118487194048
0.139985640365
0.13183018461
0.0259805420354
0.0415792141216
0.124988721373
0.130218264525
0.159920094555
0.109745696076
0.0992765883525
0.100783046646
0.0929266591235
0.100556615032
0.107473258407
0.145278017321
0.0928229914433
0.109168834174
0.0842459230799
0.0903941791354
0.108298859973
0.0961524900406
0.0992994880052
0.103324816088
0.122246982578
0.181259070869
0.0897874186175
0.0951356338285
0.0952580099237
0.0800095047185
0.080988775644
0.151022787451
0.114674741419
0.0863783822093
0.225665034593
0.174947511361
0.117703278825
0.089945868222
0.048367006404
0.0628460057181
0.133703452354
0.0668001255802
0.13626998961
0.155475382
0.119453113299
0.1447819019
0.164187172369
0.0473041217085
0.061600632965
0.0230041133604
0.0222020852049
0.0193763637626
0.0441003966806
0.110264758804
0.195103043648
0.0834569122601
0.161888998685
0.156410276624
0.0739190291896
0.083811896
0.190330100101
0.0808165457735
0.118124483877
0.187580758048
0.130165533124
0.0258432690054
0.0549902868497
0.0924517239246
0.123695684484
0.251844667144
0.308940337323
0.199839144192
0.177170221482
0.232754542548
0.163227358373
0.241233246555
0.205554680941
0.147516551389
0.19952631926
0.213655903889
0.274066911104
0.293622598413
0.242703543626
0.364493053477
0.381116589109
0.343065638058
0.309261958774
logs/alpha_1.4/PGSD_100steps_0.log 311.913054218 0.311913054218 0.179778226934 2.12905856441 0.000559918988781 -1
