Policy Parameters:	-2.17024781004 4.58860208041
Control Steps:		1000
Start Time:		1438415592.4224331

-- TESTING STOPPED --

Stop Time:		1438415769.5243485
Duration:		177.10191535949707
Cost Matrix:
0.483831308313
1.32844757034
1.59915135629
1.38999645741
1.74113036601
0.934535543699
2.22416413394
1.32275366714
1.12740260338
1.44427523572
1.30817096943
0.998318782484
0.27493642085
0.0693081245449
0.0268247888191
0.0518352766643
0.0372212396448
0.00546365676164
0.128966276858
0.112351333544
0.243557833135
0.324265259573
0.214951252101
0.282401763358
0.0353732640782
0.102294937278
0.389716755557
0.199685186872
0.259054892224
0.10305765054
0.203399000989
0.130039421205
0.219733004156
0.680546565567
3.6139430249
0.0328507781987
0.276233799534
0.615659375679
0.278690636277
0.474057567346
0.394242516393
0.531799056976
1.16447628144
0.498270266159
1.05219836057
0.49345276855
1.16414003723
0.418661822775
0.79645996667
0.410543781871
0.591600416201
0.352719300969
0.340784726428
0.289322413313
0.0882206130302
0.163052793787
0.32901732971
0.402548489771
0.303689289551
0.308437071777
0.266843925987
0.251115727779
0.315987748382
0.317296483919
0.311086323987
0.229761614415
0.2665117777
0.186447056055
0.36924973912
0.187229080582
0.291024016798
0.120436917889
0.155303967039
0.0375589493424
0.187834827179
0.258693204418
0.0567133569307
0.0701584865672
0.26004606989
0.149904611998
0.0125368421982
0.0247764047282
0.113959476948
0.243872836126
0.0501317828579
0.0281090645453
0.0452416973128
0.0864591646072
0.11624330396
0.190774659726
0.210922272077
0.102554939695
0.0887163593474
0.0121900266506
0.057391925828
0.0827703162012
0.257513750892
0.219025029916
0.312439975399
0.167065372635
0.0105222861765
0.0748441389294
0.163084113134
0.131206688654
0.112644920226
0.0900170236856
0.0303162031344
0.1666159997
0.21042801755
0.213681795687
0.328587729678
0.38202162438
0.339474268993
0.3324323309
0.294490112512
0.309785651197
0.208725525468
0.322372028234
0.440055589662
0.36779875798
0.306097887292
0.647024490198
0.502985702326
0.909452195927
0.708742493242
0.612297286184
1.10287988251
0.475916364312
1.35904626679
0.411982890715
0.6978240069
0.542990356799
0.919039675911
0.254278421016
0.229258998579
0.417680833532
0.53043643746
0.123583884113
0.0966042539804
0.171365676691
0.240790753324
0.272730865054
0.317291138927
0.393262347322
0.545992791195
0.707573470778
0.708218044497
0.821821477508
0.809572898299
0.820924215456
1.00115091344
0.623422457541
0.814676670119
0.784912451907
0.70798487989
0.716317981522
0.352930149772
0.303135311877
0.226170208775
0.0442457905158
0.0486123730395
0.133057357012
0.201688752965
0.239308989041
0.258248826532
0.129381802289
0.225791845316
0.0735570975944
0.0952960973344
0.15592726139
0.0946371080232
0.110461628821
0.0577809535539
0.0113103583028
0.0220369830668
0.0136837484173
0.102770234547
0.302373089467
0.00196229343839
0.0581237070944
0.159887660167
0.15643678412
0.332725838188
0.250479765463
0.268518162267
0.292427616425
0.406416283117
0.252635240056
0.268019083245
0.361971721006
0.312082279868
0.343164272192
0.495185289019
0.329258193559
0.357313916478
0.380646116182
0.508334114366
0.540297279359
0.685622290414
0.544187851211
0.740747303052
0.644267384019
0.787194482189
0.449016795745
0.445583671346
0.423994847367
0.395646778609
0.203754609673
0.470438299731
0.158135502696
0.0900731540137
0.188205269791
0.277717407755
0.529964331779
0.0943361521253
0.0520307553429
0.0699052785246
0.146378133174
0.226916021245
0.452267005155
0.281617661281
0.406303197305
0.391716269041
0.360631689519
0.263142974106
0.100864904027
0.210194296927
0.0519615096063
0.122373224001
0.173604958122
0.332221620075
0.365659516809
0.0112323931419
0.151697627756
0.28683576554
0.523675841033
0.198536964306
0.477386781459
0.357708530066
0.207647197896
0.262958826178
0.401096501086
0.430851381867
0.351229206702
0.475294489304
1.15409101091
0.834548584267
1.00871668924
1.40411331495
1.15437332863
1.21435802622
1.13908707343
1.17811709243
1.3349281774
0.916442335345
0.624544293769
0.511996590692
0.968386340751
0.0765722624208
0.313994888215
0.339906523663
0.370158618914
0.417676016632
0.212399199885
0.402797684099
0.362320813752
0.311678168188
0.247159041876
0.414265171546
0.264444550674
0.236091992186
0.241959701751
0.399276195839
0.0329387701026
0.0328712405461
0.15521575231
0.20379103419
0.13492883899
0.214629403552
0.13866987033
0.180513878489
0.0277114583176
0.0411875553239
0.0804896783302
0.0258972839699
0.0738886074027
0.16518394045
0.282275168904
0.231732234967
0.274463538172
0.301732733607
0.318471436844
0.430474198454
0.515191504621
0.694045040672
0.884704022905
0.833246343738
0.946217883687
0.9934044399
1.04726125362
0.649577383307
1.38338636193
0.797237992478
1.16131687341
0.729311531644
1.01713119488
0.241221766334
0.176948697385
0.176925385535
0.155050160088
0.0338942001354
0.247982416852
0.441648688764
0.21548500923
0.39845577535
0.360361819935
0.316220495579
0.34692056269
0.385960893717
0.247943063423
0.330569646813
0.0826868489659
0.173827553084
0.253317054594
0.28392501475
0.265995456325
0.25817928796
0.0901475798627
0.42099313583
0.0469899543353
0.110033313338
0.160072753681
0.136469591404
0.125849933786
0.190420835403
0.103988062547
0.17433999908
0.188888424493
0.214385740307
0.254293089539
0.274974263271
0.327011740884
0.421309679286
0.347629985241
0.303925398793
0.402628610228
0.419118502386
0.343846830902
0.428983878226
0.402762473202
0.408013160229
0.432026755211
0.414089902317
0.313118393388
0.368179852863
0.29622702667
0.272856163182
0.273447781826
0.194877774318
0.120080831602
0.161290003317
0.105175295109
0.128543712521
0.145711724946
0.163404964297
0.210404387028
0.224523465932
0.257492154557
0.205499119115
0.173578472677
0.234206561384
0.229310353875
0.220341717444
0.252210820289
0.24586915931
0.177988220988
0.165683981388
0.171327041131
0.260394474799
0.222280840526
0.215451773958
0.133211481056
0.132018128956
0.144247040239
0.166689056439
0.202593118659
0.162890763554
0.0995983973356
0.10208931836
0.190828748538
0.0452770028757
0.0067346538575
0.0736680244244
0.130213087634
0.185444542697
0.118910117225
0.223007672953
0.156399135234
0.0981704787731
0.10115755471
0.165946200379
0.205611152978
0.232135876523
0.245048712013
0.170105419599
0.198916588708
0.14693740596
0.21682275299
0.261779393232
0.232769898739
0.260033709215
0.223492260462
0.247919212407
0.221453670415
0.237257035402
0.256447806128
0.273006602653
0.271788213906
0.277313482471
0.274470805048
0.243782123904
0.271463062826
0.346430173779
0.232933009617
0.241259678562
0.214783696168
0.46897557956
0.420974641652
0.262065364905
0.331297240899
0.459179813196
0.659405914071
0.624675764711
1.31009869002
1.32302687437
1.64232614009
2.36231352606
1.70546348856
2.98859375795
0.933872230413
2.84729713363
1.37955465039
1.87434181566
0.566216864565
1.09976553087
0.056605194551
0.271018945592
0.298538016503
0.0913383985306
0.101923569423
0.140128446324
0.0826479075995
0.124180270302
0.161807141746
0.32529131049
0.135582321886
0.13244747421
0.306511136365
0.233798447692
0.278026344793
0.203311144593
0.185137962185
0.197491584893
0.409713816827
0.428838694116
0.487534809949
0.539259468138
1.20917388118
0.929740603884
1.73373468707
1.2411884513
1.61925236942
1.3718836039
1.56711758121
1.73652315251
1.50583658865
1.19631818684
1.19553636562
0.859332079926
0.431504188305
0.550456712568
0.257385392183
0.220564203462
0.28279543724
0.242859448246
0.426661406548
0.295595603198
0.315989963523
0.261340499638
0.312354078264
0.238522823608
0.15472056602
0.148437620365
0.382105633169
0.30432302536
0.377017415414
0.268684951193
0.200893241233
0.263412309477
0.165798913645
0.0618539231404
0.0885077735509
0.168862135827
0.312312282943
0.35374665736
0.614947240622
0.539332606757
0.556992975315
0.648695447858
0.445482568107
0.553512092052
0.589960272133
0.539678342052
0.392239411087
0.305617959073
0.388423284331
0.395777352698
0.35212890304
0.241917177686
0.174597737652
0.138141413351
0.159944579444
0.181929974573
0.185435132254
0.190163782865
0.296268009716
0.172457143319
0.201375471517
0.240319433137
0.275681788093
0.278453254505
0.24085814273
0.179819706528
0.142163798385
0.201138865234
0.25240519606
0.232548613919
0.220127915054
0.25694263428
0.146555184601
0.16149212613
0.182970084085
0.186728889042
0.176319104599
0.155270796213
0.0599480278001
0.156428986919
0.462650140232
0.632376021506
0.511925902825
0.70507655108
0.517377509281
0.63479793207
0.545373362174
0.781643125115
0.627290758579
0.681943584793
0.629912461606
0.789233725943
0.682811663747
0.786003348304
0.768201322565
0.83244967611
0.751114472147
0.839364470977
0.774794429855
0.735875786097
1.03717598162
0.757662312774
1.01515251037
0.842442687899
0.965551063
0.882737731456
0.885213121396
0.884473409851
0.896442938949
0.852326638742
1.05765427439
0.900334021147
1.00315127976
0.882961585395
0.944447204525
0.864204650861
0.979238737955
0.88404673906
0.798622144096
0.974778396142
0.921307082342
0.945404805492
0.785464179955
0.90012391189
0.649556416701
0.88196195814
0.553151677101
0.845032051528
0.534131575317
0.745764869213
0.526548320728
0.847204154363
0.445809448336
0.447565487033
0.416933201364
0.456216048507
0.469010367887
0.457073916846
0.380012328792
0.393571781177
0.596705077835
0.343503218934
0.522335916952
0.5644827769
0.496330478667
0.278079592519
0.201600036032
0.432807035001
0.437361350789
0.307639787278
0.216941967812
0.259371181842
0.193062832849
0.143278435327
0.347060593106
0.45125282197
0.346419047886
0.352491119984
0.389153820964
0.371408644991
0.858130883459
0.435167200027
0.480224271429
1.18548244403
0.444960204973
0.69696947463
0.682230640842
0.54947359076
0.885357968979
0.542725465955
0.931528308652
0.46394154329
0.474839128135
0.701194754672
0.062497610786
0.117784480353
0.193032574584
0.370229630374
0.115633211966
0.140116378959
0.191828657746
0.132921210348
0.158086451129
0.0892246000586
0.272415158904
0.367218446845
0.0691995955738
0.0326974713127
0.033050526012
0.214163464057
0.229262410339
0.37093039925
0.312287674023
0.39894153576
0.239253870823
0.470151392223
0.320056320036
0.317036315719
0.287060970754
0.31150424378
0.3728068415
0.0545618967536
0.225035158413
0.239236356797
0.224580665702
0.103578417599
0.238460951864
0.104788881608
0.168199358333
0.015542242599
0.113123439003
0.0739074295786
0.128047999262
0.21958108216
0.208126457588
0.0699283773194
0.0931933598753
0.0368210164752
0.0512755409692
0.00131940909658
0.151941152301
0.00382738373391
0.0948106829589
0.287988728096
0.349208340821
0.214602792561
0.159067224003
0.406743897418
0.154920354393
0.459226185484
0.358707278663
0.0928569077493
0.100639045215
0.0828665128819
0.189056574629
0.100398865181
0.259021363684
0.375167185684
0.449387781582
0.572916216732
0.783827050989
1.22389470926
1.26632572336
1.26641533344
1.20415640042
1.04789135836
1.20274402119
1.19438904734
1.2570670248
1.49621578082
1.29554964225
1.26665981504
1.03409210006
0.560605903864
1.02870139161
0.201319226551
0.235101068334
0.276499455233
0.291178413424
0.315037861247
0.247455053861
0.258238876764
0.289305040708
0.308056046782
0.360802740744
0.336727405194
0.363557900608
0.236896563945
0.196030100674
0.184915563384
0.291962378784
0.331502565333
0.331743221956
0.291165837984
0.233189588226
0.218793567331
0.11383515754
0.0644792634646
0.479002790629
1.1346650586
0.782265301273
0.926766717111
0.826195484115
0.80476002311
0.840076069709
0.411021406994
0.701404629279
0.891710037282
0.300532000381
0.439758790187
0.445274406626
0.0858004321096
0.150608117422
0.1829472267
0.183728119359
0.356222012983
0.252799907879
0.0847026320199
0.251337204244
0.321593978592
0.419985090849
0.19497973513
0.298115671594
0.0787908574259
0.172734243023
0.378845062868
0.207812276932
0.137043870742
0.385119266564
0.14533470719
0.170117289873
0.141292282107
0.337544312383
0.481364626574
0.302957806674
0.340394353257
0.377556840577
0.376979666171
0.782142930862
0.63336476155
0.732724727344
1.54983081134
3.69849887913
0.0893449096714
0.78800957
1.26099875094
0.789515147085
0.919593020571
0.542363210276
0.466765008327
0.171480039271
0.0796158369006
0.0556068599678
0.28345991792
0.321810466443
0.32752070954
0.424120273127
0.248000220677
0.490571372552
0.445317286433
1.91301609786
0.116789844109
0.450343033056
0.465747678849
0.541261653896
1.03599074312
0.453344000216
0.542594835837
0.742911944522
0.477181425965
0.424176451541
0.414487447132
0.418527663426
0.157177268861
0.306551675515
0.222187690032
0.368615953101
0.111575909397
0.665930718549
0.0509966926978
0.108332974992
0.180721470002
0.0949197515904
0.0275986513806
0.0421935304897
0.159504961666
0.371620196644
0.230262669791
0.239560872659
0.100384394194
0.300219919524
0.412068505806
0.349059799035
0.26453633112
0.319080969045
0.44007675013
0.293114630232
0.427584677616
0.347801428517
0.457641707203
0.426635612277
0.332232274531
0.483228783968
0.274944714852
0.19554527628
0.156117072899
0.0177666250192
0.153828100981
0.176124958873
0.0236588301856
0.0548813281613
0.011944543285
0.0852591381221
0.179561036632
0.0431118905326
0.0871621408512
0.0641461578556
0.0453782932231
0.106474513497
0.106134076858
0.148902156024
0.0966323155149
0.0437657278485
0.0273783625727
0.0209160900617
0.108556041443
0.195771448633
0.24371448481
0.00869825857288
0.0787585868165
0.115141044345
0.249427935861
0.109194936009
0.229433551895
0.0343115862217
0.17519844529
0.0332898248946
0.0206894407935
0.0413005393304
0.185502397608
0.311503741728
0.0181075878634
0.236056395045
0.16933482338
0.0132873008234
0.0528199145811
0.16820170478
0.0284714437998
0.0185793569641
0.0423051374164
0.0875314059826
0.168634864664
0.212132541935
0.203708576967
0.249048262627
0.242111988563
0.270701075819
0.392990184052
0.496860927603
0.560433881341
0.645649901656
0.612389281738
0.75047494822
0.689454344193
0.768309336966
0.771162049117
0.654452535875
0.954939694321
0.682821068976
0.714167529217
0.498664220441
0.504511382513
0.421174411089
0.27006356411
0.334643133717
0.180071501232
0.0730646831867
0.0337940662774
0.1613080486
0.169295820338
0.0322509228479
0.0130823949962
0.0458285783328
0.0622058518267
0.324135617494
0.312079659217
0.331589175342
0.111365749311
0.181194583197
0.246020807821
0.325501994288
0.455912849937
0.290162884189
0.352341429369
0.325663613241
0.208964609904
0.284460653877
0.278686245865
0.183150171472
0.309922143444
0.461938738168
0.358215741757
0.1915771762
1.11339428882
0.539255836954
1.23295139487
1.43223947705
2.4610673114
1.40265408218
2.64246745721
1.94995229717
2.07926298806
1.98668331199
2.40230392094
0.749032134963
2.60367769528
0.265845769729
0.283139551288
0.307496014856
0.191240663317
0.266841380799
0.0984407050158
0.157741997886
0.14906531887
0.31665732714
0.273899753157
0.20500061138
0.297635190224
0.342222024504
0.467680543976
0.464428663424
0.461730236987
0.490663395329
0.480340729177
0.699140336618
0.389379463443
0.736168216927
0.461276867695
0.339675473216
0.395199950748
0.366755632159
0.367071624491
0.390578954882
0.280629835001
0.267227072741
0.292898768083
0.0250785057064
0.0424093158787
0.0378762049785
0.150950825916
0.182103132677
0.387108315464
0.011803592792
logs/alpha_1.4/PGSD_1000steps_1.log 418.744954255 0.418744954255 0.291172125704 3.69849887913 0.00131940909658 -1
