Policy Parameters:	-0.988042018582 3.72111278469
Control Steps:		1000
Start Time:		1438400608.2898662

-- TESTING STOPPED --

Stop Time:		1438400763.9743993
Duration:		155.68453311920166
Cost Matrix:
0.769403834005
1.00228926816
0.644867843361
0.691102450973
0.348766310955
0.0585546089397
0.359625636152
0.796615571509
0.372498345864
0.777689640926
0.415893152898
0.554172018144
0.666652081403
0.543255842504
0.492306798182
0.406745682731
0.535422530541
0.415505483605
0.239976315232
0.262033113425
0.25664916803
0.048473160095
0.120328602771
0.142868640874
0.20846447019
0.0580188228483
0.197622121184
0.424787384582
0.28054549306
0.290452152263
0.325003468404
0.259076935764
0.33984499767
0.301069121242
0.335099121236
0.36290070375
0.334303866486
0.292978338013
0.318635902405
0.0930574740508
0.20182523291
0.326889978224
0.167165982864
0.156102508593
0.0277281733521
0.0495265454855
0.0197152905387
0.160345816971
0.354139669868
0.092724637081
0.253979076757
0.280035093581
0.0712986705883
0.129279085931
0.0609302650345
0.0244358114154
0.148492771918
0.0616595970058
0.0781995377607
0.0662545092745
0.0303505228455
0.125904272584
0.0794529234638
0.0715529051517
0.0272700847135
0.0666976757848
0.204766899562
0.0886480043415
0.190567922426
0.22872926898
0.236270518641
0.179679360717
0.0904510566755
0.0978638311958
0.108717479168
0.197714492595
0.151647492909
0.211143431278
0.267935524892
0.271827676142
0.274993028217
0.289293620734
0.339597676685
0.356601428906
0.341953035779
0.293954137985
0.276634008587
0.283258285285
0.216256946239
0.251354962028
0.207770553768
0.155959396612
0.0864897285318
0.0296780617695
0.058666689962
0.167080639781
0.138688796822
0.108996289405
0.160221776037
0.115589836776
0.140846096119
0.0763835590255
0.0471687267623
0.189810799562
0.0503358290137
0.0427213161695
0.0265115534505
0.0687093822138
0.0348964990651
0.256566844995
0.120073425651
0.18815575687
0.107427617866
0.151618149126
0.346033567955
0.0079779054423
0.16827457939
0.274182575525
0.0389038961608
0.102709124988
0.0383101534726
0.172591842545
0.335657436306
0.0808447121417
0.202582771141
0.357638293449
0.392299079606
0.334773165161
0.367497306191
0.88731693813
0.794924526267
1.70984255497
1.8052064653
2.05866379542
2.18536889079
1.99832886243
2.685462424
0.476362002571
2.56629589182
0.423644854612
1.77804221463
0.127044441086
0.58448784649
0.124021783554
0.42554234692
0.0649621924217
0.062551000853
0.0480743712848
0.0442277894757
0.0787726254626
0.0511813723663
0.0616368811002
0.103168950581
0.103214849437
0.153219428468
0.181448944841
0.205985509416
0.212813023328
0.196449038353
0.197489850926
0.184701898404
0.162206417583
0.141454709951
0.134393380393
0.103795852916
0.0696469267261
0.122819303885
0.102032022409
0.159551327076
0.301559235307
0.456252538432
0.630721851695
0.459926047709
0.260930191957
0.328343338428
0.360238657988
0.334971989851
0.350094033839
0.327948424105
0.326333162749
0.253018090354
0.210673056855
0.281634432279
0.32315195285
0.205040058014
0.210319738316
0.167590768773
0.0927460030646
0.321185820745
0.188219961144
0.183368863746
0.178964034896
0.187841215455
0.137739133335
0.0253938409921
0.161173241352
0.324682021345
0.230571790845
0.327152402433
0.304840106578
0.154940668515
0.248227434398
0.261577096893
0.142446743257
0.247401042779
0.181758141069
0.0812786122089
0.0669159685803
0.0409983078141
0.0203699761265
0.0595867473526
0.10655107495
0.0772465626225
0.179441169517
0.198848877017
0.0590371073798
0.0371106904002
0.179902065892
0.061548035172
0.0219276130896
0.020712383479
0.0226214046155
0.0255279711138
0.0292062993055
0.181384605047
0.0485666759163
0.207934010708
0.0266620140052
0.0386898340392
0.0285067921979
0.0976112676226
0.0116895967483
0.0188004421176
0.0219442185011
0.0231731720316
0.0310132987734
0.0295098542285
0.039615093464
0.0400844882231
0.0320542747426
0.0328659573905
0.0326985177209
0.0361373009885
0.0557357396297
0.0557861421475
0.0293603374597
0.0497974207175
0.0282544828227
0.0797668565519
0.112848389183
0.0836147281761
6.33349710915e-06
0.0989533388691
0.0316040418317
0.0316307647234
0.213318576809
0.139139847107
0.144974383845
0.0270152125315
0.0297019643017
0.0689214857748
0.244513980155
0.274334973084
0.235197965342
0.415352969909
0.346063135899
0.998370546125
3.77117392197
0.267611563226
1.73299357533
1.4158423895
1.58797422686
1.55513854476
1.50752557244
1.24407763048
1.1337965807
1.14882064581
1.97929910827
0.0053637857566
0.133579377342
0.218572087662
0.175901748892
0.182435400799
0.227686472196
0.22976471054
0.185923602712
0.238775636947
0.217242440749
0.219252905957
0.249270555301
0.248627264625
0.243968536044
0.235744680507
0.244835336242
0.268913328193
0.279357287456
0.269038551229
0.283180772243
0.292767243525
0.311026987403
0.308360672195
0.319967724517
0.329499350532
0.354811798842
0.343975835536
0.37632158284
0.384153255873
0.406819786677
0.427968162973
0.46842186181
0.476202683588
0.478250119864
0.530999924894
0.628334345308
0.560482528049
0.803265838135
0.583224792005
0.8783356153
0.769917537885
0.792863066057
0.93394912208
0.849301522753
0.986738087315
0.933874012344
1.10768027347
1.1536955381
1.06612369834
1.05609223352
1.32583608831
1.41115138248
1.35915250425
1.28585254541
1.33941999058
1.46242469185
1.6711026741
1.35124108004
1.65000370409
1.61934496569
1.50972735179
1.52042448321
1.64570233189
1.56868527634
1.49199968847
1.79051534917
1.43949838651
1.49922776819
1.4334219424
1.28038766636
1.49218531055
1.3774697698
1.30529587863
1.23386428735
1.1740115175
1.16034074314
0.988931598944
1.0232656362
0.816813336247
1.02452033936
0.669526098724
0.893592717334
0.573991009332
0.947241810413
0.461561695485
0.462477417168
0.451415472785
0.439404879796
0.465846010113
0.339237802654
0.377836458852
0.321398886344
0.293933874432
0.306097296236
0.30324291818
0.242830110304
0.30427002857
0.274844403668
0.226879348389
0.183754657294
0.181975185016
0.217692112719
0.170154453805
0.107473673652
0.0966823113781
0.098585251914
0.161042054669
0.0690932797517
0.0317148010213
0.0364789036703
0.0629304952937
0.0769003672523
0.0363574976313
0.0578631268589
0.128317829899
0.029187644915
0.172868924423
0.143360382229
0.0902208955704
0.0772648801285
0.102619192025
0.121160149514
0.145432070981
0.183487726709
0.241929015122
0.288265472961
0.318076704705
0.335524490097
0.430866253795
0.491342098431
0.492071430047
0.479844746822
0.487115895217
0.508799075683
0.497716700628
0.483756888425
0.487614806535
0.453266375161
0.429395357563
0.479907443509
0.462518954981
0.414226034989
0.373725632687
0.334723627032
0.321589104593
0.31721635971
0.273081106605
0.151811883945
0.0223015701838
0.146881513197
0.173998620934
0.227885134321
0.123535067254
0.130760247354
0.175004180932
0.0971857287487
0.119249902894
0.150877563917
0.127700356871
0.112405649859
0.119255026748
0.0961753483868
0.121443319569
0.103949800962
0.0907110494884
0.134949156279
0.0971044556549
0.115652806095
0.141454156713
0.097513297251
0.247372338784
0.446179458775
0.280228635102
0.0737067595229
0.0620340193789
0.065768853443
0.0798053141885
0.0333344303447
0.0409760950467
0.0391411367461
0.0357913630878
0.0186251028575
0.0061033895112
0.0426906715247
0.0541855971478
0.037443430776
0.0210929062635
0.0295681110381
0.0118204214498
0.0444391344294
0.184049716698
0.148096000812
0.00615711126842
0.0510353265068
0.0299702297886
0.105723073899
0.15631999452
0.0450251442184
0.0885786807004
0.328902806247
0.0371881102948
0.0568865307112
0.123988598088
0.14554204205
0.178647624807
0.144008181963
0.0656282510421
0.141791715686
0.176349391292
0.185078426482
0.0323745853886
0.0953230433252
0.238127587652
0.224305341001
0.301343825659
0.267585501686
0.288256798512
0.321879808373
0.408851406839
0.443823599314
0.735889443579
1.03252139585
1.0706786596
0.909290183317
1.12134743596
1.02231603738
0.950134625768
0.978970054588
0.740589417214
0.787855762845
0.824865205701
0.389325116203
0.479618710817
0.509220584503
0.437060946956
0.381937229562
0.0910828680058
0.123962512886
0.10859610869
0.215175067365
0.0335330475617
0.0444585453698
0.1137102926
0.116414300878
0.097754764974
0.0597568143827
0.0148187082783
0.142744059797
0.174429136933
0.133622848157
0.36935617715
0.0792776880639
0.190622577858
0.317878192946
0.170378740016
0.132792119867
0.307991750659
0.247616825092
0.183215306996
0.145309304118
0.268978554228
0.366202558095
0.453332376475
0.432253127038
1.02022226338
0.629255514634
1.3716023358
1.04587374852
1.72731938706
1.2239869357
1.40874466527
1.05603384674
1.1492808839
1.12093953103
1.12329830852
1.07195376185
0.858018764085
0.266457018511
0.841263891695
0.0563669065313
0.0399814198165
0.167791037762
0.117016466374
0.187946946884
0.164251264591
0.130909070803
0.173223823272
0.20935885297
0.142491455641
0.207508289481
0.315171274047
0.360492920136
0.384037777142
0.40444722364
0.4204122504
0.426875981774
0.442059929426
0.512706304907
0.554687967945
0.551328624821
0.593461041017
0.64196247617
0.503935988946
0.475203005395
0.554980984676
0.378907540357
0.268425020808
0.298687590834
0.233695060349
0.240406987942
0.230706935481
0.116589060187
0.148844522716
0.352798094736
0.336888245142
0.709845085211
0.337263085199
0.531968216843
0.882713708891
0.556147796706
0.933112735007
0.768888320813
0.536034845354
1.03841654249
0.823086552907
2.11215592321
0.0817968827436
0.324219241244
0.579813456264
0.103266201158
0.188014768183
0.269662513064
0.24805768909
0.235755943782
0.412466130983
0.184947457438
0.202354741677
0.0215315646053
0.144857369859
0.00232796887721
0.0392415026663
0.0832843373459
0.0450372271977
0.215162566406
0.0598683417484
0.072887957934
0.258469776436
0.19323917784
0.245259281279
0.273633322203
0.351268970055
0.229217951806
0.424866872428
0.36506212765
0.547966889199
1.01570489674
0.972607523481
1.21994264684
1.26061663519
1.36440294078
1.60299283224
1.72562868917
1.66978781866
1.24349128908
1.8041014013
0.490844716862
1.54488281621
0.562376963016
0.98620796623
0.470860768669
0.38159473092
0.217041326459
0.277105542085
0.171991985137
0.300597858409
0.233803911219
0.271681757515
0.296363359806
0.478446542704
0.458226486821
0.346333474464
0.411918376316
0.459815273859
0.332085550482
0.18606685978
0.385328175026
0.31757644015
0.307931268496
0.150204462956
0.278319552217
0.320258735518
0.211919811437
0.36244704689
0.177850088994
0.287006370011
0.0524518211163
0.0267939492157
0.117661018084
0.199216175808
0.0774376113459
0.276412785132
0.242349386472
0.184919645987
0.288288622389
0.16681736557
0.275994560187
0.119840748027
0.22621339408
0.250137193979
0.148393081877
0.136849579992
0.285373439671
0.134486807286
0.306403243205
0.0917606729794
0.119008327924
0.135067826176
0.193381652554
0.346427853277
0.091537848134
0.0682259704314
0.25149613648
0.223522577781
0.0548428680432
0.0304594675687
0.0278676610405
0.0274306775785
0.0193756322766
0.171434026503
0.247516392413
0.0263886186539
0.0545095372526
0.214165522158
0.0706724704105
0.180749772713
0.0722605611807
0.172832146732
0.071455932169
0.0238059232057
0.0962183787853
0.203574345515
0.0897531087389
0.13096747967
0.113743864884
0.219045717066
0.169151736657
0.138392708727
0.0567817152554
0.14535012731
0.246660820063
0.128800071585
0.181393311184
0.195119458682
0.170232813727
0.304189252755
0.389865750275
0.54395556265
0.920394479863
1.16306832021
1.55348582409
1.38555026323
1.68873950048
1.40867111674
1.58974032244
2.14402463422
1.93886861598
1.57124510494
0.697734935628
1.10282222029
1.00713050055
0.428730484998
0.451509415051
0.0488764499503
0.0374065502348
0.0535615630439
0.238263760443
0.0127727070727
0.0661621130774
0.17421820279
0.0236197047809
0.0256016403723
0.00921105861246
0.0621800536752
0.0416080190927
0.0322507476405
0.0537513435628
0.0741097041741
0.0596330568362
0.00678551096741
0.0561607471422
0.0540144232202
0.043297810047
0.0230373558527
0.0409354120053
0.0393915677749
0.0447681413833
0.081216716122
0.0038117881688
0.0155928465073
0.10350246058
0.0968904988227
0.272866306501
0.238113942639
0.195008334733
0.160833187813
0.155551168991
0.237678305671
0.115864832523
0.100034385413
0.213761470085
0.187766018882
0.102001105394
0.249352710247
0.313807760673
0.196757457635
0.267397173631
0.401766229709
0.361077532063
0.454420932477
0.510065688662
0.487565044425
0.490129449922
0.867929049153
0.720285752612
1.01608771769
0.955538942761
1.02788318412
0.860968853587
1.04228968503
0.894455828783
1.18755045357
0.680125394317
1.15399612016
0.49712042571
0.474035049934
0.405880738612
0.197671495776
0.152599109457
0.146817634805
0.266605901841
0.0550283501493
0.0296026440727
0.174033831101
0.0962635550518
0.114177327131
0.107529142544
0.176034219828
0.299750710435
0.111462413202
0.223092725679
0.397820777025
0.282665937039
0.251501783658
0.331266246241
0.316509435919
0.23703387447
0.230427941116
0.352583713606
0.114441456487
0.171341785159
0.230866871568
0.346252936459
0.377428535994
0.221823669548
0.129472067263
0.06833909505
0.0115988461724
0.0659672448076
0.0410685556878
0.0577645574506
0.0578319107445
0.151783160383
0.0277528018978
0.0308189667517
0.0384595094363
0.0685989966358
0.0468800273946
0.0232600554957
0.0208234524605
0.00948552914943
0.0557008235793
0.0659161160404
0.0113168153773
0.144232942981
0.114692304938
0.0921751332832
0.0795021327349
0.165019260744
0.0374920427011
0.0386263663629
0.0743121074769
0.168299264541
0.216060718816
0.101812537849
0.0481251815114
0.215249085016
0.118018392438
0.183210223701
0.0960703129481
0.024000105813
0.0673496182346
0.169592522947
0.116307273205
0.132678659044
0.122802755181
0.106524972605
0.192218686696
0.102884501153
0.170681648223
0.15914495467
0.17150574175
0.182811654044
0.0623113724982
0.137833859776
0.148129861355
0.162214036942
0.101878118639
0.144559232658
0.238135567029
0.329821131221
0.227838662188
0.244300654013
0.173213440045
0.276630715562
0.265065838108
0.393289530966
0.459185404042
0.463994447715
0.455340820167
0.418445930125
0.318535169433
0.471437437931
0.730966335129
1.22669149643
2.05839189721
1.43044293467
2.35863368148
1.82500930784
1000000.0
0.0
0.0
0.0
0.0
0.0
0.0
0.0
0.0
0.0
0.0
0.0
0.0
0.0
0.0
0.0
0.0
0.0
0.0
0.0
0.0
0.0
0.0
0.0
0.0
0.0
0.0
0.0
0.0
0.0
0.0
0.0
0.0
0.0
0.0
0.0
0.0
0.0
0.0
0.0
0.0
0.0
0.0
0.0
0.0
0.0
0.0
0.0
0.0
0.0
0.0
0.0
0.0
0.0
0.0
0.0
0.0
0.0
0.0
0.0
0.0
0.0
0.0
0.0
0.0
0.0
0.0
0.0
0.0
0.0
0.0
0.0
0.0
0.0
0.0
0.0
0.0
0.0
0.0
0.0
0.0
0.0
0.0
0.0
logs/alpha_1.4/PGSD_500steps_3.log 1000341.06023 1000.34106023 0.188085262527 1000000.0 0.0 916
