Initial Policy Parameters:	0.0 0.0
Learning Rate:			1.4
Learning Steps:			700
Start Time:			1437170052.0376086

-- LEARNING STOPPED --

Stop Time:			1437170152.8383825
Duration:			100.80077385902405
Final Policy Parameters:	-0.95323676522 1.00609494896
