Policy Parameters:	-0.831072926256 0.359850969187
Control Steps:		1000
Start Time:		1438398819.280086

-- TESTING STOPPED --

Stop Time:		1438398849.9270413
Duration:		30.646955251693726
Cost Matrix:
0.0553135381579
0.0731267500194
0.0494386170168
0.0400213469527
0.0396751172318
0.0303129536573
0.00744764832473
0.0309328017189
0.0333737845709
0.0603010869733
0.0711169197593
0.0621130496857
0.0628334733356
0.0536338693032
0.0533553564118
0.0657117525325
0.075658690036
0.0953099876153
0.101782494883
0.124567250395
0.107200493613
0.134777906048
0.1657963815
0.135680241522
0.10860037223
0.140335533495
0.149610729043
0.152360150597
0.181050489704
0.201571366332
0.225016108095
0.247633533466
0.271471373746
0.306360161811
0.307718750272
0.305936538735
0.326399060867
0.392735526424
0.386760115812
0.349913676244
0.367958404833
0.366462204806
0.354523794356
0.356450601569
0.364695978062
0.43310205491
0.418612184583
0.36061539116
0.328273010408
0.31878725619
0.28554252799
0.227846871749
0.228375521732
0.156284760087
0.00790009727472
0.0396736494533
0.0414164427352
0.0205870618704
0.0351503382926
0.0245671263378
0.00873429511608
0.0063619156482
0.0149040315519
0.029080898364
0.0095149777423
0.0559868841115
0.0315376156861
0.020390363836
0.0219939507597
0.0126050192878
0.0160049738284
0.0179510541192
0.00732702342539
0.053822723097
0.0619542420721
0.0407281297906
0.0166144417355
0.0317425302844
0.0386538925038
0.0510356902127
0.0649431439636
0.0776212731815
0.0484643074765
0.0482410827102
0.100793591608
0.0247412925254
0.113487727975
0.0443791064762
0.0846229848167
0.0680116772225
0.0804186590226
0.104425185626
0.106044138015
0.128103026438
0.12287554839
0.121769364641
0.14075215184
0.134078430065
0.131302595835
0.142779070234
0.135194825628
0.1318176863
0.130270192871
0.146685788507
0.120118205569
0.117088821085
0.117331897484
0.0572605684906
0.100594671914
0.111998612975
0.0589614295623
0.0681669989957
0.0730877019273
0.0611872974681
0.100572932456
0.0685650640369
0.00665353444872
0.0482130867331
0.0459248232531
0.0329309031295
0.039753067714
0.0272428324902
0.0521122963643
0.0758097617003
0.0673730115938
0.0691312231367
0.0892556401323
0.0901453353572
0.0857656300374
0.0852955444596
0.0862662676362
0.0893108634332
0.0866382973236
0.13819520315
0.118264529935
0.130422249169
0.112873220684
0.100729451286
0.102124724791
0.0840112108127
0.0666726354191
0.0243201276694
0.0638723797124
0.0652873767629
0.0304948328588
0.0261850600241
0.0125413052421
0.0424855059156
0.0211319693281
0.0366966952612
0.0279124414025
0.0150809921028
0.00601514476315
0.0183534301025
0.0243253939479
0.0330007957455
0.0286190798663
0.0330257149919
0.0447154645332
0.049249815156
0.0427695011208
0.0177878299398
0.0395652276561
0.046422197333
0.039699741839
0.0595828996538
0.083741992201
0.0495902557996
0.0277145207953
0.0279570841905
0.0250905513649
0.0137819445808
0.0337275108026
0.01488521782
0.0392331701566
0.0763241291966
0.0558661390203
0.0285519570132
0.0790783547896
0.0665658620327
0.0621785330085
0.0683301431334
0.0499109202492
0.0563220525098
0.0492786042562
0.00619542506678
0.0654152179416
0.082211162954
0.0818444784983
0.0552629181537
0.0223207934714
0.0385398262973
0.0629492522437
0.0801196842366
0.0975009878687
0.0695482290714
0.0460130245183
0.0413702422348
0.0826262554917
0.0972230749536
0.0786369558709
0.0496378860342
0.0796787234276
0.113636330506
0.171775416858
0.23194243698
0.330242265661
0.522409035877
0.690485567204
0.72201839466
0.661637486261
0.392578362076
0.533056185098
0.771275151399
1.0287257968
0.746509050452
1000000.0
0.0
0.0
0.0
0.0
0.0
0.0
0.0
0.0
0.0
0.0
0.0
0.0
0.0
0.0
0.0
0.0
0.0
0.0
0.0
0.0
0.0
0.0
0.0
0.0
0.0
0.0
0.0
0.0
0.0
0.0
0.0
0.0
0.0
0.0
0.0
0.0
0.0
0.0
0.0
0.0
0.0
0.0
0.0
0.0
0.0
0.0
0.0
0.0
0.0
0.0
0.0
0.0
0.0
0.0
0.0
0.0
0.0
0.0
0.0
0.0
0.0
0.0
0.0
0.0
0.0
0.0
0.0
0.0
0.0
0.0
0.0
0.0
0.0
0.0
0.0
0.0
0.0
0.0
0.0
0.0
0.0
0.0
0.0
0.0
0.0
0.0
0.0
0.0
0.0
0.0
0.0
0.0
0.0
0.0
0.0
0.0
0.0
0.0
0.0
0.0
0.0
0.0
0.0
0.0
0.0
0.0
0.0
0.0
0.0
0.0
0.0
0.0
0.0
0.0
0.0
0.0
0.0
0.0
0.0
0.0
0.0
0.0
0.0
0.0
0.0
0.0
0.0
0.0
0.0
0.0
0.0
0.0
0.0
0.0
0.0
0.0
0.0
0.0
0.0
0.0
0.0
0.0
0.0
0.0
0.0
0.0
0.0
0.0
0.0
0.0
0.0
0.0
0.0
0.0
0.0
0.0
0.0
0.0
0.0
0.0
0.0
0.0
0.0
0.0
0.0
0.0
0.0
0.0
0.0
0.0
0.0
0.0
0.0
0.0
0.0
0.0
0.0
0.0
0.0
0.0
0.0
0.0
0.0
0.0
0.0
0.0
0.0
0.0
0.0
0.0
0.0
0.0
0.0
0.0
0.0
0.0
0.0
0.0
0.0
0.0
0.0
0.0
0.0
0.0
0.0
0.0
0.0
0.0
0.0
0.0
0.0
0.0
0.0
0.0
0.0
0.0
0.0
0.0
0.0
0.0
0.0
0.0
0.0
0.0
0.0
0.0
0.0
0.0
0.0
0.0
0.0
0.0
0.0
0.0
0.0
0.0
0.0
0.0
0.0
0.0
0.0
0.0
0.0
0.0
0.0
0.0
0.0
0.0
0.0
0.0
0.0
0.0
0.0
0.0
0.0
0.0
0.0
0.0
0.0
0.0
0.0
0.0
0.0
0.0
0.0
0.0
0.0
0.0
0.0
0.0
0.0
0.0
0.0
0.0
0.0
0.0
0.0
0.0
0.0
0.0
0.0
0.0
0.0
0.0
0.0
0.0
0.0
0.0
0.0
0.0
0.0
0.0
0.0
0.0
0.0
0.0
0.0
0.0
0.0
0.0
0.0
0.0
0.0
0.0
0.0
0.0
0.0
0.0
0.0
0.0
0.0
0.0
0.0
0.0
0.0
0.0
0.0
0.0
0.0
0.0
0.0
0.0
0.0
0.0
0.0
0.0
0.0
0.0
0.0
0.0
0.0
0.0
0.0
0.0
0.0
0.0
0.0
0.0
0.0
0.0
0.0
0.0
0.0
0.0
0.0
0.0
0.0
0.0
0.0
0.0
0.0
0.0
0.0
0.0
0.0
0.0
0.0
0.0
0.0
0.0
0.0
0.0
0.0
0.0
0.0
0.0
0.0
0.0
0.0
0.0
0.0
0.0
0.0
0.0
0.0
0.0
0.0
0.0
0.0
0.0
0.0
0.0
0.0
0.0
0.0
0.0
0.0
0.0
0.0
0.0
0.0
0.0
0.0
0.0
0.0
0.0
0.0
0.0
0.0
0.0
0.0
0.0
0.0
0.0
0.0
0.0
0.0
0.0
0.0
0.0
0.0
0.0
0.0
0.0
0.0
0.0
0.0
0.0
0.0
0.0
0.0
0.0
0.0
0.0
0.0
0.0
0.0
0.0
0.0
0.0
0.0
0.0
0.0
0.0
0.0
0.0
0.0
0.0
0.0
0.0
0.0
0.0
0.0
0.0
0.0
0.0
0.0
0.0
0.0
0.0
0.0
0.0
0.0
0.0
0.0
0.0
0.0
0.0
0.0
0.0
0.0
0.0
0.0
0.0
0.0
0.0
0.0
0.0
0.0
0.0
0.0
0.0
0.0
0.0
0.0
0.0
0.0
0.0
0.0
0.0
0.0
0.0
0.0
0.0
0.0
0.0
0.0
0.0
0.0
0.0
0.0
0.0
0.0
0.0
0.0
0.0
0.0
0.0
0.0
0.0
0.0
0.0
0.0
0.0
0.0
0.0
0.0
0.0
0.0
0.0
0.0
0.0
0.0
0.0
0.0
0.0
0.0
0.0
0.0
0.0
0.0
0.0
0.0
0.0
0.0
0.0
0.0
0.0
0.0
0.0
0.0
0.0
0.0
0.0
0.0
0.0
0.0
0.0
0.0
0.0
0.0
0.0
0.0
0.0
0.0
0.0
0.0
0.0
0.0
0.0
0.0
0.0
0.0
0.0
0.0
0.0
0.0
0.0
0.0
0.0
0.0
0.0
0.0
0.0
0.0
0.0
0.0
0.0
0.0
0.0
0.0
0.0
0.0
0.0
0.0
0.0
0.0
0.0
0.0
0.0
0.0
0.0
0.0
0.0
0.0
0.0
0.0
0.0
0.0
0.0
0.0
0.0
0.0
0.0
0.0
0.0
0.0
0.0
0.0
0.0
0.0
0.0
0.0
0.0
0.0
0.0
0.0
0.0
0.0
0.0
0.0
0.0
0.0
0.0
0.0
0.0
0.0
0.0
0.0
0.0
0.0
0.0
0.0
0.0
0.0
0.0
0.0
0.0
0.0
0.0
0.0
0.0
0.0
0.0
0.0
0.0
0.0
0.0
0.0
0.0
0.0
0.0
0.0
0.0
0.0
0.0
0.0
0.0
0.0
0.0
0.0
0.0
0.0
0.0
0.0
0.0
0.0
0.0
0.0
0.0
0.0
0.0
0.0
0.0
0.0
0.0
0.0
0.0
0.0
0.0
0.0
0.0
0.0
0.0
0.0
0.0
0.0
0.0
0.0
0.0
0.0
0.0
0.0
0.0
0.0
0.0
0.0
0.0
0.0
0.0
0.0
0.0
0.0
0.0
0.0
0.0
0.0
0.0
0.0
0.0
0.0
0.0
0.0
0.0
0.0
0.0
0.0
0.0
0.0
0.0
0.0
0.0
0.0
0.0
0.0
0.0
0.0
0.0
0.0
0.0
0.0
0.0
0.0
0.0
0.0
0.0
0.0
0.0
0.0
0.0
0.0
0.0
0.0
0.0
0.0
0.0
0.0
0.0
0.0
0.0
0.0
0.0
0.0
0.0
0.0
0.0
0.0
0.0
0.0
0.0
0.0
0.0
0.0
0.0
0.0
0.0
0.0
0.0
0.0
0.0
0.0
0.0
0.0
0.0
0.0
0.0
0.0
0.0
0.0
0.0
0.0
0.0
0.0
0.0
0.0
0.0
0.0
0.0
0.0
0.0
0.0
0.0
0.0
logs/alpha_1.4/PGSD_400steps_3.log 1000026.29525 1000.02629525 0.0 1000000.0 0.0 216
