Policy Parameters:	-1.57655834393 1.49371643458
Control Steps:		1000
Start Time:		1438399271.7101781

-- TESTING STOPPED --

Stop Time:		1438399427.4611914
Duration:		155.75101327896118
Cost Matrix:
0.0062444968149
0.0196402161831
0.0270117329005
0.0123762995047
0.00643448511783
0.00740840015736
0.00738814955368
0.0572298319065
0.128852736805
0.147466824488
0.0558988334783
0.0114150223632
0.00634647557243
0.0503891079237
0.0998023614844
0.0963417696171
0.0404503081566
0.050801726067
0.0446747590245
0.0757772464908
0.0815876854706
0.00964354634878
0.0217235054183
0.0435211734989
0.0774170985002
0.0714146854585
0.0728835813082
0.100242264569
0.0885685153682
0.0842835454553
0.124701539612
0.071216397434
0.116837026111
0.100751347924
0.10085011562
0.0690773849305
0.0829161066723
0.0879135893881
0.0969729168544
0.109692198281
0.037057198294
0.0422071151486
0.0577895400059
0.0452815283273
0.0645475503963
0.1148847472
0.129368735064
0.0646445612044
0.0808647530832
0.119968243456
0.0767283649862
0.0171045074883
0.0523406753838
0.075770927755
0.0402272798246
0.0110405187555
0.0926145254188
0.159752767485
0.101147206651
0.0517722105457
0.0227752951539
0.0726520260846
0.117076470635
0.0652614292844
0.0996916729753
0.122557576004
0.114450716316
0.0281179444997
0.0431009909152
0.116588294161
0.200044977203
0.187540285931
0.218284228149
0.21652257852
0.267226859315
0.349151066769
0.512634407604
0.748314718771
1.05818304368
0.888391862927
1.12472059084
0.988659116048
0.844693378495
1.30982748317
0.906099662767
1.46095612149
1.14448589678
0.734406581853
0.988447670032
1.05107559445
0.103039039676
0.158844369849
0.019682734343
0.020807377363
0.0235812156967
0.00693425135048
0.0208793162721
0.0272891334163
0.0156457214936
0.0307925122999
0.035169464472
0.023898248038
0.0344153717881
0.0436904653621
0.0634575372483
0.0871242350285
0.0531531302508
0.0261661886816
0.0480908912119
0.0587924201659
0.0543588395856
0.0835472558132
0.0551975734673
0.0636385036851
0.0955567145361
0.0630854142079
0.0270555953256
0.0286472320007
0.0109189935809
0.052543732426
0.0824896047552
0.033240450673
0.0644818169163
0.281165663073
0.416947710301
0.109281091103
0.0978230291203
0.108344646799
0.0591855278375
0.0763027756322
0.0743699570633
0.0990197478462
0.146742978508
0.0883116004043
0.0646436854459
0.0661427296211
0.0247938165963
0.0559821485832
0.105178761132
0.114397208572
0.0604946811745
0.101680563958
0.169394514041
0.185520795501
0.205481470285
0.154924951839
0.206349310091
0.30740710781
0.375721432417
0.421104505287
0.590066364117
0.95243309149
1.11996745979
1.28248121604
1.34589934639
1.49123809758
2.11399791376
0.752126200497
0.0908839105531
0.020735264324
0.0318899575096
0.0947530115567
0.17781683966
0.194988166654
0.201488871879
0.173042522005
0.0738410583589
0.135178263949
0.190023746828
0.17109808809
0.106261665434
0.105782133497
0.0594686741901
0.0778491664148
0.163927355987
0.200488237862
0.236003059711
0.278336396509
0.271626071438
0.283027456424
0.311885859451
0.168395580665
0.16559130076
0.21165174726
0.210634836634
0.209463674835
0.215961604105
0.152365957585
0.164768909101
0.178710719108
0.149315835154
0.15078364495
0.168182813698
0.14811587421
0.0859924689693
0.105785901415
0.14435521604
0.116620045504
0.0965896260131
0.045472409631
0.0997659168236
0.166630075034
0.1774608261
0.101681733692
0.121735418486
0.116689576906
0.109254368833
0.040285433268
0.0424077848787
0.0119922850285
0.0350199908111
0.0865394284449
0.124574563171
0.145062726239
0.189141406344
0.195822125786
0.229490398421
0.253189277705
0.309085015717
0.423214282416
0.4841401209
0.526614324155
0.552849238453
0.615200783725
0.701668542569
0.672769573143
0.858812702465
0.712004775891
0.762522032989
0.945217603373
0.572837926243
0.445058157637
0.478808108278
0.310417596859
0.286050927571
0.226669471807
0.203165667368
0.112483177515
0.0941531865215
0.0403885517394
0.0615526158247
0.025941401781
0.0597894497626
0.0919143163852
0.0542224800847
0.0253180765884
0.0576653567104
0.104779035988
0.114614814807
0.0548348411752
0.0423948827762
0.0386404334696
0.0667416037658
0.0811600839546
0.0399136559638
0.00175821397115
0.0211661890661
0.0560531747566
0.0650637439652
0.019514348457
0.0387049766746
0.093453211618
0.122110085146
0.0761664410166
0.00124920976969
0.00606023390475
0.089163849748
0.13564183932
0.0222376502741
0.0526079673954
0.0754747559028
0.0269247992245
0.0318561517758
0.0392145677474
0.0451050110428
0.0586461918938
0.0476783584112
0.0410513120252
0.0253135381388
0.0211122720104
0.00141469673715
0.0104026421897
0.0199948419515
0.0262189861835
0.0312636180315
0.0542142658471
0.0720551312345
0.0300187754685
0.0461057196951
0.0669472053915
0.0827661939856
0.10906893026
0.165087138983
0.1834687566
0.200654351668
0.229879826738
0.242925795459
0.260407390745
0.341030505546
0.418257961683
0.436234145755
0.448322519216
0.491597810468
0.526735516809
0.538363981853
0.537180238069
0.564876704152
0.593329278318
0.546962966945
0.441221250756
0.472499340399
0.326563359244
0.166470664658
0.123602631494
0.0405672045626
0.0474916925859
0.0753387661954
0.086031189117
0.0948848061951
0.148801552089
0.147800741936
0.13103865035
0.12600899665
0.122185302892
0.141227100098
0.153971335796
0.178093181719
0.278926082129
0.27954854265
0.253785739233
0.278848228503
0.294517620941
0.293995636626
0.287911427918
0.271440082374
0.279605271003
0.264511095989
0.263421739619
0.249087879483
0.226998377049
0.163713137818
0.14789267443
0.0604103828061
0.0328025607091
0.0434949730068
0.0268119322457
0.0380306202859
0.0629149313541
0.0993891866732
0.138358600569
0.166554112994
0.131716146044
0.100217070358
0.145882573658
0.148442112063
0.147961538699
0.155607496884
0.148498442942
0.190052605915
0.248702391948
0.264561414229
0.262478702368
0.332500759811
0.378122870996
0.388662966744
0.392881360868
0.335468169818
0.343042383219
0.36510453474
0.368254235526
0.353699962217
0.286411205307
0.293239388317
0.28294088037
0.202758308764
0.234777598108
0.237350056193
0.147443322848
0.0322272993409
0.0654162792276
0.138646979689
0.164902506645
0.143409715496
0.115533534964
0.141032638594
0.124955003485
0.160092470791
0.214769996726
0.220272984247
0.244536407448
0.268233258742
0.263218792617
0.246865459288
0.267744331612
0.241665221739
0.150770899606
0.242042174541
0.254355223155
0.271604796439
0.291580917718
0.259112561744
0.205004517234
0.132056605341
0.0946752176833
0.0924696263144
0.122215282981
0.101807526079
0.0764448969161
0.0376920663491
0.0397654802898
0.0579590516891
0.0186969592668
0.046402794101
0.0630144688864
0.0163039111385
0.0167606255285
0.0294760022509
0.0255389854518
0.0566746901048
0.0768259065561
0.0698104056134
0.0655511130276
0.0633397041132
0.0609801101729
0.0400281515507
0.0740497114801
0.118298197842
0.153322542237
0.170786640628
0.211375559835
0.205868193316
0.113287715642
0.12574788754
0.159507978968
0.208562781552
0.204734724552
0.19084635095
0.243228751229
0.236366903396
0.250134070876
0.270045545675
0.271475362585
0.26191651332
0.271235741286
0.261604119393
0.223842923608
0.221988228681
0.192833673437
0.279662023963
0.274695834476
0.19508046465
0.171201504052
0.130592108497
0.137660710743
0.149862926225
0.131088909988
0.185179579766
0.0229457476686
0.0405282990787
0.0375941458438
0.0564117557715
0.0965185405745
0.0977327728641
0.0933435476777
0.0998895039527
0.101582965198
0.0887197183701
0.0542810621571
0.0744936051999
0.0634225823284
0.116790364458
0.118877891802
0.103996383406
0.0869720403923
0.137683345843
0.14928551129
0.142770772478
0.141652026823
0.147950042946
0.147988923468
0.115852241887
0.0486565116694
0.0752177946297
0.141456268591
0.175551262017
0.181883286199
0.17902233047
0.180931991581
0.187663918645
0.185667437693
0.181691177433
0.186262081818
0.189716048891
0.194024124782
0.199149008798
0.214428899059
0.223432293446
0.21959646395
0.229104314537
0.224189069826
0.223447098709
0.232504594172
0.250137282371
0.255808819163
0.265180855188
0.275997264593
0.276303187671
0.264728142775
0.27190511956
0.274946521497
0.300138990243
0.30324636153
0.3154146941
0.354899926102
0.348539987201
0.346533273687
0.354228630842
0.379487234609
0.381357889657
0.406829365759
0.431567004806
0.40969759074
0.420312503857
0.445496439663
0.45810416013
0.466107536895
0.440486561893
0.46410941363
0.495413794488
0.560936189998
0.603934949272
0.618547800127
0.690550370804
0.656597472121
0.753728704265
0.685192115817
0.977067782865
0.699536774471
0.824931074547
0.787879771907
0.646871274111
0.691254140471
0.78444487482
0.845552000747
0.795109802295
0.827712895967
0.555052850627
0.497838904818
0.639081716324
1.04386669156
0.747565292543
0.656327152649
0.931924380788
0.776975889499
0.601258521868
0.81688501385
0.532614634173
0.703060076692
1.07466007785
0.495071456072
0.497024396548
0.694984663969
0.602179188647
1.18172429543
2.40380612858
0.374233836264
0.515469685079
0.480939286523
0.460828871119
0.445724875531
0.428285802688
0.425758734039
0.408597464265
0.35440909436
0.319234569111
0.339402728702
0.329218603784
0.299704848987
0.300681912822
0.235082515672
0.228961297339
0.191403555142
0.17856618734
0.119637382256
0.0605153479323
0.0592478406443
0.18181811793
0.340691722371
0.476249066857
0.583993097158
0.681304812648
0.792804453948
0.900623515859
0.814742838506
0.922290533823
1.05069949404
0.820753592621
0.638501416243
1.24271031708
0.115321613145
0.0692502561653
0.0499130452753
0.0882232967605
0.144207756943
0.220972392126
0.234667079323
0.227500723007
0.211216182775
0.267899660832
0.309607758368
0.314123266041
0.30749691643
0.296718316637
0.281325651244
0.274392660896
0.273739637854
0.256697823371
0.263368878003
0.258403696596
0.269408976228
0.283998685016
0.252495946213
0.285547943659
0.292530263728
0.289236754394
0.277016910111
0.260291456325
0.209328493999
0.189661374909
0.201828319635
0.222820163047
0.219719961312
0.20390874458
0.185242535933
0.168033154721
0.169976749444
0.158153002419
0.15766363079
0.168453570385
0.158718434393
0.186675081732
0.176882526004
0.192184317587
0.192508169613
0.16554009443
0.121029015309
0.104075516553
0.0709183249533
0.0881964916232
0.0579220663373
0.0570831779227
0.128949357859
0.153111880365
0.109119905291
0.0479424262673
0.0541622691202
0.0236221694876
0.039770122785
0.0666246297569
0.102943413638
0.0955708834536
0.0528878856797
0.0859130633538
0.101850332687
0.075588983447
0.0496932006802
0.0822205728126
0.0558085131927
0.0314312542144
0.0253278123162
0.0148045101931
0.021173630815
0.0206873976806
0.0361361370551
0.0661592862878
0.0756900435909
0.0757037631772
0.0431608527178
0.0277454938629
0.0483826515612
0.0384607992043
0.062760196758
0.059095763541
0.0925389207031
0.117576944917
0.139768282517
0.12880181492
0.0716615314504
0.0638228481889
0.069870914585
0.0710295469532
0.0800476263589
0.114108929367
0.13055649883
0.138016715509
0.138257845485
0.133995657024
0.147238408067
0.152885104232
0.156439597278
0.1624603045
0.160453892368
0.162389215771
0.178457662499
0.185882691452
0.184035581109
0.192625161255
0.197607347343
0.190834876924
0.189696394375
0.205446303221
0.217277714367
0.228429677858
0.236938286612
0.241192710984
0.248818605546
0.255900053986
0.27187973488
0.277807032752
0.302265503266
0.312524820019
0.310965014941
0.321913197842
0.337626554006
0.352080186163
0.356553690063
0.372261853075
0.400643735077
0.428283292773
0.435425473464
0.459104621284
0.495875367685
0.526792446817
0.57471923122
0.620497206691
0.61314410244
0.660087404458
0.772939959063
0.671063161211
0.931006000032
0.875320115391
0.841539752292
0.902880370951
1.10845375524
0.970152475822
1.132410126
0.976513858902
1.24828760469
1.10479520671
1.13447508145
1.2550968388
1.36742535474
1.45288302259
0.913020796678
1.07435872172
1.16530671262
1.13246780577
2.28798311663
0.975236340243
1.31049894904
1.13484397848
1.05606523091
1.07264506699
1.16819012709
0.76447666893
0.941854593611
0.785545542173
0.959507006362
0.690547222171
0.806029166872
0.580406287541
0.604722413301
0.569612216451
0.499316315099
0.472657577932
0.439681662524
0.413364451128
0.376782372902
0.375549397999
0.332525171406
0.312574115641
0.276854883316
0.255693861034
0.24907371892
0.241564841673
0.242298933536
0.216734268457
0.199362006548
0.200673832205
0.184475562583
0.196638237488
0.182724132321
0.164816814239
0.171560485068
0.176913517114
0.164042891806
0.161762746526
0.18049298115
0.211821546463
0.188061825855
0.146951224022
0.101323774056
0.0927805317862
0.0882599482381
0.0799940246163
0.0657330849149
0.0872454875847
0.0772115219302
0.0854876299186
0.0709031617629
0.0641844950156
0.0554705771067
0.0594327377571
0.062060820017
0.0634997726622
0.0853893773737
0.0779207359309
0.0281305626737
0.0249955010851
0.0452338423363
0.0137676405217
0.0237317390888
0.0303453465026
0.0408212223296
0.0452464423971
0.049182707968
0.029960520626
0.0318410940485
0.0529441078006
0.0548639451139
0.0492572504024
0.0334019659389
0.0370746702484
0.0231864073595
0.0319413291951
0.0313734900048
0.0380869548259
0.0247753592838
0.0395991216519
0.0375145104825
0.0124198066169
0.0221821072813
0.0439011969059
0.0580600815166
0.0345308020714
0.018285267792
0.0603054915324
0.0960241097673
0.0114946049444
0.0234582414749
0.0557244228662
0.0909424883488
0.0437524931375
0.0270187757374
0.0294460442275
0.049315639397
0.00950496207154
0.0136816619372
0.00399593705122
0.00516214546824
0.00729898029984
0.018815986131
0.0244903271954
0.0216962135266
0.0406393725424
0.0354406174001
0.0272441142525
0.0466250500653
0.0303851506204
0.0374345774989
0.0132882650503
0.0231786273725
0.0244579313693
0.0343278760861
0.0414160706926
0.0947066271966
0.156583055796
0.18683442826
0.0734782250998
0.0569443026196
0.0817609086845
0.0755546810926
0.0871444355797
0.134591080788
0.0916713020957
0.107522986005
0.0911243235278
0.116935779399
0.14758084945
0.139648322268
0.121402399698
0.119997383631
0.136127806154
0.208858946129
0.227176002417
0.25365852601
0.255333137622
0.303701349532
0.331532000545
0.307134171347
0.330178932499
0.396040409831
0.444341265102
0.447174812471
0.437657095204
0.441082469785
0.440378875331
0.463681043904
0.476506521484
0.511498452934
0.482658227344
0.458369921309
0.493030461854
0.388812947001
0.362452386227
0.358072449085
0.275116510178
0.257728972639
0.269735443724
0.123334059538
0.0154753460751
0.0203452928319
0.0317360821274
0.0323121461066
0.0338235939267
0.0405900564808
0.038947739944
0.0433696414848
0.0583754617412
0.0665398658013
0.0624450963871
0.0886316142252
0.0738365994134
0.03371451387
0.00533288630561
0.00837817926617
0.00871150213215
0.0249872691247
0.042235779369
0.0337115306846
0.0291740235039
0.00329276406563
0.0143417226452
0.0355847104949
0.0523822725003
0.0511802120099
0.0644118732968
0.0586386000678
0.0172964710467
0.0218191734025
0.024415257968
0.028080335766
0.0379981392518
0.0100172202319
0.0620919695805
0.108785065853
0.0936430607598
0.0810996197163
0.0812549449966
0.0829537569643
0.139579382316
0.178338051076
0.142314371474
0.0956981851323
0.0786365139272
0.114805520374
0.167757981279
0.136468454723
0.131615148381
0.17370752415
0.107854641454
0.110384902934
0.136017771966
0.102097006474
0.130473979518
0.176081630958
0.172325290584
0.192990945989
0.21796894693
0.178186590938
0.0680578729003
0.0590705982596
0.0709297234186
0.0464766912414
0.0312377480755
0.0173805861581
0.0148075540644
0.0554242808881
0.087893366607
0.053254960172
0.0403464776414
0.0318414424745
0.027868347499
0.0204204219518
0.0318934410981
0.0377251508446
0.0327960824572
0.0450691164684
0.056748718514
0.0623689077639
logs/alpha_1.4/PGSD_500steps_0.log 241.281278631 0.241281278631 0.14470897114 2.40380612858 0.00124920976969 -1
