Policy Parameters:	-2.64492093181 5.04303814264
Control Steps:		1000
Start Time:		1438410747.1505551

-- TESTING STOPPED --

Stop Time:		1438410926.6137953
Duration:		179.46324014663696
Cost Matrix:
0.557235501141
3.23606103451
0.350862128951
2.76977464464
0.230769875261
1.77406161324
0.206840480675
0.327084574012
0.0470414636171
0.0184847060996
0.15509271783
0.17629306305
0.315371960309
0.140043628296
0.0976046961041
0.208359191808
0.206278535227
0.280832865154
0.273732387823
0.337933457524
0.169272746203
0.230315456719
0.37074942798
0.324603373526
0.289092311605
0.223261583314
0.169177593294
0.106310412411
0.159594895906
0.357805902533
0.247447587245
0.0741881124754
0.232417072363
0.454285494192
0.431246264838
0.403598631205
0.562463597199
1.40051452512
1.38741429471
1.20911877153
1.4273443197
1.33502554303
1.17517265481
1.06120747646
1.45456185257
0.553173610806
1.53310838727
0.0827842274953
0.156677788844
0.387776897161
0.500801976986
0.522327153165
0.488765381691
0.437593467348
0.475672299734
0.492914626866
0.23579671898
0.006072139201
0.00347108381665
0.160398523621
0.258456754649
0.492943192265
0.199176858702
0.458233851085
0.415832893546
0.257236754096
0.363032711887
0.366034095846
0.376008550614
0.362956443553
0.321302958928
0.599151692414
0.743008800067
0.682709733423
0.667985202869
1.20935612816
0.986407180367
1.21265121814
0.94281826282
0.798565031949
1.11427807934
1.15111927777
0.562678454137
0.648450749704
0.498462424779
0.624117976332
0.322367661817
0.211854848872
0.00923977781624
0.0316171795276
0.0437029111837
0.171191601816
0.0
0.0824100582391
0.0529323746022
0.169822902711
0.288048771204
0.08817967463
0.0614430374697
0.166977123776
0.314648101736
0.353160476686
0.0902138977472
0.00668009739606
0.0900266625478
0.188860745905
0.299782426854
0.367516722361
0.205706592135
0.471483289258
0.283264770494
0.459983405237
0.17295057085
0.41115514852
0.262684282889
0.141592674716
0.110721834876
0.085470167525
0.223331703191
0.444702318743
0.555405457227
0.3494649166
1.05810593858
1.38718507277
1.33994768266
1.48500917413
1.58859419632
1.6340136979
1.25507782047
1.9682410385
1.46912933909
0.656078393584
1.90828237641
0.323779883274
1.08289976911
0.0364254267097
0.0101703160841
0.0746495683958
0.24803139044
0.0940586420922
0.0134360272016
0.0675207952565
0.18901877557
0.332232952189
0.42816838092
1.05690764769
1.35831636822
0.330519574024
0.820301652799
0.794965572099
0.434626878053
0.546737703252
1.0707932867
0.273216889661
0.508838755647
0.822149665671
0.172610671977
0.342783584671
1.17963016351
0.279428709384
0.320028885636
0.183564788835
0.195945581635
0.193782743385
0.280848047201
0.200902833118
0.294683734329
0.471727404449
0.195450639721
0.393201810217
0.0876433945347
0.0902337959367
0.075051824141
0.0569200593872
0.085545543219
0.125306117914
0.222895797615
0.430480082197
0.504122830943
0.572676081837
0.910797861674
0.571043041459
0.88360475877
1.00975379694
0.509178396548
1.01824393269
0.516864312028
0.527551666274
0.452002100856
0.268467431499
0.21156739342
0.115420196729
0.020977676121
0.231835510262
0.467416167467
0.397661674686
0.449322656218
1.54702542311
0.0232112429691
0.0143187771339
0.0384435769232
0.0204426319025
0.0399848520393
0.159830990427
0.148040137881
0.0320215275625
0.056533406068
0.0574941470629
0.110138281329
0.0314909460867
0.0412773767243
0.0341880083847
0.147203845206
0.121527915381
0.199454531908
0.398028376901
0.335283437468
0.430906441419
0.454533822943
0.465241366497
0.478287351763
0.482176097856
0.475955262985
0.773216376202
0.462137542126
1.07991861148
0.659725598726
0.725658031968
1.36364258298
0.494116680078
1.10998192191
0.489333903237
0.409046181497
0.744438239273
0.480154305129
0.729623689333
0.289023471386
0.349227423228
0.139717830955
0.406801936314
0.0761417773998
0.0259417869048
0.228874444123
0.260848728521
0.304289453786
0.224822630024
0.259297351828
0.276048060004
0.243452485611
0.23944299717
0.201182110975
0.174235742405
0.225135162946
0.192093108899
0.177529802603
0.172941920387
0.0642994210019
0.076728899055
0.0702675943518
0.0750683433996
0.11812661271
0.163274026486
0.1959206603
0.220815758238
0.208947803275
0.176812168181
0.230887917742
0.283944565729
0.270287168421
0.2454952521
0.271987321365
0.292234670678
0.253578316974
0.295315534555
0.322330405218
0.277222495746
0.282269384776
0.303432768834
0.310575076639
0.276029643218
0.347304647599
0.332247087849
0.323029454459
0.375692016463
0.35627275643
0.380006337234
0.404818996997
0.417902624743
0.410137452513
0.456067383946
0.433843816365
0.43880750449
0.426246604322
0.49087467993
0.499768078989
0.495325533013
0.518425271421
0.54055153679
0.52308422299
0.519307759095
0.615827052432
0.540164028047
0.735433811221
0.478953579317
0.647846466822
0.535444814558
0.796303003709
0.489890400219
0.83132803841
0.545593693659
0.921270469917
0.520539216055
0.939141273775
0.545239212081
0.942674825786
0.550724635244
1.10637341246
0.512117102987
1.04349528971
0.574244336661
1.01125709855
0.54702849672
1.02318673472
0.519484708597
1.06601447678
0.593892561206
0.967636347738
0.629527752157
0.934777300328
0.572552308587
0.931282392899
0.537997636668
1.0119032265
0.519780106797
0.921863403342
0.475950697521
0.826351242828
0.537011554996
0.787908347158
0.548932935168
0.785771092107
0.512859698144
0.634216304106
0.518894346812
0.597047970157
0.495420500354
0.477880149536
0.429551831207
0.398412763758
0.411098700151
0.532641879083
0.454107715026
0.475302158168
0.387967575609
0.35789817475
0.339961611604
0.333426454901
0.33936684175
0.30424541171
0.306570731006
0.340889261968
0.265611019547
0.346714841838
0.368981268483
0.29881915885
0.240753887684
0.249613565703
0.257630249569
0.344997840904
0.170582666772
0.261766157942
0.289200407647
0.199981001936
0.266739924839
0.338940177942
0.324709651781
0.311891520142
0.269404174036
0.265109270596
0.211717188364
0.241440795268
0.276904974978
0.277069582268
0.302033535921
0.272985235957
0.319148990199
0.354388662748
0.313739767235
0.32491319353
0.355061873584
0.323250558279
0.306775459245
0.421322151287
0.381478977093
0.401664292945
0.412059366962
0.418234882605
0.442409578337
0.424928855147
0.482867487324
0.461891681876
0.484739616647
0.484803363177
0.504886490916
0.491295077397
0.510515969614
0.496715506509
0.594008181886
0.339547538346
0.445010223069
0.812720295241
0.494851463081
0.490155306155
0.855843319019
0.548432599702
0.987904787149
1.28652323135
1.05466920744
1.496202537
1.85242338896
1.46177487532
2.31865231073
1.93825645082
1.83797481105
1.63603690503
1.72543693721
2.59584665486
0.0730461486984
0.575272301493
0.205013875238
0.374185058771
0.34111891655
0.283682690294
0.242900631697
0.186151319111
0.176059437804
0.135750673431
0.0354938141071
0.0769346060192
0.0614256202318
0.215408415424
0.323613953755
0.187287860867
0.0803298318954
0.19690736337
0.419289866867
0.258676134832
0.337046782917
0.360020849982
0.285324488963
0.297960901316
0.173186954298
0.166644923616
0.176381267789
0.157568038613
0.117716573316
0.105492706452
0.132653757919
0.171003672681
0.212554527318
0.130829641575
0.0347682898902
0.161775195931
0.194669302686
0.239912476241
0.295151134812
0.464082445299
0.192883582494
0.366724049661
0.390648862141
0.46611138905
0.450755532594
0.481173706063
0.456942460805
0.511147829812
0.678468151664
0.554790978258
1.23021186858
1.03649389594
2.69235948095
0.486435083883
1.97471613298
0.711391808246
1.78531398978
0.362562723603
0.834407401894
1.01600377648
0.500986475261
0.691346363337
0.105824364475
0.246531737867
0.257539087564
0.204008251197
0.491311218115
0.0825625576436
0.328316448086
0.273748730806
0.212596289983
0.155837737514
0.21333359056
0.439400003464
0.26155298242
0.348744691758
0.393600787637
0.490379725857
0.421801718926
0.51593424755
1.08483268052
0.512803702214
0.453629006481
0.453312204304
0.494912582924
0.375933001099
0.420021054655
0.595369416188
0.486938059344
0.488221578521
0.394212866725
0.426760054901
0.293295430627
0.32572136331
0.210807873188
0.161150691372
0.415088446963
0.799041548952
0.812569201513
0.952152560561
0.978039093266
1.01934402902
1.04170225707
1.06820181453
1.33136249499
0.967283638856
1.11676878508
0.955975553759
1.22299689557
0.547188927069
0.374049108243
0.16506215216
0.133353669696
0.159369704778
0.238868576187
0.242014374809
0.387224495027
0.345807967506
0.312922639822
0.304081857709
0.317459051942
0.340996859193
0.359282118109
0.406632945056
0.471681009639
0.440541180395
0.489477686961
0.432638478952
0.3647055282
0.364627668431
0.332742709777
0.373196960045
0.282236974201
0.38880931252
0.141917821577
0.221860279789
0.04312705131
0.0315416850176
0.0533339203742
0.0513826041519
0.0588735561458
0.27100144858
0.354073121077
0.0861957779842
0.103703069409
0.157992146089
0.212526648798
0.209647582155
0.271221346453
0.472142502818
0.401163641295
0.448157113694
0.491268579781
0.846768544499
0.890534438597
0.608099644302
0.538327306092
1.12140591049
0.518059516494
0.447707214366
0.835830632033
0.27011263852
0.307527912743
0.540760427445
0.444653623194
0.149420117629
0.124596525003
0.14438770392
0.0410816604114
0.0237119295553
0.0280154494778
0.068391441504
0.305402460867
0.202638045687
0.403486121338
0.242096725802
0.373474479809
0.400900596784
0.43654463046
0.680494735069
0.380496230738
0.357427754614
0.391342251431
0.324584962013
0.388390675635
0.339149203138
0.385853013711
0.532954596126
0.523874897918
0.188094960289
0.472370232036
0.00335943953119
0.0553665090747
0.0835114239999
0.0925606388709
0.16407765572
0.356810842359
0.380602902713
0.494526190409
0.667943864619
1.03015885614
1.69051112298
2.6475958741
0.708995770334
2.65001976154
0.7290335062
2.28874147065
1.2459693425
2.36901743947
1.26504983555
1.48130683288
0.442279844548
0.94024387461
0.344338481732
0.198558778542
0.151929457323
1.03522351828
0.957524582895
1.13523139188
1.1359321815
0.710873267848
1.33582314244
0.682227826899
0.96568937451
0.645399191023
0.640350795923
0.27994891875
0.319978759572
0.240997335691
0.136724587879
0.157860143978
0.284328400264
0.317112866347
0.178614747906
0.293666116159
0.326846024125
0.180167742037
0.0845016895175
0.221026079641
0.4125625078
0.414527181099
0.327456099582
0.268202890302
0.275564280763
0.277073927113
0.221727138416
0.300083629638
0.164232538793
0.144317084728
0.0142818159337
0.0810294335483
0.0722337902213
0.0564925086786
0.0107724900427
0.0195778500613
0.104444938536
0.129788743595
0.446893973128
0.214453032937
0.317657395442
0.00393476725652
0.0640851863662
0.183264460638
0.393646756156
0.361804988602
0.391344014223
0.161457904422
0.225171432808
0.421081602907
0.427271786877
0.388716342414
0.407554989231
0.677852320515
0.312693658825
0.534557433524
1.01126589112
0.988785698637
0.512838170508
0.713188221163
0.22593038707
0.76338310184
0.359195201717
1.00367584692
0.0504199022817
0.133037595259
0.318805710962
0.281532899424
0.193844735065
0.206305150805
0.0210638920666
0.0759349934917
0.0531884022027
0.239179299099
0.395394260555
0.138734810465
0.0190083462724
0.0554689183096
0.109090236565
0.0827520590565
0.0894005123753
0.122190272826
0.000902495856927
0.00642893864351
0.10581009104
0.115695340555
0.174126377256
0.119180953683
0.315159383664
0.21312667949
0.0564038562394
0.048756929835
0.0312944576784
0.0889704936116
0.12364869715
0.0791099669088
0.0305795340106
0.030519466392
0.125674908796
0.0674314792293
0.112840416114
0.177015276649
0.00455634923457
0.093352502544
0.23883354584
0.116314256835
0.0952361206922
0.269824709605
0.392964050707
0.532142857312
0.0240270983893
0.0340832677103
0.0425095880469
0.288886592536
0.334082357109
0.121893568301
0.246864750557
0.100542299172
0.152791290731
0.384286257756
0.536687722872
1.19454303119
0.816940522285
1.98778237764
2.25806832277
2.48919297101
0.978943089591
2.89802613152
1.70485277581
2.86066534537
1.29908631031
1.99454137417
0.166408010369
0.981617183652
0.0483444250782
0.112338142
0.1032226982
0.0814055841302
0.00764194358722
0.0968707299999
0.334588537594
0.329703364236
0.183912263104
0.137509885079
0.199298574964
0.251065027034
0.203759902875
0.39446636183
0.303778411705
0.255121789396
0.174787301365
0.449238449284
0.246248909079
0.166059465575
0.229371137013
0.346867351454
0.193826527705
0.305631535434
0.422645799641
0.129414625404
0.286227179629
0.264781730456
0.28741429593
0.433156428367
0.117399211572
0.400946368511
0.204087297596
0.17992429089
0.363092492431
0.0600607063457
0.135970129445
0.122493720059
0.132156203052
0.0714577840963
0.0911390645045
0.0783090031847
0.0749422907367
0.160373209735
0.289869633458
0.0787663422074
0.156826086376
0.262718246543
0.242982322439
0.257440830433
0.336782185192
0.485152607561
0.498865624129
0.813894135641
0.566961185717
1.11285692165
1.00006736164
1.23463912529
1.24077071096
1.22605491764
1.58707382535
1.39288464307
1.16636820351
1.18771624935
0.495358995984
1.25479768614
0.35742037096
0.573239159452
0.735815345332
0.309701926481
0.138383961733
0.305217097704
0.790287861668
0.343923281704
0.738251121925
0.320142893332
0.47672522119
0.521553934774
0.173555093938
0.22309638604
0.291480663204
0.205912318242
0.0464782645366
0.115167663832
0.13321075491
0.181625637408
0.0585920055599
0.0901084113236
0.161623961828
0.0883069349106
0.15491370957
0.184299138196
0.239236435142
0.206851910384
0.183218427911
0.215332561875
0.218273756287
0.233006681324
0.25569126575
0.327584933735
0.308712868918
0.277663245433
0.235025708834
0.257477012601
0.318885584992
0.330594898788
0.423143680432
0.292055807248
0.284680313085
0.217080532958
0.281666513607
0.296187365941
0.316212353646
0.258402304659
0.220429558381
0.257086606145
0.21119190043
0.293258469997
0.233286861915
0.221315389518
0.144968691541
0.111144739693
0.094130416869
0.0826440683449
0.0849556639843
0.156961265076
0.222226437598
0.175546099679
0.166105500235
0.149314920655
0.133005750674
0.133834679229
0.184253090051
0.0874745236918
0.230440165689
0.333658498268
0.208186327475
0.1633704217
0.0261174145626
0.0660538354391
0.133399283718
0.0252355652798
0.120325145338
0.146322180262
0.26425992465
0.370490430073
0.276683002149
0.120618670773
0.23770110376
0.391034132508
0.311426326289
0.225484172641
0.0754513704428
0.0855439836231
0.345696131943
0.422027143133
0.12772635345
0.196489253489
0.175261859475
0.13948915424
0.301995643236
0.270352169133
0.36477504358
0.409451053879
0.280399539762
0.426597203887
0.411367012175
0.629030075234
0.59357857805
1.0799477393
1.15020691945
1.15418240024
0.972081224261
1.1836393824
0.507590016621
1.06532483014
1.16296718412
0.291328954993
1.15596177117
0.0394446478588
0.140132836738
0.190271061339
0.451821487612
0.0550957785435
0.107988616137
0.224992882323
0.267624209239
0.350867285866
0.271600985651
0.165484900743
0.0740356851068
0.0491348542593
0.150045068383
0.252021694627
0.508607912281
0.0680306210888
0.147588935289
0.121598594267
0.145650580138
0.278228516623
0.20541347819
0.242650768005
0.109618766056
0.121285773139
0.15118165089
0.258264087893
0.185450144796
0.294883308427
0.243000208063
0.0887034629766
0.391007210538
0.0411222979971
0.0308403851692
0.0264546836603
0.0373118760546
0.0591334743762
0.0813436612
0.118029480655
0.117183325355
0.0654124639136
logs/alpha_1.4/PGSD_900steps_0.log 440.461333317 0.440461333317 0.316662609997 3.23606103451 0.0 -1
