Policy Parameters:	-2.5686832715 3.07260721374
Control Steps:		1000
Start Time:		1438409762.6413403

-- TESTING STOPPED --

Stop Time:		1438409931.7618535
Duration:		169.1205132007599
Cost Matrix:
0.0254553549995
0.0276507887329
0.0499270664943
0.0617845022927
0.132725765618
0.212194276532
0.184604429692
0.192102894704
0.233018733943
0.164017048962
0.0675067706457
0.15911997051
0.214197535062
0.27274717108
0.263113723005
0.229363145404
0.244955451693
0.261477006374
0.302336439737
0.296674308957
0.345998387543
0.359974002588
0.421207559459
0.474313210751
0.496392612828
0.501221443756
0.5152491702
0.434321459251
0.440043562056
0.458362018352
0.460849731256
0.446051550281
0.37546989988
0.389519770044
0.341076603892
0.285918820097
0.164498683255
0.266476746903
0.24240637883
0.229718947714
0.193655154901
0.0698070607713
0.0953325920385
0.0169723836984
0.0242021304654
0.0714117445202
0.173763705535
0.215050118283
0.117766897619
0.0879152131346
0.170556773594
0.20126836772
0.133058487143
0.221557132749
0.179992837119
0.214410741349
0.195807103965
0.239992462166
0.222105137936
0.172209766436
0.0327137487621
0.0882121291993
0.206528549522
0.260748320913
0.16372738108
0.111193455358
0.116569547944
0.164761298207
0.205363489308
0.385428881971
0.353730526184
0.387348447378
0.638289789003
0.560261227871
0.845742812595
0.854632828453
1.1679968869
0.981936927645
1.20394250182
1.27311673842
1.24862300326
1.25040207032
1.25089315275
1.23251728776
1.04836196105
0.642563203931
0.5075496626
0.55121636574
0.419789891928
0.24257469901
0.13208537427
0.0499518365019
0.125111442706
0.18118207808
0.144502328905
0.249803061713
0.302236772304
0.304999326571
0.323895065433
0.314034230769
0.271564511453
0.262437838345
0.25038021783
0.272765760205
0.388703489937
0.347424906818
0.297965682002
0.300700456737
0.160808660692
0.136963211708
0.120606883883
0.232074630259
0.289621959638
0.239467623188
0.0275387702956
0.0929110940895
0.0770602283681
0.119637923253
0.2065230031
0.131236823318
0.133402557983
0.183726053837
0.175929085364
0.150828966971
0.0296689543015
0.0434014904294
0.0291151599433
0.0358468696821
0.0885049261967
0.120092855909
0.0948311452927
0.209756132126
0.209873792415
0.226168102884
0.233788168901
0.269689629736
0.404313422134
0.232780808227
0.238296562843
0.290060615601
0.263289126714
0.530076123895
0.937819978819
1.28412313334
1.00191305064
1.11992029811
1.16427608385
1.16128538397
1.2055336746
1.41147517564
1.1567146234
1.26686622628
0.92651023715
1.1361337009
0.625742370744
0.350818975522
0.14425372982
0.34348544273
0.0748362632816
0.196328500667
0.250734271184
0.374459648892
0.304232693879
0.27808602636
0.383851082787
0.323936142893
0.26009673901
0.330394877909
0.239376908704
0.455976310954
0.190011923677
0.209779880436
0.0978861600639
0.189570910012
0.18977645557
0.0739195224617
0.185487676425
0.141237707534
0.144870730162
0.207873476974
0.113747465666
0.147114708394
0.178803438392
0.313854944138
0.326001055425
0.323027041825
0.27358310957
0.361019001658
0.397791897761
0.41540128739
0.376856990756
0.353881674332
0.375284864121
0.41703311382
0.377001620061
0.293400526344
0.380717680199
0.317714822487
0.379941925477
0.198280865837
0.278601454084
0.20519827639
0.061501364657
0.215507556418
0.209183341565
0.224657241756
0.254156130175
0.272219352827
0.220418544675
0.316445401866
0.170687510307
0.186637024461
0.175805618651
0.290568590356
0.409200364012
0.398183951679
0.131014270846
0.225506984791
0.293501595162
0.126585876774
0.181933486726
0.0939213681292
0.106816237214
0.338260789781
0.0915263846654
0.1255383639
0.187869097947
0.217557851018
0.17014461679
0.0484998858679
0.14827291716
0.175118803956
0.0889800569493
0.233431455643
0.188627449857
0.289527080246
0.188263397022
0.249866414074
0.132075816788
0.0547678936563
0.164933169382
0.190039109172
0.187339301175
0.224868421157
0.170786408093
0.140918724468
0.214093663192
0.312125607095
0.190181889766
0.0799822545433
0.13817209702
0.0980045521883
0.172240006746
0.223920491848
0.241061409099
0.117663099036
0.234791589365
0.390282686618
0.239106064434
0.16832631652
0.0640862092169
0.210825422387
0.12824218693
0.194266623125
0.0317561452087
0.0975239984679
0.166755141259
0.26959311183
0.113166940952
0.125670031166
0.0186155350017
0.0550593322638
0.0945302613423
0.13189173671
0.305551731368
0.161675926025
0.194213108848
0.24262805156
0.221769170604
0.421598792313
0.40130110131
0.51965857003
1.19723391816
1.19884319121
1.29372239659
1.33354641462
1.36724933865
1.11085113983
1.45477620889
1.49609327798
1.40078290942
1.48194459412
0.839549753797
1.46371932023
0.491380239082
1.21890166265
0.198222180094
0.2400217467
0.252579181332
0.254783559084
0.300126587446
0.250521507027
0.241407428012
0.196835095594
0.350617924622
0.327116853833
0.246355718053
0.240477426982
0.303027153942
0.442740740961
0.360389946591
0.250625551597
0.238107903692
0.19849105811
0.138292871068
0.13935915866
0.200484346926
0.299092460001
0.122652245783
0.117315063375
0.132925150757
0.16052097193
0.0646102728246
0.0923197820603
0.170709617685
0.166325406686
0.214026741238
0.14791299162
0.126550193106
0.150528345188
0.155744111441
0.188589978823
0.179970420293
0.244105066034
0.263658874369
0.228278857344
0.225722853144
0.0997734858408
0.129778906962
0.192609432645
0.135968106425
0.144740096269
0.153185004014
0.204881016334
0.144517415397
0.0649674138897
0.156770431326
0.169675169825
0.16409627822
0.16548691282
0.0661989908061
0.120821338644
0.111700792766
0.118400052735
0.119005613986
0.197117935518
0.0729265085092
0.0323304445404
0.0316132074025
0.113994935642
0.139788873835
0.271889804166
0.17941809327
0.118961372814
0.160837978775
0.13311018
0.0144966080604
0.0424823494076
0.0785015520506
0.0985421593104
0.246343391858
0.296358841856
0.185759351906
0.0833298971719
0.194070791839
0.179041607242
0.290090964373
0.329350924238
0.377114876922
0.443898219666
0.840219259606
0.601590230793
1.27216465048
0.804912260049
1.14155180691
0.907282327752
1.1434721277
0.87406063902
1.04885356384
0.735221501725
0.991053364098
0.69211291071
0.481396152695
0.281776172529
0.443480020908
0.132989360028
0.11523703021
0.0535104035731
0.0731768243741
0.13238228605
0.0639945049235
0.0650134500937
0.166134405786
0.151592057185
0.180386062367
0.151018284085
0.131729567796
0.274331128796
0.125699227746
0.182295364126
0.179806161331
0.103192710154
0.0987936542417
0.105912753982
0.193371959256
0.164252509609
0.0405386972781
0.146921569066
0.223765496712
0.0276750597271
0.0659702558366
0.0365289328842
0.0188279550136
0.194243688441
0.736960412525
0.123301094387
0.183161589861
0.259413345207
0.193829955066
0.146288805541
0.18297788054
0.233624984209
0.376117662317
0.329289085166
0.39430066368
0.427936386449
0.508129553161
1.10341967086
0.604774854423
1.31860556001
1.16499247595
1.16723854107
1.20135218429
1.12738582011
1.15600272472
1.15331794331
1.13975958224
0.747387943597
1.16853788249
0.638779611376
0.533109163357
0.188698255272
0.0985142852291
0.26219166202
0.279735539601
0.249647768226
0.293176028284
0.297754864959
0.211722428745
0.196827169963
0.214778528685
0.226889734073
0.10263633125
0.0595674679989
0.108228841375
0.120992297456
0.130753740655
0.161013108091
0.0668339523519
0.0420813275911
0.135844097587
0.30564406001
0.261748967893
0.297260738426
0.35825540744
0.258634890953
0.243195293323
0.396620796244
0.267091031649
0.275226718362
0.262523254379
0.197949829644
0.295746131179
0.294578773874
0.28854788524
0.347574106289
0.282865207652
0.207921033576
0.246396297655
0.349934697425
0.176715481793
0.114869034056
0.0672237871844
0.0645103232311
0.0534651300428
0.191093764166
0.258161787231
0.115847836222
0.206896652613
0.218133524357
0.185224312515
0.119687127544
0.1997715702
0.283937102842
0.200815451349
0.268786336722
0.362952869039
0.426650924742
0.502464049855
0.823457662338
0.777231687436
1.56393821167
1.54567227413
1.81271013988
1.85326179909
2.24935629809
1.47191083627
2.16059282081
0.744015204098
2.55552347808
0.419106391078
0.944886815104
0.428196026099
0.181556897273
0.182289129536
0.13408152047
0.122228126516
0.203017096007
0.126624469983
0.30267323192
0.0255910587602
0.066759770316
0.0669519143702
0.214680020635
0.0498584452808
0.14876698092
0.0338519432837
0.0325316738661
0.0378202673013
0.0612780061953
0.0486337214492
0.067098978467
0.104571149663
0.142975103423
0.0651051384387
0.104261254427
0.119356882462
0.12343847905
0.022348255428
0.0545278789333
0.0345582860067
0.118996152848
0.13538531003
0.0726588399375
0.215741856906
0.053178696313
0.145838750577
0.238294782606
0.157510213041
0.109631772137
0.148734897005
0.163318980606
0.158986236977
0.212518212311
0.123953349553
0.230269519354
0.136909825412
0.142048398415
0.203053478997
0.213954366688
0.230071681042
0.372099009241
0.468816177277
0.44587835811
0.550208320108
0.882407230577
0.65505646308
0.859516541161
0.648252172873
0.74409656275
0.598354188772
0.569232055571
0.993635978132
0.506959837823
0.52016936288
0.366254539185
1.27721086842
0.00937418376345
0.0191856983813
0.0408021865592
0.134843788444
0.0357804363528
0.044389092595
0.176485289365
0.282545662527
0.107291810523
0.0703569961319
0.0253447307366
0.075346707422
0.0333536610327
0.0396099012651
0.0310088211811
0.0387726334164
0.0676625361594
0.200886127009
0.226301013839
0.155550386467
0.192450234611
0.166494806491
0.218172414895
0.170501698935
0.112313323399
0.154522516986
0.19897392831
0.131949501788
0.0415507667704
0.0990248830203
0.160343456098
0.09873326031
0.0786862497485
0.0437016809115
0.121986467882
0.10245100116
0.0479778130615
0.169055447209
0.356501968075
0.404796915533
0.43629481937
0.535042465429
0.983298948681
1.04065488232
1.38713079483
1.38974152892
1.32096038856
1.4329335356
1.5059144689
1.31669016811
1.48386345304
1.41323328083
1.40591132145
1.12439420849
0.495812465265
0.872153446826
0.0595465329709
0.213290175022
0.447644215842
0.514137834697
0.518590687427
0.475938450155
0.418266197579
0.45745622568
0.410242044824
0.36753594658
0.293658062405
0.324920659183
0.296574123115
0.284410814911
0.257415755352
0.149323362997
0.304307091881
0.090129445693
0.0834680172405
0.0201868398568
0.0904922129921
0.163028454385
0.013145264258
0.0173916779237
0.0461703350268
0.123760412888
0.199508353784
0.322056045019
0.453701569513
0.509891116681
0.489241068217
0.497518953897
0.505763026818
0.512467086424
0.62062037447
0.437003748585
0.484818521078
0.426464978292
0.340103983618
0.248647009576
0.166158818397
0.124787073416
0.0432794005953
0.123839645998
0.230117443488
0.134236559396
0.164613408261
0.203672534574
0.0986663629403
0.0863723945053
0.115753027807
0.121063395933
0.194354128883
0.217163044074
0.169095381823
0.0866496456385
0.10941783328
0.0354442007243
0.0563185686216
0.079418848179
0.131234324815
0.213973402806
0.294461276155
0.207899264971
0.194613875904
0.226767631885
0.129498108453
0.0687421790248
0.120598440282
0.186535971494
0.182925110005
0.26802407572
0.249751761714
0.260860673661
0.199642076839
0.147922585344
0.162387111663
0.142878354846
0.135825943692
0.0281917605985
0.0750625485328
0.20294301075
0.199180069992
0.241589380697
0.116738876508
0.119710418688
0.111536462277
0.142658124849
0.164648197835
0.176075303299
0.205088580462
0.180387053964
0.19860650979
0.179594854124
0.193756098824
0.190392750024
0.181984342237
0.180775887299
0.20881727033
0.211230766113
0.197422682926
0.220804850627
0.218907017901
0.207273412303
0.223308333955
0.236768753336
0.23961269594
0.245482986133
0.265135029811
0.274437672084
0.303418045317
0.309975534129
0.330154073978
0.331865914762
0.34744940316
0.301661007007
0.304862790044
0.338556328403
0.355975935476
0.363230704037
0.370415798439
0.387973540936
0.358322982672
0.406335051729
0.413775554627
0.382141510775
0.40845062395
0.415591797764
0.453447950304
0.438541257559
0.454924173985
0.447385360714
0.44717059836
0.481109355203
0.473105733931
0.458840442106
0.475468893467
0.492566067173
0.497665232893
0.531475228691
0.554711424045
0.946055915541
0.434690349702
0.536834668929
0.550492464184
0.727383543208
0.511672400915
0.592501427883
0.532630091307
0.679104073819
0.594762992859
0.702994014134
0.654275748474
0.705121331068
1.08750420026
0.462886863309
0.730980899235
0.555684179959
0.867235169883
0.598372094216
0.663008246582
0.542761866979
0.739774299823
0.54305768106
0.594353365117
0.528638755258
0.588643717789
0.541933484505
0.556658862401
0.500773971325
0.486339565306
0.462238801828
0.218638036943
0.442546770783
0.470679592751
0.435512016906
0.441156931486
0.426607493442
0.367949873725
0.370049274314
0.426624884026
0.371534111337
0.339051606633
0.35455210226
0.333034304264
0.343668761979
0.32507578027
0.326576544232
0.355576525484
0.276950660078
0.229305049975
0.239202599384
0.233373416389
0.25768272437
0.332656256071
0.29769230207
0.28354672859
0.254483845704
0.361485890576
0.355865172762
0.326441190728
0.279900266024
0.37698648338
0.374992514726
0.419166246457
0.479442079964
0.781176186201
0.763476414831
1.04089577916
1.15705987016
1.19734542805
1.26323769119
1.4106885094
1.28174167239
1.40635610194
1.30088653146
1.49288218534
1.95088926023
0.304284224225
1.33590605061
0.0993087535699
0.224410145104
0.0288181091943
0.0491726397377
0.0439480593037
0.0297635809836
0.053157916082
0.0221983464078
0.0911488535354
0.179883514273
0.298892588415
0.0347223175758
0.111703970403
0.0194181606505
0.0119059141183
0.0402850753912
0.0989006523654
0.141715450879
0.0583506988447
0.12600900848
0.0608249089288
0.0469543891546
0.186653036712
0.234184831535
0.20786574609
0.0197117156812
0.0419273583778
0.0779570291891
0.0863483568502
0.0222006605434
0.0784900275099
0.219647150552
0.0561172534349
0.167685240241
0.237288278512
0.327695581218
0.315413124912
0.420377123044
0.499390377681
0.761787137946
1.94634469382
0.61508410029
1.50164737773
0.897791440502
1.42378025836
1.27473145648
1.16675682756
1.36156824315
1.17355153107
0.965137671635
1.07320344007
0.218107319826
0.0316146301463
0.0720442484729
0.0945928387257
0.15822217936
0.107995959514
0.0878515645937
0.0281092887496
0.0474969973742
0.0590203885339
0.147342169708
0.235856362973
0.187536979447
0.238351952513
0.0917951581278
0.150696117342
0.12163881889
0.227292969694
0.240925882604
0.35570279955
0.281658463545
0.27806019926
0.296296844771
0.253133613746
0.265572436557
0.394597394827
0.289095392082
0.328661087596
0.366648469615
0.443988453184
0.192409324939
0.267054718425
0.222557959481
0.256915736545
0.286630664604
0.152388815605
0.146089084734
0.218690046328
0.089373268688
0.103585567896
0.154962429293
0.0354045820811
0.0914541999214
0.201221227647
0.0668810367553
0.0094860988363
0.0141988303091
0.00708513023087
0.0736360964198
0.206408886345
0.241314931051
0.105085203304
0.174141890495
0.048173406539
0.0624140964204
0.0642423129521
0.158585279332
0.223907717936
0.154464617646
0.176406440761
0.173738157874
0.207795650611
0.247151907286
0.17753053472
0.314825134046
0.275446170613
0.420462713805
0.474945566498
0.350436841365
0.407714971561
0.251085083843
0.34980242799
0.36739294984
0.393618900317
0.342539930464
0.30904555982
0.325688535233
0.242323986971
0.254931803446
0.323843116687
0.303856489048
0.159346243888
0.336883252295
0.188618903297
0.151769791822
0.0528241927526
logs/alpha_1.4/PGSD_800steps_4.log 346.485853082 0.346485853082 0.227785913519 2.55552347808 0.00708513023087 -1
