Initial Policy Parameters:	0.0 0.0
Learning Rate:			1.4
Learning Steps:			600
Start Time:			1437169847.8934166

-- LEARNING STOPPED --

Stop Time:			1437169939.9560745
Duration:			92.06265783309937
Final Policy Parameters:	-1.27373852625 1.22779423589
