Policy Parameters:	-1.62322342322 0.27147008391
Control Steps:		1000
Start Time:		1438395916.979467

-- TESTING STOPPED --

Stop Time:		1438395973.2508798
Duration:		56.27141284942627
Cost Matrix:
0.0385668012646
0.0335684205465
0.00683352203223
0.037384698141
0.041254845306
0.0531545833229
0.0584599736579
0.014377836552
0.0276524258472
0.0559424971357
0.0112999558067
0.0825371406572
0.134701242248
0.144807467008
0.201018307543
0.149350709091
0.195331651899
0.229768144644
0.210816544291
0.297752642036
0.324281245417
0.379976046269
0.486054523652
0.686943764467
1.10378132465
1.00699639866
1.12884699188
1.1419760094
1.14428541853
0.866396360103
1.24329373652
0.886573997226
1.17168280425
1.2982742297
0.927526920187
0.53792248461
0.668942125466
0.1070421718
0.0752182652714
0.0491874848613
0.0616336158251
0.055124647704
0.0941643204957
0.10174729203
0.0555288130306
0.106885388985
0.125313466539
0.182189669921
0.206465034187
0.197969202217
0.211232940703
0.203704740989
0.24718921599
0.265845873495
0.250551368032
0.272030118886
0.327758148043
0.365499629921
0.406847855651
0.44533429083
0.512601481899
0.502215048035
0.527208259237
0.605601789227
0.587882028147
0.684956846104
0.567030920919
0.738076685014
0.217320421121
0.127598592821
0.0319739765022
0.0964517538557
0.138622420864
0.0858003513149
0.146138817615
0.166615993784
0.115462116683
0.0807602147347
0.0570551563905
0.0910865513572
0.0774216122606
0.0486768827022
0.108702321037
0.136175618671
0.0979347912647
0.106991749316
0.0791934662875
0.0812037583156
0.025362942755
0.0439299120108
0.01823127881
0.00020904334476
0.041665896584
0.0621119396944
0.054189229198
0.0158071525275
0.037735932847
0.0130148392995
0.0590442774317
0.0165107410988
0.0557781824022
0.0058217225776
0.0475243554826
0.0480419765528
0.0184668085417
0.0442602500536
0.0905423982018
0.169211650009
0.0475229650965
0.051216079256
0.0335185323865
0.100038981881
0.0285557373537
0.0575139051641
0.0798958111817
0.0376238591453
0.0738287527914
0.0480380434688
0.0876765396753
0.0389008338806
0.0653863710372
0.00846906483075
0.101558373565
0.119004539594
0.203139398806
0.118274234619
0.138976579937
0.185884786578
0.206626521661
0.191562125776
0.229485935102
0.295014107463
0.32815164135
0.342968071127
0.354355240259
0.402128274968
0.401890248522
0.461358286845
0.482330160583
0.536473144061
0.586524620836
0.600648751365
0.720290420123
0.648457118728
0.669070879374
0.779892030281
0.930255503732
0.645876340743
0.162960754103
0.077458958096
0.0385658709242
0.0465554116367
0.0708192045139
0.0633223299245
0.125736124272
0.159984693151
0.207049420477
0.182670993861
0.21411196005
0.212920438525
0.144316198333
0.141990123039
0.147075329513
0.167643744699
0.174840391974
0.210960810496
0.151241488961
0.119316824192
0.071629407767
0.0483006120773
0.0131909469468
0.0324400228488
0.030792766233
0.0135003382486
0.0659760471808
0.0940692827265
0.0366149795599
0.050550968179
0.0381557299173
0.0278458838901
0.0178878080073
0.0410414997419
0.0472598457854
0.0588032186561
0.0551211237673
0.0565737898408
0.0617314612748
0.0365845174078
0.0476103156039
0.119635038288
0.133978548973
0.157826579973
0.18036882527
0.236749050207
0.299959184534
0.360377679871
0.491080153264
0.661726442239
0.967941161336
0.937234602335
1.1938004374
1.3304827617
1.37394310896
1.66709810166
1.05856833439
1.09549771264
0.408081075388
0.475092356899
0.520482482163
0.546823380971
0.591078719491
0.501789743783
0.344931879918
0.285524911977
0.271488171753
0.160975694091
0.102314612374
0.100110940154
0.0871571740561
0.0864879619637
0.051267638082
0.116297893363
0.0805715666155
0.0856840590083
0.116276161114
0.0780374914029
0.0981796244511
0.106079330505
0.0784065203159
0.109836022923
0.119580065443
0.0975768041012
0.090502444237
0.0658625425109
0.0654179109913
0.0282230363109
0.0822804714789
0.0301017432775
0.0437926874467
0.0316623431523
0.0367921480941
0.10614754003
0.0717994098619
0.117813211341
0.0217803018444
0.012422463974
0.0451270572154
0.0228550214221
0.0568733400437
0.00137780743517
0.0507649490654
0.0592762621968
0.0234988596037
0.0558491874989
0.105137400843
0.0699365767062
0.0274462199097
0.0652799098976
0.169480059035
0.189169434826
0.296888791289
0.247491535708
0.0222780034237
0.0301289538366
0.0420213274112
0.0290139495772
0.0361917252318
0.0823220957907
0.143681090312
0.0447890624257
0.0689128858054
0.084695765375
0.122181354186
0.131831350041
0.163143484914
0.14197162318
0.0791785240596
0.137849930089
0.150702631688
0.259138844573
0.24781682077
0.336074753002
0.379714590653
0.269078134535
0.300837847545
0.261706994983
0.278543499367
0.282879105934
0.351317252134
0.281255758097
0.297828213964
0.273846470873
0.285177250168
0.248146011879
0.234426824998
0.24038070896
0.270854850524
0.385793769492
0.157680299718
0.270199643317
0.122603427538
0.0397095354008
0.16329766003
0.310254408957
0.0652178529941
0.0576997423797
0.103208364891
0.113794253837
0.0953673622312
0.0133426763945
0.197530642953
0.0466393406926
0.1232376923
0.0803138156232
0.12983045048
0.0327244196967
0.0702699388079
0.0276107295947
0.102339062855
0.0274180569235
0.0450357702632
0.0236302330322
0.0396084806338
0.0726971221049
0.138445915035
0.0184885836269
0.104610549556
0.195354539597
0.0166197150985
0.0566836159721
0.0298768933144
0.0889453966095
0.0756440087875
0.0416848571083
0.00334709401237
0.0489958619753
0.0648657281084
0.172714568424
0.283462191137
0.0376557845073
0.00392957506341
0.0188858249146
0.056717508808
0.042381111088
0.0399344302268
0.0162757057979
0.0770092717708
0.0826668854495
0.0186112807382
0.00598991843874
0.0543576229836
0.00224259379652
0.0904475457521
0.0468892767083
0.0328373450146
0.0963699671448
0.0968311521722
0.0646092280457
0.0901241677375
0.047177788456
0.110044428872
0.0838383859406
0.0691219612183
0.135050198579
0.128298331038
0.141850446153
0.177331936682
0.188642029293
0.22898832129
0.276623170806
0.181621637851
0.403643959357
1.50696739331
1.76762615643
1.43639441262
1.76007721571
1.88447236481
1000000.0
0.0
0.0
0.0
0.0
0.0
0.0
0.0
0.0
0.0
0.0
0.0
0.0
0.0
0.0
0.0
0.0
0.0
0.0
0.0
0.0
0.0
0.0
0.0
0.0
0.0
0.0
0.0
0.0
0.0
0.0
0.0
0.0
0.0
0.0
0.0
0.0
0.0
0.0
0.0
0.0
0.0
0.0
0.0
0.0
0.0
0.0
0.0
0.0
0.0
0.0
0.0
0.0
0.0
0.0
0.0
0.0
0.0
0.0
0.0
0.0
0.0
0.0
0.0
0.0
0.0
0.0
0.0
0.0
0.0
0.0
0.0
0.0
0.0
0.0
0.0
0.0
0.0
0.0
0.0
0.0
0.0
0.0
0.0
0.0
0.0
0.0
0.0
0.0
0.0
0.0
0.0
0.0
0.0
0.0
0.0
0.0
0.0
0.0
0.0
0.0
0.0
0.0
0.0
0.0
0.0
0.0
0.0
0.0
0.0
0.0
0.0
0.0
0.0
0.0
0.0
0.0
0.0
0.0
0.0
0.0
0.0
0.0
0.0
0.0
0.0
0.0
0.0
0.0
0.0
0.0
0.0
0.0
0.0
0.0
0.0
0.0
0.0
0.0
0.0
0.0
0.0
0.0
0.0
0.0
0.0
0.0
0.0
0.0
0.0
0.0
0.0
0.0
0.0
0.0
0.0
0.0
0.0
0.0
0.0
0.0
0.0
0.0
0.0
0.0
0.0
0.0
0.0
0.0
0.0
0.0
0.0
0.0
0.0
0.0
0.0
0.0
0.0
0.0
0.0
0.0
0.0
0.0
0.0
0.0
0.0
0.0
0.0
0.0
0.0
0.0
0.0
0.0
0.0
0.0
0.0
0.0
0.0
0.0
0.0
0.0
0.0
0.0
0.0
0.0
0.0
0.0
0.0
0.0
0.0
0.0
0.0
0.0
0.0
0.0
0.0
0.0
0.0
0.0
0.0
0.0
0.0
0.0
0.0
0.0
0.0
0.0
0.0
0.0
0.0
0.0
0.0
0.0
0.0
0.0
0.0
0.0
0.0
0.0
0.0
0.0
0.0
0.0
0.0
0.0
0.0
0.0
0.0
0.0
0.0
0.0
0.0
0.0
0.0
0.0
0.0
0.0
0.0
0.0
0.0
0.0
0.0
0.0
0.0
0.0
0.0
0.0
0.0
0.0
0.0
0.0
0.0
0.0
0.0
0.0
0.0
0.0
0.0
0.0
0.0
0.0
0.0
0.0
0.0
0.0
0.0
0.0
0.0
0.0
0.0
0.0
0.0
0.0
0.0
0.0
0.0
0.0
0.0
0.0
0.0
0.0
0.0
0.0
0.0
0.0
0.0
0.0
0.0
0.0
0.0
0.0
0.0
0.0
0.0
0.0
0.0
0.0
0.0
0.0
0.0
0.0
0.0
0.0
0.0
0.0
0.0
0.0
0.0
0.0
0.0
0.0
0.0
0.0
0.0
0.0
0.0
0.0
0.0
0.0
0.0
0.0
0.0
0.0
0.0
0.0
0.0
0.0
0.0
0.0
0.0
0.0
0.0
0.0
0.0
0.0
0.0
0.0
0.0
0.0
0.0
0.0
0.0
0.0
0.0
0.0
0.0
0.0
0.0
0.0
0.0
0.0
0.0
0.0
0.0
0.0
0.0
0.0
0.0
0.0
0.0
0.0
0.0
0.0
0.0
0.0
0.0
0.0
0.0
0.0
0.0
0.0
0.0
0.0
0.0
0.0
0.0
0.0
0.0
0.0
0.0
0.0
0.0
0.0
0.0
0.0
0.0
0.0
0.0
0.0
0.0
0.0
0.0
0.0
0.0
0.0
0.0
0.0
0.0
0.0
0.0
0.0
0.0
0.0
0.0
0.0
0.0
0.0
0.0
0.0
0.0
0.0
0.0
0.0
0.0
0.0
0.0
0.0
0.0
0.0
0.0
0.0
0.0
0.0
0.0
0.0
0.0
0.0
0.0
0.0
0.0
0.0
0.0
0.0
0.0
0.0
0.0
0.0
0.0
0.0
0.0
0.0
0.0
0.0
0.0
0.0
0.0
0.0
0.0
0.0
0.0
0.0
0.0
0.0
0.0
0.0
0.0
0.0
0.0
0.0
0.0
0.0
0.0
0.0
0.0
0.0
0.0
0.0
0.0
0.0
0.0
0.0
0.0
0.0
0.0
0.0
0.0
0.0
0.0
0.0
0.0
0.0
0.0
0.0
0.0
0.0
0.0
0.0
0.0
0.0
0.0
0.0
0.0
0.0
0.0
0.0
0.0
0.0
0.0
0.0
0.0
0.0
0.0
0.0
0.0
0.0
0.0
0.0
0.0
0.0
0.0
0.0
0.0
0.0
0.0
0.0
0.0
0.0
0.0
0.0
0.0
0.0
0.0
0.0
0.0
0.0
0.0
0.0
0.0
0.0
0.0
0.0
0.0
0.0
0.0
0.0
0.0
0.0
0.0
0.0
0.0
0.0
0.0
0.0
0.0
0.0
0.0
0.0
0.0
0.0
0.0
0.0
0.0
0.0
0.0
0.0
0.0
0.0
0.0
0.0
0.0
0.0
0.0
0.0
0.0
0.0
0.0
0.0
0.0
0.0
0.0
0.0
0.0
0.0
0.0
0.0
0.0
0.0
0.0
0.0
0.0
0.0
0.0
0.0
0.0
0.0
0.0
0.0
0.0
0.0
0.0
0.0
0.0
0.0
0.0
0.0
0.0
0.0
0.0
0.0
0.0
0.0
0.0
0.0
logs/alpha_1.4/PGSD_200steps_4.log 1000086.87732 1000.08687732 0.0 1000000.0 0.0 377
