Policy Parameters:	-0.802017232518 0.870728242161
Control Steps:		1000
Start Time:		1438241195.9254827

-- TESTING STOPPED --

Stop Time:		1438241234.577267
Duration:		38.65178418159485
Cost Matrix:
0.0273749090003
0.055594878883
0.0737102024786
0.0693545064532
0.0548637670386
0.0865704280053
0.0880677699147
0.0876520530641
0.0892774774157
0.0617977057344
0.0986617315046
0.145853483528
0.176960340709
0.207873819693
0.260879413084
0.269703099787
0.304919134621
0.437463500097
0.555259910238
0.64927554053
0.693829253737
0.60374517877
0.748482763927
0.733081022151
0.602639018468
0.815905470254
0.816802023896
0.857921010154
1.01764103246
0.689309056367
0.620833131204
0.629305760191
0.66815573699
0.539867948714
0.335149402624
0.170396064614
0.0512864838218
0.0938767861748
0.152415141298
0.171612033429
0.139949332007
0.125248801952
0.169126473454
0.200830334069
0.171610474657
0.160854007245
0.163000490436
0.199079397504
0.180259728545
0.115913079789
0.0811884368032
0.103934618257
0.103189226347
0.0674710280167
0.0768530042724
0.067932751327
0.0580833357487
0.0440465825357
0.025145067578
0.0338139115285
0.0459105970337
0.0436812169268
0.046300716555
0.0423286065436
0.0372928617227
0.0247796263279
0.0234488816716
0.0366613063501
0.0264570795953
0.0662575330677
0.104366119318
0.112750350363
0.074868233337
0.0412748138638
0.0983958507101
0.116436709014
0.106627618434
0.126896367993
0.129854911415
0.128244015088
0.132956702392
0.138403378357
0.12763731839
0.119459760905
0.144776249476
0.176676633534
0.170009392769
0.129485475895
0.10075349654
0.179536481133
0.18752983797
0.141210643039
0.12822445801
0.132052356877
0.141797014818
0.140306641215
0.144250448377
0.163854410427
0.136647144501
0.132959855088
0.0991789970501
0.0760010856613
0.087823677418
0.101125510677
0.0837379467933
0.0567409960502
0.0378606758016
0.0270327129617
0.0989506338419
0.085813089177
0.0339176968317
0.0134720971552
0.0189667165827
0.0719266001102
0.0673563422619
0.0317624694489
0.0278162422696
0.0263877819635
0.0247049186004
0.0395122241843
0.0449748559482
0.0282345256505
0.0612023645112
0.0554446144561
0.0246234498864
0.0343209800205
0.0484164980805
0.0456846608707
0.0274407537629
0.0193256069153
0.0437458600067
0.0401113751445
0.0274681702975
0.0302631134244
0.0184936280728
0.00728917526825
0.0217681365811
0.0197144573106
0.0125217814925
0.0240093018679
0.0232570169881
0.0397331953098
0.0468803900181
0.029567015538
0.0159923267016
0.0234848836375
0.0468344664058
0.0729865872974
0.0934942446994
0.116438865319
0.145281173101
0.159269585895
0.147110548499
0.164505671558
0.198532978918
0.204699238227
0.253147536423
0.281821539136
0.277920054202
0.266465273323
0.259865658713
0.273145254502
0.285224827237
0.281641548058
0.302246400155
0.335450997489
0.336345042174
0.332568839175
0.324566227614
0.320226652983
0.303799237802
0.285336297966
0.262087631948
0.208036608496
0.209489780678
0.177515322246
0.0887869552511
0.0258311286224
0.0348291493379
0.0361795681824
0.0627495515261
0.0873361556974
0.060736961039
0.026657071489
0.0344928493762
0.0428648548624
0.0340470832527
0.0479450377433
0.0397362166859
0.012144383906
0.0264187544354
0.0364819197267
0.0396028601494
0.0565828961843
0.0457373199911
0.054585066093
0.0431929278892
0.00919248372243
0.0296031254391
0.0474180059798
0.0684645111634
0.0496728025403
0.0445697984858
0.049076829963
0.0553936147821
0.0527189977591
0.0428960658363
0.0546283519511
0.060626646225
0.0534137403891
0.0661028381068
0.0857008841187
0.0798530588366
0.079044774028
0.0615698258317
0.104587858241
0.0868736071758
0.0236572383476
0.0504194318047
0.0651727565936
0.0469135574856
0.0425399890662
0.0653279205878
0.0668346159086
0.0818477300099
0.0712697929369
0.0337208091634
0.0396733059035
0.072369442025
0.0655574878371
0.0507449146894
0.0418761705053
0.0472139749288
0.0505851910175
0.0449387056564
0.0489018301888
0.0571628389679
0.0468030354017
0.0196251262384
0.0539669110113
0.0555123061596
0.0517467945373
0.0450093263327
0.048529497751
0.0432986532349
0.0268446742394
0.0625825516067
0.0904592954328
0.0733981940803
0.0422003954399
0.0619496785758
0.113833705719
0.147114651263
0.203213346825
0.252619079393
0.305123917802
0.427469193054
0.61533837695
1.24386758036
1.58044978875
0.649140050588
0.0845156225646
0.10712094549
0.104095594093
0.0737165237493
0.0440740954464
0.025984038343
0.0467859632525
0.194497105344
1000000.0
0.0
0.0
0.0
0.0
0.0
0.0
0.0
0.0
0.0
0.0
0.0
0.0
0.0
0.0
0.0
0.0
0.0
0.0
0.0
0.0
0.0
0.0
0.0
0.0
0.0
0.0
0.0
0.0
0.0
0.0
0.0
0.0
0.0
0.0
0.0
0.0
0.0
0.0
0.0
0.0
0.0
0.0
0.0
0.0
0.0
0.0
0.0
0.0
0.0
0.0
0.0
0.0
0.0
0.0
0.0
0.0
0.0
0.0
0.0
0.0
0.0
0.0
0.0
0.0
0.0
0.0
0.0
0.0
0.0
0.0
0.0
0.0
0.0
0.0
0.0
0.0
0.0
0.0
0.0
0.0
0.0
0.0
0.0
0.0
0.0
0.0
0.0
0.0
0.0
0.0
0.0
0.0
0.0
0.0
0.0
0.0
0.0
0.0
0.0
0.0
0.0
0.0
0.0
0.0
0.0
0.0
0.0
0.0
0.0
0.0
0.0
0.0
0.0
0.0
0.0
0.0
0.0
0.0
0.0
0.0
0.0
0.0
0.0
0.0
0.0
0.0
0.0
0.0
0.0
0.0
0.0
0.0
0.0
0.0
0.0
0.0
0.0
0.0
0.0
0.0
0.0
0.0
0.0
0.0
0.0
0.0
0.0
0.0
0.0
0.0
0.0
0.0
0.0
0.0
0.0
0.0
0.0
0.0
0.0
0.0
0.0
0.0
0.0
0.0
0.0
0.0
0.0
0.0
0.0
0.0
0.0
0.0
0.0
0.0
0.0
0.0
0.0
0.0
0.0
0.0
0.0
0.0
0.0
0.0
0.0
0.0
0.0
0.0
0.0
0.0
0.0
0.0
0.0
0.0
0.0
0.0
0.0
0.0
0.0
0.0
0.0
0.0
0.0
0.0
0.0
0.0
0.0
0.0
0.0
0.0
0.0
0.0
0.0
0.0
0.0
0.0
0.0
0.0
0.0
0.0
0.0
0.0
0.0
0.0
0.0
0.0
0.0
0.0
0.0
0.0
0.0
0.0
0.0
0.0
0.0
0.0
0.0
0.0
0.0
0.0
0.0
0.0
0.0
0.0
0.0
0.0
0.0
0.0
0.0
0.0
0.0
0.0
0.0
0.0
0.0
0.0
0.0
0.0
0.0
0.0
0.0
0.0
0.0
0.0
0.0
0.0
0.0
0.0
0.0
0.0
0.0
0.0
0.0
0.0
0.0
0.0
0.0
0.0
0.0
0.0
0.0
0.0
0.0
0.0
0.0
0.0
0.0
0.0
0.0
0.0
0.0
0.0
0.0
0.0
0.0
0.0
0.0
0.0
0.0
0.0
0.0
0.0
0.0
0.0
0.0
0.0
0.0
0.0
0.0
0.0
0.0
0.0
0.0
0.0
0.0
0.0
0.0
0.0
0.0
0.0
0.0
0.0
0.0
0.0
0.0
0.0
0.0
0.0
0.0
0.0
0.0
0.0
0.0
0.0
0.0
0.0
0.0
0.0
0.0
0.0
0.0
0.0
0.0
0.0
0.0
0.0
0.0
0.0
0.0
0.0
0.0
0.0
0.0
0.0
0.0
0.0
0.0
0.0
0.0
0.0
0.0
0.0
0.0
0.0
0.0
0.0
0.0
0.0
0.0
0.0
0.0
0.0
0.0
0.0
0.0
0.0
0.0
0.0
0.0
0.0
0.0
0.0
0.0
0.0
0.0
0.0
0.0
0.0
0.0
0.0
0.0
0.0
0.0
0.0
0.0
0.0
0.0
0.0
0.0
0.0
0.0
0.0
0.0
0.0
0.0
0.0
0.0
0.0
0.0
0.0
0.0
0.0
0.0
0.0
0.0
0.0
0.0
0.0
0.0
0.0
0.0
0.0
0.0
0.0
0.0
0.0
0.0
0.0
0.0
0.0
0.0
0.0
0.0
0.0
0.0
0.0
0.0
0.0
0.0
0.0
0.0
0.0
0.0
0.0
0.0
0.0
0.0
0.0
0.0
0.0
0.0
0.0
0.0
0.0
0.0
0.0
0.0
0.0
0.0
0.0
0.0
0.0
0.0
0.0
0.0
0.0
0.0
0.0
0.0
0.0
0.0
0.0
0.0
0.0
0.0
0.0
0.0
0.0
0.0
0.0
0.0
0.0
0.0
0.0
0.0
0.0
0.0
0.0
0.0
0.0
0.0
0.0
0.0
0.0
0.0
0.0
0.0
0.0
0.0
0.0
0.0
0.0
0.0
0.0
0.0
0.0
0.0
0.0
0.0
0.0
0.0
0.0
0.0
0.0
0.0
0.0
0.0
0.0
0.0
0.0
0.0
0.0
0.0
0.0
0.0
0.0
0.0
0.0
0.0
0.0
0.0
0.0
0.0
0.0
0.0
0.0
0.0
0.0
0.0
0.0
0.0
0.0
0.0
0.0
0.0
0.0
0.0
0.0
0.0
0.0
0.0
0.0
0.0
0.0
0.0
0.0
0.0
0.0
0.0
0.0
0.0
0.0
0.0
0.0
0.0
0.0
0.0
0.0
0.0
0.0
0.0
0.0
0.0
0.0
0.0
0.0
0.0
0.0
0.0
0.0
0.0
0.0
0.0
0.0
0.0
0.0
0.0
0.0
0.0
0.0
0.0
0.0
0.0
0.0
0.0
0.0
0.0
0.0
0.0
0.0
0.0
0.0
0.0
0.0
0.0
0.0
0.0
0.0
0.0
0.0
0.0
0.0
0.0
0.0
0.0
0.0
0.0
0.0
0.0
0.0
0.0
0.0
0.0
0.0
0.0
0.0
0.0
0.0
0.0
0.0
0.0
0.0
0.0
0.0
0.0
0.0
0.0
0.0
0.0
0.0
0.0
0.0
0.0
0.0
0.0
0.0
0.0
0.0
0.0
0.0
0.0
0.0
0.0
0.0
0.0
0.0
0.0
0.0
0.0
0.0
0.0
0.0
0.0
0.0
0.0
0.0
0.0
0.0
0.0
0.0
0.0
0.0
0.0
0.0
0.0
0.0
0.0
0.0
0.0
0.0
0.0
0.0
0.0
0.0
0.0
0.0
0.0
0.0
0.0
0.0
0.0
0.0
0.0
0.0
0.0
0.0
0.0
0.0
0.0
0.0
0.0
0.0
0.0
0.0
0.0
0.0
0.0
0.0
0.0
0.0
0.0
0.0
0.0
0.0
0.0
0.0
0.0
0.0
0.0
0.0
0.0
0.0
0.0
0.0
0.0
0.0
0.0
0.0
0.0
0.0
logs/alpha_0.6/PGSD_900steps_3.log 1000040.37833 1000.04037833 0.0 1000000.0 0.0 269
