Policy Parameters:	-0.147495463139 -0.0181192641596
Control Steps:		1000
Start Time:		1438229420.9686897

-- TESTING STOPPED --

Stop Time:		1438229458.5272927
Duration:		37.558603048324585
Cost Matrix:
0.114645208393
0.118910412586
0.132750698955
0.131245875513
0.109070128671
0.129388882791
0.117904123898
0.12575242357
0.117241894682
0.0851714463824
0.116649133027
0.119512069954
0.124808916276
0.133386451671
0.122239846123
0.122400546214
0.133683155328
0.128233245064
0.125675941912
0.125975200793
0.0670209858837
0.128915834507
0.118384955372
0.153738067654
0.140484299476
0.131921547025
0.139776244689
0.0848754486613
0.128471726806
0.0743702238807
0.0747997051904
0.0969302486128
0.0325636803461
0.0866935528115
0.0280887413651
0.0714453896208
0.0114357826193
0.0181450023849
0.0242198489011
0.0253445207255
0.0595816184428
0.0291845227224
0.0336871391584
0.032484613389
0.00627824004995
0.0124937678435
0.034693936404
0.0301808458657
0.0149203743533
0.0133673031753
0.0409274452781
0.0167983864199
0.0503338165001
0.0167212136704
0.0449947502944
0.010839143431
0.00750577270728
0.0274965705396
0.00895487162593
0.01607972566
0.0115645967456
0.0158580485159
0.0604847306276
0.054333046956
0.0436124518701
0.0741099862517
0.0427033397879
0.0231492547524
0.0767980525939
0.0817419357982
0.00893948615608
0.0212821706458
0.0833262531628
0.0420796204349
0.0702701408676
0.172052923372
0.0996102028413
0.135859058508
0.144036884509
0.150797432534
0.134659102594
0.145699492707
0.114698315028
0.106020498036
0.154500923952
0.153565894746
0.163377343125
0.110583333766
0.166798486802
0.14217683952
0.164764556905
0.136046226594
0.187559694193
0.129551679751
0.13500709366
0.171963353187
0.112464312114
0.188612100359
0.135777766473
0.0721217327699
0.164285433431
0.0780412156735
0.06596605767
0.0313396039736
0.0413959870616
0.0513877719853
0.0134067858109
0.00985572607082
0.0105035957495
0.0375314071734
0.0173879746475
0.0297975336229
0.0357484675903
0.0164981249633
0.0255751513185
0.0263119349636
0.0366584063383
0.0415065053434
0.00377063181856
0.0143324360158
0.0175536259529
0.0395995054928
0.0123426824046
0.0375409772467
0.0300679830806
0.0150465127349
0.0284937296114
0.0523878073271
0.0136823937272
0.0217157235108
0.0245786894573
0.0358412838225
0.0344672768574
0.0232598313356
0.066466431864
0.0297341316806
0.0370869729225
0.0647012959242
0.0538620676248
0.0971196043718
0.134563955476
0.103205856121
0.303922777186
0.191829520305
0.194535817324
0.197651642639
0.230702785211
0.197368848366
0.211749459203
0.248148655179
0.270552632008
0.238131031371
0.234609129406
0.276110365758
0.324156331079
0.328607861478
0.330491257711
0.377458116653
0.352020536223
0.366838202085
0.383601519737
0.398794159872
0.399046177855
0.372764859275
0.410447944009
0.417818128324
0.384047143431
0.298978135619
0.275399687441
0.0469713319154
0.0325918368667
0.0122156880709
0.012474470782
0.0247825101372
0.0223670881834
0.0172036544867
0.00724064689769
0.0111077917855
0.0107273836767
0.0595583465507
0.0221142571701
0.0064586522752
0.0213834123979
0.04663965791
0.0120044439805
0.00499046539468
0.0308651918924
0.00900132620529
0.0130546827309
0.00874869165572
0.0375247764163
0.0384395814077
0.0523557183138
0.0251209185341
0.0546576640422
0.0699350192025
0.0883429472965
0.0408613343952
0.0817175501677
0.0282189851814
0.092827857677
0.104360859919
0.0611648718929
0.103485391999
0.119433384929
0.189896966629
0.165530525263
0.180126604753
0.171893193686
0.208980236229
0.18855688285
0.253149574709
0.201785464604
0.263861692692
0.2646630007
0.281650951312
0.316338754226
0.29717953892
0.347908983514
0.357034628109
0.346099461696
0.351791327921
0.372002869784
0.387467433086
0.366606284799
0.34613726343
0.375121071355
0.372926574302
0.287481192361
0.401281975438
0.40107517645
0.421989272428
0.400642663587
0.370080294323
0.366539675452
0.322179303669
0.315914024307
0.303405795074
0.251364184984
0.453351363975
0.110792785564
0.0515321991508
0.0941982385847
0.0950127466978
0.11920473979
0.107589064062
0.118359916342
0.184989717257
0.212077645304
0.239438565843
0.232072589475
0.259789309077
0.255345299229
0.254793333462
0.306690239401
0.293914776876
0.331379800111
0.368905549895
0.37098577853
0.419636917306
0.363981425375
0.475614173583
0.49560804592
0.545101764628
0.489205278038
0.591002782074
0.784254742358
0.616512432871
0.615531785789
0.69460407949
0.69141626044
0.907779178337
0.604714279368
0.676135443387
0.655205976546
0.80763269117
0.738595144815
0.441052235772
0.48811215777
0.363250707256
1000000.0
0.0
0.0
0.0
0.0
0.0
0.0
0.0
0.0
0.0
0.0
0.0
0.0
0.0
0.0
0.0
0.0
0.0
0.0
0.0
0.0
0.0
0.0
0.0
0.0
0.0
0.0
0.0
0.0
0.0
0.0
0.0
0.0
0.0
0.0
0.0
0.0
0.0
0.0
0.0
0.0
0.0
0.0
0.0
0.0
0.0
0.0
0.0
0.0
0.0
0.0
0.0
0.0
0.0
0.0
0.0
0.0
0.0
0.0
0.0
0.0
0.0
0.0
0.0
0.0
0.0
0.0
0.0
0.0
0.0
0.0
0.0
0.0
0.0
0.0
0.0
0.0
0.0
0.0
0.0
0.0
0.0
0.0
0.0
0.0
0.0
0.0
0.0
0.0
0.0
0.0
0.0
0.0
0.0
0.0
0.0
0.0
0.0
0.0
0.0
0.0
0.0
0.0
0.0
0.0
0.0
0.0
0.0
0.0
0.0
0.0
0.0
0.0
0.0
0.0
0.0
0.0
0.0
0.0
0.0
0.0
0.0
0.0
0.0
0.0
0.0
0.0
0.0
0.0
0.0
0.0
0.0
0.0
0.0
0.0
0.0
0.0
0.0
0.0
0.0
0.0
0.0
0.0
0.0
0.0
0.0
0.0
0.0
0.0
0.0
0.0
0.0
0.0
0.0
0.0
0.0
0.0
0.0
0.0
0.0
0.0
0.0
0.0
0.0
0.0
0.0
0.0
0.0
0.0
0.0
0.0
0.0
0.0
0.0
0.0
0.0
0.0
0.0
0.0
0.0
0.0
0.0
0.0
0.0
0.0
0.0
0.0
0.0
0.0
0.0
0.0
0.0
0.0
0.0
0.0
0.0
0.0
0.0
0.0
0.0
0.0
0.0
0.0
0.0
0.0
0.0
0.0
0.0
0.0
0.0
0.0
0.0
0.0
0.0
0.0
0.0
0.0
0.0
0.0
0.0
0.0
0.0
0.0
0.0
0.0
0.0
0.0
0.0
0.0
0.0
0.0
0.0
0.0
0.0
0.0
0.0
0.0
0.0
0.0
0.0
0.0
0.0
0.0
0.0
0.0
0.0
0.0
0.0
0.0
0.0
0.0
0.0
0.0
0.0
0.0
0.0
0.0
0.0
0.0
0.0
0.0
0.0
0.0
0.0
0.0
0.0
0.0
0.0
0.0
0.0
0.0
0.0
0.0
0.0
0.0
0.0
0.0
0.0
0.0
0.0
0.0
0.0
0.0
0.0
0.0
0.0
0.0
0.0
0.0
0.0
0.0
0.0
0.0
0.0
0.0
0.0
0.0
0.0
0.0
0.0
0.0
0.0
0.0
0.0
0.0
0.0
0.0
0.0
0.0
0.0
0.0
0.0
0.0
0.0
0.0
0.0
0.0
0.0
0.0
0.0
0.0
0.0
0.0
0.0
0.0
0.0
0.0
0.0
0.0
0.0
0.0
0.0
0.0
0.0
0.0
0.0
0.0
0.0
0.0
0.0
0.0
0.0
0.0
0.0
0.0
0.0
0.0
0.0
0.0
0.0
0.0
0.0
0.0
0.0
0.0
0.0
0.0
0.0
0.0
0.0
0.0
0.0
0.0
0.0
0.0
0.0
0.0
0.0
0.0
0.0
0.0
0.0
0.0
0.0
0.0
0.0
0.0
0.0
0.0
0.0
0.0
0.0
0.0
0.0
0.0
0.0
0.0
0.0
0.0
0.0
0.0
0.0
0.0
0.0
0.0
0.0
0.0
0.0
0.0
0.0
0.0
0.0
0.0
0.0
0.0
0.0
0.0
0.0
0.0
0.0
0.0
0.0
0.0
0.0
0.0
0.0
0.0
0.0
0.0
0.0
0.0
0.0
0.0
0.0
0.0
0.0
0.0
0.0
0.0
0.0
0.0
0.0
0.0
0.0
0.0
0.0
0.0
0.0
0.0
0.0
0.0
0.0
0.0
0.0
0.0
0.0
0.0
0.0
0.0
0.0
0.0
0.0
0.0
0.0
0.0
0.0
0.0
0.0
0.0
0.0
0.0
0.0
0.0
0.0
0.0
0.0
0.0
0.0
0.0
0.0
0.0
0.0
0.0
0.0
0.0
0.0
0.0
0.0
0.0
0.0
0.0
0.0
0.0
0.0
0.0
0.0
0.0
0.0
0.0
0.0
0.0
0.0
0.0
0.0
0.0
0.0
0.0
0.0
0.0
0.0
0.0
0.0
0.0
0.0
0.0
0.0
0.0
0.0
0.0
0.0
0.0
0.0
0.0
0.0
0.0
0.0
0.0
0.0
0.0
0.0
0.0
0.0
0.0
0.0
0.0
0.0
0.0
0.0
0.0
0.0
0.0
0.0
0.0
0.0
0.0
0.0
0.0
0.0
0.0
0.0
0.0
0.0
0.0
0.0
0.0
0.0
0.0
0.0
0.0
0.0
0.0
0.0
0.0
0.0
0.0
0.0
0.0
0.0
0.0
0.0
0.0
0.0
0.0
0.0
0.0
0.0
0.0
0.0
0.0
0.0
0.0
0.0
0.0
0.0
0.0
0.0
0.0
0.0
0.0
0.0
0.0
0.0
0.0
0.0
0.0
0.0
0.0
0.0
0.0
0.0
0.0
0.0
0.0
0.0
0.0
0.0
0.0
0.0
0.0
0.0
0.0
0.0
0.0
0.0
0.0
0.0
0.0
0.0
0.0
0.0
0.0
0.0
0.0
0.0
0.0
0.0
0.0
0.0
0.0
0.0
0.0
0.0
0.0
0.0
0.0
0.0
0.0
0.0
0.0
0.0
0.0
0.0
0.0
0.0
0.0
0.0
0.0
0.0
0.0
0.0
0.0
0.0
0.0
0.0
0.0
0.0
0.0
0.0
0.0
0.0
0.0
0.0
0.0
0.0
0.0
0.0
0.0
0.0
0.0
0.0
0.0
0.0
0.0
0.0
0.0
0.0
0.0
0.0
0.0
0.0
0.0
0.0
0.0
0.0
0.0
0.0
0.0
0.0
0.0
0.0
0.0
0.0
0.0
0.0
0.0
0.0
0.0
0.0
0.0
0.0
0.0
0.0
0.0
0.0
0.0
0.0
0.0
0.0
0.0
0.0
0.0
0.0
0.0
0.0
0.0
0.0
0.0
0.0
0.0
0.0
0.0
0.0
0.0
0.0
0.0
0.0
0.0
0.0
0.0
0.0
logs/alpha_0.6/PGSD_300steps_0.log 1000047.56374 1000.04756374 0.0 1000000.0 0.0 280
