Policy Parameters:	-0.584457638834 0.378241298833
Control Steps:		1000
Start Time:		1438227797.8277714

-- TESTING STOPPED --

Stop Time:		1438227833.6991198
Duration:		35.87134838104248
Cost Matrix:
0.124226085928
0.189348356562
0.135016856282
0.0807148439541
0.0438907126312
0.0487207684625
0.110157108703
0.115650844666
0.0781407513636
0.0498833306645
0.0368085482368
0.0278483964143
0.0221374009068
0.0428630637879
0.0117761637215
0.0919541203196
0.0378467005324
0.0511176620125
0.0613375718674
0.0189256718801
0.0275139966366
0.0136506878995
0.0485824182452
0.0508342091779
0.0234715467995
0.0232845339881
0.0132341823361
0.0538832839117
0.0370921020843
0.0419382684463
0.0416331222608
0.0257664975549
0.0662329615542
0.0225792497588
0.0197704469069
0.00653365908281
0.0282505050492
0.0304205399009
0.0204081670511
0.0163658180633
0.0325207050678
0.0109185808393
0.0141884938373
0.0177377842123
0.0382167914117
0.03911698217
0.0241480499511
0.0261076798423
0.0180191971469
0.0129511703201
0.0191866340918
0.0168692355006
0.0379919269672
0.0327809994669
0.0203369406558
0.0278318920933
0.0284086725674
0.0185546030284
0.0335252680317
0.0281718418169
0.00958839322937
0.00123078508192
0.0127903716805
0.0368652608207
0.0431889920123
0.0458960774278
0.0352859102069
0.0806003643497
0.0559104595126
0.109224673857
0.0969593012554
0.0384880992798
0.0351325076151
0.0328112455231
0.0400502517174
0.0254440281717
0.0164521552445
0.0159032757633
0.00982673028426
0.0411013765387
0.0526891953433
0.031058221456
0.0129266197237
0.0906883513232
0.0742797619152
0.0411332852121
0.0450023256961
0.0371069856958
0.0591225698566
0.0437667988907
0.0277404744505
0.0262675307986
0.00800927596212
0.0244866078566
0.0384082089137
0.0495739772575
0.0560321118044
0.0830369478365
0.114455969329
0.0897856059413
0.0840604599933
0.0799669187332
0.0755105464368
0.113190550625
0.118627881619
0.0997055258754
0.0917367391765
0.0776879255257
0.0589985084838
0.0806760661013
0.0879834046023
0.0649940491111
0.0769258271594
0.0922360932341
0.0888420766661
0.0814073995383
0.0749046083457
0.0379532808445
0.0501754089505
0.0209942557553
0.00283555476749
0.00325674479931
0.0105121630797
0.0015409778716
0.00699650347488
0.00887318966899
0.0466377197033
0.0267325132463
0.0431797814239
0.0280780036552
0.026846683044
0.0191384158439
0.0183412747464
0.0439190484682
0.0534036154975
0.0464723564853
0.0460619187754
0.0761566356037
0.0571412748803
0.053974197729
0.0286705253447
0.0351478103453
0.0510025697041
0.0854201517455
0.0724278367575
0.0997196610011
0.110153881801
0.0655702572942
0.0578952136436
0.0880238419333
0.121867314375
0.0947609040825
0.108028890342
0.108649075765
0.161798302008
0.122450799899
0.150940808957
0.208028812393
0.214474152165
0.26599473083
0.328094125461
0.379340114175
0.403471075442
0.419823533149
0.447195223929
0.467565400995
0.49473164956
0.505070615765
0.552360903661
0.531317546684
0.574035682843
0.6125810683
0.621105142301
0.475219952741
0.456995612928
0.608518599934
0.38536090626
0.287724839408
0.185368264413
0.0822556828545
0.0699157508463
0.0950504701814
0.0964184541567
0.0920128451884
0.0880806928909
0.0985249942712
0.11959981184
0.127326758678
0.125462434271
0.13527988258
0.175228940566
0.191897272202
0.193561425064
0.177676739442
0.179349207755
0.188754366742
0.215987944698
0.222679374157
0.211961523136
0.218372323264
0.215580732853
0.206882205403
0.216607159414
0.211095585192
0.233019077362
0.246956675944
0.20574690679
0.178755655831
0.194528079015
0.198861737553
0.204059513054
0.196448832174
0.190813721984
0.182363966231
0.136745344115
0.11438253433
0.0582966212534
0.0586034740033
0.0217259243205
0.0261181623738
0.0206512109958
0.00605879815224
0.0287954788141
0.0295116798604
0.0293168568738
0.00738977880176
0.087512069974
0.0683765986029
0.0268337954832
0.0394494811519
0.038659680315
0.0708426173183
0.0527876354267
0.0931942008794
0.186113212437
0.225785815508
0.339589565122
0.401273573717
0.413633604069
0.463892353197
0.485618890211
0.518633336725
0.562737052136
0.634562111213
0.711194883282
0.691521191121
0.584983690174
0.728946103257
0.733798039764
0.572482696111
0.193647650112
0.0262983659292
0.00808674211767
0.029250846236
0.0591097867175
0.0904692998395
0.0998962683137
1000000.0
0.0
0.0
0.0
0.0
0.0
0.0
0.0
0.0
0.0
0.0
0.0
0.0
0.0
0.0
0.0
0.0
0.0
0.0
0.0
0.0
0.0
0.0
0.0
0.0
0.0
0.0
0.0
0.0
0.0
0.0
0.0
0.0
0.0
0.0
0.0
0.0
0.0
0.0
0.0
0.0
0.0
0.0
0.0
0.0
0.0
0.0
0.0
0.0
0.0
0.0
0.0
0.0
0.0
0.0
0.0
0.0
0.0
0.0
0.0
0.0
0.0
0.0
0.0
0.0
0.0
0.0
0.0
0.0
0.0
0.0
0.0
0.0
0.0
0.0
0.0
0.0
0.0
0.0
0.0
0.0
0.0
0.0
0.0
0.0
0.0
0.0
0.0
0.0
0.0
0.0
0.0
0.0
0.0
0.0
0.0
0.0
0.0
0.0
0.0
0.0
0.0
0.0
0.0
0.0
0.0
0.0
0.0
0.0
0.0
0.0
0.0
0.0
0.0
0.0
0.0
0.0
0.0
0.0
0.0
0.0
0.0
0.0
0.0
0.0
0.0
0.0
0.0
0.0
0.0
0.0
0.0
0.0
0.0
0.0
0.0
0.0
0.0
0.0
0.0
0.0
0.0
0.0
0.0
0.0
0.0
0.0
0.0
0.0
0.0
0.0
0.0
0.0
0.0
0.0
0.0
0.0
0.0
0.0
0.0
0.0
0.0
0.0
0.0
0.0
0.0
0.0
0.0
0.0
0.0
0.0
0.0
0.0
0.0
0.0
0.0
0.0
0.0
0.0
0.0
0.0
0.0
0.0
0.0
0.0
0.0
0.0
0.0
0.0
0.0
0.0
0.0
0.0
0.0
0.0
0.0
0.0
0.0
0.0
0.0
0.0
0.0
0.0
0.0
0.0
0.0
0.0
0.0
0.0
0.0
0.0
0.0
0.0
0.0
0.0
0.0
0.0
0.0
0.0
0.0
0.0
0.0
0.0
0.0
0.0
0.0
0.0
0.0
0.0
0.0
0.0
0.0
0.0
0.0
0.0
0.0
0.0
0.0
0.0
0.0
0.0
0.0
0.0
0.0
0.0
0.0
0.0
0.0
0.0
0.0
0.0
0.0
0.0
0.0
0.0
0.0
0.0
0.0
0.0
0.0
0.0
0.0
0.0
0.0
0.0
0.0
0.0
0.0
0.0
0.0
0.0
0.0
0.0
0.0
0.0
0.0
0.0
0.0
0.0
0.0
0.0
0.0
0.0
0.0
0.0
0.0
0.0
0.0
0.0
0.0
0.0
0.0
0.0
0.0
0.0
0.0
0.0
0.0
0.0
0.0
0.0
0.0
0.0
0.0
0.0
0.0
0.0
0.0
0.0
0.0
0.0
0.0
0.0
0.0
0.0
0.0
0.0
0.0
0.0
0.0
0.0
0.0
0.0
0.0
0.0
0.0
0.0
0.0
0.0
0.0
0.0
0.0
0.0
0.0
0.0
0.0
0.0
0.0
0.0
0.0
0.0
0.0
0.0
0.0
0.0
0.0
0.0
0.0
0.0
0.0
0.0
0.0
0.0
0.0
0.0
0.0
0.0
0.0
0.0
0.0
0.0
0.0
0.0
0.0
0.0
0.0
0.0
0.0
0.0
0.0
0.0
0.0
0.0
0.0
0.0
0.0
0.0
0.0
0.0
0.0
0.0
0.0
0.0
0.0
0.0
0.0
0.0
0.0
0.0
0.0
0.0
0.0
0.0
0.0
0.0
0.0
0.0
0.0
0.0
0.0
0.0
0.0
0.0
0.0
0.0
0.0
0.0
0.0
0.0
0.0
0.0
0.0
0.0
0.0
0.0
0.0
0.0
0.0
0.0
0.0
0.0
0.0
0.0
0.0
0.0
0.0
0.0
0.0
0.0
0.0
0.0
0.0
0.0
0.0
0.0
0.0
0.0
0.0
0.0
0.0
0.0
0.0
0.0
0.0
0.0
0.0
0.0
0.0
0.0
0.0
0.0
0.0
0.0
0.0
0.0
0.0
0.0
0.0
0.0
0.0
0.0
0.0
0.0
0.0
0.0
0.0
0.0
0.0
0.0
0.0
0.0
0.0
0.0
0.0
0.0
0.0
0.0
0.0
0.0
0.0
0.0
0.0
0.0
0.0
0.0
0.0
0.0
0.0
0.0
0.0
0.0
0.0
0.0
0.0
0.0
0.0
0.0
0.0
0.0
0.0
0.0
0.0
0.0
0.0
0.0
0.0
0.0
0.0
0.0
0.0
0.0
0.0
0.0
0.0
0.0
0.0
0.0
0.0
0.0
0.0
0.0
0.0
0.0
0.0
0.0
0.0
0.0
0.0
0.0
0.0
0.0
0.0
0.0
0.0
0.0
0.0
0.0
0.0
0.0
0.0
0.0
0.0
0.0
0.0
0.0
0.0
0.0
0.0
0.0
0.0
0.0
0.0
0.0
0.0
0.0
0.0
0.0
0.0
0.0
0.0
0.0
0.0
0.0
0.0
0.0
0.0
0.0
0.0
0.0
0.0
0.0
0.0
0.0
0.0
0.0
0.0
0.0
0.0
0.0
0.0
0.0
0.0
0.0
0.0
0.0
0.0
0.0
0.0
0.0
0.0
0.0
0.0
0.0
0.0
0.0
0.0
0.0
0.0
0.0
0.0
0.0
0.0
0.0
0.0
0.0
0.0
0.0
0.0
0.0
0.0
0.0
0.0
0.0
0.0
0.0
0.0
0.0
0.0
0.0
0.0
0.0
0.0
0.0
0.0
0.0
0.0
0.0
0.0
0.0
0.0
0.0
0.0
0.0
0.0
0.0
0.0
0.0
0.0
0.0
0.0
0.0
0.0
0.0
0.0
0.0
0.0
0.0
0.0
0.0
0.0
0.0
0.0
0.0
0.0
0.0
0.0
0.0
0.0
0.0
0.0
0.0
0.0
0.0
0.0
0.0
0.0
0.0
0.0
0.0
0.0
0.0
0.0
0.0
0.0
0.0
0.0
0.0
0.0
0.0
0.0
0.0
0.0
0.0
0.0
0.0
0.0
0.0
0.0
0.0
0.0
0.0
0.0
0.0
0.0
0.0
0.0
0.0
0.0
0.0
0.0
0.0
0.0
0.0
0.0
0.0
0.0
0.0
0.0
0.0
0.0
0.0
0.0
0.0
0.0
0.0
0.0
0.0
0.0
0.0
0.0
0.0
0.0
0.0
0.0
0.0
0.0
0.0
0.0
0.0
0.0
0.0
0.0
0.0
0.0
0.0
0.0
0.0
0.0
0.0
0.0
0.0
0.0
0.0
logs/alpha_0.6/PGSD_100steps_1.log 1000033.20319 1000.03320319 0.0 1000000.0 0.0 257
