Policy Parameters:	-1.05101251738 1.2079653693
Control Steps:		1000
Start Time:		1438233503.8656304

-- TESTING STOPPED --

Stop Time:		1438233654.4846315
Duration:		150.61900115013123
Cost Matrix:
0.00957638836564
0.0402527982733
0.0558597608204
0.048122436464
0.0329611456215
0.0312080536081
0.0244201524071
0.0677321435919
0.0718859255866
0.0764949624429
0.128009894058
0.16743389086
0.173451280816
0.157693730634
0.184513009765
0.234160876981
0.244235767416
0.290787002558
0.339709115996
0.364525977302
0.448190102258
0.572784004458
0.595141701055
0.691824434444
0.866110666779
0.613906387183
0.590561774352
0.57031428118
0.609675956302
0.810527600494
1.09666675335
0.805838507309
0.668408381273
0.893788561532
0.848300660813
0.522391715456
0.481120800785
0.34325885417
0.210070419907
0.0214493818149
0.0200198231
0.0510401782261
0.0654099316703
0.0570450747611
0.0969783785174
0.123995771962
0.138135837264
0.0872835576867
0.101701931221
0.0871380439095
0.0426754768757
0.0494230964172
0.0656016803835
0.0914936145461
0.0253876044985
0.0323003798834
0.0314592827636
0.0566130366233
0.0590639347351
0.108477575198
0.188961785858
0.250113227061
0.291022202398
0.339606487876
0.369158912152
0.398083950545
0.450044403972
0.501259339337
0.55247231511
0.597391765796
0.594753136162
0.595706846618
0.63252716138
0.586821981694
0.5701862285
0.644943432336
0.631869419791
0.61769181577
0.579424455898
0.470236106136
0.422771338732
0.359663482455
0.234909232743
0.0883105958281
0.0497361441725
0.036121783268
0.0410920471453
0.0339072687545
0.0507319050324
0.125708215748
0.188178247032
0.189586967936
0.193591409129
0.199441462855
0.178659926046
0.170393968793
0.171674443001
0.167741513351
0.136947454664
0.186526374279
0.193125883881
0.149052306621
0.157882443366
0.154318484361
0.140764451065
0.145991322087
0.148696262298
0.170077327558
0.16923923951
0.130058293652
0.127696434314
0.107496252051
0.104691215087
0.106461247639
0.0474285996095
0.0397816344141
0.0438636240825
0.0255562102586
0.0219090600339
0.0394615583894
0.0825358504219
0.103644676893
0.114317480223
0.0964408828397
0.055233262758
0.0438205666766
0.0786658346113
0.0716146001118
0.0457090209429
0.0556849428588
0.0385213758177
0.046124306851
0.059936118026
0.0836995856719
0.0960428367881
0.124396489818
0.1581991348
0.178122326439
0.185106751644
0.190537766126
0.19743400015
0.254789879999
0.286761677339
0.275811887457
0.289226821797
0.267344269383
0.275064443344
0.276695909832
0.255108604856
0.241451381625
0.302285626349
0.371966635338
0.366055642042
0.327719884197
0.318206535769
0.303792098492
0.316606193332
0.267941818391
0.174325741748
0.103688506007
0.058450640187
0.0482313938504
0.0651211487393
0.145641433127
0.187177618311
0.200949255128
0.214934399565
0.196785018947
0.175498988976
0.19345321627
0.185472000268
0.151614766709
0.166294473436
0.205250922067
0.227270675225
0.187720848757
0.133072306115
0.130999920866
0.131525948459
0.120494573449
0.117375383539
0.0962696472964
0.0795714838817
0.0890748479528
0.0539779911236
0.00837294288781
0.0501224556474
0.0993896869938
0.129508765874
0.151205912945
0.188848684789
0.21417423871
0.228127903408
0.291801208196
0.348888391095
0.366020702626
0.383038507491
0.40641078962
0.441962400945
0.452588860601
0.453817335075
0.475629967409
0.478850013993
0.481858076237
0.516054799999
0.516586932768
0.536087773369
0.441264833967
0.287043926133
0.324379047129
0.223746601999
0.141240226402
0.0503518533551
0.0895658877658
0.153357048357
0.190301922006
0.18134739346
0.117605138673
0.0625136484587
0.080579001005
0.0986381814209
0.10279548371
0.113085593558
0.138832872499
0.114890913671
0.0749432443124
0.0980830893766
0.0814000343468
0.0317826062668
0.0968935167428
0.0940557856215
0.0308642293286
0.0401500344942
0.0261281259086
0.0802813264097
0.113003428951
0.0847225409889
0.0151380313688
0.0390410610134
0.0497819336234
0.0772017404665
0.0803497923906
0.0412864879742
0.0556311730894
0.00978416419101
0.0335529857378
0.0429380394795
0.015519644592
0.0756242096457
0.103354248253
0.0734701035854
0.105071166056
0.117334515355
0.0833086729413
0.0464678190315
0.0562417444574
0.0109248812805
0.0254606259959
0.0164492208426
0.0762312651378
0.105441592685
0.0796405839533
0.0977865954452
0.0910417525208
0.0916975090247
0.103037766183
0.155015742989
0.146809043427
0.0823041572804
0.0863923230824
0.12756768354
0.159165452395
0.147360062123
0.166874144359
0.209480009238
0.231564210685
0.312563374955
0.36771658333
0.305893725296
0.266144453638
0.26665503358
0.289768421567
0.305227129986
0.282914537238
0.262027732846
0.281680041186
0.314588131083
0.332705045903
0.32041926616
0.329754515575
0.277492934265
0.239638279196
0.271251003414
0.234070742507
0.0541006295764
0.00948194569085
0.0127329605918
0.0350530002765
0.0444490900441
0.031482620765
0.0193994704391
0.073072684278
0.0866961447222
0.0580153705298
0.0488951941401
0.0477594653498
0.0717576556574
0.0906501235083
0.0820419543088
0.071178055802
0.0824321887128
0.0897462677017
0.120517215359
0.144366536959
0.161104981883
0.186642984806
0.199600175816
0.215809460308
0.251880150005
0.281091646732
0.299465715121
0.331269079551
0.349974635041
0.341847879664
0.352483487614
0.373019584219
0.384902382119
0.378737337775
0.364588204902
0.382792818233
0.398723684872
0.3747292616
0.381479072734
0.398887028992
0.37283967957
0.331169493859
0.337104064947
0.280477321128
0.0637578642585
0.0231243151765
0.0100069564225
0.0167383504121
0.043670402484
0.083023281907
0.114970422344
0.11505125967
0.0786373377599
0.0806650767648
0.112482005195
0.118933863324
0.123100904187
0.137544700304
0.154414020798
0.166715571291
0.152534330207
0.168525889667
0.182304599681
0.22114352741
0.239925150102
0.177789812467
0.148217814289
0.123941610788
0.15506679321
0.1671621183
0.0677988559327
0.086954440172
0.0940620023896
0.0819058596626
0.0767001035981
0.0374174509387
0.0433602369413
0.0380978176693
0.0262018055725
0.103206839531
0.168756336472
0.180603791706
0.160324512618
0.129314015137
0.0889235323564
0.0696752832556
0.0945229058893
0.171109336483
0.173812171716
0.081844059111
0.0
0.0456339754101
0.0510970556634
0.0459842290463
0.0517865370047
0.0282070554373
0.0392698023044
0.042953401784
0.014148945022
0.00715302376783
0.00504883539438
0.038181512268
0.0403817043039
0.0271529244784
0.0282235834793
0.00587880937783
0.0350567313419
0.0343024196521
0.0480792901565
0.0518878236154
0.0271982973637
0.0714304370157
0.0860647622768
0.0562276195588
0.0522655196218
0.0546007808054
0.0479771871866
0.100810251692
0.108860068328
0.0498286335421
0.0667831270833
0.0884807200763
0.0627375180138
0.0494875316904
0.0624607252772
0.0268216069858
0.0553288734169
0.072781058312
0.0607214967446
0.0786603237215
0.0807527836497
0.0493979951699
0.04967744477
0.0153815681704
0.0125328477805
0.0199688037859
0.0165874441019
0.0430535579266
0.0592270755052
0.0447650575279
0.0469380552241
0.0873820490663
0.123565214972
0.105427293753
0.0960258187978
0.073954162086
0.1347317608
0.182406796051
0.174020683433
0.126626573159
0.111000715493
0.0867372702491
0.134141059268
0.207400987544
0.249672193176
0.284233714766
0.308571326457
0.373769422926
0.429806391424
0.442964771788
0.462058189851
0.487095692543
0.519473086669
0.543591267486
0.581150358234
0.593726618549
0.567828416239
0.605013308501
0.569247343341
0.498433799128
0.372131823171
0.16166920867
0.164210876223
0.0796087196084
0.0285060876542
0.00777724274977
0.0287160538613
0.0323512917454
0.0194065037882
0.00595082257016
0.0123949795418
0.0382350005331
0.0377007546349
0.0308431552908
0.0288805495562
0.0417560244133
0.0396908803768
0.0133226582968
0.0242267857199
0.0381390177275
0.0151738544871
0.0114723323653
0.0312551545587
0.0345254301487
0.023531696326
0.0344339220871
0.0896799099138
0.124769811868
0.0990924559479
0.0211332458435
0.0363852699237
0.0660111627452
0.100166093834
0.104352307138
0.110056818641
0.108013384078
0.108700179272
0.115347024614
0.0491542231596
0.082132238135
0.153329496091
0.177790465681
0.160324024087
0.148365710509
0.174481701571
0.251995554901
0.297334595767
0.265711037319
0.284742592787
0.315893450677
0.337180795577
0.375683777371
0.39852674557
0.379159596351
0.363184605446
0.39263562263
0.391209344413
0.384847124548
0.390625586037
0.386786857436
0.36905223691
0.34430290104
0.30236720976
0.287987580569
0.284297305933
0.235369490525
0.164862332498
0.0460895478144
0.0404196702452
0.0288096536092
0.00837475157293
0.026701695293
0.0441842195954
0.0453570280428
0.0560713748387
0.0557551971371
0.0307743577479
0.0583080669644
0.0699807143036
0.0578644798266
0.0373309977581
0.0216345915147
0.106241810111
0.110250049222
0.0377009421403
0.0552039419423
0.0653218461258
0.0459960687859
0.0315441766407
0.0427955533943
0.0355910794166
0.0492614460002
0.0294075107443
0.0457612771022
0.0420289118064
0.0153553074192
0.0317865888804
0.0280131212287
0.0431413721078
0.0417748213111
0.0258388022653
0.0347213730676
0.0557167969856
0.0560582567456
0.0378444113662
0.0334401441185
0.0509401387877
0.0691506458203
0.0680557226951
0.043355053196
0.0388753539489
0.0346988063608
0.0269556969607
0.0571513917661
0.0593818942522
0.0575406020802
0.0833337872367
0.0781901989303
0.0521554289312
0.0499911093279
0.0580613094109
0.0117478979143
0.0117249936099
0.0593100805417
0.0908454341297
0.0936264794878
0.090104838647
0.0888338164544
0.0939758049644
0.101097772776
0.102563410023
0.10630956804
0.107399967475
0.105791422504
0.104821702001
0.106825518396
0.110099951521
0.114666668355
0.111194506783
0.101153318651
0.0779861642502
0.0649243313056
0.0990243445388
0.104375673512
0.11602858673
0.123522578306
0.124550911874
0.111617098184
0.116087553053
0.120929550447
0.121099576195
0.120915538382
0.121792374859
0.116170444032
0.116063613221
0.124270282191
0.127330120523
0.121034151648
0.0916959240683
0.0924316682824
0.129883375539
0.132967297901
0.130789209076
0.126438074861
0.127997286737
0.128617932989
0.133502528194
0.134536693854
0.124614937874
0.125632387791
0.129240521226
0.128514436075
0.101038928052
0.0655378192205
0.104598447187
0.114078094633
0.104979470369
0.0817343638928
0.0925075540857
0.139959396551
0.132606728123
0.123037070614
0.15493162024
0.147205972056
0.145710802105
0.15033914534
0.146473243968
0.145642478574
0.151220057863
0.156960423081
0.156348356887
0.157530775039
0.162373871236
0.163570880094
0.164132338897
0.160456565977
0.163330319909
0.162588562106
0.162647833091
0.167433101741
0.174538284782
0.170291966655
0.158100201248
0.164894443406
0.170961680721
0.170179261826
0.171829829664
0.178631613996
0.179623860219
0.174943195266
0.172622627946
0.176017774313
0.183561711246
0.153586149872
0.114284506355
0.116278864255
0.1117535777
0.133974507775
0.167659825329
0.187707517594
0.187076782703
0.178976239428
0.158302487651
0.155207920556
0.170919589669
0.176168361812
0.15415461987
0.167022786423
0.195213530897
0.163386710321
0.111526836803
0.124253669332
0.139528060787
0.148448283985
0.13758768363
0.105457030662
0.0748318428004
0.101092376232
0.120062084661
0.141114479172
0.126403858527
0.0964296263385
0.102750263656
0.0981405459569
0.0950142493404
0.093399335445
0.115913070949
0.112902007348
0.0758741593315
0.0576139636307
0.0853462683182
0.102814981232
0.0992906976116
0.106212737836
0.0680224914073
0.0618139576813
0.0882059822941
0.135325653085
0.156468869553
0.171093871371
0.190021341115
0.182273676537
0.192106134667
0.197391449904
0.195676549246
0.210262646928
0.212078325913
0.214584972169
0.21397730112
0.214348404135
0.215780816268
0.217398170519
0.211921539507
0.208543373562
0.200511911055
0.19529975914
0.215188835945
0.238312319184
0.2246798557
0.197754819857
0.18772008659
0.187418200026
0.186613379749
0.188174911429
0.210535182152
0.231583792365
0.221623017543
0.202082865394
0.187009696164
0.189927277608
0.195380539915
0.191000269487
0.189068710161
0.194980769533
0.192979677491
0.182766425273
0.182104209348
0.191644093599
0.188841343554
0.164089278989
0.175976401374
0.181339817785
0.169949132616
0.180972354916
0.177770658519
0.188513548686
0.178482063443
0.173795409274
0.178479942242
0.167715010221
0.156769163479
0.178582651246
0.187095589087
0.191021325158
0.197432534533
0.180113533005
0.161600370615
0.144565802293
0.116303238827
0.137111637115
0.160599535128
0.169239363382
0.167550473967
0.177069126682
0.187774975148
0.197995421749
0.205947666503
0.208736842216
0.22015675849
0.229715618175
0.234984472329
0.244777448567
0.272347691076
0.297438080274
0.314401018699
0.333154498912
0.358226247229
0.397246213108
0.445891294697
0.474920606013
0.527185996315
0.560680575213
0.584483217468
0.637846525596
0.695981157062
0.855474110345
0.870108932731
0.845414221893
2.78451529586
3.86557664094
1.71732996061
1.36037219895
1.35746001153
2.31534028529
1.07665942675
1.83984835547
0.987267835971
1.65099201146
0.88476115052
1.4574102425
0.887786694541
1.41012381218
0.465407215238
0.603510807841
0.833439022392
1.3318267755
0.388119449106
1.15806991587
1.96822617432
0.415572294208
0.654129791613
0.742068883766
0.608601562862
0.802153222514
1.13363964735
0.417245300891
0.56002307165
0.569189131585
0.545032430912
0.577679062385
0.579047577831
0.514546837486
0.497866218928
0.541108426105
0.523730874113
0.46466530995
0.433255761457
0.42804082167
0.395703954423
0.421214997311
0.41327764014
0.418963899617
0.457730804122
0.446050402702
0.389017607026
0.279115235365
0.244020301188
0.22555171094
0.21084411037
0.219332414561
0.205131885141
0.192920710839
0.165025807505
0.145786273443
0.146342297456
0.134163345635
0.150319015488
0.148382747419
0.136079753332
0.137320614784
0.133311474692
0.150140831727
0.150406943446
0.125708490615
0.132441876256
0.12133635133
0.131685604789
0.11738713714
0.130372232631
0.16160337162
0.116520382512
0.0874063906549
0.0671128724412
0.0900622720668
0.132675545483
0.145296502126
0.154308508796
0.159771839102
0.135076900857
0.136508026163
0.105887491732
0.0765990364224
0.0354021936504
0.0176922508726
0.0312217244445
0.0633941311286
0.0693343211094
0.0527431116645
0.0405158265085
0.0486536782516
0.0514744376751
0.0161331544896
0.0139339778919
0.021912459964
0.0619039550156
0.0684868146861
0.0376074480294
0.0246841214879
0.040431566488
0.0513837270168
0.0456129583949
0.0469549716189
0.0103093642115
0.0188497291753
0.0301538978424
0.055076911877
0.0604865400881
0.0622829935636
0.0614272426021
0.00744459721706
0.0219582291624
0.050694506849
0.0545783900687
0.0355348756832
0.0321360514419
0.00262642715705
0.00543022169958
0.0111399719246
0.0104362493804
0.0170432977216
0.0162704378822
0.0116629600388
0.0259644914766
0.0245520403639
0.0287674399975
0.0685104619615
0.0679850104514
0.00335227708928
0.0205606065001
0.0239734948584
0.0627805972782
0.081290744693
0.0604702103318
0.0526116424745
0.0791070462456
0.102815729173
0.122051334798
0.116282976464
0.0866970764589
0.100741184788
0.121376199578
0.122723971476
0.151494300047
0.190179868444
0.240168092678
0.258182628506
0.253907234915
0.325942444857
0.40771452403
0.652582534216
0.94041621373
0.883039893791
0.570568863433
0.478180216306
0.521284859459
0.504411638328
0.371244336021
0.30780046358
0.402774493329
0.410854001862
0.340863953707
0.241469081729
0.277980579898
0.349250858507
0.416594832194
0.329799092998
0.163371043641
0.358957067237
0.338157780686
0.0122491567534
0.0384620511621
0.0601484040356
0.0559965468056
0.030015829974
0.0124461006141
0.0628941555368
0.0853087435707
0.0890596690839
0.0988364101709
0.0335162308359
0.00415224388636
0.023626236494
0.0558015981532
0.0733346911864
0.0780343886113
0.0360288866321
logs/alpha_0.6/PGSD_500steps_4.log 205.025408023 0.205025408023 0.130894564971 3.86557664094 0.0 -1
