Initial Policy Parameters:	0.0 0.0
Learning Rate:			0.6
Learning Steps:			1000
Start Time:			1436827279.5579753

-- LEARNING STOPPED --

Stop Time:			1436827415.7210755
Duration:			136.16310024261475
Final Policy Parameters:	-0.791335295662 0.805824595487
