Policy Parameters:	-1.26578005092 1.31914832079
Control Steps:		1000
Start Time:		1438238670.3309484

-- TESTING STOPPED --

Stop Time:		1438238713.4577348
Duration:		43.12678647041321
Cost Matrix:
0.0844075622821
0.0982541310324
0.0955988861539
0.0775697098849
0.0537702991365
0.0312882843702
0.0570817993534
0.125094638304
0.212273594374
0.284290869263
0.328692573964
0.346447029513
0.373396519761
0.40637759718
0.423561947846
0.42251757479
0.389188271455
0.413705082677
0.427570395288
0.376968563937
0.405922322046
0.414026545403
0.372622826727
0.387649260734
0.358685292609
0.253725858275
0.138739873162
0.16325890597
0.281590917556
0.347650052978
0.385957131568
0.419054599263
0.456626528382
0.464103490059
0.459333917084
0.447096741596
0.430842661931
0.449051116377
0.487113632133
0.486249659492
0.452376148204
0.427580168025
0.391465690926
0.30429168297
0.210018079044
0.103665703695
0.0653598398375
0.115628830196
0.141111213547
0.135323145846
0.0648577764698
0.0516142581319
0.0756005764078
0.0803745323697
0.0716634533097
0.0544157372807
0.0455462328821
0.0300187506543
0.0557517642254
0.0710985192225
0.0455780855814
0.0323867348765
0.00805186563981
0.0142934790127
0.0256230085649
0.0251753732443
0.0255470570303
0.0103720937923
0.0117569137073
0.0407081839596
0.0510547813217
0.0157106223465
0.0519592650344
0.0624558868667
0.0495464522251
0.0966814415462
0.109066666485
0.0738492039711
0.0199911390589
0.0461753830053
0.0514882444072
0.0431444883289
0.0586017218057
0.0744482168173
0.111634085354
0.0990984708861
0.0733755255958
0.101862359069
0.0764443384926
0.0528583090876
0.0631497795873
0.142488262105
0.205109514797
0.230108321075
0.260009703969
0.239485730088
0.209124118367
0.264728713796
0.342090144668
0.449140136698
0.670948672809
1.00465838
0.934048612894
1.06403159435
1.02413253806
0.953555623368
1.27198213211
0.846734359388
1.2620194574
0.805657360681
1.30402378957
0.76533267843
1.06954254614
0.686745461434
0.349724625424
0.319209606808
0.0559647930275
0.0483938491944
0.0547881715472
0.0389469950543
0.0469815765681
0.0260433041778
0.0296070388583
0.0389018142478
0.0308379920691
0.00405504394666
0.0634442859721
0.0859185640237
0.0322010961294
0.0364994488787
0.00875791384764
0.0770756506393
0.0471751440313
0.0309408142991
0.00846172723512
0.0417249032999
0.0546109192442
0.0264818903218
0.0518147840853
0.0685975584588
0.0333351341867
0.0423164714584
0.0848538045397
0.0878873329954
0.0657495486623
0.0809867668589
0.0472523799836
0.0407707438161
0.0702304210594
0.0944754994208
0.0973582077367
0.127049719326
0.146014250318
0.0919389369292
0.107787409426
0.111683122025
0.129873001223
0.180323534664
0.132389890337
0.0808043619467
0.082005131705
0.128672530652
0.152202123412
0.131550538143
0.0867834215121
0.0106968402104
0.0218759805956
0.0318684665332
0.0244965898541
0.0723967898541
0.0991947588681
0.0972458108742
0.156180145579
0.207138473303
0.191309812818
0.161491854714
0.226318804841
0.296893769093
0.321623609467
0.319390230245
0.269777171767
0.237226005259
0.264878579303
0.288536542805
0.312045406715
0.3067929287
0.266676468158
0.213725032582
0.216322371471
0.246200201696
0.265176654355
0.250138153546
0.180228991931
0.178148351225
0.169320926493
0.13476214658
0.0704161766789
0.0551827412097
0.0251688101066
0.0732687759
0.0922370691744
0.0358142348485
0.054138553826
0.0707219350479
0.0549959349311
0.0576601130037
0.0502106650558
0.0607731033577
0.0986990201874
0.0788606929187
0.024423945122
0.0295228909379
0.0712809544239
0.116313565513
0.107599857258
0.0856499536476
0.0981655128223
0.0525930008313
0.0734225418097
0.0476915863328
0.0183509665461
0.00428998435525
0.025243318061
0.0405285842735
0.0264728675121
0.0230530552212
0.0422573450722
0.0450362805368
0.0472733306465
0.0546425281839
0.0711043461912
0.0738644107386
0.0646187729369
0.0330525116691
0.0468871240437
0.0478419250762
0.0401025755305
0.0534070558169
0.0301254247471
0.0499952082549
0.0361392942588
0.0271272473913
0.0647428016231
0.075371271852
0.037812950392
0.000853034404159
0.0287763692783
0.0449092422136
0.0406881760952
0.0388099469572
0.0250029086893
0.0507186892406
0.0658144544375
0.0856915069304
0.116184166257
0.0307124975399
0.0459432263129
0.0588956582593
0.112551716599
0.132694314872
0.0798818239157
0.0755123166002
0.0908059198
0.0652375635226
0.0658083487061
0.0695366133572
0.0486464100277
0.0704691924155
0.129041270879
0.181068025058
0.270223992714
0.430803608397
0.583647901778
0.753167308751
1.0754296389
0.935857232672
1.54487193129
1.1683152161
1.24300536564
0.730833766279
1.40328197642
0.175367794197
0.172041551848
0.411105356533
0.502710576054
1000000.0
0.0
0.0
0.0
0.0
0.0
0.0
0.0
0.0
0.0
0.0
0.0
0.0
0.0
0.0
0.0
0.0
0.0
0.0
0.0
0.0
0.0
0.0
0.0
0.0
0.0
0.0
0.0
0.0
0.0
0.0
0.0
0.0
0.0
0.0
0.0
0.0
0.0
0.0
0.0
0.0
0.0
0.0
0.0
0.0
0.0
0.0
0.0
0.0
0.0
0.0
0.0
0.0
0.0
0.0
0.0
0.0
0.0
0.0
0.0
0.0
0.0
0.0
0.0
0.0
0.0
0.0
0.0
0.0
0.0
0.0
0.0
0.0
0.0
0.0
0.0
0.0
0.0
0.0
0.0
0.0
0.0
0.0
0.0
0.0
0.0
0.0
0.0
0.0
0.0
0.0
0.0
0.0
0.0
0.0
0.0
0.0
0.0
0.0
0.0
0.0
0.0
0.0
0.0
0.0
0.0
0.0
0.0
0.0
0.0
0.0
0.0
0.0
0.0
0.0
0.0
0.0
0.0
0.0
0.0
0.0
0.0
0.0
0.0
0.0
0.0
0.0
0.0
0.0
0.0
0.0
0.0
0.0
0.0
0.0
0.0
0.0
0.0
0.0
0.0
0.0
0.0
0.0
0.0
0.0
0.0
0.0
0.0
0.0
0.0
0.0
0.0
0.0
0.0
0.0
0.0
0.0
0.0
0.0
0.0
0.0
0.0
0.0
0.0
0.0
0.0
0.0
0.0
0.0
0.0
0.0
0.0
0.0
0.0
0.0
0.0
0.0
0.0
0.0
0.0
0.0
0.0
0.0
0.0
0.0
0.0
0.0
0.0
0.0
0.0
0.0
0.0
0.0
0.0
0.0
0.0
0.0
0.0
0.0
0.0
0.0
0.0
0.0
0.0
0.0
0.0
0.0
0.0
0.0
0.0
0.0
0.0
0.0
0.0
0.0
0.0
0.0
0.0
0.0
0.0
0.0
0.0
0.0
0.0
0.0
0.0
0.0
0.0
0.0
0.0
0.0
0.0
0.0
0.0
0.0
0.0
0.0
0.0
0.0
0.0
0.0
0.0
0.0
0.0
0.0
0.0
0.0
0.0
0.0
0.0
0.0
0.0
0.0
0.0
0.0
0.0
0.0
0.0
0.0
0.0
0.0
0.0
0.0
0.0
0.0
0.0
0.0
0.0
0.0
0.0
0.0
0.0
0.0
0.0
0.0
0.0
0.0
0.0
0.0
0.0
0.0
0.0
0.0
0.0
0.0
0.0
0.0
0.0
0.0
0.0
0.0
0.0
0.0
0.0
0.0
0.0
0.0
0.0
0.0
0.0
0.0
0.0
0.0
0.0
0.0
0.0
0.0
0.0
0.0
0.0
0.0
0.0
0.0
0.0
0.0
0.0
0.0
0.0
0.0
0.0
0.0
0.0
0.0
0.0
0.0
0.0
0.0
0.0
0.0
0.0
0.0
0.0
0.0
0.0
0.0
0.0
0.0
0.0
0.0
0.0
0.0
0.0
0.0
0.0
0.0
0.0
0.0
0.0
0.0
0.0
0.0
0.0
0.0
0.0
0.0
0.0
0.0
0.0
0.0
0.0
0.0
0.0
0.0
0.0
0.0
0.0
0.0
0.0
0.0
0.0
0.0
0.0
0.0
0.0
0.0
0.0
0.0
0.0
0.0
0.0
0.0
0.0
0.0
0.0
0.0
0.0
0.0
0.0
0.0
0.0
0.0
0.0
0.0
0.0
0.0
0.0
0.0
0.0
0.0
0.0
0.0
0.0
0.0
0.0
0.0
0.0
0.0
0.0
0.0
0.0
0.0
0.0
0.0
0.0
0.0
0.0
0.0
0.0
0.0
0.0
0.0
0.0
0.0
0.0
0.0
0.0
0.0
0.0
0.0
0.0
0.0
0.0
0.0
0.0
0.0
0.0
0.0
0.0
0.0
0.0
0.0
0.0
0.0
0.0
0.0
0.0
0.0
0.0
0.0
0.0
0.0
0.0
0.0
0.0
0.0
0.0
0.0
0.0
0.0
0.0
0.0
0.0
0.0
0.0
0.0
0.0
0.0
0.0
0.0
0.0
0.0
0.0
0.0
0.0
0.0
0.0
0.0
0.0
0.0
0.0
0.0
0.0
0.0
0.0
0.0
0.0
0.0
0.0
0.0
0.0
0.0
0.0
0.0
0.0
0.0
0.0
0.0
0.0
0.0
0.0
0.0
0.0
0.0
0.0
0.0
0.0
0.0
0.0
0.0
0.0
0.0
0.0
0.0
0.0
0.0
0.0
0.0
0.0
0.0
0.0
0.0
0.0
0.0
0.0
0.0
0.0
0.0
0.0
0.0
0.0
0.0
0.0
0.0
0.0
0.0
0.0
0.0
0.0
0.0
0.0
0.0
0.0
0.0
0.0
0.0
0.0
0.0
0.0
0.0
0.0
0.0
0.0
0.0
0.0
0.0
0.0
0.0
0.0
0.0
0.0
0.0
0.0
0.0
0.0
0.0
0.0
0.0
0.0
0.0
0.0
0.0
0.0
0.0
0.0
0.0
0.0
0.0
0.0
0.0
0.0
0.0
0.0
0.0
0.0
0.0
0.0
0.0
0.0
0.0
0.0
0.0
0.0
0.0
0.0
0.0
0.0
0.0
0.0
0.0
0.0
0.0
0.0
0.0
0.0
0.0
0.0
0.0
0.0
0.0
0.0
0.0
0.0
0.0
0.0
0.0
0.0
0.0
0.0
0.0
0.0
0.0
0.0
0.0
0.0
0.0
0.0
0.0
0.0
0.0
0.0
0.0
0.0
0.0
0.0
0.0
0.0
0.0
0.0
0.0
0.0
0.0
0.0
0.0
0.0
0.0
0.0
0.0
0.0
0.0
0.0
0.0
0.0
0.0
0.0
0.0
0.0
0.0
0.0
0.0
0.0
0.0
0.0
0.0
0.0
0.0
0.0
0.0
0.0
0.0
0.0
0.0
0.0
0.0
0.0
0.0
0.0
0.0
0.0
0.0
0.0
0.0
0.0
0.0
0.0
0.0
0.0
0.0
0.0
0.0
0.0
0.0
0.0
0.0
0.0
0.0
0.0
0.0
0.0
0.0
0.0
0.0
0.0
0.0
0.0
0.0
0.0
0.0
0.0
0.0
0.0
0.0
0.0
0.0
0.0
0.0
logs/alpha_0.6/PGSD_800steps_1.log 1000059.18151 1000.05918151 0.0 1000000.0 0.0 285
