Policy Parameters:	-3.7057328267 2.95282809614
Control Steps:		1000
Start Time:		1438360425.3579056

-- TESTING STOPPED --

Stop Time:		1438360600.1777663
Duration:		174.8198606967926
Cost Matrix:
0.0201101136159
0.0374435385262
0.119695550548
0.221968027653
0.0965612060989
0.0118636314577
0.099034159021
0.25021061378
0.121492365477
0.136184173048
0.120831463213
0.218394423658
0.126101387171
0.254111919796
0.122940327107
0.211908398009
0.113939845152
0.0814584704438
0.184733812079
0.331982328442
0.497261278523
0.375185113073
0.537356776403
0.947709788408
0.660773659417
1.01717885493
0.7882060504
1.00327014458
0.855529990041
0.906987426325
0.775957564546
0.560734848669
1.05622847838
0.37706185195
0.378474622247
0.36181637844
0.287014432852
0.264320701257
0.0146446304135
0.054757398294
0.21994385119
0.41525596406
0.23789793872
0.0927497656912
0.159530473449
0.0870774105003
0.288764007385
0.263290714546
0.249390031201
0.360302707175
0.347080047998
0.384209958305
0.456811205259
0.420559951873
0.303558270722
0.490068790426
0.374924672343
0.304027628189
0.226701503483
0.297922137607
0.245792966785
0.235180443761
0.276237021218
0.0166015931164
0.0301916940242
0.0541357221484
0.194086063618
0.207015855812
0.231717027606
0.195636083042
0.0179100098008
0.0565446213055
0.0624862534929
0.155664385484
0.252405643761
0.130768104892
0.022195878063
0.0413051809096
0.130875148877
0.114246744027
0.133990561123
0.0616190933045
0.0212107038839
0.0407642233175
0.025420335019
0.0782325367182
0.0747349038943
0.0797283790036
0.180670748347
0.252242786027
0.226099659282
0.171233304136
0.277884342134
0.279123017943
0.254578541356
0.327543016754
0.380288382685
0.585176586157
0.923680447861
0.95346593583
1.0259799209
1.08985292611
1.1220557714
1.16797104466
1.46415607564
0.998838057828
1.38639007281
0.518672568318
0.83191109852
0.447478193378
0.468001155552
0.357781788151
0.149878967079
0.0205108153887
0.0443382857291
0.0661198759864
0.0662833933354
0.0488184814867
0.160335665715
0.0843903546445
0.0815090045683
0.117946067915
0.24815318104
0.274167446453
0.223009032265
0.21880109423
0.133797895716
0.0256777197017
0.0845876283848
0.0704048876232
0.123115416112
0.11111639298
0.0120973561316
0.0100035263194
0.0247294940319
0.0629204054916
0.212602623154
0.0663983981725
0.176590725114
0.0734795759777
0.189140236963
0.173568764287
0.0118024232308
0.0728186218119
0.131745198783
0.0589747654505
0.0447282338431
0.103969815024
0.190533895428
0.063406647506
0.180242030649
0.075645246185
0.0473463106401
0.189721774616
0.234112454602
0.436462450024
0.322487132711
0.178287508958
0.317936197116
0.272957817476
0.33482452364
0.335779234282
0.333020474333
0.374792126155
0.436868719224
0.448271595298
0.563484729602
0.904882494373
0.865972963435
0.858564503721
0.87732327892
1.05278838086
0.95032369343
0.945001953468
0.911584330533
0.741332457676
0.90827642444
0.529281880777
0.529376776216
0.521427712621
0.518906408667
0.351510291037
0.190016584966
0.155376605998
0.142604559788
0.156358753951
0.146128977419
0.185555044465
0.328410229925
0.1777802253
0.25624720023
0.365560810993
0.227674230681
0.199301161344
0.221480711106
0.339868982769
0.307461127388
0.243843858486
0.201375940184
0.298330586371
0.29224445858
0.265814714791
0.378607738001
0.213036953492
0.35289646038
0.268822641591
0.340327943087
0.374114918372
0.102285726404
0.141722908881
0.33010093571
0.364859873053
0.390905573918
0.356130474757
0.38537497576
0.39766976061
0.296196634474
0.333669107046
0.409043781578
0.364924216858
0.306467158565
0.296524240004
0.240095741034
0.237416681233
0.228172464382
0.129935659382
0.129918098537
0.0527566472934
0.0796227476207
0.114646494979
0.0334364803255
0.0653778158286
0.068310794699
0.264705629498
0.240087722179
0.317050925236
0.320479827289
0.190471116722
0.372125540065
0.369995421503
0.404326802719
0.247072234781
0.262160578556
0.287730366349
0.114560838264
0.243619546738
0.515260762743
0.221953531128
0.167353240587
0.25268747773
0.292066581352
0.358870256735
0.396288770201
0.170040302246
0.0779016644335
0.136961290621
0.128819152537
0.0373141223094
0.165714487512
0.122085140804
0.0845017445525
0.00641687815649
0.0417677285629
0.179878541917
0.0358342682086
0.15815625923
0.172680816065
0.421266037967
0.161542209396
0.0557300771508
0.101874223829
0.161293363542
0.166826616105
0.225923928185
0.166435692197
0.130741815722
0.298934047317
0.283701389499
0.270955710488
0.326059877944
0.33799766595
0.363672977046
0.266549597586
0.430175651179
0.755923031305
1.24720703344
1.23913170735
2.22221048736
1.82129135528
2.30310050241
1.95806431845
1.58120522207
2.13268150529
2.04351113721
1.13472208821
1.96307055433
0.329244874632
0.448499987492
0.447066844736
0.509252750995
0.478381793076
0.428256477097
0.353026007501
0.307119313384
0.191769137239
0.137881749604
0.428118308534
1.02353013039
0.916078833079
0.691522015386
1.24490891305
0.711090386977
0.5163845899
0.923131962076
1.94649845456
0.0798987581974
0.39630766339
0.976546275211
0.459411713455
0.766365782309
0.473721835021
0.440132413671
0.351956336117
0.0314978731746
0.10719492862
0.113197345147
0.143625452914
0.0456501216966
0.0605281576721
0.0473419280291
0.106161733817
0.11378606738
0.234622774427
0.249420325861
0.0632260824788
0.112407652409
0.225481812762
0.169970059826
0.168959208301
0.138805396808
0.138833974112
0.209617890116
0.139579400631
0.167727953521
0.296435892505
0.462850894562
0.501785548624
0.544242046785
0.53187715445
0.881837860347
0.38090892448
0.693043547157
0.528162754152
0.799575656455
0.449380980503
0.449516145096
0.656973013967
0.393498858968
0.393521408728
0.152571961858
0.33824214699
0.337179163612
0.265282264457
0.267119487916
0.226057207561
0.204492917713
0.266351221313
0.207078237863
0.172617238219
0.35312470398
0.413953281597
0.319395557139
0.327237156911
0.31233610638
0.258627739675
0.317456432978
0.340068650764
0.334169456503
0.358959611616
0.286909150837
0.290396241154
0.23106039519
0.112417896947
0.531714091015
1.44394372102
1.11910677417
1.40920227234
1.26408011169
1.22416035307
1.23603151959
0.980276364278
1.19858455119
0.904446884269
1.09216936717
0.480677265155
0.924097298496
0.111982858133
0.285910293049
0.557982419734
0.662648771906
0.657517085011
0.432578398645
0.432626338473
0.301607973531
0.267405614122
0.292975765969
0.41365301525
1.51459826938
0.0242327451225
0.043305614988
0.0562079198692
0.156294687859
0.287662922066
0.279479918653
0.45817553187
0.333862050428
0.849951749171
0.367862074609
0.436242296303
0.599154559976
0.350905298983
0.687573107801
0.463857574127
0.50767012356
0.432047410908
0.358419184615
0.450396676606
0.284861421459
0.337627022425
0.316786045414
0.273946322456
0.162193332771
0.131192106487
0.0720830372559
0.146146341571
0.434233921876
0.523085133543
0.587357230038
1.26295192083
0.679498647623
1.1285655783
1.01677996888
1.08243527942
0.869704992431
1.04431831385
0.737193835195
1.08929102577
0.438080388317
0.544009068006
0.425758401422
0.205091161535
0.209962464335
0.244632041931
0.153837473429
0.0349799532107
0.136469075202
0.243393689775
0.289997706338
0.282608170247
0.254577738275
0.285278336248
0.307292502256
0.277519252328
0.296840514573
0.295597757946
0.298566131453
0.301905196065
0.320976636105
0.321394748553
0.316693324591
0.336370889535
0.331876267538
0.340434476005
0.329781152495
0.326221835833
0.396337922262
0.397960319454
0.268902692667
0.30676889156
0.42536997227
0.408522289794
0.410429920343
0.395564612753
0.446183016562
0.47903897829
0.457789145716
0.481477477849
0.600200345397
0.509661399762
0.969880496759
0.634417885011
1.1380198063
1.08204724735
1.11763349311
1.15233247444
1.30934394651
1.16039844494
1.19972179982
1.34229641317
1.01226043457
0.570800366825
1.12051779289
0.319835700781
0.356029133853
0.563363664929
0.21453995105
0.270246418564
0.182866782229
0.195485876181
0.208833097979
0.0819104672946
0.0892145764544
0.157616230046
0.21257332675
0.175221871043
0.0894868461237
0.150128129644
0.21170232797
0.227162916518
0.231895488994
0.240308462237
0.210726879323
0.242523466944
0.253860457616
0.257894805173
0.260063718678
0.30036659824
0.284829462557
0.277264032021
0.306341400227
0.321912130098
0.32088534959
0.326744554543
0.326943821766
0.300833277785
0.345816504661
0.345173507113
0.351135207013
0.345387580874
0.328694756857
0.339618135951
0.373183234282
0.402292641282
0.426782452038
0.424318909643
0.431132165407
0.461364958224
0.460480648671
0.467057237435
0.504145243219
0.522463279131
0.498077806588
0.518903060438
0.538605926787
0.616408834334
0.516856881255
0.682955197131
0.527524992088
0.805304925022
0.540630435819
0.861117790311
0.558117656486
0.866378031029
0.561031429589
0.978529846867
0.558956900322
1.05830008391
0.640370888428
0.787880236997
0.823541342324
0.727706336988
0.832629299131
0.840927525742
0.715816906743
0.890180631552
0.828321022891
0.781392170548
0.8807327454
0.729396979939
0.863227544382
0.772769381399
0.797265258699
0.74353743879
0.659804392427
0.808617320918
0.64187809495
0.894100822838
0.520286282758
0.90523304743
0.540040569349
0.871307338402
0.507529891989
0.758492672368
0.486957324593
0.650864387202
0.518514461898
0.550095169586
0.545223203256
0.484028284428
0.46158285438
0.471616855319
0.423671092405
0.419485059495
0.365605096823
0.325493056836
0.311371664029
0.338082775741
0.321375430913
0.313003896967
0.230237159591
0.170295705041
0.100947608949
0.15092093553
0.239173312579
0.265877735818
0.220813590225
0.175577618465
0.18378273718
0.174700246724
0.182936761794
0.250669922445
0.170516774908
0.15701434786
0.150956107971
0.185727268885
0.173486279883
0.118912406818
0.148758806869
0.113358858796
0.161838292063
0.170122683664
0.130577029599
0.174871982143
0.0702867501333
0.0666407592753
0.191447319159
0.117014212113
0.108881529524
0.210923735352
0.174308024347
0.0956697301541
0.0861550414334
0.122388543275
0.103792291863
0.129455510107
0.0697418037914
0.020656214098
0.0867373732844
0.225426869133
0.17225881629
0.261403625047
0.252859422533
0.241529597565
0.124623846702
0.218777821608
0.14292567868
0.153232748901
0.0912424991329
0.194269342652
0.156768246725
0.0400988769322
0.0200014102769
0.0429412681852
0.135562884966
0.235994950164
0.294957947937
0.140770286229
0.13198151615
0.119655648128
0.226085171964
0.178495076844
0.160123908077
0.185049828867
0.223229188989
0.0185578742123
0.0458385323435
0.143314097309
0.0617304951623
0.108892841347
0.0816820698126
0.0813921460469
0.0499041503007
0.0277301114415
0.0899291167545
0.00544356124815
0.0143489514068
0.0719711576211
0.129886714869
0.0407367710414
0.0351267694933
0.0659063439387
0.0630208509674
0.0994748495853
0.0410233846888
0.136760583957
0.107657389616
0.151210176966
0.0980795103784
0.20001599037
0.113421714794
0.175000686415
0.330477515632
0.296493401197
0.322715084038
0.293366420256
0.466586512877
0.998905606239
2.34793721887
0.657135415823
1.65693977079
1.15664893716
1.35941263535
1.1931971809
1.44829889649
1.02181231938
1.14074587075
1.22269238512
0.811712158897
0.12323218354
0.219658376688
0.208954551327
0.171139202474
0.0741596904669
0.0515379732881
0.137770322798
0.255310275973
0.254911288134
0.215998467078
0.164183166002
0.159271466776
0.257265224045
0.145905499951
0.0877320395102
0.227579115531
0.209619336743
0.148620869657
0.128483699028
0.106169163174
0.229442103243
0.394043327026
0.101142163344
0.19382345534
0.0621734415104
0.0633604097053
0.0456295534909
0.155190420847
0.276626243747
0.29981679722
0.278304881714
0.152911843836
0.142660010589
0.2906678929
0.35060192888
0.362569229599
0.60534464696
0.526308786647
1.01686456758
1.05794670764
1.5703474853
1.54413213274
1.57445317039
1.58696101222
1.57677370631
1.42264665388
1.43734863821
1.39751501046
1.10036381989
1.20616920251
0.650192741864
0.556612210353
0.2156532171
0.18695646277
0.22805046481
0.201814508155
0.352741745654
0.334121817589
0.335071354898
0.36625964374
0.279532778527
0.298918349907
0.337155670358
0.443444136865
0.2092480484
0.277453543136
0.343821703778
0.253459056656
0.30134246208
0.173499018471
0.163927717935
0.482155891908
0.5056176782
0.505584792521
0.553922563708
0.60305895586
0.332746741663
0.154864723351
0.324301401808
0.224934415187
0.213970722694
0.0170698300197
0.027280074115
0.0211956841181
0.00933669947595
0.0212946836187
0.0717984338645
0.0556001554596
0.0650735167045
0.0821084452717
0.197314001229
0.298658310903
0.211976237462
0.127144052977
0.167495677164
0.252625048432
0.0581819547494
0.0827546816718
0.187499466875
0.153574041834
0.153852998933
0.112522648214
0.0991085169384
0.0514765197604
0.0275139220589
0.106625695336
0.252602249092
0.153841295596
0.125354232144
0.173563659651
0.286212558098
0.398547159234
0.533998579786
0.567443224652
1.00716568129
0.810439012258
0.953750645482
0.913261846699
0.999722884036
0.946876993689
1.09840184756
0.905648970511
1.02760976203
0.803220345556
0.876448986333
0.817476814298
0.406829018614
0.460206671536
0.227477884888
0.340213328113
0.0862329144448
0.0257369066549
0.0542715095235
0.182909390306
0.113880337653
0.141002572175
0.131185492767
0.244459775499
0.364319457782
0.260178167637
0.257164922162
0.177414496507
0.176136636353
0.171581281156
0.144107802854
0.176284410832
0.191318391499
0.212370788188
0.319371853431
0.179569972841
0.15484227666
0.181614232643
0.243334270084
0.20277174212
0.345245941933
0.180989293944
0.092563704261
0.186563953677
0.153934154692
0.154269588865
0.171941169169
0.156418382537
0.141746190546
0.0340931878855
0.0241647232868
0.0320930420568
0.086160562385
0.101014298572
0.004115774351
0.0333599651041
0.0802067389824
0.0820543533517
0.0589037620764
0.0909228036446
0.0258187249101
0.0215310052942
0.0914591397955
0.213896214914
0.238830505409
0.209963152994
0.343312727615
0.430451111503
0.671033146139
0.654835432533
1.04282341816
1.20736823543
2.05925252715
1.46677764097
2.54981157935
1.6789111674
2.67007847149
1.21590805725
1.03223266773
0.867130175469
1.51251836213
1.20253907264
0.604999744904
0.812096430486
0.022733082136
0.0792266045301
0.137582806697
0.132779138223
0.12569642995
0.153188288248
0.0970853318794
0.134845040403
0.0836318683908
0.143630232179
0.140210065101
0.0928387605604
0.0388860125216
0.0400449378292
0.0357100741734
0.0432664941953
0.0651898844585
0.137858159844
0.0590402931563
0.107394984792
0.116896464715
0.113538630647
0.162583999637
0.213151568711
0.173229887056
0.186366711413
0.220817544898
0.228860174509
0.198788947982
0.277646787653
0.232668245024
0.19352661548
0.262672231803
0.292891579982
0.331226058442
0.265022109272
0.337784458381
0.201899229007
0.242443489015
0.446616040579
0.332144827875
0.360461159053
0.240006071975
0.225828116105
0.357258093713
0.182063870513
0.0930258021473
0.0140697358606
0.049797835157
0.125672108464
0.230580991136
0.252632797551
0.24289914854
0.31516240696
0.333362450641
0.415726438807
0.577848034804
1.04245454662
1.07020344904
1.47790484398
1.51340682083
1.48421078565
1.46850521192
1.48330063478
1.36028013991
1.33000318153
0.648972565789
1.59150996727
0.677464198744
0.716361663736
0.271889903697
0.110133271679
0.489409629119
1.14299898142
0.508302733276
0.476037007312
0.480748927929
0.417171908237
0.328894240799
0.265943233114
0.157139326494
0.167352532345
0.261875651984
0.370563637264
logs/alpha_1.2/PGSD_900steps_2.log 400.410902589 0.400410902589 0.271422807092 2.67007847149 0.004115774351 -1
