Policy Parameters:	-1.23885836583 2.75578918629
Control Steps:		1000
Start Time:		1438349312.0234127

-- TESTING STOPPED --

Stop Time:		1438349447.49567
Duration:		135.47225737571716
Cost Matrix:
0.215413790808
0.00781695374677
0.0538547830629
0.0981246178017
0.154516448089
0.153603183921
0.24470670443
0.0391974769684
0.123371754262
0.0371154624486
0.0874142737445
0.16575286181
0.257387764538
0.260099446599
0.219703385276
0.322717205568
0.347636475169
0.384902102206
0.457378502635
0.451756640927
0.56804165737
1.15938389416
0.594534210366
1.13846288428
0.771526326979
1.14945403328
1.15255717295
1.11492371145
1.01866166721
0.853030741873
1.03310063641
0.743182565039
0.428416617045
0.0769590081057
0.0416796857426
0.0996246676655
0.0964999751466
0.13459069189
0.149112270351
0.141630391912
0.143583225485
0.147639752845
0.118143456824
0.0619354233497
0.0361184117339
0.0711394374409
0.169343184029
0.0485873019259
0.167227578719
0.156210435617
0.0179669515423
0.0814554212036
0.0117642685188
0.0395471484151
0.103032138104
0.202431947283
0.210393053573
0.0720302066511
0.0790480168115
0.189509972424
0.0821488593027
0.111396768797
0.0490798184197
0.0749593029825
0.204045709904
0.272729721602
0.295368239418
0.238113927771
0.228612958191
0.243352912664
0.275317256288
0.302075798611
0.418377715756
0.476625000877
0.739457620331
0.665730476664
0.966749972695
0.725531106649
0.918919874363
0.698644724574
0.739393796594
0.788673106505
0.86987413046
0.510137952422
0.470560743709
0.380687780703
0.342258530093
0.0125958869657
0.0394211742582
0.115617451975
0.0137642165221
0.0184658260655
0.0364141975052
0.0500197451089
0.0460041009356
0.0369146413394
0.031769129107
0.022194594011
0.104238648933
0.0733627221659
0.043552077312
0.0467621109991
0.0442678076783
0.0555397701083
0.0575565176744
0.0646479114789
0.0913615995564
0.0619185613346
0.0715505400034
0.0743019207561
0.0313229709021
0.0687710410232
0.0943028606605
0.0663205682407
0.0476232132242
0.107773541303
0.16651622745
0.185654946202
0.16751447457
0.198741161708
0.237114776532
0.283414421404
0.351450661044
0.435084989165
0.47590133707
0.5041905739
0.524569432583
0.553758956701
0.602703947236
0.624443029063
0.61046109237
0.619400352477
0.624298739404
0.634682617959
0.505969101765
0.333693591602
0.303316467546
0.0536476243357
0.0242806029053
0.0558689664963
0.156504642275
0.0326000440086
0.0186503025612
0.0619723425171
0.0721916237426
0.0455308493293
0.0584972607355
0.056799048048
0.162310745004
0.149705236549
0.161455419096
0.0131519908465
0.0292183289216
0.0848592767729
0.0730654778154
0.129128547581
0.134789129062
0.178814867992
0.0996871741772
0.215645799605
0.153564793268
0.251709099234
0.0738534724884
0.11583111381
0.162689593307
0.132503801721
0.131738433524
0.180308782739
0.10755073771
0.108733564261
0.122029530673
0.121350392712
0.0647468522534
0.14281311989
0.132789048362
0.00429710517009
0.0385530146124
0.142739617086
0.22169093629
0.224065043986
0.0678674373452
0.0307882698229
0.0309989573402
0.0613147090827
0.115262722092
0.120778878496
0.0565655140145
0.0556914467481
0.0484666651672
0.00545625512958
0.0337000686852
0.0997194227137
0.190239268054
0.310298303562
0.187583758933
0.0821806663769
0.163973089572
0.126408327834
0.251971788829
0.380845712015
0.315283147976
0.342974764159
0.358982248554
0.429157669117
0.658761630107
0.771622686858
1.29674247268
1.52617289017
1.82510891907
1.2919845396
1.9141128547
0.744707776673
2.3728558561
0.480218541074
1.93910656354
0.811394923589
1.48342698777
0.884229373815
0.481232741506
0.186141508465
0.196118034212
0.252327088597
0.343480628371
0.210439698896
0.127325001172
0.150672644284
0.0592882232058
0.106910081266
0.210363984469
0.234522964622
0.128959998077
0.289158341801
0.14363816449
0.0859248900161
0.09223824334
0.0951517742368
0.0613975839977
0.0304338319873
0.0302096410981
0.0127031071422
0.0420392556709
0.0740647681825
0.053598085069
0.0232229542138
0.0514507128324
0.207587480909
0.236462265791
0.0621385310416
0.026635062785
0.0735037752061
0.0885434436001
0.0475367681944
0.0697520552028
0.0752607049998
0.0300199758906
0.0712666043715
0.0520632244791
0.0525290385237
0.050477788384
0.0456497740855
0.0368999887992
0.019567265766
0.0853911206914
0.1499404255
0.192012222953
0.211028144967
0.207395782927
0.242454892608
0.326156750993
0.411561441225
0.468763849203
0.505536247653
0.538404748261
0.59103761473
0.672139510302
0.787223900883
0.740125427416
1.00636628594
0.845009684147
0.907790985169
0.57238321782
0.699541117294
0.454392247143
0.377252219356
0.405702474162
0.357385823963
0.26733006477
0.219275353748
0.0382339344676
0.0867466920242
0.13831622313
0.100994483988
0.10653020575
0.129251298868
0.194367891823
0.210971465337
0.246404499912
0.161716369447
0.145982840667
0.204230418476
0.158995439324
0.267905473465
0.170143933357
0.210707584213
0.24723570676
0.293118170127
0.330094919757
0.365275661892
0.311694158854
0.331238815195
0.439196019709
0.433748768542
0.389040849322
0.437504887247
0.40424907776
0.329467149256
0.301927172976
0.284497277473
0.31431217869
0.291826297221
0.153591990482
0.153166978457
0.120788423696
0.123592715887
0.113158157016
0.106337143155
0.1258431049
0.142110684848
0.133933609889
0.143056562104
0.143241807949
0.148273327979
0.148171402198
0.146645718971
0.157959669485
0.149018590831
0.173029418838
0.141433944782
0.145348772314
0.167223665345
0.168870763591
0.192692054844
0.216558494073
0.222994714884
0.219680997191
0.199181405172
0.210775059364
0.242194539366
0.24385532312
0.253111534972
0.230273256612
0.257173493429
0.27887724888
0.285189328689
0.283522038719
0.285486214691
0.302831053493
0.31374811559
0.30526816192
0.335824803576
0.373955213145
0.374628625688
0.412641588482
0.412768463992
0.417952339963
0.445016152393
0.486892994774
0.487992643834
0.52316903111
0.541537083094
0.596991829241
0.774225449652
0.549983861513
0.953417312277
0.579930190758
0.993600299772
0.822588679593
0.895963557534
0.893221693162
0.908590742666
1.21230308769
0.931433781025
1.21802238544
1.12450461115
1.20929246835
1.15715225108
1.09414217305
1.30058762594
1.32890372343
1.24603971303
1.40198156896
1.3041145291
1.30458408921
1.59280021505
1.30364807238
1.58680924611
1.17508493435
1.35586088583
1.32074371649
1.33884243711
1.220071344
1.09667372385
1.0169320933
1.26422716705
1.09887201753
1.14244630372
0.868192733331
0.916896256776
0.975241708517
0.651206583405
0.867911330837
0.572166556529
0.85862898732
0.5040915367
0.751564789249
0.448167422833
0.460300409728
0.398267770978
0.408118649007
0.46765873633
0.386965462609
0.34775017895
0.344406612558
0.29152129485
0.289067950761
0.288805002756
0.237553229283
0.203870283923
0.21766352344
0.161447049976
0.159391588544
0.138447770157
0.146603910155
0.208586139188
0.23066792957
0.213554161717
0.255039752552
0.283901898686
0.218315886894
0.132833174494
0.223011290707
0.148146893754
0.102663273283
0.096256865556
0.153475758771
0.200660485384
0.166545909338
0.1717770338
0.0760974422654
0.0714753766559
0.142245937996
0.214254531482
0.0848175277755
0.108060468264
0.1732051011
0.124932772294
0.0966671707503
0.0867093283466
0.0685037827526
0.124296671309
0.0990168348568
0.214346643444
0.216043022695
0.142208054021
0.0724125332699
0.181192463212
0.172131082563
0.215277181191
0.183315894368
0.116209714784
0.0737244222055
0.170905126144
0.0728640752689
0.0694490714627
0.0835387752099
0.184541100797
0.179349519468
0.185923483616
0.2033661555
0.289167645453
0.283125357142
0.295015350201
0.344747676233
0.329569181969
0.304927872595
0.182900332178
0.196299644875
0.278887620517
0.320890920204
0.24632944363
0.284331193997
0.234977826979
0.18562725052
0.16173148773
0.10452010928
0.141575484651
0.158882540885
0.143807323185
0.160717602471
0.134768106947
0.156685470383
0.113154743057
0.0878329718272
0.127806346028
0.0844709693137
0.110150120375
0.0866691444286
0.0600995936005
0.0968923124287
0.117425436606
0.0949174382682
0.0978886300972
0.0533451501544
0.148791213155
0.130246888513
0.12417941769
0.0971700961239
0.113913385103
0.115949757751
0.114579910757
0.0818757396848
0.0710702761365
0.113255774812
0.133483396837
0.115863624672
0.0960679844344
0.107228945941
0.125868632124
0.143262361717
0.155400862524
0.127936213899
0.0150239713242
0.0630687505339
0.102828562509
0.129632882913
0.147690591362
0.139632943075
0.0914298737986
0.149799720773
0.128324258445
0.0781694027854
0.0787190826265
0.0931245754227
0.131081783871
0.238018769235
0.359294237107
0.423094357048
0.482299825626
0.511058909503
0.536232827685
0.545992596175
0.563553970915
0.647907048116
0.712611730545
0.612894194716
0.651382409607
0.602076210029
0.461841214507
0.356069806008
0.279684364831
0.0520288991745
0.191590254466
0.246929089469
0.289646669567
0.307820805844
0.309904638975
0.336539295832
0.329318813576
0.318831346575
0.333980723877
0.319673098722
0.34709340172
0.371905298823
0.369772714339
0.377855474163
0.392920613524
0.430444102225
0.421273833063
0.416191144461
0.432149831258
0.41387593949
0.408762290673
0.447694242852
0.463948152822
0.46094063685
0.464513853827
0.479509848117
0.50083085099
0.47528727476
0.472643275615
0.477284918914
0.451887191852
0.475736395603
0.498548649184
0.546404912723
0.538740974978
0.550728082581
0.5619016203
0.559836602104
0.560434214605
0.550850688375
0.679222590454
0.522083156278
0.828900826487
0.490834218608
0.603139033451
0.545777688116
0.71364740953
0.51709853925
0.580314300282
0.596257181421
0.538097309426
0.652154941964
0.508133174262
0.525084819761
0.536636964194
0.534278189572
0.520379153428
0.506217077484
0.50187772116
0.503511360522
0.474561965355
0.4575292922
0.461566072346
0.430771606042
0.394739873823
0.394285569227
0.397457559028
0.340313676726
0.339559319923
0.343536895878
0.344666776675
0.316293396908
0.305683255314
0.380780425056
0.342604232479
0.298044630027
0.295266576308
0.273340278713
0.285099404308
0.230781003082
0.254405745794
0.247697647277
0.221389517532
0.219100131626
0.27777301798
0.220267977337
0.219824696296
0.207637535292
0.216754814125
0.204886332507
0.201798221275
0.245542881043
0.21284030293
0.231912155226
0.250892596507
0.182698410096
0.175025558582
0.150618569378
0.124666200733
0.13523803754
0.06135848286
0.0548199336553
0.0871644431871
0.0187824423045
0.0669768101653
0.0332481512569
0.0666394344135
0.0887574956931
0.0648395566161
0.0866096346372
0.105556635552
0.126789773782
0.0720165001428
0.192833648355
0.0687711494245
0.186173176289
0.137028474798
0.266501536213
0.0510874858978
0.0370906858518
0.0279396772776
0.0478205776239
0.117947406712
0.0510549576355
0.108235352962
0.0669632580952
0.0542532202216
0.125402138539
0.302801864779
0.149858604135
0.173035345541
0.0723887161147
0.0700441938983
0.13221290619
0.184124810771
0.154519745906
0.178243453615
0.261669628732
0.20375207404
0.248507832525
0.264240297756
0.309334843362
0.391577260839
0.530482313719
0.56391050296
0.553690476047
0.533019485937
0.613554270808
0.572770521376
0.691537134278
0.566272978512
0.626895450824
0.473490823071
0.409032918484
0.326162930354
0.35999384148
0.114949082233
0.066929234702
0.100504622526
0.100934234941
0.109150560202
0.141926313652
0.147797166049
0.0775041573845
0.049629314496
0.0213454816366
0.040257930582
0.0710740495489
0.0448485251079
0.0517915609572
0.0823563903597
0.101934857665
0.0598535141464
0.0493078349698
0.0569773771121
0.0556423550047
0.0640138812188
0.0039866056145
0.0747357542653
0.118048231178
0.115119263029
0.135737500781
0.0775544461961
0.117858237765
0.153222436395
0.137794470556
0.137851258229
0.094201837369
0.0627420467812
0.032018761961
0.142243486542
0.103491439243
0.11462346036
0.0160553543811
0.0331888348943
0.0857350046763
0.141511686716
0.171466986908
0.129549672699
0.186264163786
0.332615544725
0.346365249852
0.120430865901
0.203521351129
0.337886237009
0.298990283539
0.247442817204
0.200212334759
0.199351794495
0.213230253476
0.202885369014
0.321086709556
0.0796453719638
0.115430283144
0.0105167737232
0.108363439525
0.104263685954
0.0424483871777
0.0822168948208
0.0311910386812
0.0193646119933
0.0446980122127
0.0654982470289
0.0740648071375
0.0118316465037
0.0368600073268
0.033556453199
0.00676966903296
0.0235984781223
0.00251193786584
0.0640992099153
0.0640803161108
0.0555783795872
0.0470014710808
0.0830859964546
0.129118917116
0.128158356566
0.033163072496
0.093098658746
0.135464128647
0.158152381645
0.142651220084
0.177739586535
0.197262538641
0.235283415218
0.260742128627
0.337038832321
0.449378685808
0.752237354783
1.23185818437
0.749363576225
0.648738076564
0.664449482209
0.935481840073
1.56482485846
0.966598939477
1.23477178492
0.900315662672
0.684611620296
1000000.0
0.0
0.0
0.0
0.0
0.0
0.0
0.0
0.0
0.0
0.0
0.0
0.0
0.0
0.0
0.0
0.0
0.0
0.0
0.0
0.0
0.0
0.0
0.0
0.0
0.0
0.0
0.0
0.0
0.0
0.0
0.0
0.0
0.0
0.0
0.0
0.0
0.0
0.0
0.0
0.0
0.0
0.0
0.0
0.0
0.0
0.0
0.0
0.0
0.0
0.0
0.0
0.0
0.0
0.0
0.0
0.0
0.0
0.0
0.0
0.0
0.0
0.0
0.0
0.0
0.0
0.0
0.0
0.0
0.0
0.0
0.0
0.0
0.0
0.0
0.0
0.0
0.0
0.0
0.0
0.0
0.0
0.0
0.0
0.0
0.0
0.0
0.0
0.0
0.0
0.0
0.0
0.0
0.0
0.0
0.0
0.0
0.0
0.0
0.0
0.0
0.0
0.0
0.0
0.0
0.0
0.0
0.0
0.0
0.0
0.0
0.0
0.0
0.0
0.0
0.0
0.0
0.0
0.0
0.0
0.0
0.0
0.0
0.0
0.0
0.0
0.0
0.0
0.0
0.0
0.0
0.0
0.0
0.0
0.0
0.0
0.0
0.0
0.0
0.0
0.0
0.0
0.0
0.0
0.0
0.0
0.0
0.0
0.0
0.0
0.0
0.0
0.0
0.0
0.0
0.0
0.0
0.0
0.0
0.0
0.0
0.0
0.0
0.0
0.0
0.0
0.0
0.0
0.0
0.0
0.0
0.0
0.0
0.0
0.0
0.0
0.0
0.0
0.0
0.0
logs/alpha_1.2/PGSD_500steps_2.log 1000255.9012 1000.2559012 0.146293375411 1000000.0 0.0 820
