Initial Policy Parameters:	0.0 0.0
Learning Rate:			1.2
Learning Steps:			600
Start Time:			1437160921.2720826

-- LEARNING STOPPED --

Stop Time:			1437161015.7478855
Duration:			94.47580289840698
Final Policy Parameters:	-4.17147135631 2.84591098731
