Policy Parameters:	-2.00802144877 1.95197679974
Control Steps:		1000
Start Time:		1438267589.1667404

-- TESTING STOPPED --

Stop Time:		1438267709.2628782
Duration:		120.0961377620697
Cost Matrix:
0.0737286287482
0.200745830587
0.289102512479
0.200417934296
0.245577495086
0.300271623023
0.255888472256
0.281256450191
0.14375393136
0.124413961218
0.0574458406579
0.0937750723402
0.0725241163548
0.0608515048863
0.134884432653
0.152392370879
0.0571735548995
0.0794715696021
0.0351945321245
0.0896493882453
0.16299653367
0.16283106062
0.169113086217
0.161128794463
0.164272117345
0.192284451637
0.220824850681
0.20315009219
0.224308227108
0.267010579977
0.317435155355
0.417582363175
0.48439696114
0.830310447076
0.545757043197
0.740111176067
0.608522735523
0.882650047812
0.660477362597
0.960163661303
0.766529479624
0.862772539162
0.812193443815
0.845628695037
0.67335209711
0.505574841428
0.395765494484
0.185794927271
0.177296288781
0.214270072466
0.185559400536
0.188649375585
0.214065550695
0.200279386531
0.188812278098
0.132751939062
0.171569478989
0.229461601902
0.256527760222
0.169040459022
0.154911305637
0.199067912532
0.115685089489
0.189345501273
0.195798733094
0.177354104334
0.136331893694
0.107140368512
0.0689790010126
0.0896877050104
0.0860010330422
0.0547836857523
0.101702579064
0.144864011537
0.138062139555
0.057746425653
0.110926348026
0.0801669318494
0.105762547309
0.131888415665
0.17697386981
0.0953240417057
0.055489237415
0.0383487898415
0.0504006531226
0.126125085761
0.166994912324
0.142467652077
0.105127709861
0.137290030506
0.158371462754
0.0372975682649
0.0814054526499
0.140770746333
0.161074751564
0.157745169876
0.170878950601
0.274653109978
0.313543217461
0.334094767894
0.49021310215
0.441874093287
0.434433790228
0.386956048551
0.376157478156
0.424809304008
0.396460079532
0.357374055594
0.371183652766
0.290941955164
0.392489120123
0.321171881017
0.194305738335
0.0665201777369
0.060938155166
0.107346578896
0.0662389240051
0.0594962167781
0.0741942060659
0.0543918774982
0.0639286768156
0.115947358753
0.134570734841
0.0856021767497
0.018708482201
0.0427612207632
0.0365449586745
0.0424143514665
0.0944989152463
0.101817501982
0.121044175447
0.0763668126153
0.0408780231808
0.0760515855779
0.02150119864
0.0160723444241
0.0363117741242
0.0137553760071
0.0298114236915
0.0594181107568
0.0676820945273
0.0314052988774
0.0350654386526
0.0742385496596
0.0874152365905
0.0287779342603
0.0739849192061
0.16293195111
0.254107987557
0.229000359454
0.252823880915
0.350885297904
0.470781754478
0.591600845421
1.20294395696
1.58446708041
1.46396766646
1.29236893488
1.71408682624
1.09358056226
1.27231102015
1.59069934108
1.53175331778
1.28810824976
1.21627783144
0.697809283605
1.2410979152
0.309884365265
0.343635412895
0.209763257884
0.180787712179
0.136784230626
0.168497488033
0.185147957132
0.163354180717
0.239283551968
0.312782907928
0.25653330917
0.294069201968
0.330522467042
0.32210889344
0.360724999525
0.378479145188
0.381106416524
0.323883404497
0.276643705886
0.350603604654
0.321018956267
0.333592516869
0.327337555093
0.266793075671
0.203292506097
0.256970001875
0.320675721994
0.170548528917
0.18193824674
0.155508188586
0.177315975819
0.231791259796
0.169343925304
0.125811701401
0.0646592236052
0.0592582017472
0.0422360498494
0.0604104720725
0.0858138985122
0.115623583711
0.0349773220449
0.0922271253584
0.143731815248
0.0900376382548
0.0674597994446
0.0650875946161
0.0593326644399
0.0191557520434
0.0500489791569
0.0613088443581
0.0263667248291
0.0449679219313
0.0624657034014
0.10997385092
0.126072657441
0.0327827716433
0.0821650178471
0.115978385656
0.0607597356086
0.0509951796332
0.042225101864
0.0800402062202
0.0696792183764
0.0915440542554
0.121598215673
0.17290104769
0.196806921934
0.168337732871
0.228620425908
0.231140634156
0.17665504011
0.227677753814
0.238478467586
0.228505967067
0.245879915648
0.353971506644
0.466574812408
0.44629696397
0.542760608404
0.60334716971
0.694872433716
0.629285944153
0.787761617635
0.781402307027
0.553335275048
0.87278997724
0.69799421995
0.56246346983
0.588646639131
0.333782224077
0.262430136528
0.485055912752
0.114568956815
0.169069902458
0.16842503768
0.194879340758
0.198024508867
0.142434506084
0.169340290594
0.106724208317
0.0152814531444
0.0402575802509
0.0689785629409
0.0444535066505
0.065274809167
0.144050467987
0.172044269147
0.193706509839
0.249306439283
0.30868629848
0.335577404441
0.356204094902
0.358502094672
0.319177523382
0.337163628779
0.278449485784
0.333600796724
0.373852095241
0.404174703209
0.356247463726
0.314208862606
0.335560108108
0.295618148284
0.269987842946
0.186497923096
0.245726299904
0.153605468707
0.0760084500768
0.043127569458
0.0924025248462
0.166929387493
0.110507332413
0.016591787973
0.0338518481987
0.016516579106
0.0142535662723
0.0429214459103
0.0658327120899
0.0213037169804
0.0542277125687
0.0659196628588
0.0531334787567
0.118506254994
0.153637076101
0.159179292671
0.0844392837737
0.0281661879634
0.0189747395577
0.035181827647
0.0390403702907
0.0236443412373
0.0404295281078
0.0172116972436
0.0259741254005
0.0466728226952
0.0247156408011
0.0627829740571
0.132357294092
0.210114409516
0.202826951296
0.218474332027
0.284277138855
0.299196814907
0.36315529703
0.537329209039
2.06933556385
3.7711749928
0.310947414186
0.85114877969
1.0683427547
0.787999884792
1.01603421446
0.883659900428
0.680279146769
0.660627003657
0.40322168989
0.166311708441
0.00334994452899
0.0298179802683
0.0679338306076
0.0830751612803
0.100275319148
0.0808637656419
0.116155558558
0.0702541101966
0.0688709689348
0.103783021061
0.102380174421
0.120747534366
0.135736627498
0.0971440097857
0.0439933374322
0.0788862452091
0.0486266146173
0.00543468783681
0.0150403250668
0.041472511446
0.104315179532
0.15419582972
0.134519476156
0.168330756135
0.145814573118
0.133692885099
0.146525741479
0.0576151051074
0.0401269148519
0.0812187119036
0.110777177701
0.192667320992
0.204990768344
0.195131947765
0.219035403569
0.21794122308
0.250926755039
0.310718865107
0.39735913672
0.399042768622
0.439558912042
0.431900320651
0.407864953685
0.464354605588
0.446242639357
0.381230664456
0.330792405086
0.354148396781
0.322585049488
0.346760903013
0.317792559289
0.252429248491
0.184612958181
0.0690911277119
0.118045885374
0.0815806212118
0.0802398906246
0.149547246565
0.176169596922
0.0930785065719
0.166668588749
0.301111401987
0.0451622972218
0.0677371717682
0.0664364257648
0.075998337647
0.026397148896
0.0534475052004
0.0194511453454
0.0562571402223
0.0768532396962
0.0339393421746
0.0866479644582
0.152078730478
0.0531146924165
0.0856570971355
0.173383900211
0.038450905844
0.0443946985408
0.0580291769008
0.132751660065
0.124800739973
0.0755665184485
0.0866679275063
0.10296542779
0.061311527451
0.126636993561
0.0395592103936
0.0833710377823
0.0583527589958
0.0987742273482
0.0798449478684
0.0641010488331
0.0760815958797
0.10656806458
0.145993219772
0.138820209687
0.0295671848673
0.0410881723359
0.0678076854478
0.042823038499
0.0371186103588
0.0209099363011
0.0854260658183
0.194005084886
0.250000387423
0.022814240608
0.110388855499
0.206038232015
0.122498494936
0.182362766733
0.229618169136
0.254518266203
0.232894801256
0.257770017279
0.372218725524
0.460385326228
0.459959246488
0.625129549349
0.757328761144
0.619554230445
0.895783115179
0.692493804034
0.80769628446
0.653807699823
0.752695733086
0.782763443504
0.603489100608
0.716147891187
0.251551688197
0.191106764343
0.0130619488453
0.0118480324565
0.0303187599929
0.0246400510099
0.0137965090832
0.0337805801651
0.0513334483913
0.0859396505449
0.106798019332
0.141642643339
0.120261340919
0.0878929688244
0.0483496293049
0.0747713757314
0.149211195808
0.0743839418508
0.108477653109
0.0692369494475
0.046349546979
0.0486400362917
0.0592262031408
0.0706385203263
0.101850555839
0.0988188585204
0.13610236778
0.1138194505
0.194969670821
0.213847697784
0.201420584593
0.129990458865
0.0503806106891
0.147551131681
0.309082450602
0.447887355399
0.656415904241
1.15900048523
0.83699006519
1.04777158939
1.10204782827
1.11058322753
0.848027351699
1.20511557329
1.2828348716
1.1827243323
1.172484976
0.489692932429
0.504006635489
0.115394042162
0.191012800792
0.327138708105
0.376751005452
0.345811369383
0.341970683321
0.386487465194
0.298125320331
0.368980446304
0.336867732826
0.247405928447
0.226986744379
0.180250538974
0.21577636301
0.273042063356
0.354019597959
0.179879131681
0.0277872661772
0.0769266792463
0.118464363406
0.0773114211166
0.127209334796
0.0711355228686
0.130780584053
0.0961431364217
0.0036354959921
0.0197866975907
0.042969297983
0.0441781561209
0.0171473124225
0.0128677158185
0.0477079099227
0.099031520632
0.0225396110239
0.0398056473263
0.0511886218945
0.0818839071382
0.0646702130961
0.0208455440572
0.0447167457225
0.0459489878754
0.0188996688348
0.0246634322522
0.0387227101621
0.0244061809783
0.0604997302734
0.120006206107
0.0544824820429
0.105464840394
0.0499229248777
0.0273450181216
0.0168029670857
0.037485958341
0.0352222759842
0.0315021180619
0.0235042057935
0.0610944324843
0.136301991087
0.112533132433
0.0620332354365
0.111019230969
0.107976148335
0.088125943342
0.162535532372
0.176832868868
0.0763759940633
0.0960754307789
0.184469769284
0.178856536047
0.155331424415
0.175441333895
0.174349061117
0.156432806959
0.200730206418
0.22378525279
0.254137097825
0.229663999235
0.259572106
0.275720574099
0.301349726702
0.251968159123
0.238417188312
0.243898390593
0.268490410962
0.328515821291
0.289469253566
0.271207841065
0.281373945632
0.440850838966
0.876616788682
0.122971393267
0.171366301078
0.0824859270183
0.0890250691136
0.0826222455479
0.0664588165992
0.0591562449633
0.0474036032704
0.0994399251838
0.147557719969
0.132286012181
0.168170541257
0.143278991069
0.0831391376186
0.096671352084
0.106212947667
0.09538196315
0.110371494757
0.112571417434
0.100037582834
0.140751086643
0.154296227804
0.108795485847
0.122328876439
0.166241140632
0.134956128637
0.188168867957
0.198793516614
0.2024278374
0.2002683988
0.208820181524
0.244282432895
0.266607920024
0.285955074716
0.317245025217
0.377652898981
0.482386335561
0.584247519457
0.598480312833
0.685807607624
0.606228116198
0.855914865818
0.576613250071
0.85721045553
0.596603543145
0.745386377512
0.481644335078
0.456765570314
0.276587510962
0.257294752317
0.17751892965
0.144168567269
0.146831670927
0.142246053537
0.127074316084
0.12981806892
0.140254819784
0.153783548346
0.141369932358
0.137541203609
0.118540154849
0.103405072227
0.0853886935581
0.0527685307068
0.0196812143975
0.0388810429189
0.0869031938893
0.148631542495
0.214810665733
0.216862935979
0.221277526071
0.247048359377
0.247007678185
0.237135282377
0.256747287246
0.269399459555
0.279496456949
0.280178053467
0.290550399404
0.305720241833
0.309174750826
0.312409077836
0.335447456922
0.339968620077
0.350132769007
0.337093362644
0.351731149323
0.356264819313
0.34630447316
0.373717738327
0.365042094839
0.356349531184
0.396736782449
0.417936284743
0.41798477959
0.407536339696
0.440095194641
0.439380145455
0.441467086499
0.47341854957
0.498141460031
0.468920679732
0.498144663478
0.482646124183
0.508845695573
0.546740791174
0.530093875166
0.528959409892
0.577873811246
0.558064502
0.559850443193
0.605459821663
0.70571854075
0.57210252553
0.70161654099
0.666019408045
0.737069358607
0.615073611578
0.853947052652
1.02387597743
1.18985546961
1.30252849782
1.61954979475
2.09187199079
1.49763534709
2.77450267889
0.519728682406
0.839877850731
0.223125096766
0.938500648229
2.52328772265
0.0234250392934
0.0464881224972
0.000411856704341
1000000.0
0.0
0.0
0.0
0.0
0.0
0.0
0.0
0.0
0.0
0.0
0.0
0.0
0.0
0.0
0.0
0.0
0.0
0.0
0.0
0.0
0.0
0.0
0.0
0.0
0.0
0.0
0.0
0.0
0.0
0.0
0.0
0.0
0.0
0.0
0.0
0.0
0.0
0.0
0.0
0.0
0.0
0.0
0.0
0.0
0.0
0.0
0.0
0.0
0.0
0.0
0.0
0.0
0.0
0.0
0.0
0.0
0.0
0.0
0.0
0.0
0.0
0.0
0.0
0.0
0.0
0.0
0.0
0.0
0.0
0.0
0.0
0.0
0.0
0.0
0.0
0.0
0.0
0.0
0.0
0.0
0.0
0.0
0.0
0.0
0.0
0.0
0.0
0.0
0.0
0.0
0.0
0.0
0.0
0.0
0.0
0.0
0.0
0.0
0.0
0.0
0.0
0.0
0.0
0.0
0.0
0.0
0.0
0.0
0.0
0.0
0.0
0.0
0.0
0.0
0.0
0.0
0.0
0.0
0.0
0.0
0.0
0.0
0.0
0.0
0.0
0.0
0.0
0.0
0.0
0.0
0.0
0.0
0.0
0.0
0.0
0.0
0.0
0.0
0.0
0.0
0.0
0.0
0.0
0.0
0.0
0.0
0.0
0.0
0.0
0.0
0.0
0.0
0.0
0.0
0.0
0.0
0.0
0.0
0.0
0.0
0.0
0.0
0.0
0.0
0.0
0.0
0.0
0.0
0.0
0.0
0.0
0.0
0.0
0.0
0.0
0.0
0.0
0.0
0.0
0.0
0.0
0.0
0.0
0.0
0.0
0.0
0.0
0.0
0.0
0.0
0.0
0.0
0.0
0.0
0.0
0.0
0.0
0.0
0.0
0.0
0.0
0.0
0.0
0.0
0.0
0.0
0.0
0.0
0.0
0.0
0.0
0.0
0.0
0.0
0.0
0.0
0.0
0.0
0.0
0.0
0.0
0.0
0.0
0.0
0.0
0.0
0.0
0.0
0.0
0.0
0.0
0.0
0.0
0.0
0.0
0.0
0.0
0.0
0.0
0.0
0.0
0.0
0.0
0.0
0.0
0.0
0.0
0.0
0.0
0.0
0.0
0.0
0.0
logs/alpha_0.8/PGSD_600steps_0.log 1000208.20745 1000.20820745 0.105296275127 1000000.0 0.0 746
