Policy Parameters:	-0.161430525228 -0.0657011289292
Control Steps:		1000
Start Time:		1438260842.5509465

-- TESTING STOPPED --

Stop Time:		1438260920.4184594
Duration:		77.86751294136047
Cost Matrix:
0.0232586878488
0.00701574597111
0.00275689028793
0.0378125050619
0.0463669297196
0.024043735127
0.0241385126699
0.0194479640319
0.00997893556319
0.0242697616699
0.0381177800504
0.0127188576762
0.011500512757
0.0284950183831
0.0104160317182
0.0114516064562
0.012292834116
0.0269631758825
0.0257975319136
0.0559973837428
0.0156285879566
0.014794010325
0.0209965656097
0.0215285851868
0.0154702527707
0.0562012070858
0.0168844244209
0.0685304940428
0.0228165019065
0.0266402592028
0.0328878219603
0.0653403941954
0.0636620020755
0.0529458262989
0.086349782249
0.0378156036539
0.0944042050735
0.146318082702
0.0769507699495
0.0727305172028
0.187530399796
0.160148392552
0.155968711723
0.156021145096
0.169607478078
0.162323400517
0.178922328289
0.222059230754
0.204088110456
0.233295477546
0.245972372565
0.246364712671
0.257126774952
0.283517831939
0.289378969516
0.29199531858
0.320659253482
0.303923890815
0.33086739355
0.327163619494
0.297396324401
0.361343174661
0.332565276469
0.41770120371
0.29406528593
0.441252016514
0.226728920887
0.266305885656
0.260476282109
0.167630293573
0.161842421528
0.204875883445
0.147067775766
0.0635863864258
0.0179050320755
0.0315371322681
0.0140619118307
0.0333716875081
0.0135889462353
0.0570628193386
0.0307522883942
0.0512458628502
0.0170422860237
0.0129222952965
0.0114087413617
0.0113425786871
0.0351150346843
0.0448223694353
0.0215539420335
0.0198726243773
0.0482220197245
0.0472996381903
0.054068887628
0.0627171347384
0.0202283266634
0.0145586628254
0.0347343663508
0.0283203464395
0.0553708062322
0.0152560620385
0.00961278486153
0.0327640170392
0.0244913705933
0.0310947515471
0.240752596927
0.0440825419085
0.177462296821
0.0391259864804
0.031314974389
0.0110610981133
0.0193218831774
0.00925240116809
0.0376353138726
0.00877951883485
0.0314853536711
0.0312118771571
0.0419510533345
0.0400579141641
0.0378837500511
0.0142225789521
0.0424300143127
0.0124134516031
0.0575025380069
0.0165646053594
0.0266970039542
0.0510027099173
0.0178177951778
0.115205381277
0.0589705618461
0.0737706098132
0.0360854201465
0.123453021292
0.120719988025
0.110272144787
0.169378555377
0.17722619686
0.168314389143
0.185823752949
0.154133405793
0.18271260667
0.206003286112
0.216926637717
0.215833485677
0.261873574117
0.249765618965
0.227416133497
0.244729174813
0.261413822212
0.236608554386
0.289295820479
0.26379984195
0.227063515916
0.254142991174
0.239397726186
0.296560442632
0.284163070765
0.256306223343
0.329663359648
0.352418402005
0.352882370089
0.38225109583
0.346544529985
0.387788163515
0.348060205916
0.365435038898
0.309646263583
0.2933367379
0.1545652551
0.0295192861429
0.0833029345621
0.0465177691738
0.102301799572
0.0700358971163
0.0159932966451
0.0315692035155
0.0378001048758
0.0540201098989
0.0635487299214
0.0364940071299
0.021987461574
0.0715334839822
0.0599897501332
0.0291353977553
0.0162148981558
0.0475266734877
0.0494748819259
0.0815703813191
0.0556039481777
0.0388889849398
0.0612538857091
0.0241128933427
0.0733135212285
0.0149852133257
0.0155710421493
0.0177312849339
0.0177197705249
0.0194537899165
0.0131953664435
0.0636367920205
0.0795921667219
0.0668375142989
0.0227123162159
0.0544640426573
0.0700951403511
0.0351495822813
0.0317494775595
0.0323204436844
0.0622368571051
0.065610348031
0.0648143088083
0.108753966895
0.0845901105572
0.140854263562
0.0724956089741
0.138236276801
0.150555380871
0.135190252761
0.176962360587
0.163000980427
0.156292585986
0.158582782082
0.196587668504
0.232859223009
0.212760674111
0.2262020332
0.217906860031
0.225362476747
0.210043389142
0.2442171121
0.284589640349
0.267463415786
0.194055877033
0.295208653647
0.28731132248
0.250048953155
0.262593383339
0.230972816552
0.273741436292
0.241464456839
0.220621433728
0.205184898665
0.22707719407
0.171680907342
0.178533902272
0.173757537916
0.166615633905
0.115081108528
0.062465518163
0.0426416454006
0.0556583460184
0.0789650620138
0.0521112408625
0.0543547407379
0.0537148857151
0.0740693478606
0.0579941637753
0.0399347932435
0.0370733478406
0.0515969637392
0.0777847532964
0.0766285410845
0.0572858346999
0.077531474831
0.0495456872668
0.0591110130372
0.0547542673173
0.0692564233366
0.0463774874062
0.0268377755837
0.0525841858673
0.0133055960425
0.0422990103893
0.0312320391809
0.016829681641
0.0293100410522
0.00753877060539
0.0270719503793
0.0166013248906
0.00966921750924
0.00979401139488
0.00524394271158
0.0225474235009
0.0337019798664
0.0270111540841
0.00867712936386
0.0483994854068
0.0268675511539
0.0103317372742
0.0398152812999
0.0144967080506
0.0133209477101
0.035417127972
0.00857789262908
0.0133339852082
0.0337968884432
0.0165146820351
0.0121101895683
0.0305360010676
0.0102859642057
0.0104926824144
0.0128735743749
0.0352794560815
0.0610922918211
0.0239720958579
0.0305838347639
0.0211537615186
0.0226298937927
0.0466254295436
0.0234864879767
0.0317689587497
0.0760153583459
0.0893617008281
0.0540955589064
0.08263218918
0.0494654608911
0.11417005443
0.0869133236734
0.076345931559
0.0910869189432
0.129259905814
0.223390331398
0.253551733304
0.247958682151
0.269247853174
0.280214563604
0.300173619326
0.317026547526
0.337523814195
0.333429228884
0.380976300834
0.415568914584
0.440983160891
0.481620694957
0.515381112545
0.583932728132
0.611457375312
0.520410921941
0.604281709421
0.605891308969
0.687552166658
0.960018567607
0.72642668591
0.161782061989
0.0903999653895
0.105712410835
0.0421026185939
0.088820087342
0.0552735901188
0.0233716711411
0.0255602318806
0.0154289849857
0.020386910641
0.0372995506016
0.0396822147253
0.0369265955003
0.0410106033517
0.0313298614268
0.0211259991563
0.00912679474956
0.0398339465154
0.0407871219034
0.00952688258015
0.0501012869469
0.022504303929
0.0299478761336
0.0601172151048
0.0136894139534
0.0170733320895
0.00344714629769
0.050533725965
0.0522252001984
0.0432116494309
0.0542669068733
0.036596242552
0.045424916366
0.023601644006
0.0625797865219
0.0661025006709
0.0739923325041
0.0417286124374
0.0977435079961
0.082757051625
0.0933718417955
0.121060096194
0.0273935248753
0.0836596115614
0.116883157733
0.0997016077649
0.100503444149
0.0882226037692
0.0899100198571
0.0940425678072
0.0856012060636
0.123547985094
0.0915456205359
0.131482266502
0.139411701826
0.123721697681
0.122171127133
0.123563052621
0.0946731477963
0.106385958148
0.119355166068
0.119340686036
0.131503533787
0.114068071894
0.126879249882
0.0950720577525
0.117033091035
0.0853944007849
0.134465354113
0.0584897059269
0.107545413454
0.100127061706
0.0191697100464
0.104941643154
0.0923921522475
0.0134258293258
0.0360855359092
0.0663574451256
0.0404737455544
0.0665962925629
0.0267996174918
0.0465027434531
0.0349230873582
0.0736737563259
0.0487336724853
0.0549557637097
0.0215251956612
0.0283058964761
0.0670639791286
0.078150126328
0.0607195975822
0.0522290980769
0.0331793701789
0.0850274119399
0.0419722317586
0.0920980872479
0.0833361508146
0.0741129997483
0.0744375591246
0.0990517702988
0.0639519955653
0.0795436762824
0.0872319430207
0.0654962776962
0.0956946602181
0.0941939796977
0.0908099627608
0.077218397597
0.0709997343886
0.0786754786817
0.0655473804378
0.110119333923
0.0739187937138
0.0716191503748
0.0653980298367
0.0332847300861
0.054583284868
0.0689801612535
0.0475665516938
0.0260748978341
0.0541856235501
0.0410579714639
0.0601836450938
0.0641729523543
0.0340674564943
0.0440333482631
0.0467960476833
0.0156335100866
0.0515008504781
0.0300385724895
0.0410297014961
0.0511999567176
0.0386069430904
0.0283003449743
0.0151426366199
0.0336219862749
0.0318596400569
0.0101289466204
0.0102363468303
0.0151097525815
0.015829105747
0.00968605826209
0.0203256304568
0.0345483310064
0.0118678175026
0.0446160804952
0.0553745808807
0.0261413819191
0.0238330705305
0.0586303887689
0.0478119862977
0.0207573053826
0.0824583506328
0.0930669713692
0.101917108166
0.110415204604
0.173515964008
0.169325438742
0.178276120017
0.169451039286
0.2421684723
0.24861167741
0.252081703582
0.270073654729
0.291422601152
0.30395125626
0.268249086069
0.290141947229
0.366452148113
0.339396181408
0.393131847812
0.370864585197
0.411735879799
0.345239026534
0.424803861472
0.436645472985
0.430827937731
0.491742178647
0.354605887678
0.469041184195
0.47891047349
0.43600620488
0.209997466408
0.225185583047
0.0371538826128
0.0407033606974
0.0299767530333
0.00976793029942
0.00842232987248
0.0691115601785
0.0617320212295
0.0123186339378
0.0334634591176
0.0143560518239
0.0171871682899
0.0209835147942
0.020504011711
0.0228165735421
0.048506843452
0.0355355865123
0.0129951177835
0.0470294349848
0.0113845435878
0.0261903306007
0.0614655045141
0.0470722969171
0.0284220651375
0.0158077049129
0.00847433722075
0.0236025120178
0.0303089044769
0.0623631650571
0.0785925946646
0.0352266706235
0.0714834393324
0.106415500186
0.125582596703
0.147397452952
0.170079541415
0.165027240122
0.208052585965
0.262352412369
0.3945240453
0.466782031798
0.623421501286
0.993177972177
0.820337792655
0.817112769764
0.167204876431
0.0297120352922
0.0249733150838
0.0258726848712
0.0126894280333
0.0196262249812
0.0659681605506
0.0135494152093
0.1287854741
1000000.0
0.0
0.0
0.0
0.0
0.0
0.0
0.0
0.0
0.0
0.0
0.0
0.0
0.0
0.0
0.0
0.0
0.0
0.0
0.0
0.0
0.0
0.0
0.0
0.0
0.0
0.0
0.0
0.0
0.0
0.0
0.0
0.0
0.0
0.0
0.0
0.0
0.0
0.0
0.0
0.0
0.0
0.0
0.0
0.0
0.0
0.0
0.0
0.0
0.0
0.0
0.0
0.0
0.0
0.0
0.0
0.0
0.0
0.0
0.0
0.0
0.0
0.0
0.0
0.0
0.0
0.0
0.0
0.0
0.0
0.0
0.0
0.0
0.0
0.0
0.0
0.0
0.0
0.0
0.0
0.0
0.0
0.0
0.0
0.0
0.0
0.0
0.0
0.0
0.0
0.0
0.0
0.0
0.0
0.0
0.0
0.0
0.0
0.0
0.0
0.0
0.0
0.0
0.0
0.0
0.0
0.0
0.0
0.0
0.0
0.0
0.0
0.0
0.0
0.0
0.0
0.0
0.0
0.0
0.0
0.0
0.0
0.0
0.0
0.0
0.0
0.0
0.0
0.0
0.0
0.0
0.0
0.0
0.0
0.0
0.0
0.0
0.0
0.0
0.0
0.0
0.0
0.0
0.0
0.0
0.0
0.0
0.0
0.0
0.0
0.0
0.0
0.0
0.0
0.0
0.0
0.0
0.0
0.0
0.0
0.0
0.0
0.0
0.0
0.0
0.0
0.0
0.0
0.0
0.0
0.0
0.0
0.0
0.0
0.0
0.0
0.0
0.0
0.0
0.0
0.0
0.0
0.0
0.0
0.0
0.0
0.0
0.0
0.0
0.0
0.0
0.0
0.0
0.0
0.0
0.0
0.0
0.0
0.0
0.0
0.0
0.0
0.0
0.0
0.0
0.0
0.0
0.0
0.0
0.0
0.0
0.0
0.0
0.0
0.0
0.0
0.0
0.0
0.0
0.0
0.0
0.0
0.0
0.0
0.0
0.0
0.0
0.0
0.0
0.0
0.0
0.0
0.0
0.0
0.0
0.0
0.0
0.0
0.0
0.0
0.0
0.0
0.0
0.0
0.0
0.0
0.0
0.0
0.0
0.0
0.0
0.0
0.0
0.0
0.0
0.0
0.0
0.0
0.0
0.0
0.0
0.0
0.0
0.0
0.0
0.0
0.0
0.0
0.0
0.0
0.0
0.0
0.0
0.0
0.0
0.0
0.0
0.0
0.0
0.0
0.0
0.0
0.0
0.0
0.0
0.0
0.0
0.0
0.0
0.0
0.0
0.0
0.0
0.0
0.0
0.0
0.0
0.0
0.0
0.0
0.0
0.0
0.0
0.0
0.0
0.0
0.0
0.0
0.0
0.0
0.0
0.0
0.0
0.0
0.0
0.0
0.0
0.0
0.0
0.0
0.0
0.0
0.0
0.0
0.0
0.0
0.0
0.0
0.0
0.0
0.0
0.0
0.0
0.0
0.0
0.0
0.0
0.0
0.0
0.0
0.0
0.0
0.0
0.0
0.0
0.0
0.0
0.0
0.0
0.0
0.0
0.0
0.0
0.0
0.0
0.0
0.0
0.0
0.0
0.0
0.0
0.0
0.0
0.0
0.0
0.0
0.0
0.0
0.0
0.0
0.0
0.0
0.0
0.0
0.0
0.0
0.0
0.0
0.0
0.0
0.0
0.0
0.0
0.0
0.0
0.0
0.0
0.0
0.0
0.0
0.0
0.0
0.0
0.0
0.0
0.0
0.0
0.0
0.0
0.0
0.0
0.0
0.0
0.0
0.0
0.0
0.0
0.0
0.0
0.0
0.0
0.0
0.0
0.0
0.0
0.0
0.0
0.0
0.0
0.0
0.0
logs/alpha_0.8/PGSD_100steps_0.log 1000069.35417 1000.06935417 0.018537371061 1000000.0 0.0 579
