Policy Parameters:	-2.00802144877 1.95197679974
Control Steps:		1000
Start Time:		1438268198.7713954

-- TESTING STOPPED --

Stop Time:		1438268301.0662355
Duration:		102.29484009742737
Cost Matrix:
0.21442118905
0.53471701191
0.88517944732
0.764413459502
0.590120477507
1.02737978508
0.549550598372
0.98840706869
0.463823882014
0.485616256254
0.469488790777
0.386852551587
0.304396909659
0.307669283895
0.0686651213297
0.0836747819265
0.0884847227938
0.014150571745
0.00141524781714
0.0241402507534
0.0493076280391
0.033736368482
0.0619796138511
0.0255137065739
0.0364864422621
0.0786589277407
0.150408889436
0.214385825589
0.206944612853
0.152155206329
0.214909563868
0.180355681139
0.186872516203
0.186895669855
0.260033091996
0.275242544277
0.365114347979
0.425814287238
0.354459335111
0.473238946815
0.466102490014
0.427542062385
0.406912494466
0.494701045131
0.395756782746
0.444703412957
0.429848726241
0.417604698349
0.410777696912
0.440464593246
0.491393328165
0.423870000458
0.300189616902
0.231759486233
0.147715894996
0.0858672828671
0.0880921406294
0.013330783004
0.0290930596003
0.0170075152609
0.0257851317306
0.052567118721
0.0477604045669
0.0811319820317
0.0690051370534
0.0262530551625
0.0442559178664
0.0296809544887
0.0469378533521
0.0818317251135
0.0293235200503
0.0268759895383
0.0542952503133
0.0322609625408
0.0350927224937
0.0515218594062
0.100823631793
0.215566212866
0.244230653114
0.209915847308
0.176255137237
0.205365214432
0.174891597105
0.215588917699
0.29582943177
0.37751485337
0.412020373773
0.535915118816
0.65566381222
0.669508784297
0.70877576739
0.772833843572
0.848673562032
0.823697392447
0.916130920857
0.728259383883
0.98915595656
0.78219414017
0.561919001592
0.462660843264
0.44911392794
0.428325930212
0.335130805416
0.0181383888169
0.0109152900509
0.0489346357767
0.109647047676
0.147148773691
0.134469441026
0.0649721299161
0.133231550672
0.145779436719
0.188248041469
0.165729229658
0.0864413009704
0.0994157502655
0.170236912128
0.175959191836
0.0885966683372
0.141726603114
0.0742399005627
0.117491712573
0.137526982164
0.14185084148
0.154058049555
0.165381410737
0.0703414102416
0.119960125151
0.0418962197761
0.0674047672484
0.0590494259765
0.0607990933292
0.0744602126204
0.156985643829
0.167712642104
0.0871180082098
0.0303661146141
0.0637129806459
0.00237877833873
0.0617632470956
0.12252893357
0.0508831297787
0.133020461634
0.176772581975
0.112050002859
0.064326148512
0.0452796485153
0.116119278699
0.143040953178
0.0129782267311
0.0154629504067
0.0342812794174
0.0795430778968
0.162854747597
0.212181717583
0.214414868675
0.251944678644
0.321673252087
0.45569683554
0.671712061982
0.963108194117
1.37676417374
1.48428355301
1.6979929909
1.26217862703
1.89227894276
0.823715771541
2.39954293019
0.048017177353
0.284150227141
0.844343977387
1.95345093709
0.263091048571
0.695374505382
1.35308234662
0.119183068515
0.204252104817
0.111356457426
0.203662565106
0.0866417510662
0.146748777166
0.176087227677
0.0320754711791
0.0622612427667
0.0183063550005
0.0234110850579
0.0477874023491
0.00684312932171
0.0248659563037
0.065050497207
0.0876160349571
0.0680841654312
0.0912400202472
0.0552687272167
0.0492774799071
0.0624350123553
0.0820312590457
0.176626742289
0.206373687637
0.184316282017
0.145682971128
0.213029697979
0.233727754649
0.22346483735
0.180219844418
0.199825017741
0.216804270181
0.225248880728
0.191604146057
0.188212646334
0.234854422561
0.246550396034
0.208017409339
0.16322688112
0.133927060188
0.133539210234
0.0891967828236
0.0811034215732
0.0625683864776
0.0454181864107
0.0666943582063
0.136595828476
0.106050806873
0.0588775766598
0.0720171899796
0.0376302139337
0.044093966725
0.0571418378249
0.069803289773
0.130686689205
0.0839518823823
0.0987987134581
0.128957563207
0.152283618931
0.187156272309
0.145413641641
0.13582056311
0.217891368344
0.334703602324
0.363673508498
0.511555332596
0.838119122467
0.895427442421
1.03351440173
1.11089834789
1.08941488994
1.24630157712
1.49176762231
1.55529958313
1.40948756401
1.22786054358
0.590337035106
0.930562430783
2.10683502162
0.145986526344
0.307096369211
0.159781597101
0.037011714164
0.0854982937706
0.0891851666642
0.109601456034
0.020517093166
0.0185310781894
0.0383594794752
0.0280771396862
0.0742017773291
0.122912038552
0.149313954158
0.121275747909
0.0505284009485
0.0240183370187
0.0339200986945
0.0215968651609
0.077683699844
0.161032272621
0.117099055323
0.053474743198
0.0539580728114
0.056549351244
0.0255751291853
0.0209416675456
0.0217418264302
0.042320985171
0.0383395809802
0.0418133255652
0.0658645988917
0.0369416749179
0.0382623800262
0.0562668025461
0.0461226207182
0.0790648690129
0.116576885286
0.058237294527
0.0507353463302
0.0741671206489
0.0899608121266
0.109141596124
0.124079789057
0.207868822009
0.230469497624
0.234390870158
0.246371409729
0.250104870212
0.25931699872
0.303320491439
0.31993196833
0.33514582196
0.409962162452
0.421405159375
0.445780737742
0.459520229875
0.444478229031
0.482355155354
0.477406091027
0.45789225113
0.413965380536
0.422929840535
0.331702212425
0.347195246314
0.353679781245
0.298190735956
0.237321167376
0.129189279221
0.0822772682251
0.246361583698
0.398805106343
0.315132175892
0.357428297215
0.325657724933
0.337632368214
0.175029175358
0.114661899087
0.162456364136
0.127781953391
0.125291092288
0.134636522928
0.163849739812
0.0886560561816
0.0313133893532
0.0645189605366
0.11518216729
0.108019066759
0.0938336054231
0.157528116956
0.157932875273
0.103788253315
0.145372033911
0.12349664041
0.169251299775
0.162503055547
0.138952866113
0.154626012413
0.203930771855
0.1168958052
0.182116111768
0.197189630264
0.175241604538
0.169959888439
0.19317401101
0.206812596438
0.204832887467
0.209547196973
0.217892713546
0.263047302901
0.359359196935
0.380958647045
0.345870501693
0.333465065752
0.440623364476
0.348221845759
0.417662375284
0.338616674266
0.276811789493
0.358920347113
0.369001809332
0.277064266992
0.274548476026
0.31349097414
0.282822726249
0.138110806219
0.138487576866
0.155744724269
0.192843320069
0.128564362749
0.1092444771
0.0168101700017
0.0314402886304
0.0570845530965
0.104187085504
0.119324291514
0.135906245394
0.176939953555
0.144997834514
0.165471902487
0.225025052695
0.183371117533
0.273678101586
0.27692337208
0.220580499668
0.310465395857
0.226586730256
0.21212950399
0.333286454421
0.25060994904
0.163052157029
0.198472778005
0.235132554169
0.162111596963
0.168951561953
0.191883407406
0.198850972125
0.211457021283
0.178504204773
0.226338735065
0.087616695314
0.0184562951039
0.0408424265311
0.0416231913163
0.101121433415
0.140667437484
0.06567669871
0.0629754739873
0.0925146879581
0.138856807937
0.0428634786417
0.0196014743889
0.0471173937505
0.0693796735243
0.0854698975657
0.118565254349
0.131530866415
0.0563227026549
0.028120327098
0.0380386946524
0.130146919576
0.212352675798
0.0991382406938
0.141036763047
0.162926434235
0.1863664372
0.243380377152
0.25835012516
0.325378859315
0.336631026732
0.292337265762
0.303019932681
0.244376703299
0.259375367914
0.341639466464
0.337879939911
0.309702539359
0.26225945253
0.253695298816
0.266809896784
0.25690205251
0.225138617337
0.21094631025
0.174876807955
0.139679641793
0.0928487798033
0.0261988235011
0.110316636493
0.22191525316
0.235728981694
0.228838089402
0.295732783237
0.279831701467
0.238366150992
0.267992848836
0.298071306793
0.254578568346
0.242388291099
0.239673315834
0.218670670311
0.181648521034
0.201983749443
0.239097817481
0.155877288218
0.16324805425
0.143689122403
0.145119506414
0.143737971786
0.130679373578
0.138099002523
0.145519870814
0.141476225685
0.144481587714
0.157030213025
0.160290779603
0.167138606954
0.161191236753
0.169880343808
0.17132996879
0.179306030693
0.179043036555
0.184256048822
0.18697075777
0.179533337277
0.192299075365
0.201736107983
0.210346423611
0.219986628693
0.233849036275
0.231478373214
0.233576935947
0.242965704977
0.255349175371
0.265419320156
0.279719293863
0.289101150776
0.299875678792
0.310755309692
0.309851447378
0.308873301027
0.329327933489
0.350026456179
0.365698473454
0.37898253544
0.397273555573
0.40820531762
0.420758190906
0.47055391958
0.48710595367
0.501025634096
0.557524879816
0.584849331023
0.605066913268
0.721718726994
0.600828010831
0.821946583109
0.634058169309
1.01694457891
0.747415828703
0.887799977199
0.864475065988
0.977896448113
1.11922308187
0.952368414361
1.18319900716
0.969099881978
1.17669968187
1.13620899042
1.14848071862
1.11344311127
1.15876250385
1.06610676534
1.23417846516
1.3058108921
1.31160138926
1.26728645805
1.2277094805
1.03774402951
1.20186532261
1.13413395113
1.00579223138
1.12643898372
0.903774253772
0.962392823618
0.961675965016
0.903033440179
0.934980544116
0.612004596757
0.94472432309
0.554508876979
0.702266749194
0.527477850552
0.562262136492
0.514803847844
0.433655160946
0.444640754996
0.40638142941
0.364904715168
0.361014706237
0.345929033543
0.344095030993
0.283827356073
0.28911092463
0.277520444126
0.24367986599
0.243186058042
0.236876425964
0.206734645219
0.186516031575
0.165924755916
0.123405027484
0.138815412725
0.175866694292
0.215770275404
0.194998482802
0.189801991964
0.194552375703
0.169753206328
0.121498151429
0.104932133831
0.106839727737
0.047737553594
0.0968283439482
0.0959548817281
0.0886200278179
0.0550871466424
0.0304205363595
0.0547459739475
0.0459581615792
0.0760109160109
0.128212077974
0.17511052669
0.184361360491
0.0633149280744
0.111170488128
0.134712109709
0.0434267694838
0.0181312282361
0.01095804213
0.0411337538129
0.125239002822
0.220083508526
0.249848351356
0.436122039238
0.916293609827
1.66980370982
1.31550806298
1.66435527046
2.12978670561
1.44340209693
0.317927248675
1000000.0
0.0
0.0
0.0
0.0
0.0
0.0
0.0
0.0
0.0
0.0
0.0
0.0
0.0
0.0
0.0
0.0
0.0
0.0
0.0
0.0
0.0
0.0
0.0
0.0
0.0
0.0
0.0
0.0
0.0
0.0
0.0
0.0
0.0
0.0
0.0
0.0
0.0
0.0
0.0
0.0
0.0
0.0
0.0
0.0
0.0
0.0
0.0
0.0
0.0
0.0
0.0
0.0
0.0
0.0
0.0
0.0
0.0
0.0
0.0
0.0
0.0
0.0
0.0
0.0
0.0
0.0
0.0
0.0
0.0
0.0
0.0
0.0
0.0
0.0
0.0
0.0
0.0
0.0
0.0
0.0
0.0
0.0
0.0
0.0
0.0
0.0
0.0
0.0
0.0
0.0
0.0
0.0
0.0
0.0
0.0
0.0
0.0
0.0
0.0
0.0
0.0
0.0
0.0
0.0
0.0
0.0
0.0
0.0
0.0
0.0
0.0
0.0
0.0
0.0
0.0
0.0
0.0
0.0
0.0
0.0
0.0
0.0
0.0
0.0
0.0
0.0
0.0
0.0
0.0
0.0
0.0
0.0
0.0
0.0
0.0
0.0
0.0
0.0
0.0
0.0
0.0
0.0
0.0
0.0
0.0
0.0
0.0
0.0
0.0
0.0
0.0
0.0
0.0
0.0
0.0
0.0
0.0
0.0
0.0
0.0
0.0
0.0
0.0
0.0
0.0
0.0
0.0
0.0
0.0
0.0
0.0
0.0
0.0
0.0
0.0
0.0
0.0
0.0
0.0
0.0
0.0
0.0
0.0
0.0
0.0
0.0
0.0
0.0
0.0
0.0
0.0
0.0
0.0
0.0
0.0
0.0
0.0
0.0
0.0
0.0
0.0
0.0
0.0
0.0
0.0
0.0
0.0
0.0
0.0
0.0
0.0
0.0
0.0
0.0
0.0
0.0
0.0
0.0
0.0
0.0
0.0
0.0
0.0
0.0
0.0
0.0
0.0
0.0
0.0
0.0
0.0
0.0
0.0
0.0
0.0
0.0
0.0
0.0
0.0
0.0
0.0
0.0
0.0
0.0
0.0
0.0
0.0
0.0
0.0
0.0
0.0
0.0
0.0
0.0
0.0
0.0
0.0
0.0
0.0
0.0
0.0
0.0
0.0
0.0
0.0
0.0
0.0
0.0
0.0
0.0
0.0
0.0
0.0
0.0
0.0
0.0
0.0
0.0
0.0
0.0
0.0
0.0
0.0
0.0
0.0
0.0
0.0
0.0
0.0
0.0
0.0
0.0
0.0
0.0
0.0
0.0
0.0
0.0
0.0
0.0
0.0
0.0
0.0
0.0
0.0
0.0
0.0
0.0
0.0
0.0
0.0
0.0
0.0
0.0
0.0
0.0
0.0
0.0
0.0
0.0
0.0
0.0
0.0
0.0
0.0
0.0
0.0
0.0
0.0
0.0
0.0
0.0
0.0
0.0
0.0
0.0
0.0
0.0
0.0
0.0
0.0
0.0
0.0
0.0
0.0
0.0
0.0
0.0
0.0
0.0
0.0
0.0
0.0
0.0
0.0
0.0
0.0
0.0
0.0
0.0
0.0
0.0
0.0
0.0
0.0
0.0
0.0
0.0
0.0
0.0
0.0
0.0
0.0
0.0
logs/alpha_0.8/PGSD_600steps_0.log 1000194.14882 1000.19414882 0.0781713137924 1000000.0 0.0 625
