Policy Parameters:	-0.804929979917 1.02601114525
Control Steps:		1000
Start Time:		1438271835.8093143

-- TESTING STOPPED --

Stop Time:		1438271926.1916142
Duration:		90.38229990005493
Cost Matrix:
0.0106476301437
0.0506196376737
0.134067325127
0.210560972034
0.236446382208
0.250614190261
0.258227537022
0.262850868762
0.274898412542
0.287901810552
0.295674741179
0.311380199494
0.317510431712
0.300704319555
0.30806845919
0.290435341272
0.255542100601
0.231939429683
0.234736650769
0.266517091033
0.239329118928
0.163397743383
0.135379814216
0.127751495123
0.0965595541046
0.0459746567798
0.0110396795132
0.0146730530391
0.0218098272987
0.0250140543092
0.0298255778953
0.0376014197469
0.0389037466867
0.0474175288499
0.0391398107845
0.0724435315613
0.0684294271392
0.063736640774
0.0803253907521
0.0738924834929
0.100482160481
0.112198667436
0.110772918012
0.0898072867043
0.0753907793798
0.0676927956123
0.0583759504691
0.0931416041873
0.100825183043
0.10331134565
0.0917975683836
0.0798346912039
0.0747603587219
0.081977255681
0.0904696021696
0.0732777084879
0.0561152309541
0.0855058464923
0.1051086908
0.0890993164811
0.075791858531
0.0808652968996
0.115944458358
0.0901856017957
0.029053295774
0.0249270297465
0.0168879609902
0.0587474754399
0.0785835394799
0.0700835632
0.0664827419116
0.0535163145781
0.0351962745692
0.0148413916548
0.00579692371987
0.0160890116026
0.0190666688505
0.0278389629296
0.0561894607614
0.0436035231949
0.0219549262123
0.023420829472
0.0161007186573
0.0181532918591
0.0520196717307
0.0662275829078
0.036486333856
0.00445058062945
0.00221645841859
0.0155517165019
0.0226643262106
0.0107867272241
0.0225982732554
0.0517620771041
0.0537012128232
0.0295873154514
0.0376744551184
0.0941288394887
0.0937809532219
0.0628574958327
0.0738638720718
0.0945962536422
0.101665116364
0.101165666267
0.134023466808
0.17731805717
0.217003886782
0.283272587146
0.368711092024
0.431214551199
0.480784823062
0.545240647288
0.629242763514
0.70213078773
0.691642669188
0.836415054895
1.14133882198
0.848543867291
0.959771410032
0.702823192911
0.69320682356
0.185168907107
0.156102312225
0.207080904239
0.25329800215
0.284337607702
0.332818403913
0.34016172758
0.265871107142
0.159748440147
0.0575222773759
0.0760336852372
0.131250406487
0.171982369128
0.17899860806
0.194875122153
0.211732082242
0.225647731242
0.24520617096
0.268361886044
0.285575229898
0.303578322102
0.289054268753
0.282234710128
0.325697481399
0.328018956336
0.361300887507
0.364978574795
0.33336889726
0.325573485343
0.336608388212
0.30637156242
0.308345441505
0.331467091966
0.309421378292
0.274724596558
0.278385970741
0.240036725677
0.183153671376
0.144896104704
0.0835612689498
0.0199430034074
0.018676032863
0.047731188024
0.0908511706928
0.0945281204464
0.0767692528803
0.100054809896
0.119292862311
0.145118605439
0.145247040886
0.15060617734
0.155812120424
0.149561516484
0.151140656764
0.147267257977
0.139663452462
0.14640012379
0.176927526196
0.18282027775
0.194241958043
0.211486631146
0.184992405646
0.167265448807
0.19585565902
0.228109982105
0.232876709797
0.235725905809
0.205228380605
0.161784319734
0.172069340097
0.180951890636
0.174103933327
0.138992340537
0.123636687832
0.114108742597
0.0828545221892
0.0753274063339
0.0885722065803
0.0874528229946
0.0434267527106
0.0406896031412
0.0638982739988
0.0870848260662
0.100379369561
0.0455025093971
0.00671043755578
0.0132218110133
0.0221018114452
0.0468438186184
0.0413847866714
0.0157458914629
0.0163811383893
0.0192662548998
0.031663622623
0.036077605358
0.0198919535618
0.0149903654312
0.0507834258517
0.0579287079705
0.0338329589723
0.018481113987
0.0313581588991
0.0451407928511
0.0374444100248
0.0296755200642
0.0429441235704
0.0562651867578
0.0544018469003
0.0459584893321
0.0545971698909
0.0663946462211
0.132367087224
0.185272068023
0.161871604917
0.106480807172
0.118839589688
0.15045280029
0.183538419533
0.196183243681
0.191450854727
0.189473770298
0.215291627266
0.270470762528
0.334357468126
0.373205648676
0.38952533935
0.417976832293
0.448374751036
0.485933883029
0.526601250602
0.581533189735
0.636592644711
0.682053371207
0.74107513125
0.786374588822
0.664924275768
0.533686363981
0.445582801857
0.45729595919
0.724178046095
0.920431731669
0.176434717191
0.121209133409
0.027372299671
0.0252749651726
0.0274494129397
0.0173092674199
0.0578950906729
0.0623056705411
0.0250480972665
0.0352396324139
0.0498586084316
0.0690115205482
0.0785911804081
0.109440081865
0.110896444202
0.0827314720228
0.0704496978897
0.0532962908458
0.0672991588189
0.0745974369365
0.0987633646891
0.0889189361023
0.111424031768
0.171607160678
0.193081190905
0.192776347163
0.194015154049
0.203196113372
0.205772465467
0.187214212752
0.16440872751
0.226174754654
0.315944734439
0.397369008268
0.519412529505
0.626254363629
0.658130884192
0.699484652347
0.783098980309
0.833639128781
0.709359774079
0.947943610405
0.955743796975
0.848610950601
1.13121886322
0.831079192331
0.954563996877
0.496309733228
0.595767685979
0.604428387168
0.490861357402
0.201027025019
0.00926716179992
0.01222280185
0.0280841748622
0.0578944997242
0.0615841375796
0.0752088994195
0.078808161128
0.0604657106595
0.0626274624931
0.0713962158377
0.0701779398142
0.0714181846572
0.0631935232957
0.0440442126142
0.0288197321687
0.0166611936021
0.0472365374335
0.0166656471314
0.0392586487574
0.0732780555911
0.0964326709036
0.111378893123
0.0934524881355
0.0586294234318
0.110859343775
0.127752286724
0.145366814282
0.195692725034
0.201529549414
0.182143418924
0.199319564706
0.240201440816
0.225679589034
0.217462809551
0.229232319617
0.220682191598
0.235759411602
0.260995048879
0.293994474184
0.295001768521
0.297816007177
0.251366664558
0.199828955246
0.159706825598
0.138173429455
0.114299439923
0.0584589686609
0.0529298380506
0.039795213536
0.0128246330333
0.0205777432435
0.0173434483328
0.0283002819886
0.03957173339
0.0293147112276
0.0106711610976
0.0101656248333
0.0131426890612
0.020897583269
0.0160982256022
0.00353326139872
0.0151036541822
0.0111564240377
0.00923913426423
0.017972390286
0.0205997207447
0.0167764637133
0.0254713387756
0.0212713878908
0.0313181710603
0.0320689213699
0.0341164248338
0.0184119581104
0.0269235430558
0.0204192911771
0.0154253115421
0.0330845081364
0.0344139308507
0.019056242956
0.0409341026117
0.0443933042399
0.0395318477881
0.134342014333
0.149624345227
0.0977257626089
0.0396306859524
0.0149390644131
0.0176326256989
0.0210806634775
0.0199311142177
0.0262882999033
0.00601439416702
0.0202526088969
0.0454307389445
0.0478211074727
0.0508738952253
0.0341313573667
0.0303475992001
0.016212481275
0.0118086497831
0.0439800408251
0.0746207791868
0.0889077748506
0.106624852002
0.126821286657
0.144541374526
0.158699781114
0.214328727576
0.267861376065
0.3009435401
0.427245460404
0.524384565053
0.540536568712
0.573406391975
0.620092037468
0.659025444176
0.647757864454
0.664695557321
0.847647607818
1.1126770347
0.840640383768
0.83907310281
0.850253606715
0.568053773869
0.426291227966
0.033362676058
0.0132216628752
0.0573531691368
0.0675504957391
0.0665472398113
0.0569034919556
0.0535929225777
0.046355316616
0.0343079602451
0.0373277353543
0.0450673170237
0.0132877929634
0.0157327784134
0.0185912972887
0.0221722538568
0.0130422477302
0.0105989410912
0.0307846898909
0.0604509472753
0.0479643327083
0.014579606835
0.0175856386088
0.0198826097137
0.0308739556381
0.0306967902571
0.0488405694324
0.0415430135601
0.0473813432065
0.0204627329751
0.00878095397929
0.0393392587065
0.0381210090676
0.0117065720249
0.0352195887899
0.0244836911299
0.041320660387
0.0532037501685
0.0745512366723
0.0993589432869
0.107491223319
0.0939010350139
0.0673799210546
0.0426032425784
0.0535772294502
0.118427889187
0.1142536366
0.0669585846122
0.0750422724703
0.0845214114759
0.100396435358
0.123532017589
0.116052518799
0.0971690307677
0.142680826653
0.164253598105
0.170169078805
0.182582228626
0.191985097701
0.205210370906
0.229371599692
0.256272937254
0.287271791574
0.355857851729
0.398744499539
0.404722261373
0.420216396434
0.413211253936
0.422996940903
0.457334542939
0.471257477259
0.492205359796
0.486896174299
0.488709953211
0.485387822397
0.438405903926
0.326516440993
0.220684036347
0.195962625193
0.0679571539222
0.0437874263037
0.0345374446222
0.019155977973
0.00743628961057
0.0122033183407
0.0126923006205
0.00939675311951
0.00109886499656
0.0167898333623
0.0135795113851
0.00848473160502
0.00723213266396
0.00761542361699
0.0169099062187
0.0214552133128
0.0205508348532
0.0240997773319
0.0138486409567
0.0193902581694
0.0287240079387
0.0234225125411
0.0267853542801
0.021465615253
0.0244025083885
0.0263390902475
0.0282087894636
0.0537094720431
0.0554867372229
0.0386938316304
0.0501094904589
0.061825906334
0.0793610571242
0.0890363737827
0.0845431386762
0.0970511136864
0.105342452383
0.0897520929515
0.0611315538144
0.0505025270094
0.0515729849776
0.0500230419717
0.073574998333
0.100907469618
0.115931251
0.113233904894
0.118747482946
0.125197400243
0.1373009234
0.172308049157
0.176695518099
0.154455502625
0.162444729081
0.179066260342
0.200648105247
0.221031274834
0.222083468576
0.219672095737
0.249352134916
0.277260608786
0.279863459067
0.32689456834
0.344339477901
0.349478867802
0.597503689211
0.574798460604
0.512535889273
0.633489710305
0.705166556942
0.813009515892
0.911976613374
0.929896330621
0.873431402978
1.79261275779
2.01738431099
0.129483998252
0.243151283475
0.376305431196
0.37270349317
0.299880758859
0.208395674407
0.186454246708
0.2596637172
0.289271429155
0.344365489871
0.603875554045
0.930370062639
1.2201587653
0.805840287719
0.286739557532
0.0402293990467
0.0275395670124
1000000.0
0.0
0.0
0.0
0.0
0.0
0.0
0.0
0.0
0.0
0.0
0.0
0.0
0.0
0.0
0.0
0.0
0.0
0.0
0.0
0.0
0.0
0.0
0.0
0.0
0.0
0.0
0.0
0.0
0.0
0.0
0.0
0.0
0.0
0.0
0.0
0.0
0.0
0.0
0.0
0.0
0.0
0.0
0.0
0.0
0.0
0.0
0.0
0.0
0.0
0.0
0.0
0.0
0.0
0.0
0.0
0.0
0.0
0.0
0.0
0.0
0.0
0.0
0.0
0.0
0.0
0.0
0.0
0.0
0.0
0.0
0.0
0.0
0.0
0.0
0.0
0.0
0.0
0.0
0.0
0.0
0.0
0.0
0.0
0.0
0.0
0.0
0.0
0.0
0.0
0.0
0.0
0.0
0.0
0.0
0.0
0.0
0.0
0.0
0.0
0.0
0.0
0.0
0.0
0.0
0.0
0.0
0.0
0.0
0.0
0.0
0.0
0.0
0.0
0.0
0.0
0.0
0.0
0.0
0.0
0.0
0.0
0.0
0.0
0.0
0.0
0.0
0.0
0.0
0.0
0.0
0.0
0.0
0.0
0.0
0.0
0.0
0.0
0.0
0.0
0.0
0.0
0.0
0.0
0.0
0.0
0.0
0.0
0.0
0.0
0.0
0.0
0.0
0.0
0.0
0.0
0.0
0.0
0.0
0.0
0.0
0.0
0.0
0.0
0.0
0.0
0.0
0.0
0.0
0.0
0.0
0.0
0.0
0.0
0.0
0.0
0.0
0.0
0.0
0.0
0.0
0.0
0.0
0.0
0.0
0.0
0.0
0.0
0.0
0.0
0.0
0.0
0.0
0.0
0.0
0.0
0.0
0.0
0.0
0.0
0.0
0.0
0.0
0.0
0.0
0.0
0.0
0.0
0.0
0.0
0.0
0.0
0.0
0.0
0.0
0.0
0.0
0.0
0.0
0.0
0.0
0.0
0.0
0.0
0.0
0.0
0.0
0.0
0.0
0.0
0.0
0.0
0.0
0.0
0.0
0.0
0.0
0.0
0.0
0.0
0.0
0.0
0.0
0.0
0.0
0.0
0.0
0.0
0.0
0.0
0.0
0.0
0.0
0.0
0.0
0.0
0.0
0.0
0.0
0.0
0.0
0.0
0.0
0.0
0.0
0.0
0.0
0.0
0.0
0.0
0.0
0.0
0.0
0.0
0.0
0.0
0.0
0.0
0.0
0.0
0.0
0.0
0.0
0.0
0.0
0.0
0.0
0.0
0.0
0.0
0.0
0.0
0.0
0.0
0.0
0.0
0.0
0.0
0.0
0.0
0.0
0.0
0.0
0.0
0.0
0.0
0.0
0.0
0.0
0.0
0.0
0.0
0.0
0.0
0.0
0.0
0.0
0.0
0.0
0.0
0.0
0.0
0.0
0.0
0.0
0.0
0.0
0.0
0.0
0.0
0.0
0.0
0.0
0.0
0.0
0.0
0.0
0.0
0.0
0.0
0.0
0.0
0.0
0.0
0.0
0.0
0.0
0.0
0.0
0.0
0.0
0.0
0.0
0.0
0.0
0.0
0.0
0.0
0.0
0.0
0.0
0.0
0.0
0.0
0.0
0.0
0.0
0.0
0.0
0.0
0.0
0.0
0.0
0.0
0.0
0.0
0.0
0.0
0.0
0.0
0.0
0.0
0.0
0.0
0.0
0.0
0.0
0.0
0.0
0.0
0.0
logs/alpha_0.8/PGSD_800steps_0.log 1000119.00987 1000.11900987 0.0279615688959 1000000.0 0.0 609
