Policy Parameters:	-0.945463151935 1.12611689727
Control Steps:		1000
Start Time:		1438270684.4028332

-- TESTING STOPPED --

Stop Time:		1438270739.908159
Duration:		55.50532579421997
Cost Matrix:
0.179559880597
0.256300632038
0.311021464191
0.336615906189
0.35930390331
0.389357312605
0.366316275156
0.341833709116
0.351856289415
0.36901856823
0.347405194911
0.314814413616
0.311995309249
0.294522800764
0.28447771755
0.273237391621
0.258819677292
0.261144703795
0.197872200096
0.0943167678094
0.0745726733573
0.0687454785211
0.0883439380975
0.0894491400903
0.0717277839559
0.0482734774292
0.0331370936431
0.0439409130957
0.0340866063237
0.0143832749744
0.0317535265021
0.0279124972591
0.0104668874014
0.0678613356667
0.117161555164
0.102021776436
0.0335748087569
0.083373787274
0.114858207486
0.144168086427
0.149881495722
0.139944101327
0.177090249664
0.211391844218
0.219435547052
0.232854833711
0.277398318509
0.300721348195
0.285159268235
0.281826410514
0.294687693582
0.310256624293
0.350004406757
0.357752240318
0.331723318982
0.363489059751
0.355233294715
0.334214125722
0.343166667348
0.306380448809
0.300062033554
0.215098304107
0.183718517657
0.178208459944
0.171288746465
0.144746700284
0.0969526369761
0.0915365401553
0.0716621024634
0.0322319971591
0.0496386715496
0.0345550145612
0.0510053811487
0.0617683029295
0.013815716129
0.00577345652144
0.0370271580784
0.0690679459754
0.065217157118
0.0409424477063
0.034852979678
0.033110713641
0.0351772172664
0.0800777903366
0.130371474751
0.152114157248
0.142023226536
0.177685193811
0.217938391173
0.245460287772
0.275169935281
0.295345045024
0.314582781135
0.305033247964
0.336257585642
0.343629575402
0.328065529167
0.350582450267
0.401825641923
0.40513398092
0.354303790443
0.364039262355
0.357733618727
0.348636501312
0.345004494789
0.394142914369
0.374350941005
0.257481673622
0.197149147482
0.149346543424
0.18376752341
0.152120750487
0.0136515462958
0.0161178477657
0.0525479710035
0.0483835930737
0.0728864870047
0.116211049965
0.0985481459109
0.037862297866
0.041645884738
0.0773839831288
0.103145377179
0.135648814752
0.142529310989
0.0978271720991
0.0856682155306
0.125959516047
0.158016791367
0.173568580861
0.161899833514
0.161093324468
0.177903123474
0.239798400486
0.273376926597
0.267634872236
0.28510933205
0.302966772951
0.326941485117
0.318204956484
0.307788577019
0.298790648096
0.336952300875
0.349698145462
0.294036335961
0.245873742918
0.260633746269
0.254407860586
0.26254214189
0.289634099608
0.224584288313
0.090891608568
0.109204569469
0.0938660521662
0.0465062105366
0.00971551839676
0.0204410546873
0.0428914895094
0.0489726297803
0.0214010866857
0.0335628626029
0.0592782433513
0.115361052177
0.0966280692125
0.0150016407921
0.0240856934647
0.0476211369842
0.0545138773192
0.0298005707475
0.0507801821949
0.091827274912
0.0796006220262
0.0428211429471
0.0510158697469
0.0495590309038
0.0514586305298
0.0668483971215
0.066555225092
0.0509398291901
0.0502439577661
0.0376706757939
0.0482123395096
0.0455657526304
0.0114170178295
0.0539719143166
0.0688744860614
0.0433370584793
0.0585535991798
0.0823246891073
0.0607472508528
0.0376792252275
0.0588075855111
0.0574192001944
0.0372844035986
0.0308521661011
0.0536582538038
0.0421589117257
0.0187215044481
0.0116254678772
0.0188217545523
0.0471751135122
0.0678511661718
0.0677989969541
0.0671458327287
0.0743070378829
0.109661470745
0.174077518022
0.209069385352
0.235816747441
0.299115010109
0.395005050158
0.466517623256
0.486480798433
0.517406358272
0.52953894762
0.56374407833
0.613792240654
0.660846964251
0.683310591933
0.681554212252
0.650489971244
0.652634155853
0.6760710042
0.519842947848
0.253323731438
0.10005296233
0.0142798596396
0.0132630917115
0.0284565308107
0.0266851285342
0.0218281398526
0.0180137116275
0.0313033327395
0.0606410426575
0.0651702477779
0.0255473093307
0.0985953459162
0.132432269022
0.110033937483
0.107998013693
0.0992010977413
0.102786116913
0.102414082587
0.11355482607
0.176051710608
0.208470770443
0.221719584506
0.230665269834
0.231687829029
0.233807629542
0.253388080867
0.278488088824
0.251455973799
0.229404138883
0.27816866593
0.284118633924
0.265172863368
0.282598816224
0.278319634384
0.254500780517
0.251500875418
0.22831226983
0.201312370121
0.224470554648
0.225413499684
0.246981860504
0.201959277603
0.0957029760712
0.0829168439059
0.0954812555431
0.100425755472
0.0838022330324
0.0550167582442
0.0143404121734
0.0268398750742
0.0427954864337
1.44432494635
2.02955109213
0.0563894203562
0.104069391032
0.155806903096
0.152307853585
0.0614798791392
0.0784495544531
0.127201605297
0.114414879067
0.0884237286554
0.0893354512509
0.0840365321217
0.059260980671
0.0286162569237
0.0257142083443
0.0517820379779
0.0464013784137
0.0628818433953
0.0861945024002
0.151390775231
0.218597471503
0.251089996141
0.295212216541
0.2977893141
0.292802497054
0.318772345654
0.326184489113
0.322646274929
0.329896079312
0.338896156196
0.323653329634
0.32390007392
0.382976762309
0.373052855563
0.288134711196
0.250975101714
0.244116118756
0.217724540485
0.165191924892
0.0919342283803
0.040890815896
0.022015844887
0.0337745862188
0.0429639642853
0.0156975722118
0.0101315688905
0.0307150757047
0.0282524701412
0.0171460335889
0.03907685277
0.0552351606483
0.0337470339093
0.0270750154589
0.0414546383735
0.0322314107902
0.0546260478503
0.0472234803425
0.0472833563529
0.0582514861672
0.0371644711632
0.0161294522904
0.0229457809254
0.0538602744794
0.115982003573
0.10643927759
0.037514646003
0.0222086202209
0.0301297722496
0.0374814648217
0.0264094432277
0.0371347522074
0.0345393502485
0.0181189914443
0.0486038826043
0.0618415668437
0.0469832833158
0.0364241567361
0.0234963397936
0.0532696131018
0.0749940683545
0.0708512408794
0.0349121575411
0.0847725050006
0.109109132095
0.0605992914863
0.049691989809
0.0784906465413
0.0647115575486
0.0492929484692
0.0798588927651
0.291082925561
0.764863374997
0.864999118955
0.0438626156451
0.0224992870187
0.0836691503415
0.125804385958
0.12886783381
0.114948293824
1000000.0
0.0
0.0
0.0
0.0
0.0
0.0
0.0
0.0
0.0
0.0
0.0
0.0
0.0
0.0
0.0
0.0
0.0
0.0
0.0
0.0
0.0
0.0
0.0
0.0
0.0
0.0
0.0
0.0
0.0
0.0
0.0
0.0
0.0
0.0
0.0
0.0
0.0
0.0
0.0
0.0
0.0
0.0
0.0
0.0
0.0
0.0
0.0
0.0
0.0
0.0
0.0
0.0
0.0
0.0
0.0
0.0
0.0
0.0
0.0
0.0
0.0
0.0
0.0
0.0
0.0
0.0
0.0
0.0
0.0
0.0
0.0
0.0
0.0
0.0
0.0
0.0
0.0
0.0
0.0
0.0
0.0
0.0
0.0
0.0
0.0
0.0
0.0
0.0
0.0
0.0
0.0
0.0
0.0
0.0
0.0
0.0
0.0
0.0
0.0
0.0
0.0
0.0
0.0
0.0
0.0
0.0
0.0
0.0
0.0
0.0
0.0
0.0
0.0
0.0
0.0
0.0
0.0
0.0
0.0
0.0
0.0
0.0
0.0
0.0
0.0
0.0
0.0
0.0
0.0
0.0
0.0
0.0
0.0
0.0
0.0
0.0
0.0
0.0
0.0
0.0
0.0
0.0
0.0
0.0
0.0
0.0
0.0
0.0
0.0
0.0
0.0
0.0
0.0
0.0
0.0
0.0
0.0
0.0
0.0
0.0
0.0
0.0
0.0
0.0
0.0
0.0
0.0
0.0
0.0
0.0
0.0
0.0
0.0
0.0
0.0
0.0
0.0
0.0
0.0
0.0
0.0
0.0
0.0
0.0
0.0
0.0
0.0
0.0
0.0
0.0
0.0
0.0
0.0
0.0
0.0
0.0
0.0
0.0
0.0
0.0
0.0
0.0
0.0
0.0
0.0
0.0
0.0
0.0
0.0
0.0
0.0
0.0
0.0
0.0
0.0
0.0
0.0
0.0
0.0
0.0
0.0
0.0
0.0
0.0
0.0
0.0
0.0
0.0
0.0
0.0
0.0
0.0
0.0
0.0
0.0
0.0
0.0
0.0
0.0
0.0
0.0
0.0
0.0
0.0
0.0
0.0
0.0
0.0
0.0
0.0
0.0
0.0
0.0
0.0
0.0
0.0
0.0
0.0
0.0
0.0
0.0
0.0
0.0
0.0
0.0
0.0
0.0
0.0
0.0
0.0
0.0
0.0
0.0
0.0
0.0
0.0
0.0
0.0
0.0
0.0
0.0
0.0
0.0
0.0
0.0
0.0
0.0
0.0
0.0
0.0
0.0
0.0
0.0
0.0
0.0
0.0
0.0
0.0
0.0
0.0
0.0
0.0
0.0
0.0
0.0
0.0
0.0
0.0
0.0
0.0
0.0
0.0
0.0
0.0
0.0
0.0
0.0
0.0
0.0
0.0
0.0
0.0
0.0
0.0
0.0
0.0
0.0
0.0
0.0
0.0
0.0
0.0
0.0
0.0
0.0
0.0
0.0
0.0
0.0
0.0
0.0
0.0
0.0
0.0
0.0
0.0
0.0
0.0
0.0
0.0
0.0
0.0
0.0
0.0
0.0
0.0
0.0
0.0
0.0
0.0
0.0
0.0
0.0
0.0
0.0
0.0
0.0
0.0
0.0
0.0
0.0
0.0
0.0
0.0
0.0
0.0
0.0
0.0
0.0
0.0
0.0
0.0
0.0
0.0
0.0
0.0
0.0
0.0
0.0
0.0
0.0
0.0
0.0
0.0
0.0
0.0
0.0
0.0
0.0
0.0
0.0
0.0
0.0
0.0
0.0
0.0
0.0
0.0
0.0
0.0
0.0
0.0
0.0
0.0
0.0
0.0
0.0
0.0
0.0
0.0
0.0
0.0
0.0
0.0
0.0
0.0
0.0
0.0
0.0
0.0
0.0
0.0
0.0
0.0
0.0
0.0
0.0
0.0
0.0
0.0
0.0
0.0
0.0
0.0
0.0
0.0
0.0
0.0
0.0
0.0
0.0
0.0
0.0
0.0
0.0
0.0
0.0
0.0
0.0
0.0
0.0
0.0
0.0
0.0
0.0
0.0
0.0
0.0
0.0
0.0
0.0
0.0
0.0
0.0
0.0
0.0
0.0
0.0
0.0
0.0
0.0
0.0
0.0
0.0
0.0
0.0
0.0
0.0
0.0
0.0
0.0
0.0
0.0
0.0
0.0
0.0
0.0
0.0
0.0
0.0
0.0
0.0
0.0
0.0
0.0
0.0
0.0
0.0
0.0
0.0
0.0
0.0
0.0
0.0
0.0
0.0
0.0
0.0
0.0
0.0
0.0
0.0
0.0
0.0
0.0
0.0
0.0
0.0
0.0
0.0
0.0
0.0
0.0
0.0
0.0
0.0
0.0
0.0
0.0
0.0
0.0
0.0
0.0
0.0
0.0
0.0
0.0
0.0
0.0
0.0
0.0
0.0
0.0
0.0
0.0
0.0
0.0
0.0
0.0
0.0
0.0
0.0
0.0
0.0
0.0
0.0
0.0
0.0
0.0
0.0
0.0
0.0
0.0
0.0
0.0
0.0
0.0
0.0
0.0
0.0
0.0
0.0
0.0
0.0
0.0
0.0
0.0
0.0
0.0
0.0
0.0
0.0
0.0
0.0
0.0
0.0
0.0
0.0
0.0
0.0
0.0
0.0
0.0
0.0
0.0
0.0
0.0
0.0
0.0
0.0
0.0
0.0
0.0
0.0
0.0
0.0
0.0
0.0
0.0
0.0
0.0
0.0
0.0
logs/alpha_0.8/PGSD_700steps_2.log 1000065.14967 1000.06514967 0.0 1000000.0 0.0 376
