Policy Parameters:	-0.894169900495 1.4577113075
Control Steps:		1000
Start Time:		1438262786.0469818

-- TESTING STOPPED --

Stop Time:		1438262878.5904171
Duration:		92.5434353351593
Cost Matrix:
0.176324793194
0.0663530172487
0.0322160568662
0.0433930428138
0.0905869453174
0.0567251804952
0.120861470125
0.205282170973
0.227329910149
0.261835459059
0.341899941205
0.419327916951
0.431816866403
0.459187712976
0.508402921874
0.5712207402
0.629796437382
0.657258450262
0.782156546449
0.640902625494
0.648992177335
0.709241199798
0.618477257986
0.631768677567
0.58842707334
0.378734126806
0.381719702192
0.445756537055
0.315446081482
0.230541229823
0.0378120526534
0.0152537949961
0.0255481675975
0.0290590300964
0.0311574094225
0.0110847426911
0.0312868733115
0.0328864975541
0.0468024228982
0.0239245207584
0.0646859021037
0.0817077645733
0.00209466922892
0.0624359964022
0.0496235185449
0.0284587696415
0.0615811414086
0.0376879402762
0.0392257676107
0.0455277603189
0.0410519927243
0.041893277944
0.0516320320975
0.0525363537645
0.0314396898421
0.0353781739099
0.0612975334362
0.106628671614
0.143557221727
0.10814153839
0.02014421891
0.0119888975074
0.0763808775668
0.0814776750088
0.0733508952164
0.0601083369867
0.0998660698425
0.086762487818
0.0420848722559
0.0290580665877
0.0281084581696
0.00494482083083
0.0419046665934
0.0386441067531
0.034722014436
0.0264847699351
0.0594453568088
0.0740957002468
0.0902519923076
0.0999586556332
0.102120626821
0.102519062486
0.117682814451
0.120870491306
0.123929207055
0.138952429857
0.164708237724
0.164470293157
0.157592733479
0.116252151454
0.0909758398916
0.162255320733
0.173657567379
0.166329638171
0.169350934605
0.145029507289
0.119484169865
0.117481877711
0.115678607656
0.0936715233741
0.0761027623564
0.0469337865861
0.0341683198732
0.0368486849569
0.0868336052129
0.113890567401
0.0513225729147
0.0776993106123
0.169415032725
0.187042800985
0.213358357858
0.176886986859
0.152918628892
0.174596091112
0.188125655585
0.24489963987
0.214567763476
0.0746380164992
0.017659671434
0.0413422419691
0.0317761025115
0.0691645916199
0.131618941868
0.172162285929
0.114776646039
0.00073737032418
0.0241842233806
0.0547822293589
0.0373655010495
0.0644734756358
0.0805800753258
0.0664418628627
0.0528584382545
0.0846068622105
0.101689746652
0.010835565666
0.0325147618886
0.0681600471351
0.0326996848974
0.0476114897727
0.0635907750196
0.128854684386
0.159122665298
0.135784259529
0.096493850387
0.0781256256619
0.14900186796
0.186676818381
0.171836476108
0.202391293481
0.165683473614
0.19418154523
0.203093339622
0.298532566937
0.388814969077
0.44004028873
0.572477826051
0.73829703548
0.773090017927
0.863034221842
0.92456434837
1.01240789718
0.839745808157
1.18027219796
1.12044040411
0.942440106173
1.09268748266
1.32533787406
1.04101265933
0.226828468063
0.353542877501
0.271738880066
0.0341627819185
0.0359735972098
0.0487725839402
0.0516864473424
0.0441364383895
0.023417857051
0.0358379019549
0.0145494322067
0.00645241309325
0.0297584247112
0.0555595662084
0.110039380403
0.143045750239
0.163250203894
0.0575545387691
0.122036559556
0.143977264228
0.0797563771876
0.118310279106
0.184229847222
0.179351640275
0.183702511515
0.180899116662
0.227624718432
0.252811445259
0.282683441939
0.381690052389
0.503492772404
0.505746332157
0.519428021015
0.53028597062
0.551420142412
0.570142063076
0.581144202077
0.617914974961
0.629471582163
0.606474308011
0.564900509864
0.527715893589
0.349454651544
0.321232209939
0.0611952315737
0.029985945001
0.0285088810786
0.0381388106134
0.00781129983251
0.0121052686367
0.0223441663371
0.0465100471615
0.0127255632948
0.0754043050176
0.0707505730531
0.0184309311538
0.0431608545276
0.0253381847021
0.0257782892916
0.0755142267101
0.0756897047774
0.0509544062803
0.044441246856
0.0526569916519
0.115586156373
0.169090913654
0.201210202903
0.236827887936
0.333091056193
0.438993199236
0.538232058722
0.632958854693
0.65727672043
0.83942073749
0.977129433576
0.637480059466
0.677773595794
0.706801925389
0.830104980011
1.0429835626
1.02062291436
0.907988245345
1.00373427439
0.758733940285
0.49196772877
0.490405641402
0.330585287875
0.0357690381247
0.0468312353873
0.0935534084354
0.107380417026
0.102040966018
0.0841558105111
0.0569754841698
0.115698610667
0.116772735181
0.0893210955205
0.0906742283094
0.112654374182
0.143880976302
0.197011281835
0.25412620871
0.297972140353
0.345414904456
0.379873985168
0.362458611371
0.329188858511
0.344673696489
0.371513032366
0.365171060361
0.396930595264
0.4139895042
0.35231806165
0.350224207223
0.365811746683
0.342265932494
0.302969233293
0.246811015155
0.0983337909599
0.0895922032542
0.031238148799
0.028840538905
0.0475127180625
0.10419508903
0.0197800765765
0.0299808059235
0.0470207104404
0.0322736190615
0.0371642603338
0.0329988550048
0.030019306315
0.0354869348923
0.0302462318137
0.0180746787149
0.0412868900714
0.0764640175377
0.107012840256
0.0997336225232
0.0805184501851
0.039945541641
0.0387253655699
0.0272097475534
0.0235304062169
0.0264261567459
0.0597723095771
0.0671405010454
0.0736210123621
0.0480815044832
0.0595823842197
0.0841294914222
0.118151148325
0.0706356162476
0.0332676690066
0.0731481087246
0.0944391226452
0.097741930106
0.108364235461
0.144705180151
0.166099560268
0.171460773861
0.140582362718
0.153329371709
0.213524319595
0.199936449336
0.203325801642
0.2430006814
0.299007376402
0.313546792357
0.297817019599
0.228599428151
0.189429985967
0.212908302301
0.281015842007
0.306784924997
0.285469784421
0.222381691238
0.221065568026
0.218825666577
0.152977179269
0.160440958115
0.125825036771
0.159768970351
0.188278923574
0.100608460517
0.0782996907515
0.0424852175098
0.0390617678151
0.0360180300129
0.0636472987439
0.0276938095683
0.0217601290734
0.0115687562058
0.0402626966898
0.081606615977
0.0951760984167
0.0694633928053
0.0225443941633
0.0612608801793
0.0382625141054
0.00956512623229
0.0338546383754
0.0475271237305
0.0408835815784
0.0151167048427
0.00692639162255
0.0401330181516
0.0302773010454
0.0766588239994
0.100783754599
0.125775131155
0.154288219377
0.19573264297
0.222546934523
0.227873117587
0.26259025774
0.308486731185
0.357052959023
0.368067162431
0.388708432259
0.420133956972
0.450569941556
0.478345049534
0.500312751836
0.537838325701
0.561099202555
0.543253020516
0.549915911836
0.498219734648
0.449108433363
0.361102865644
0.263766547548
0.246907232381
0.198250857051
0.141452264829
0.071605619681
0.0116157862132
0.0554856462549
0.115026487341
0.0901440289574
0.050484672848
0.0942052625607
0.0907887161253
0.087952986982
0.0274102867188
0.0124297129872
0.0411584897545
0.0302573656088
0.0203231537402
0.0147230869346
0.0168079654967
0.0384621318081
0.0359490411576
0.0366149848405
0.0349506540385
0.0528627165297
0.0795707045017
0.0861570672082
0.0875770191855
0.10834381525
0.113463807593
0.11669708675
0.121970658893
0.12059514292
0.12310148064
0.128667752053
0.12528880673
0.123720640382
0.134527306052
0.143460478382
0.141034639269
0.141269876256
0.142548470576
0.143337178434
0.147693743415
0.151139023731
0.153659823474
0.150312706873
0.151407468858
0.159310948385
0.159935419952
0.162471822516
0.165878948757
0.167502187442
0.174137892208
0.184439211644
0.187823157921
0.182438880381
0.182572858225
0.190866857867
0.204448900816
0.209870020758
0.203648338761
0.210425196617
0.217591812691
0.223309522022
0.228882410649
0.219762462816
0.21448929296
0.221953199714
0.243516429487
0.246542680435
0.242235786585
0.263188879281
0.289223159774
0.299248869381
0.292617195054
0.288139945492
0.316030381984
0.330822021529
0.323100331448
0.327658006334
0.356197369712
0.371768544929
0.372173106989
0.377005254468
0.385947263887
0.400383646802
0.395305789118
0.39792290059
0.427400916476
0.446890541884
0.47052427621
0.519905593687
0.548075341377
0.542668329273
0.537076200497
0.554590382149
0.537177277185
0.580286017399
0.652885028715
0.771773244196
0.779979246401
0.548312439612
0.534157088652
0.537391492934
0.676112953313
0.813836481936
0.736440270842
0.731679289991
0.857276629244
0.62659079314
0.581340696733
0.527165194347
0.470904992502
0.662161855562
1.03958650954
1.23401949433
0.592898962221
1.34161234156
1.733444832
0.526793388797
0.603294941173
0.522723987886
0.531257228371
0.53491061397
0.525321178832
0.484531149554
0.423582602676
0.468493841125
0.509210135247
0.474626508284
0.455893220025
0.446756999384
0.430503408401
0.46636089405
0.429353315859
0.367231208193
0.36122941087
0.336292278412
0.31276061509
0.316918418846
0.31264354618
0.298717410081
0.289721038238
0.282165006549
0.265974015918
0.259907430517
0.267665201291
0.263365407175
0.255863367816
0.241249407982
0.232009690786
0.229347980666
0.221575760959
0.206268867311
0.192978989696
0.19127019618
0.178258509105
0.162349199262
0.157355270223
0.161281834187
0.152472465733
0.13040967514
0.108437067243
0.0992646995698
0.0912419113145
0.0720254528114
0.0543035236399
0.0772740405755
0.0633239354677
0.0575129669927
0.0570663741179
0.0593339057974
0.073291196233
0.0642371326926
0.0813519586779
0.107423504741
0.104634762988
0.102341898195
0.104193397772
0.0932601699732
0.0883259571037
0.0801819595871
0.0854261996284
0.0906597023276
0.154910971394
0.145824459016
0.106094289711
0.105898484191
0.107974762213
0.129497089085
0.204058453321
0.293507114015
0.431842257797
0.752085771515
1.41571189982
1.62550410201
1.04329800189
0.437592989032
0.268642299399
0.0749156656411
0.0745346014804
1000000.0
0.0
0.0
0.0
0.0
0.0
0.0
0.0
0.0
0.0
0.0
0.0
0.0
0.0
0.0
0.0
0.0
0.0
0.0
0.0
0.0
0.0
0.0
0.0
0.0
0.0
0.0
0.0
0.0
0.0
0.0
0.0
0.0
0.0
0.0
0.0
0.0
0.0
0.0
0.0
0.0
0.0
0.0
0.0
0.0
0.0
0.0
0.0
0.0
0.0
0.0
0.0
0.0
0.0
0.0
0.0
0.0
0.0
0.0
0.0
0.0
0.0
0.0
0.0
0.0
0.0
0.0
0.0
0.0
0.0
0.0
0.0
0.0
0.0
0.0
0.0
0.0
0.0
0.0
0.0
0.0
0.0
0.0
0.0
0.0
0.0
0.0
0.0
0.0
0.0
0.0
0.0
0.0
0.0
0.0
0.0
0.0
0.0
0.0
0.0
0.0
0.0
0.0
0.0
0.0
0.0
0.0
0.0
0.0
0.0
0.0
0.0
0.0
0.0
0.0
0.0
0.0
0.0
0.0
0.0
0.0
0.0
0.0
0.0
0.0
0.0
0.0
0.0
0.0
0.0
0.0
0.0
0.0
0.0
0.0
0.0
0.0
0.0
0.0
0.0
0.0
0.0
0.0
0.0
0.0
0.0
0.0
0.0
0.0
0.0
0.0
0.0
0.0
0.0
0.0
0.0
0.0
0.0
0.0
0.0
0.0
0.0
0.0
0.0
0.0
0.0
0.0
0.0
0.0
0.0
0.0
0.0
0.0
0.0
0.0
0.0
0.0
0.0
0.0
0.0
0.0
0.0
0.0
0.0
0.0
0.0
0.0
0.0
0.0
0.0
0.0
0.0
0.0
0.0
0.0
0.0
0.0
0.0
0.0
0.0
0.0
0.0
0.0
0.0
0.0
0.0
0.0
0.0
0.0
0.0
0.0
0.0
0.0
0.0
0.0
0.0
0.0
0.0
0.0
0.0
0.0
0.0
0.0
0.0
0.0
0.0
0.0
0.0
0.0
0.0
0.0
0.0
0.0
0.0
0.0
0.0
0.0
0.0
0.0
0.0
0.0
0.0
0.0
0.0
0.0
0.0
0.0
0.0
0.0
0.0
0.0
0.0
0.0
0.0
0.0
0.0
0.0
0.0
0.0
0.0
0.0
0.0
0.0
0.0
0.0
0.0
0.0
0.0
0.0
0.0
0.0
0.0
0.0
0.0
0.0
0.0
0.0
0.0
0.0
0.0
0.0
0.0
0.0
0.0
0.0
0.0
0.0
0.0
0.0
0.0
0.0
0.0
0.0
0.0
0.0
0.0
0.0
0.0
0.0
0.0
0.0
0.0
0.0
0.0
0.0
0.0
0.0
0.0
0.0
0.0
0.0
0.0
0.0
0.0
0.0
0.0
0.0
0.0
0.0
0.0
0.0
0.0
0.0
0.0
0.0
0.0
0.0
0.0
0.0
0.0
0.0
0.0
0.0
0.0
0.0
0.0
0.0
0.0
0.0
0.0
0.0
0.0
0.0
0.0
0.0
0.0
0.0
0.0
0.0
0.0
0.0
0.0
0.0
0.0
0.0
0.0
0.0
0.0
0.0
0.0
0.0
0.0
0.0
0.0
0.0
0.0
0.0
0.0
0.0
0.0
0.0
0.0
0.0
0.0
0.0
0.0
0.0
0.0
0.0
0.0
0.0
0.0
0.0
0.0
0.0
0.0
0.0
0.0
0.0
0.0
0.0
0.0
0.0
0.0
0.0
0.0
0.0
0.0
0.0
logs/alpha_0.8/PGSD_300steps_0.log 1000147.12788 1000.14712788 0.0422850448829 1000000.0 0.0 601
