Policy Parameters:	-1.55105958864 1.15546550185
Control Steps:		1000
Start Time:		1438278459.773845

-- TESTING STOPPED --

Stop Time:		1438278513.2536788
Duration:		53.47983384132385
Cost Matrix:
0.0221247080596
0.0579321530603
0.0989338611407
0.0213969006897
0.0362880845336
0.0919000995909
0.113570954516
0.0834691742021
0.0781149410163
0.101666955239
0.108590611023
0.0927607484291
0.0804626784334
0.045002197893
0.0438609445082
0.0906792066349
0.155126219778
0.370903191405
0.415780405989
0.20328731291
0.199543499074
0.179234170014
0.213535188648
0.299786396883
0.316024642086
0.265682328734
0.205625112915
0.213918402944
0.240754311672
0.280060973948
0.311840834674
0.265541751676
0.224699002689
0.26713131521
0.238925275193
0.210474349237
0.192201439268
0.158916246241
0.15827200332
0.165798574221
0.0938995043819
0.0271865862683
0.060258091333
0.0931340656007
0.131208518557
0.155102070518
0.0595584136165
0.0849042422117
0.0671587204517
0.023271211398
0.022772314533
0.025899202904
0.0359997728166
0.0587858775886
0.049761602481
0.0135245045129
0.0134616662745
0.0612213602126
0.0641894895667
0.0266811532962
0.0603232052123
0.0596560371098
0.0222492071063
0.0971514284218
0.166890128209
0.210643479396
0.22541315103
0.235488982604
0.286255221709
0.31092468163
0.289948071864
0.266402589043
0.261456756831
0.254447133288
0.276113932034
0.290957293185
0.292659791309
0.316935722137
0.303885169008
0.271533002614
0.276187347424
0.288202162175
0.287590543808
0.220682556706
0.140751809876
0.042855911548
0.0228828266108
0.0115714616999
0.0872126240911
0.205992832781
0.252476231474
0.164636620708
0.183285180947
0.168112123991
0.142919554764
0.106362231396
0.106804627655
0.105624042952
0.100609659367
0.083549851425
0.0732430702361
0.112968134707
0.0191170094196
0.0157219639065
0.00965369478517
0.0444856036069
0.0348231554243
0.0964670906093
0.145738859891
0.134538899439
0.141164160836
0.173122051763
0.178281472808
0.166759293446
0.156917220872
0.18760582005
0.223428903381
0.231867774878
0.235052661276
0.274414389302
0.288456805932
0.267578262814
0.291660900357
0.300898738238
0.32608261877
0.331060715373
0.299286684371
0.312527181909
0.320121660953
0.314812958597
0.285505540219
0.224606143402
0.214690345221
0.181345662933
0.0578467806619
0.0774422838232
0.100382871186
0.0489775931039
0.0532686479199
0.0497121846582
0.0442148069756
0.0212878807705
0.0263751762627
0.0649698435543
0.0969987948361
0.103646730908
0.102458577853
0.0756267911537
0.0642514125509
0.0498066622469
0.0765432508565
0.0950180116296
0.0603852968908
0.0626904188993
0.12546804461
0.131409934023
0.0226074718015
0.0331681336516
0.111477459274
0.172973905942
0.121222280223
0.0852359997102
0.100412464139
0.0390948922403
0.0990994531839
0.130291230443
0.0840812209767
0.0855943856734
0.0387617434742
0.10164639127
0.137587092947
0.108278360137
0.0885664244139
0.082834879982
0.115966348283
0.167551105909
0.195570872079
0.0785175153182
0.0237819087319
0.0415749671183
0.0744125009978
0.0790068870946
0.0774444937949
0.0875098749617
0.156582324494
0.0816628594108
0.0620122661673
0.0522755920289
0.0396735980516
0.0746695477527
0.0948002246211
0.0709377128845
0.0956667419952
0.131963298029
0.170285035364
0.21389618406
0.220684375824
0.254736576379
0.387063844416
0.605390074515
0.828877488705
0.923797158039
0.896006618612
0.907985856811
1.20887843423
1.16425370533
1.11121245096
1.22607767411
1.12821015881
1.11237426885
1.08251440456
1.21096249518
1.11504367492
0.744999386442
0.520089899133
0.161017664235
0.0943150915928
0.124488437693
0.109922973762
0.0894414378895
0.0778031329328
0.0689365354818
0.0649765185261
0.0257048291047
0.0702964391077
0.118432568185
0.146643676826
0.163242071938
0.181715120821
0.199202085324
0.211770933229
0.226358323075
0.232409217985
0.242863654509
0.250782425413
0.253576180212
0.256641438503
0.278525712691
0.325488080304
0.351461354126
0.329139634989
0.312263389234
0.309158408683
0.259796514262
0.27141096599
0.286505805511
0.248838150739
0.210821233285
0.227573133852
0.242891481809
0.173492535411
0.0994508939732
0.0218573034876
0.0134712718263
0.042227728878
0.0520827728625
0.0198667465322
0.0409924806245
0.040675721751
0.0945070680617
0.127026290755
0.113160098368
0.0942936892301
0.118216067953
0.148697591372
0.120656815958
0.0588894513497
0.0471680848073
0.0202394527321
0.0482255863052
0.0263697488753
0.0404839073193
0.0540670029124
0.0709095443926
0.0429315814404
0.0158412432297
0.0301626717053
0.0332156303112
0.0717244765553
0.123910320967
0.158312217464
0.174516980131
0.189870691352
0.215448999688
0.295568201455
0.344942549986
0.422121135189
0.504348933085
0.556001921062
0.592091141206
0.628867002567
0.689118414669
0.697011395513
0.688309590179
0.658518823504
0.884101904205
0.60701384901
0.696570797461
0.443648116544
0.330475535603
0.0805410173361
0.0919114186866
0.0455057950289
0.0244585748388
0.0553570763951
0.0815882838506
0.0403108986594
0.0189730870379
0.0129907441366
0.0435967677961
0.106014362903
0.109834199434
0.0588035466927
0.0244064631525
0.0914937421438
0.127316750841
0.0942037633516
0.0691775387503
0.1100313049
0.0256073263543
0.0510597392811
0.00785062553376
0.0635536380637
0.0757012835825
0.0375116097568
0.0606188598879
0.042455944984
0.0675762430456
0.118400571052
0.122889949994
0.119575087196
0.135809993344
0.147452954823
0.124820286244
0.125819406642
0.152577340956
0.138232958987
0.134660403488
0.164982014301
0.21893955175
0.261003822152
0.316572401761
0.431950902914
0.556067861662
0.762422024091
1.11879348589
0.818826659995
0.147555412313
0.136845696583
0.0570695067052
0.0385356824824
0.0266550486845
0.0778225899857
0.208548454284
1000000.0
0.0
0.0
0.0
0.0
0.0
0.0
0.0
0.0
0.0
0.0
0.0
0.0
0.0
0.0
0.0
0.0
0.0
0.0
0.0
0.0
0.0
0.0
0.0
0.0
0.0
0.0
0.0
0.0
0.0
0.0
0.0
0.0
0.0
0.0
0.0
0.0
0.0
0.0
0.0
0.0
0.0
0.0
0.0
0.0
0.0
0.0
0.0
0.0
0.0
0.0
0.0
0.0
0.0
0.0
0.0
0.0
0.0
0.0
0.0
0.0
0.0
0.0
0.0
0.0
0.0
0.0
0.0
0.0
0.0
0.0
0.0
0.0
0.0
0.0
0.0
0.0
0.0
0.0
0.0
0.0
0.0
0.0
0.0
0.0
0.0
0.0
0.0
0.0
0.0
0.0
0.0
0.0
0.0
0.0
0.0
0.0
0.0
0.0
0.0
0.0
0.0
0.0
0.0
0.0
0.0
0.0
0.0
0.0
0.0
0.0
0.0
0.0
0.0
0.0
0.0
0.0
0.0
0.0
0.0
0.0
0.0
0.0
0.0
0.0
0.0
0.0
0.0
0.0
0.0
0.0
0.0
0.0
0.0
0.0
0.0
0.0
0.0
0.0
0.0
0.0
0.0
0.0
0.0
0.0
0.0
0.0
0.0
0.0
0.0
0.0
0.0
0.0
0.0
0.0
0.0
0.0
0.0
0.0
0.0
0.0
0.0
0.0
0.0
0.0
0.0
0.0
0.0
0.0
0.0
0.0
0.0
0.0
0.0
0.0
0.0
0.0
0.0
0.0
0.0
0.0
0.0
0.0
0.0
0.0
0.0
0.0
0.0
0.0
0.0
0.0
0.0
0.0
0.0
0.0
0.0
0.0
0.0
0.0
0.0
0.0
0.0
0.0
0.0
0.0
0.0
0.0
0.0
0.0
0.0
0.0
0.0
0.0
0.0
0.0
0.0
0.0
0.0
0.0
0.0
0.0
0.0
0.0
0.0
0.0
0.0
0.0
0.0
0.0
0.0
0.0
0.0
0.0
0.0
0.0
0.0
0.0
0.0
0.0
0.0
0.0
0.0
0.0
0.0
0.0
0.0
0.0
0.0
0.0
0.0
0.0
0.0
0.0
0.0
0.0
0.0
0.0
0.0
0.0
0.0
0.0
0.0
0.0
0.0
0.0
0.0
0.0
0.0
0.0
0.0
0.0
0.0
0.0
0.0
0.0
0.0
0.0
0.0
0.0
0.0
0.0
0.0
0.0
0.0
0.0
0.0
0.0
0.0
0.0
0.0
0.0
0.0
0.0
0.0
0.0
0.0
0.0
0.0
0.0
0.0
0.0
0.0
0.0
0.0
0.0
0.0
0.0
0.0
0.0
0.0
0.0
0.0
0.0
0.0
0.0
0.0
0.0
0.0
0.0
0.0
0.0
0.0
0.0
0.0
0.0
0.0
0.0
0.0
0.0
0.0
0.0
0.0
0.0
0.0
0.0
0.0
0.0
0.0
0.0
0.0
0.0
0.0
0.0
0.0
0.0
0.0
0.0
0.0
0.0
0.0
0.0
0.0
0.0
0.0
0.0
0.0
0.0
0.0
0.0
0.0
0.0
0.0
0.0
0.0
0.0
0.0
0.0
0.0
0.0
0.0
0.0
0.0
0.0
0.0
0.0
0.0
0.0
0.0
0.0
0.0
0.0
0.0
0.0
0.0
0.0
0.0
0.0
0.0
0.0
0.0
0.0
0.0
0.0
0.0
0.0
0.0
0.0
0.0
0.0
0.0
0.0
0.0
0.0
0.0
0.0
0.0
0.0
0.0
0.0
0.0
0.0
0.0
0.0
0.0
0.0
0.0
0.0
0.0
0.0
0.0
0.0
0.0
0.0
0.0
0.0
0.0
0.0
0.0
0.0
0.0
0.0
0.0
0.0
0.0
0.0
0.0
0.0
0.0
0.0
0.0
0.0
0.0
0.0
0.0
0.0
0.0
0.0
0.0
0.0
0.0
0.0
0.0
0.0
0.0
0.0
0.0
0.0
0.0
0.0
0.0
0.0
0.0
0.0
0.0
0.0
0.0
0.0
0.0
0.0
0.0
0.0
0.0
0.0
0.0
0.0
0.0
0.0
0.0
0.0
0.0
0.0
0.0
0.0
0.0
0.0
0.0
0.0
0.0
0.0
0.0
0.0
0.0
0.0
0.0
0.0
0.0
0.0
0.0
0.0
0.0
0.0
0.0
0.0
0.0
0.0
0.0
0.0
0.0
0.0
0.0
0.0
0.0
0.0
0.0
0.0
0.0
0.0
0.0
0.0
0.0
0.0
0.0
0.0
0.0
0.0
0.0
0.0
0.0
0.0
0.0
0.0
0.0
0.0
0.0
0.0
0.0
0.0
0.0
0.0
0.0
0.0
0.0
0.0
0.0
0.0
0.0
0.0
0.0
0.0
0.0
0.0
0.0
0.0
0.0
0.0
0.0
0.0
0.0
0.0
0.0
0.0
0.0
0.0
0.0
0.0
0.0
0.0
0.0
0.0
0.0
0.0
0.0
0.0
0.0
0.0
0.0
0.0
0.0
0.0
0.0
0.0
0.0
0.0
0.0
0.0
0.0
0.0
0.0
0.0
0.0
0.0
0.0
0.0
0.0
0.0
0.0
0.0
0.0
0.0
0.0
0.0
0.0
0.0
0.0
0.0
0.0
0.0
0.0
0.0
0.0
0.0
0.0
0.0
0.0
0.0
0.0
0.0
0.0
0.0
0.0
0.0
0.0
0.0
0.0
0.0
0.0
0.0
0.0
0.0
0.0
0.0
0.0
0.0
0.0
0.0
0.0
0.0
0.0
0.0
0.0
0.0
0.0
0.0
0.0
0.0
0.0
logs/alpha_0.8/PGSD_1000steps_3.log 1000071.45345 1000.07145345 0.0 1000000.0 0.0 354
