Policy Parameters:	-4.57882518548 4.17780596703
Control Steps:		1000
Start Time:		1438506986.2356048

-- TESTING STOPPED --

Stop Time:		1438507170.6578562
Duration:		184.4222514629364
Cost Matrix:
0.162912763857
0.177992811368
0.108468998066
0.170986134106
0.0744884862352
0.18051132255
0.249718549846
0.114926386234
0.0557990305046
0.251443683862
0.347967065921
0.125960583231
0.316378103536
0.114280540539
0.323702560552
0.322800701971
0.370490397916
0.41932991465
0.401317232742
0.802040320568
0.882764529235
0.888745945702
0.771354950727
1.38222255257
1.39350174506
1.77771596472
1.75309119697
1.74636004453
0.652625835148
2.3837951439
0.373297781979
1.81903623636
0.936419651936
0.657406382836
0.723569433993
0.0976441068356
0.15652085069
0.17187642608
0.192394719535
0.0815594280916
0.0777930992008
0.346281611817
1.27089029524
0.677009839349
0.979216106395
0.758349573941
1.14910531342
0.468896537644
0.808895680035
0.526569789234
0.523585320877
0.929503807776
0.324417873303
0.126774499185
0.361425746445
0.11227604635
0.0231051283646
0.0933770457537
0.284584729287
0.284384685231
0.24965919152
0.295212408276
0.38964708246
0.303272857354
0.407632391481
0.570044359214
0.554379747006
0.936256492124
1.06467067572
1.15195171716
1.124543686
1.07307715695
1.23545470969
1.0475639268
0.974084988337
1.22758005012
0.39462094838
0.539524513754
0.79242423163
0.171726683416
0.324128452825
0.180479021356
0.183645095498
0.0606851593703
0.294017993529
0.294436925882
0.0279042782211
0.0418426129556
0.202195640598
0.274941163687
0.00418029622488
0.0825393441772
0.349287689654
0.382580826728
0.366309940785
0.0369362642144
0.128808224476
0.17646816411
0.234034791211
0.0543272754243
0.233800099613
0.346555677109
0.237457754879
0.305484514315
0.386825268591
0.459681327865
0.531530603914
0.623231434488
0.42097159491
0.728758473938
1.01233992635
0.472992020778
0.511923376285
0.55024556018
0.763068370911
0.379956840672
0.867033247809
0.427438663388
0.465047896064
0.818413876283
0.19379836242
0.240313414511
0.256610350038
0.0167740175998
0.0833601509319
0.240816257268
0.373312396026
0.307743634906
0.234272143054
0.232147589946
0.358552412115
0.38357856372
0.345952372498
0.107516188881
0.172706659419
0.27408414234
0.139127060311
0.121221163931
0.00293529292164
0.0447999780704
0.0864491962583
0.231754968142
0.290401138872
0.443150917071
0.388976823634
0.204285671473
0.243310219248
0.135121389306
0.115236890266
0.152007848238
0.380043379158
0.27518638455
0.802864107496
0.333692074187
0.416212282484
0.689118537013
0.674082842014
0.930391553014
0.741150242489
1.9420619919
1.43398734304
2.03871936034
1.42941384892
1.74601452655
1.4903544569
1.99906740981
1.54080977084
0.948308880697
0.402573509516
0.324715641644
0.147543430668
0.163414141016
0.515335591544
1.04501581568
0.441023556817
0.883172769315
0.888670109993
0.700140349015
0.989091312851
0.415991312876
0.329135440823
0.116945523217
0.159476644839
0.179554755272
0.259964338894
0.0221650642348
0.136606655957
0.313939872265
0.268157840044
0.3231781095
0.367095645201
0.138767966576
0.207724207445
0.139946717777
0.0974372653401
0.137512986121
0.233821660411
0.11195403741
0.0931713938914
0.00419564745046
0.072000271938
0.315086147826
0.212527440149
0.116504808792
0.140321541185
0.0641523326512
0.0948411673999
0.10375891072
0.246767136243
0.160766667565
0.124823838304
0.187986110744
0.269820076096
0.24361763936
0.427550572147
0.282560846414
0.0543174319512
0.257646215457
0.0931041681793
0.246453244324
0.327806940467
0.121414490958
0.215196752045
0.24556243543
0.325072615763
0.565302937634
2.07192964615
0.386522900718
1.0836846374
0.873400933196
1.04821548225
1.04582765975
0.90661292107
0.856072690722
0.895474777083
0.604981892562
0.855902192444
0.504451076133
0.418053840426
0.342623891973
0.326860384105
0.34639121202
0.104754801642
0.220225737494
0.169513228959
0.0917532274456
0.273837318355
0.273406436596
0.350785791178
0.22708775013
0.183742766943
0.162272297439
0.275813821976
0.107948049659
0.0393872041545
0.101774523698
0.0277865271733
0.150622601277
0.274775101877
0.0484220607422
0.187144932218
0.136224529785
0.0768050163585
0.128350490889
0.193736933374
0.253114078961
0.452144102208
0.282754086581
0.102869861475
0.215191048442
0.45002202223
0.299240688897
0.379527609711
0.457140118544
0.705198529662
0.775283790057
0.917584970435
1.00815604002
0.977907086682
0.926875070119
1.05017582652
0.75452909668
1.18694083899
0.809321491465
0.920082293637
0.296208528206
0.485752178082
0.870010453899
0.0346691606014
0.075402955872
0.194586005433
0.319719466513
0.241761932768
0.136404211618
0.255052801947
0.399575010001
0.396950760337
0.424969369482
0.507388527645
0.384086192313
0.574888992598
0.495493434844
0.922089667398
0.52713589971
0.662996844209
0.412115789404
0.842481754319
0.505205234691
0.364260906157
0.408216809046
0.433175269487
0.18434212633
0.352977690129
0.19569231681
0.315052397952
0.0274323188059
0.147171882349
0.110476878134
0.18340855779
0.0443196174802
0.0920743989208
0.0342234547988
0.129111761353
0.200293868114
0.125572833804
0.150268873746
0.0785764703317
0.131427427238
0.35479521398
0.321033099321
0.0414813950479
0.174184504521
0.272672623027
0.095511464837
0.448691216809
0.131134036502
0.151456473975
0.176190845127
0.0789337201154
0.139284173899
0.00505273840463
0.0198387658492
0.0299514024576
0.117633864462
0.257453763317
0.119587617928
0.228591541388
0.273163971356
0.309075762364
0.187571905828
0.0431086054719
0.130822775934
0.246205608591
0.16298505526
0.134492089482
0.0349851731828
0.0563876787004
0.287247888711
0.206037181615
0.363803617087
0.538008590864
1.07879134967
0.525793579103
1.16454676261
1.78487012513
1.99327114308
0.582950231304
2.7565118714
1.29138869673
1.91801007903
1.48306684963
1.33013215397
0.607116368148
0.355466668778
0.365461380562
0.53012577611
0.457758300168
0.563676749265
0.417807282665
0.519349449245
0.320918100784
0.474145491689
0.251542533768
0.187335333059
0.104569210901
0.232221875101
0.123158767062
0.19428384306
0.291861635384
0.255935032518
0.0591830576288
0.0907434370826
0.227103242225
0.201097713102
0.142180294632
0.0921400840586
0.176891557944
0.389038057068
0.245347944463
0.475467661888
0.286096128188
0.138504405207
0.269445634363
0.360884827248
0.442358984936
0.462958047881
0.531361562459
0.511494662774
0.880383441609
0.559808645789
1.17257887243
0.461095573476
0.851895285913
0.726177907108
1.0715391202
1.01719776935
0.352214616089
0.703985149951
0.547543050011
0.775520448679
0.105260040342
0.316818821649
0.0238784548313
0.0795473439264
0.0487288830296
0.111686379326
0.0180771435857
0.0931760992509
0.0145527830402
0.0436418323243
0.0681337104867
0.285554574511
0.0863369098309
0.125817006221
0.304238348137
0.254112469896
0.42989102284
0.306834829181
0.281229576735
0.43429553049
0.322665911403
0.370136446698
0.331361504742
0.342591950693
0.442827586421
0.507156486774
0.947316360242
0.474668824466
0.679166995987
0.651366280951
0.519478632618
0.962093512917
0.483002411198
0.623034310796
0.362428795324
0.455703976028
0.336446337553
0.477463998764
0.51748809336
0.297930090362
0.27732350131
0.242031105537
0.279918023477
0.282345789623
0.126926008995
0.325673890279
0.291756059268
0.0566715993302
0.192269196409
0.320997689671
0.256055550662
0.304335599244
0.188115632895
0.0898115109771
0.268097009608
0.212581473358
0.032651188449
0.113834731953
0.200903110626
0.139236489764
0.0750439607936
0.127294024951
0.150568765637
0.115718390772
0.0869631724379
0.148819952708
0.305218921375
0.299109186626
0.284910592759
0.340547069221
0.335217081153
0.356446908694
0.485458471712
1.02810744221
0.788248286727
1.18894647184
1.30705585717
1.34358884379
1.30411343569
1.38576833529
1.24179177871
1.37527919281
1.39511423341
1.078092943
0.995806811649
2.41833605821
1.00906447474
0.174240839682
0.292518354711
0.313689753898
0.304445303979
0.312174521651
0.32335646644
0.32895295538
0.326791663861
0.322607760958
0.320030276255
0.332967058738
0.36693852258
0.349399762249
0.345834194246
0.336211992786
0.336648973952
0.363641831242
0.363341265678
0.369945501083
0.379621707239
0.427738538477
0.430227682585
0.403624592743
0.426825009543
0.431712765881
0.447764874037
0.477159567682
0.439048513264
0.327549539549
0.338859091947
2.07279250035
1.66192470545
1.88635371111
1.552306102
1.52953948272
1.09466209071
1.07471524877
0.776921993799
0.250121784119
0.275768826843
0.291566064493
0.304361472912
0.321907223473
0.352146173159
0.382772664158
0.360230193623
0.412365367005
0.467820703674
0.494651452434
0.540850342177
0.574998347132
0.55069982472
0.817950483531
0.673785950933
0.891099036728
0.748636684353
0.973280390816
0.970586682078
1.08795529534
1.1219967801
1.31832382058
1.25254229293
1.50849516654
1.78951528513
1.2188127021
1.59805485014
1.45787608484
1.79426119047
1.97925167296
1.70235992842
1.55864197408
1.57405173286
1.93062842443
1.80237676576
2.12961503059
1.82299071971
1.6601748512
2.03511239716
1.55180143156
1.90191362565
1.13520356765
2.0097395064
1.97157094159
1.05281127262
1.44769572997
1.16365118127
1.08783684857
0.973177344666
0.906137818671
0.778711728974
0.857282536477
0.523867339456
0.710518842826
0.339713566729
0.45691709272
0.57856013791
0.329480593121
0.507300113166
0.41310730643
0.293421927002
0.279912466155
0.274456948688
0.219164943404
0.150090645665
0.182417922503
0.142844200629
0.187443114817
0.179734299497
0.311004155592
0.366423619855
0.123017180842
0.0937015244875
0.109053804961
0.0877839883581
0.100992280409
0.097686760444
0.0659651651536
0.0551077290979
0.127526307717
0.0818026215732
0.149897572162
0.116394101797
0.158675957462
0.113815071104
0.157605212459
0.145785282921
0.458951750475
0.0814571720646
0.00763874148138
0.0468955992833
0.141254338169
0.0245284133174
0.102331548386
0.0741379917797
0.162334278797
0.0844971617225
0.12279665702
0.395348886824
0.13073239556
0.0937743136735
0.163731721817
0.293458056297
0.0933190779034
0.215384680683
0.148782317581
0.232866267713
0.286623683475
0.257442811538
0.145851128249
0.198117426647
0.0727441591149
0.109404993775
0.0404867846814
0.0189277440663
0.0473189354132
0.146024153153
0.0361173547625
0.0954643528002
0.139167706761
0.130706405677
0.218979733274
0.367249889193
0.0548921449049
0.085826275435
0.0626810016574
0.106705639236
0.0681379038895
0.0256015849624
0.0989836464458
0.0664231173966
0.245686205673
0.0249176439954
0.108425198014
0.145810709977
0.270205547056
0.0853717013037
0.187473370354
0.0270148126107
0.139128514985
0.212026338008
0.055682850026
0.16505754011
0.432456962515
0.187135383074
0.116905424309
0.241120194397
0.0342531933264
0.118000295874
0.26237203108
0.141554741545
0.290202290207
0.231442523343
0.438801397963
0.438446488801
0.458662979998
0.0980226812653
0.31684893615
0.488910611826
0.328133279632
0.685085011873
0.376108364478
0.384487484017
0.530231385889
0.536408316772
0.856044282001
0.315210483474
0.577559548095
0.416824813284
2.4418668471
1.7369940488
0.0
0.0204340811765
0.0531743760397
0.151679600041
0.0301072609253
0.135488592485
0.201549531374
0.211487134489
0.233907495887
0.307414516199
0.231608535023
0.279522425376
0.219885025956
0.217526194042
0.278267763165
0.188778017305
0.301779939152
0.190789209592
0.199266178254
0.148636557462
0.279538184912
0.249249605476
0.181528731771
0.175619658676
0.152815809346
0.144669798985
0.290706835062
0.27082864942
0.11275126636
0.158272580208
0.113829415375
0.114503583241
0.134091919582
0.396177463536
0.273067371381
0.205312219249
0.263844325462
0.149847572524
0.140764445226
0.229479935966
0.313395669895
0.337925998797
0.14844236695
0.313873831078
0.175797994413
0.387837598687
0.372092229574
0.354990207544
0.312381012144
0.447502384115
0.763323009071
0.396136705946
0.556749898698
1.15883846309
0.613005161979
1.12089046637
0.669327927885
0.908511075338
0.693448302326
1.01796294589
0.482545463547
0.841157572959
0.575824856764
0.436298696177
0.412325054669
0.203871969485
0.278157883102
0.103619819047
0.162513163969
0.179504493356
0.153768694155
0.184213008464
0.207326272709
0.241071532591
0.191343661424
0.144271154229
0.219692776119
0.224515672472
0.226121054917
0.139748119993
0.171649848002
0.15241579651
0.147798096704
0.237342736224
0.260666802195
0.194135409444
0.18554216166
0.0874101980861
0.332091058637
0.75317883102
0.755834009086
1.26004893545
1.65695912765
0.924891853751
1.41516538668
1.28315671891
0.793052340132
1.31515191769
1.20263345967
0.898768965296
0.82148218862
0.926802236415
0.191327529945
0.29534689614
0.310532856842
0.220635781149
0.310292364559
0.262017333792
0.249862714708
0.32587549646
0.31430617841
0.304525425837
0.319164380769
0.304028533487
0.295403309355
0.349433045256
0.355378173279
0.372211708513
0.401396786298
0.371506279635
0.472484937385
0.444162448655
0.4765809069
0.518022572071
0.513040742746
0.662490713519
0.542546315711
0.967924562488
0.53258327372
0.961383767825
0.584641706324
1.04838350584
0.692194779659
1.07204947698
0.622713945727
1.27486334918
0.559086017989
1.51481547202
0.594473832021
1.63385169451
0.743202361171
1.46938312932
0.889785122695
1.39682135655
1.19837453654
1.12428989107
1.27061081744
1.2721268842
1.56017039355
1.30490095828
1.26818162253
1.51577702505
1.29124458195
1.60067013154
1.32716663546
1.55580151617
1.4967244181
1.41808354458
1.39351024157
2.59928923653
0.566339924423
1.80440014568
0.605264686094
1.49331439164
0.795731852899
1.15854508525
0.829810900895
0.818795058247
0.935209600018
0.750456729249
0.788764663782
0.546217510402
0.812706051684
0.489838235162
0.84072752621
0.563263511304
0.899256597242
0.544728874946
0.864638432629
0.54926248936
0.972935558572
0.605382701292
1.13857556945
0.750618304981
0.888116673916
0.910100284949
0.919021924001
0.948147259207
1.10624301295
0.873435121302
1.20709638143
0.95141678421
1.18561010631
1.03855660665
1.15514311817
1.10863148538
1.08232684007
1.22303343045
1.02834405075
1.2617032806
1.06891210414
1.21311621682
1.25402672084
1.02457261925
1.27607392579
0.983020228752
1.27707687086
0.91927863489
1.2503737057
0.810504059603
1.27876853622
0.784879791824
1.15395691422
0.905921845895
0.98325510049
0.824902916207
0.909834239722
0.667679334934
0.919449542666
0.538409734959
1.01038294356
0.484773710246
0.74518105767
0.536300416287
0.584525169747
0.466423795308
0.460618996453
0.448885262612
0.363426270567
0.343453062698
0.443503268267
0.290333791197
0.34972944862
0.362401206422
0.360439610005
0.268464077527
0.347997375682
0.209792977346
0.270673901602
0.253913464653
0.29006446212
0.261646650322
0.185476655342
0.148529637325
0.123567173349
0.162340096575
0.231480148717
0.185177117837
0.21268156964
0.27688203606
0.151517987136
0.0851963418634
0.115162366607
0.0736579510521
0.0140970129992
0.0784869028399
0.252858845121
0.0127762067403
0.0696891138103
0.206794256028
0.22161182883
0.143477293758
0.19684765545
0.364456102453
0.321991260826
0.150618126409
0.112609357398
0.221263654692
0.377863738525
0.133381498564
0.200351224962
0.217750285354
0.397926303403
0.386727033085
0.309465016022
0.509704411749
0.427832262467
0.19274169667
0.022971558289
0.0887403910105
0.0155818802676
0.0643039182896
0.138228337748
logs/alpha_1.8/PGSD_800steps_1.log 503.875397575 0.503875397575 0.327970110049 2.7565118714 0.0 -1
