Initial Policy Parameters:	0.0 0.0
Learning Rate:			1.8
Learning Steps:			200
Start Time:			1437185791.4643612

-- LEARNING STOPPED --

Stop Time:			1437185822.4204566
Duration:			30.956095457077026
Final Policy Parameters:	-1.74508145055 0.636320961153
