Policy Parameters:	-0.15408407483 0.721172288812
Control Steps:		1000
Start Time:		1438501453.3698263

-- TESTING STOPPED --

Stop Time:		1438501486.021776
Duration:		32.651949644088745
Cost Matrix:
0.0540184123225
0.0689874697453
0.065215842589
0.021495187155
0.0161873238024
0.0424212376043
0.0350421100667
0.044738658223
0.0149290813522
0.0245947253135
0.0531213961871
0.00797592751342
0.0240039146193
0.0185712984326
0.0196543165067
0.0174448076764
0.0176293394675
0.0286216722025
0.0221737041557
0.0682655571803
0.0555168827691
0.0298224941062
0.0452003707027
0.0565193879033
0.0563801176715
0.0436484853824
0.021029658907
0.0297569992815
0.0455520263202
0.0420136591337
0.0394082227338
0.0574354833938
0.0705188449872
0.0308935780854
0.0221463038919
0.0933820744835
0.0871759350239
0.0435543360939
0.0375326355694
0.0553965566182
0.0358820452759
0.0553558635038
0.0310370976108
0.0487949142577
0.0917899916703
0.0914419267209
0.114511171042
0.115921343461
0.122732095175
0.131127927565
0.134928429106
0.16602988794
0.185081691102
0.232771235947
0.214430042879
0.192355495487
0.223305381422
0.224025020073
0.248200517654
0.292256667458
0.345089055525
0.34697587488
0.349634854991
0.318617449667
0.369932095924
0.412167710548
0.411579470431
0.468840978293
0.536748952046
0.609017382482
0.465510327093
0.434253425055
0.363756891306
0.408467742272
0.0557267500219
0.106206871809
0.162093854661
0.128310064932
0.463650884778
0.406063178734
0.258335649002
0.22630395823
0.0806561697269
0.0801314014392
0.0939213560928
0.182177305265
0.211788619165
0.184658918939
0.199234191545
0.165294627354
0.0461558165741
0.00989430383134
0.0316003577119
0.0272842355738
0.0276357503285
0.0131963467805
0.0419301597778
0.0330027608121
0.0292554512814
0.0461545917765
0.0400972381184
0.0362859280934
0.0257919564116
0.04948464854
0.0890645944472
0.120289623965
0.0756655986619
0.0460572240903
0.0731429722395
0.0862149245622
0.0670210923555
0.0388741309831
0.108434540819
0.128472648264
0.113375152968
0.0859860188057
0.0986820675077
0.0869671397505
0.11344601539
0.12998884169
0.155438927664
0.140463672413
0.156544270346
0.191506848294
0.183873180915
0.189083753488
0.183241979121
0.169903451773
0.1656780018
0.136517382614
0.154864888916
0.161138530844
0.158323002917
0.146632215634
0.145952113065
0.181968897935
0.160912936141
0.182909982117
0.164369051468
0.122486538785
0.14362678856
0.104254948551
0.116991217087
0.0984192225424
0.0583680488958
0.035883127815
0.0302888270912
0.0456263152463
0.0228473889437
0.0205125067622
0.0374052507361
0.0153161678251
0.0492507546855
0.0503778958504
0.0519665213756
0.0486422464259
0.0163097192248
0.0353863315795
0.027689864172
0.0145059250364
0.0286046545104
0.0329789424754
0.0457777553246
0.0211063981952
0.031729343285
0.0137082700562
0.0268752626993
0.0340924696766
0.0548397065863
0.0605164057972
0.0487142617605
0.0257119024483
0.0372696924906
0.00744396691152
0.0282755295321
0.00732574115942
0.0131322543892
0.0216457688549
0.0127079899454
0.012579985413
0.0382296232269
0.0166434959059
0.0430589131233
0.0426936028928
0.0174885809623
0.0221990052728
0.0117102278547
0.0218289494323
0.00806116010149
0.0289472473624
0.0189832232396
0.0212341862533
0.0269930991398
0.0172016339543
0.0268845391527
0.0372708372227
0.0407819857553
0.0285264081783
0.00432352952092
0.0258869438062
0.0686533976119
0.0617012605198
0.0277497217476
0.0323131126568
0.0228543092175
0.0401609178167
0.0168774297508
0.0219312196674
0.014285545798
0.0485364560409
0.03284419755
0.0312639421919
0.0292941113373
0.068902924429
0.0684151414366
0.0303973148527
0.047961372032
0.0403289427306
0.0428391044245
0.0317771715877
0.0527890261757
0.0520276574092
0.0752370794395
0.098193986054
0.135552236784
0.148735261296
0.204293998827
0.288225323049
0.36442443252
0.346567369933
0.402389233305
0.75461468076
0.398644986614
0.232111362214
0.350754856928
0.560226604644
1000000.0
0.0
0.0
0.0
0.0
0.0
0.0
0.0
0.0
0.0
0.0
0.0
0.0
0.0
0.0
0.0
0.0
0.0
0.0
0.0
0.0
0.0
0.0
0.0
0.0
0.0
0.0
0.0
0.0
0.0
0.0
0.0
0.0
0.0
0.0
0.0
0.0
0.0
0.0
0.0
0.0
0.0
0.0
0.0
0.0
0.0
0.0
0.0
0.0
0.0
0.0
0.0
0.0
0.0
0.0
0.0
0.0
0.0
0.0
0.0
0.0
0.0
0.0
0.0
0.0
0.0
0.0
0.0
0.0
0.0
0.0
0.0
0.0
0.0
0.0
0.0
0.0
0.0
0.0
0.0
0.0
0.0
0.0
0.0
0.0
0.0
0.0
0.0
0.0
0.0
0.0
0.0
0.0
0.0
0.0
0.0
0.0
0.0
0.0
0.0
0.0
0.0
0.0
0.0
0.0
0.0
0.0
0.0
0.0
0.0
0.0
0.0
0.0
0.0
0.0
0.0
0.0
0.0
0.0
0.0
0.0
0.0
0.0
0.0
0.0
0.0
0.0
0.0
0.0
0.0
0.0
0.0
0.0
0.0
0.0
0.0
0.0
0.0
0.0
0.0
0.0
0.0
0.0
0.0
0.0
0.0
0.0
0.0
0.0
0.0
0.0
0.0
0.0
0.0
0.0
0.0
0.0
0.0
0.0
0.0
0.0
0.0
0.0
0.0
0.0
0.0
0.0
0.0
0.0
0.0
0.0
0.0
0.0
0.0
0.0
0.0
0.0
0.0
0.0
0.0
0.0
0.0
0.0
0.0
0.0
0.0
0.0
0.0
0.0
0.0
0.0
0.0
0.0
0.0
0.0
0.0
0.0
0.0
0.0
0.0
0.0
0.0
0.0
0.0
0.0
0.0
0.0
0.0
0.0
0.0
0.0
0.0
0.0
0.0
0.0
0.0
0.0
0.0
0.0
0.0
0.0
0.0
0.0
0.0
0.0
0.0
0.0
0.0
0.0
0.0
0.0
0.0
0.0
0.0
0.0
0.0
0.0
0.0
0.0
0.0
0.0
0.0
0.0
0.0
0.0
0.0
0.0
0.0
0.0
0.0
0.0
0.0
0.0
0.0
0.0
0.0
0.0
0.0
0.0
0.0
0.0
0.0
0.0
0.0
0.0
0.0
0.0
0.0
0.0
0.0
0.0
0.0
0.0
0.0
0.0
0.0
0.0
0.0
0.0
0.0
0.0
0.0
0.0
0.0
0.0
0.0
0.0
0.0
0.0
0.0
0.0
0.0
0.0
0.0
0.0
0.0
0.0
0.0
0.0
0.0
0.0
0.0
0.0
0.0
0.0
0.0
0.0
0.0
0.0
0.0
0.0
0.0
0.0
0.0
0.0
0.0
0.0
0.0
0.0
0.0
0.0
0.0
0.0
0.0
0.0
0.0
0.0
0.0
0.0
0.0
0.0
0.0
0.0
0.0
0.0
0.0
0.0
0.0
0.0
0.0
0.0
0.0
0.0
0.0
0.0
0.0
0.0
0.0
0.0
0.0
0.0
0.0
0.0
0.0
0.0
0.0
0.0
0.0
0.0
0.0
0.0
0.0
0.0
0.0
0.0
0.0
0.0
0.0
0.0
0.0
0.0
0.0
0.0
0.0
0.0
0.0
0.0
0.0
0.0
0.0
0.0
0.0
0.0
0.0
0.0
0.0
0.0
0.0
0.0
0.0
0.0
0.0
0.0
0.0
0.0
0.0
0.0
0.0
0.0
0.0
0.0
0.0
0.0
0.0
0.0
0.0
0.0
0.0
0.0
0.0
0.0
0.0
0.0
0.0
0.0
0.0
0.0
0.0
0.0
0.0
0.0
0.0
0.0
0.0
0.0
0.0
0.0
0.0
0.0
0.0
0.0
0.0
0.0
0.0
0.0
0.0
0.0
0.0
0.0
0.0
0.0
0.0
0.0
0.0
0.0
0.0
0.0
0.0
0.0
0.0
0.0
0.0
0.0
0.0
0.0
0.0
0.0
0.0
0.0
0.0
0.0
0.0
0.0
0.0
0.0
0.0
0.0
0.0
0.0
0.0
0.0
0.0
0.0
0.0
0.0
0.0
0.0
0.0
0.0
0.0
0.0
0.0
0.0
0.0
0.0
0.0
0.0
0.0
0.0
0.0
0.0
0.0
0.0
0.0
0.0
0.0
0.0
0.0
0.0
0.0
0.0
0.0
0.0
0.0
0.0
0.0
0.0
0.0
0.0
0.0
0.0
0.0
0.0
0.0
0.0
0.0
0.0
0.0
0.0
0.0
0.0
0.0
0.0
0.0
0.0
0.0
0.0
0.0
0.0
0.0
0.0
0.0
0.0
0.0
0.0
0.0
0.0
0.0
0.0
0.0
0.0
0.0
0.0
0.0
0.0
0.0
0.0
0.0
0.0
0.0
0.0
0.0
0.0
0.0
0.0
0.0
0.0
0.0
0.0
0.0
0.0
0.0
0.0
0.0
0.0
0.0
0.0
0.0
0.0
0.0
0.0
0.0
0.0
0.0
0.0
0.0
0.0
0.0
0.0
0.0
0.0
0.0
0.0
0.0
0.0
0.0
0.0
0.0
0.0
0.0
0.0
0.0
0.0
0.0
0.0
0.0
0.0
0.0
0.0
0.0
0.0
0.0
0.0
0.0
0.0
0.0
0.0
0.0
0.0
0.0
0.0
0.0
0.0
0.0
0.0
0.0
0.0
0.0
0.0
0.0
0.0
0.0
0.0
0.0
0.0
0.0
0.0
0.0
0.0
0.0
0.0
0.0
0.0
0.0
0.0
0.0
0.0
0.0
0.0
0.0
0.0
0.0
0.0
0.0
0.0
0.0
0.0
0.0
0.0
0.0
0.0
0.0
0.0
0.0
0.0
0.0
0.0
0.0
0.0
0.0
0.0
0.0
0.0
0.0
0.0
0.0
0.0
0.0
0.0
0.0
0.0
0.0
0.0
0.0
0.0
0.0
0.0
0.0
0.0
0.0
0.0
0.0
0.0
0.0
0.0
0.0
0.0
0.0
0.0
0.0
0.0
0.0
0.0
0.0
0.0
0.0
0.0
0.0
0.0
0.0
0.0
0.0
0.0
0.0
0.0
0.0
0.0
0.0
0.0
0.0
0.0
0.0
0.0
0.0
0.0
0.0
0.0
0.0
0.0
0.0
0.0
0.0
0.0
0.0
0.0
0.0
0.0
0.0
0.0
0.0
0.0
0.0
0.0
0.0
0.0
0.0
0.0
0.0
0.0
0.0
0.0
0.0
0.0
0.0
0.0
0.0
0.0
0.0
0.0
0.0
0.0
0.0
0.0
0.0
0.0
0.0
0.0
0.0
0.0
0.0
0.0
0.0
0.0
0.0
logs/alpha_1.8/PGSD_600steps_2.log 1000025.92789 1000.02592789 0.0 1000000.0 0.0 236
