Policy Parameters:	-0.519193904152 0.649699889405
Control Steps:		1000
Start Time:		1438491533.0372117

-- TESTING STOPPED --

Stop Time:		1438491558.7103724
Duration:		25.673160791397095
Cost Matrix:
0.0120262915538
0.0154777874544
0.00753764936109
0.00910700004352
0.0185948408248
0.0178947876904
0.0113301178476
0.0524952555511
0.0358251248655
0.0353322441036
0.0250417691824
0.010810554056
0.0192749662841
0.0243883659102
0.0231343404786
0.0287134778785
0.0241484736084
0.0148519615878
0.0422865133354
0.0295466525733
0.00997772753316
0.0273203750202
0.0144772899809
0.0107394382654
0.0038549761595
0.026871476551
0.0975908782085
0.0608039914861
0.0151878993114
0.0095043515391
0.0109542214373
0.00919669806174
0.0590966017448
0.0797310166625
0.0922986957545
0.0673145122914
0.109108357377
0.179101683874
0.219888994372
0.178530497639
0.221304629964
0.236492314964
0.223136168409
0.246796127821
0.225046432575
0.235674038766
0.179979132662
0.202492813325
0.221934050996
0.252332875118
0.266131880097
0.253997811511
0.275539219504
0.25767661245
0.286384373716
0.292978704631
0.311231683257
0.343377174333
0.271861467558
0.188109157487
0.278754667664
0.176292807752
0.13308605415
0.0632890606365
0.0419567103282
0.0568401919268
0.0529136588908
0.055748212451
0.0929331646468
0.0610544210811
0.0211405011111
0.0474290650461
0.0376298858534
0.0242042430304
0.0806970522801
0.0676890821211
0.0305724897331
0.0306241219273
0.0693439262603
0.0624629036478
0.0296455027927
0.0414844317716
0.0213668993283
0.0157913855681
0.00760990857053
0.0263752139293
0.0269070630091
0.0216652394782
0.0146546208774
0.0168443359227
0.0126669995575
0.00299679453045
0.0176115248989
0.0175035985588
0.00835837763789
0.0187448105629
0.0363364215396
0.0334447342006
0.0286221499325
0.0159696367303
0.0283996776803
0.0179144534677
0.0172161157776
0.0540099802634
0.0439830909223
0.0541711548144
0.0280880460031
0.0132369462522
0.0874105271303
0.0528761570345
0.0126742444479
0.00869856435268
0.0463554303764
0.0865165447949
0.0885864220792
0.0905457089887
0.0633629870126
0.0567556955127
0.0470035588889
0.0484570592048
0.0486536037532
0.0539892665013
0.044329245794
0.0646438971612
0.0810483952665
0.0354629745731
0.0833994618905
0.0699388267465
0.054556407555
0.0446122096495
0.059394572402
0.0454978963929
0.0559314791594
0.0319103682489
0.0503685485003
0.0256854839451
0.0137672209383
0.0732817773309
0.0627325293524
0.0567440765796
0.030507767594
0.0854031861064
0.0568755876725
0.0459832366465
0.0229073322494
0.028923942391
0.0198251789033
0.0245160092341
0.028574960645
0.0357797676639
0.0448976437096
0.0381408204358
0.0247153306216
0.0142371609686
0.0162572527823
0.020968563103
0.00932573619063
0.00760746595606
0.00931186796543
0.00612663856196
0.0142060390669
0.0176416097893
0.0301501375098
0.0247840498885
0.00968130109331
0.0119073063148
0.0392366545285
0.0709754556673
0.0375176823046
0.0125103066272
0.0341575148663
0.0775726277969
0.093685692416
0.109134355653
0.155042429034
0.189697408
0.278815360637
0.350222663192
0.736970355649
0.883427532039
0.416717731952
0.0492671496021
0.0401665109039
0.0445968982822
0.0255529320611
0.0109347493424
0.0220693478398
0.0403099021749
1000000.0
0.0
0.0
0.0
0.0
0.0
0.0
0.0
0.0
0.0
0.0
0.0
0.0
0.0
0.0
0.0
0.0
0.0
0.0
0.0
0.0
0.0
0.0
0.0
0.0
0.0
0.0
0.0
0.0
0.0
0.0
0.0
0.0
0.0
0.0
0.0
0.0
0.0
0.0
0.0
0.0
0.0
0.0
0.0
0.0
0.0
0.0
0.0
0.0
0.0
0.0
0.0
0.0
0.0
0.0
0.0
0.0
0.0
0.0
0.0
0.0
0.0
0.0
0.0
0.0
0.0
0.0
0.0
0.0
0.0
0.0
0.0
0.0
0.0
0.0
0.0
0.0
0.0
0.0
0.0
0.0
0.0
0.0
0.0
0.0
0.0
0.0
0.0
0.0
0.0
0.0
0.0
0.0
0.0
0.0
0.0
0.0
0.0
0.0
0.0
0.0
0.0
0.0
0.0
0.0
0.0
0.0
0.0
0.0
0.0
0.0
0.0
0.0
0.0
0.0
0.0
0.0
0.0
0.0
0.0
0.0
0.0
0.0
0.0
0.0
0.0
0.0
0.0
0.0
0.0
0.0
0.0
0.0
0.0
0.0
0.0
0.0
0.0
0.0
0.0
0.0
0.0
0.0
0.0
0.0
0.0
0.0
0.0
0.0
0.0
0.0
0.0
0.0
0.0
0.0
0.0
0.0
0.0
0.0
0.0
0.0
0.0
0.0
0.0
0.0
0.0
0.0
0.0
0.0
0.0
0.0
0.0
0.0
0.0
0.0
0.0
0.0
0.0
0.0
0.0
0.0
0.0
0.0
0.0
0.0
0.0
0.0
0.0
0.0
0.0
0.0
0.0
0.0
0.0
0.0
0.0
0.0
0.0
0.0
0.0
0.0
0.0
0.0
0.0
0.0
0.0
0.0
0.0
0.0
0.0
0.0
0.0
0.0
0.0
0.0
0.0
0.0
0.0
0.0
0.0
0.0
0.0
0.0
0.0
0.0
0.0
0.0
0.0
0.0
0.0
0.0
0.0
0.0
0.0
0.0
0.0
0.0
0.0
0.0
0.0
0.0
0.0
0.0
0.0
0.0
0.0
0.0
0.0
0.0
0.0
0.0
0.0
0.0
0.0
0.0
0.0
0.0
0.0
0.0
0.0
0.0
0.0
0.0
0.0
0.0
0.0
0.0
0.0
0.0
0.0
0.0
0.0
0.0
0.0
0.0
0.0
0.0
0.0
0.0
0.0
0.0
0.0
0.0
0.0
0.0
0.0
0.0
0.0
0.0
0.0
0.0
0.0
0.0
0.0
0.0
0.0
0.0
0.0
0.0
0.0
0.0
0.0
0.0
0.0
0.0
0.0
0.0
0.0
0.0
0.0
0.0
0.0
0.0
0.0
0.0
0.0
0.0
0.0
0.0
0.0
0.0
0.0
0.0
0.0
0.0
0.0
0.0
0.0
0.0
0.0
0.0
0.0
0.0
0.0
0.0
0.0
0.0
0.0
0.0
0.0
0.0
0.0
0.0
0.0
0.0
0.0
0.0
0.0
0.0
0.0
0.0
0.0
0.0
0.0
0.0
0.0
0.0
0.0
0.0
0.0
0.0
0.0
0.0
0.0
0.0
0.0
0.0
0.0
0.0
0.0
0.0
0.0
0.0
0.0
0.0
0.0
0.0
0.0
0.0
0.0
0.0
0.0
0.0
0.0
0.0
0.0
0.0
0.0
0.0
0.0
0.0
0.0
0.0
0.0
0.0
0.0
0.0
0.0
0.0
0.0
0.0
0.0
0.0
0.0
0.0
0.0
0.0
0.0
0.0
0.0
0.0
0.0
0.0
0.0
0.0
0.0
0.0
0.0
0.0
0.0
0.0
0.0
0.0
0.0
0.0
0.0
0.0
0.0
0.0
0.0
0.0
0.0
0.0
0.0
0.0
0.0
0.0
0.0
0.0
0.0
0.0
0.0
0.0
0.0
0.0
0.0
0.0
0.0
0.0
0.0
0.0
0.0
0.0
0.0
0.0
0.0
0.0
0.0
0.0
0.0
0.0
0.0
0.0
0.0
0.0
0.0
0.0
0.0
0.0
0.0
0.0
0.0
0.0
0.0
0.0
0.0
0.0
0.0
0.0
0.0
0.0
0.0
0.0
0.0
0.0
0.0
0.0
0.0
0.0
0.0
0.0
0.0
0.0
0.0
0.0
0.0
0.0
0.0
0.0
0.0
0.0
0.0
0.0
0.0
0.0
0.0
0.0
0.0
0.0
0.0
0.0
0.0
0.0
0.0
0.0
0.0
0.0
0.0
0.0
0.0
0.0
0.0
0.0
0.0
0.0
0.0
0.0
0.0
0.0
0.0
0.0
0.0
0.0
0.0
0.0
0.0
0.0
0.0
0.0
0.0
0.0
0.0
0.0
0.0
0.0
0.0
0.0
0.0
0.0
0.0
0.0
0.0
0.0
0.0
0.0
0.0
0.0
0.0
0.0
0.0
0.0
0.0
0.0
0.0
0.0
0.0
0.0
0.0
0.0
0.0
0.0
0.0
0.0
0.0
0.0
0.0
0.0
0.0
0.0
0.0
0.0
0.0
0.0
0.0
0.0
0.0
0.0
0.0
0.0
0.0
0.0
0.0
0.0
0.0
0.0
0.0
0.0
0.0
0.0
0.0
0.0
0.0
0.0
0.0
0.0
0.0
0.0
0.0
0.0
0.0
0.0
0.0
0.0
0.0
0.0
0.0
0.0
0.0
0.0
0.0
0.0
0.0
0.0
0.0
0.0
0.0
0.0
0.0
0.0
0.0
0.0
0.0
0.0
0.0
0.0
0.0
0.0
0.0
0.0
0.0
0.0
0.0
0.0
0.0
0.0
0.0
0.0
0.0
0.0
0.0
0.0
0.0
0.0
0.0
0.0
0.0
0.0
0.0
0.0
0.0
0.0
0.0
0.0
0.0
0.0
0.0
0.0
0.0
0.0
0.0
0.0
0.0
0.0
0.0
0.0
0.0
0.0
0.0
0.0
0.0
0.0
0.0
0.0
0.0
0.0
0.0
0.0
0.0
0.0
0.0
0.0
0.0
0.0
0.0
0.0
0.0
0.0
0.0
0.0
0.0
0.0
0.0
0.0
0.0
0.0
0.0
0.0
0.0
0.0
0.0
0.0
0.0
0.0
0.0
0.0
0.0
0.0
0.0
0.0
0.0
0.0
0.0
0.0
0.0
0.0
0.0
0.0
0.0
0.0
0.0
0.0
0.0
0.0
0.0
0.0
0.0
0.0
0.0
0.0
0.0
0.0
0.0
0.0
0.0
0.0
0.0
0.0
0.0
0.0
0.0
0.0
0.0
0.0
0.0
0.0
0.0
0.0
0.0
0.0
0.0
0.0
0.0
0.0
0.0
0.0
0.0
0.0
0.0
0.0
0.0
0.0
0.0
0.0
0.0
0.0
0.0
0.0
0.0
0.0
0.0
0.0
0.0
0.0
0.0
0.0
0.0
0.0
0.0
0.0
0.0
0.0
0.0
0.0
0.0
0.0
0.0
0.0
0.0
0.0
0.0
0.0
0.0
0.0
0.0
0.0
0.0
0.0
0.0
0.0
0.0
0.0
0.0
logs/alpha_1.8/PGSD_100steps_4.log 1000015.03115 1000.01503115 0.0 1000000.0 0.0 188
