Policy Parameters:	-0.645383708094 0.446693583946
Control Steps:		1000
Start Time:		1438490939.9200346

-- TESTING STOPPED --

Stop Time:		1438491014.3778794
Duration:		74.4578447341919
Cost Matrix:
0.731173716514
0.602578386583
0.670837216401
0.627966472748
0.74754534067
0.58608194869
0.671784327332
0.383005966431
0.187416190255
0.108896273446
0.0827266021688
0.091428738037
0.104090829335
0.0827765023084
0.0644815585748
0.0807310682135
0.0743595881028
0.0942309163536
0.0681738753761
0.096967389261
0.0492901800741
0.0494212526073
0.0517827586783
0.0944866531425
0.0749130697823
0.0293171442324
0.0258759887543
0.0344205170264
0.0533120276975
0.0776692405977
0.0540923787011
0.0675671657492
0.0331295541738
0.0247755175198
0.0249368904976
0.0384855388855
0.0184353397526
0.0353502176791
0.0369586866818
0.0237420275572
0.030329580495
0.0203314306941
0.0303832403794
0.0297819515398
0.0364476546462
0.0791711213482
0.0568985116495
0.0371307259241
0.0590672606717
0.0433278145904
0.0491671924092
0.0751020149136
0.100601076568
0.109790325224
0.114230037594
0.11183302536
0.129807318027
0.146733916144
0.167781841813
0.203815058864
0.451273040053
0.355774486652
0.27798342754
0.285898664968
0.301595913631
0.319333528485
0.318481149463
0.322515050993
0.372473167085
0.40914573462
0.412436004254
0.440521823933
0.43687718181
0.431537267172
0.377815930155
0.396490883908
0.44829797139
0.395469088392
0.368164607645
0.365826842914
0.35744061486
0.304929390435
0.232031881654
0.142085358969
0.0583530074075
0.0545244515358
0.125349757431
0.152925317995
0.159937288501
0.162251327969
0.197838817638
0.162494985253
0.168319739793
0.149420857498
0.228334884669
0.190033465695
0.184716371265
0.184900412714
0.160525949118
0.183559511468
0.168843044578
0.0882979377373
0.15989989514
0.0894517810867
0.21111501795
0.170134434003
0.115924121891
0.119270190388
0.12005948879
0.093160522312
0.0404863677682
0.0230811057033
0.0275414418101
0.0668674147201
0.0477006269091
0.0293730839352
0.0274563358849
0.0695636561364
0.0720661944062
0.049122360581
0.0778094387851
0.0502874933097
0.00571127302129
0.0265483362005
0.0286866651173
0.0226113775756
0.0597360569998
0.041466570428
0.012638717993
0.0207050464314
0.0183977881865
0.00926051033767
0.018454030647
0.0305399092524
0.0648332166466
0.043706278095
0.0223081170999
0.043701043029
0.0520423210428
0.0172216073112
0.0240972910337
0.0335092420033
0.0314054979431
0.0171108053707
0.0104827594571
0.0153169109157
0.0092222278446
0.057176196797
0.039480306342
0.0627963625088
0.0650826552257
0.0361407222016
0.0897276047191
0.0884906760637
0.196603166203
0.186725967382
0.1756970037
0.182987601726
0.21993641007
0.252409202842
0.268028746472
0.263773725546
0.285707287874
0.296006888997
0.350105362778
0.378995203197
0.370871289556
0.361374915554
0.398803884061
0.382613487822
0.416680038066
0.427898665523
0.424041284939
0.335187837178
0.435983315112
0.421002214015
0.451427683717
0.411980540321
0.413895259089
0.425080663178
0.373723133177
0.342142366555
0.269615816906
0.123512956303
0.0318402877762
0.0155694042839
0.0219508860483
0.0284245421212
0.0464395200697
0.0389550849313
0.0215489622926
0.0242500454607
0.0593405574304
0.0638690828833
0.0367598728502
0.0393067921108
0.0334507576914
0.0586741146319
0.0829575707228
0.0872682201748
0.069359013891
0.0517550610391
0.0511204821005
0.0611176929234
0.058136777359
0.0542950955467
0.0472276144625
0.0697965776471
0.0459171847674
0.0759310467753
0.0546993513964
0.0443586023311
0.113049207346
0.0905896583688
0.0630216706484
0.0646774589737
0.0620550619389
0.0396490058464
0.0638505863236
0.0597956582479
0.0463461750327
0.0380273616759
0.0383845678158
0.0460144823334
0.0705961223376
0.113116765481
0.120479574358
0.120011931087
0.12867530179
0.14709548039
0.199014889697
0.214747909556
0.232512972824
0.250527211831
0.264121260681
0.268752792483
0.299721689602
0.295077504564
0.302417685626
0.294614739326
0.305238561473
0.34947182066
0.38777221496
0.400872156162
0.39325377029
0.41857135994
0.423209225444
0.43564706595
0.429414921925
0.421070627609
0.394526428286
0.297513201915
0.223171775302
0.203607832163
0.201834645206
0.166185538963
0.132353565399
0.107052326272
0.0680612509624
0.121211764031
0.111278506541
0.0656637649649
0.135260417116
0.12697730079
0.13332489903
0.155506239436
0.119681976572
0.0905064559558
0.194854859747
0.132158532069
0.107392078492
0.0984168917103
0.0676571041327
0.066566590283
0.123048597418
0.14376934157
0.107823603672
0.0590055499487
0.0554853720201
0.0462824484023
0.0766761964422
0.0668765604606
0.0326125833249
0.0490608286815
0.0246351545491
0.0117406469816
0.0687527871457
0.0675030695947
0.0327480347407
0.0270392158779
0.0318683339694
0.0126920475101
0.0370726563293
0.0380782340409
0.051135868753
0.0523139364334
0.0178019189422
0.0223268740836
0.0332796821363
0.030725899885
0.0315387127319
0.0520626765779
0.0194518168006
0.0532511942446
0.0302781401316
0.0413898055035
0.0658478934633
0.0621769485075
0.0755521793539
0.128787024171
0.0849530418704
0.112347812584
0.145328442035
0.189911532111
0.248886757387
0.248717095293
0.274117934088
0.234559667997
0.253385822369
0.320212324157
0.389242044691
0.408953777796
0.403919626765
0.426310677943
0.445339653771
0.474658607729
0.461359691496
0.480238771168
0.440750748047
0.489793155086
0.544727702455
0.560051753828
0.512169141556
0.504632055735
0.528658391427
0.458278567283
0.395691647968
0.278256447133
0.109545799017
0.0328701687409
0.0192297635462
0.0185378425312
0.00593451141899
0.0376214528623
0.0391144278093
0.0152081815349
0.0418770058716
0.0415237493319
0.0531022284293
0.0742049722266
0.0877938807253
0.0596067509238
0.0210129462679
0.0198235709541
0.0407603482393
0.0306404174352
0.0600906369835
0.024690431884
0.0491530433471
0.0236004886922
0.0360629884586
0.118211006078
0.0554796962118
0.0656913902115
0.0674288694549
0.0156802326619
0.0425105613693
0.050081182572
0.0120133739365
0.0483092012718
0.0432990430642
0.0668915865855
0.0562353625466
0.0675220891849
0.0169096160588
0.0499481567976
0.0403632770811
0.010959838067
0.0529674686057
0.0296474909454
0.054812030543
0.0335119389038
0.0630868120885
0.0600320255638
0.0195630952677
0.0378577224661
0.0211295628716
0.0560328014747
0.0439837575668
0.0199986071622
0.0152201394703
0.0174728918142
0.00659376070842
0.0290582732014
0.00735784913667
0.0412189955318
0.0360110576209
0.0286863005406
0.0297821555551
0.0191107028161
0.0613533582012
0.0508987991955
0.0429391732076
0.0773362714776
0.0599435180603
0.0331716214259
0.0197353283761
0.0112145475245
0.0118810349065
0.0282520548685
0.0537489822082
0.0528392420574
0.0445913330395
0.0310061960186
0.00380915657599
0.0102136221104
0.000773070021776
0.0342039268002
0.0272783831599
0.0233449899289
0.0450188658917
0.0367075794964
0.0381081228229
0.0151650281591
0.0328089017948
0.0522937936035
0.0347909887123
0.0312898534283
0.0692735315087
0.0774570724637
0.0804011398823
0.0813465549943
0.0872534236412
0.0658367633197
0.0862691774625
0.116672271864
0.144479147038
0.188014377059
0.199244450593
0.229625882303
0.252756192193
0.271555038421
0.281435800432
0.303277028891
0.338181130663
0.350066741127
0.385187480027
0.402304163563
0.443270019808
0.473410457127
0.46837688133
0.510171303693
0.517101628174
0.487610467067
0.494529530586
0.449154362563
0.456549685915
0.410328759773
0.383241123987
0.44578934026
0.404167701602
0.379371699176
0.382456892015
0.281254022141
0.224601721088
0.0893918578325
0.0154869384998
0.0432060864826
0.0588529310708
0.0601406922362
0.0631241896261
0.0739262418569
0.072977574141
0.0811647886069
0.0801169319502
0.0902364984471
0.0801793869155
0.0665223577148
0.08738791902
0.0940818913168
0.081415400485
0.0769965846677
0.0820414612925
0.0916948080009
0.0998696199529
0.11645546102
0.116850636421
0.120125351619
0.115812915407
0.11313787188
0.125724357037
0.137241905156
0.140077717392
0.129327074943
0.133996968776
0.147055842394
0.150532866029
0.157666914609
0.157983781062
0.172679715633
0.199352974139
0.218438871791
0.235836432436
0.210194487448
0.204528664406
0.219042049636
0.228847435169
0.246448346781
0.244702113803
0.256051107319
0.288399949001
0.308017655741
0.298064066701
0.207926917544
0.110410323634
0.105643228671
0.121632444867
0.223862960056
0.066327216837
0.0820271742685
0.0941987634127
0.172936406188
0.156356283288
0.328450080513
0.949873080687
1.01195363818
0.408615870977
0.0166230247919
1000000.0
0.0
0.0
0.0
0.0
0.0
0.0
0.0
0.0
0.0
0.0
0.0
0.0
0.0
0.0
0.0
0.0
0.0
0.0
0.0
0.0
0.0
0.0
0.0
0.0
0.0
0.0
0.0
0.0
0.0
0.0
0.0
0.0
0.0
0.0
0.0
0.0
0.0
0.0
0.0
0.0
0.0
0.0
0.0
0.0
0.0
0.0
0.0
0.0
0.0
0.0
0.0
0.0
0.0
0.0
0.0
0.0
0.0
0.0
0.0
0.0
0.0
0.0
0.0
0.0
0.0
0.0
0.0
0.0
0.0
0.0
0.0
0.0
0.0
0.0
0.0
0.0
0.0
0.0
0.0
0.0
0.0
0.0
0.0
0.0
0.0
0.0
0.0
0.0
0.0
0.0
0.0
0.0
0.0
0.0
0.0
0.0
0.0
0.0
0.0
0.0
0.0
0.0
0.0
0.0
0.0
0.0
0.0
0.0
0.0
0.0
0.0
0.0
0.0
0.0
0.0
0.0
0.0
0.0
0.0
0.0
0.0
0.0
0.0
0.0
0.0
0.0
0.0
0.0
0.0
0.0
0.0
0.0
0.0
0.0
0.0
0.0
0.0
0.0
0.0
0.0
0.0
0.0
0.0
0.0
0.0
0.0
0.0
0.0
0.0
0.0
0.0
0.0
0.0
0.0
0.0
0.0
0.0
0.0
0.0
0.0
0.0
0.0
0.0
0.0
0.0
0.0
0.0
0.0
0.0
0.0
0.0
0.0
0.0
0.0
0.0
0.0
0.0
0.0
0.0
0.0
0.0
0.0
0.0
0.0
0.0
0.0
0.0
0.0
0.0
0.0
0.0
0.0
0.0
0.0
0.0
0.0
0.0
0.0
0.0
0.0
0.0
0.0
0.0
0.0
0.0
0.0
0.0
0.0
0.0
0.0
0.0
0.0
0.0
0.0
0.0
0.0
0.0
0.0
0.0
0.0
0.0
0.0
0.0
0.0
0.0
0.0
0.0
0.0
0.0
0.0
0.0
0.0
0.0
0.0
0.0
0.0
0.0
0.0
0.0
0.0
0.0
0.0
0.0
0.0
0.0
0.0
0.0
0.0
0.0
0.0
0.0
0.0
0.0
0.0
0.0
0.0
0.0
0.0
0.0
0.0
0.0
0.0
0.0
0.0
0.0
0.0
0.0
0.0
0.0
0.0
0.0
0.0
0.0
0.0
0.0
0.0
0.0
0.0
0.0
0.0
0.0
0.0
0.0
0.0
0.0
0.0
0.0
0.0
0.0
0.0
0.0
0.0
0.0
0.0
0.0
0.0
0.0
0.0
0.0
0.0
0.0
0.0
0.0
0.0
0.0
0.0
0.0
0.0
0.0
0.0
0.0
0.0
0.0
0.0
0.0
0.0
0.0
0.0
0.0
0.0
0.0
0.0
0.0
0.0
0.0
0.0
0.0
0.0
0.0
0.0
0.0
0.0
0.0
0.0
0.0
0.0
0.0
0.0
0.0
0.0
0.0
0.0
0.0
0.0
0.0
0.0
0.0
0.0
0.0
0.0
0.0
0.0
0.0
0.0
0.0
0.0
0.0
0.0
0.0
0.0
0.0
0.0
0.0
0.0
0.0
0.0
0.0
0.0
0.0
0.0
0.0
0.0
0.0
0.0
0.0
0.0
0.0
0.0
0.0
0.0
0.0
0.0
0.0
0.0
0.0
0.0
0.0
0.0
0.0
0.0
0.0
0.0
0.0
0.0
0.0
0.0
0.0
0.0
0.0
0.0
0.0
0.0
0.0
0.0
0.0
0.0
0.0
0.0
0.0
0.0
0.0
0.0
0.0
0.0
0.0
0.0
0.0
0.0
0.0
0.0
0.0
0.0
0.0
0.0
0.0
0.0
0.0
0.0
0.0
0.0
0.0
0.0
0.0
0.0
0.0
0.0
0.0
0.0
0.0
0.0
0.0
0.0
0.0
0.0
0.0
0.0
0.0
0.0
0.0
0.0
0.0
0.0
0.0
0.0
0.0
0.0
0.0
0.0
0.0
0.0
0.0
0.0
0.0
0.0
0.0
0.0
0.0
0.0
0.0
0.0
0.0
logs/alpha_1.8/PGSD_100steps_1.log 1000083.13412 1000.08313412 0.0176374053782 1000000.0 0.0 528
