Policy Parameters:	-1.74508145055 0.636320961153
Control Steps:		1000
Start Time:		1438491742.5984135

-- TESTING STOPPED --

Stop Time:		1438491820.9090726
Duration:		78.31065917015076
Cost Matrix:
0.0316857044634
0.0548448013516
0.0629523405077
0.114931939752
0.11095322839
0.13498794706
0.149886876007
0.192316333379
0.244637132069
0.278973738001
0.294449787562
0.30812488624
0.323987242758
0.337691203452
0.362655576355
0.408192745986
0.426672670274
0.469484898384
0.516527232184
0.554675806627
0.586710051293
0.678736920142
0.73167861571
0.686974141952
0.628421895233
0.772836853749
0.463311251102
0.39368379831
0.332082254655
0.207678497499
0.166000103483
0.102965946266
0.0392672225164
0.0147118285895
0.0865711394123
0.142378683218
0.0487997182078
0.106496895074
0.163173819653
0.125133479194
0.15774868355
0.141422242476
0.0304000278304
0.0383946189345
0.0336701644303
0.0593274782685
0.0923964757699
0.0626761712681
0.124338213248
0.1280500164
0.164717141919
0.168532602217
0.139373315868
0.170977308382
0.163722651731
0.242490847987
0.250313645846
0.278295030965
0.370892874779
0.50488637543
0.574999430323
0.740109330211
0.769994304007
0.805180138041
0.710006450965
0.954129362274
0.638716600761
0.620007732659
0.944663504333
0.598769012274
0.910328149532
0.522475559723
0.696281960933
0.512892549035
0.406239304857
0.0121056700953
0.0216195898156
0.0496815068932
0.0723941689063
0.100175288064
0.0622900433683
0.0737453198767
0.00309315090721
0.0167492911128
0.039990346134
0.0506833158102
0.0742664807314
0.0931845449247
0.112989585588
0.0301687614
0.0192054157741
0.0280178434358
0.0368123790355
0.0744317823983
0.0189757461386
0.0250023401818
0.056452643107
0.0698858788515
0.137129849995
0.0859168824787
0.115817377112
0.118605195584
0.0951942439093
0.0973157506989
0.0820803103612
0.0937358203503
0.142604958166
0.153488558206
0.150828853966
0.193754527448
0.249583199399
0.309683903283
0.375044596765
0.349367853243
0.404607281473
0.459048415334
0.504353781472
0.545234821471
0.578423932634
0.597263642663
0.611528290967
0.645205852656
0.657949260853
0.554623834912
0.53333207278
0.535340660286
0.466656319636
0.438587656723
0.359575530458
0.352387915726
0.296741292861
0.22424304528
0.0386754518956
0.0193692764826
0.0825910942145
0.0323977913902
0.0595791221423
0.0611793815934
0.052237587588
0.0717618040285
0.108574288507
0.121864940139
0.126830185368
0.129720645753
0.160327019475
0.160755407261
0.193035149119
0.222149191235
0.261136509681
0.273555310722
0.286133522627
0.316951119913
0.339632259753
0.362460613462
0.393050582003
0.442688474945
0.461473720637
0.494707658119
0.508668788121
0.477951385657
0.443842845634
0.538562157834
0.476709286757
0.473815746505
0.45515256665
0.455068308818
0.369776411174
0.368578093226
0.377802489881
0.353444603167
0.290093277632
0.245423116325
0.19795579379
0.0967721811506
0.0415323482517
0.122959806774
0.112488259766
0.126752388053
0.161910309807
0.15357719136
0.11200410384
0.160181583153
0.169400522036
0.106268388098
0.102541378615
0.106447670867
0.156686296483
0.153781761585
0.107880712558
0.14415771078
0.0678657970331
0.0972178350689
0.0403026797646
0.0463815740356
0.0254556547524
0.0689051782983
0.10566781736
0.11738434296
0.0976693290541
0.0713711352176
0.0308641258409
0.0585197385913
0.0194383976336
0.0452677011966
0.104625428931
0.0230047157231
0.0304873370137
0.0176643457727
0.0274394307218
0.0395814729831
0.0184852047482
0.0265883148081
0.042320597643
0.0254341049849
0.0815456923986
0.116018813946
0.100605515136
0.0755347376875
0.0578396228537
0.0485847697396
0.0478636290396
0.042481104378
0.0724724508835
0.0626866211844
0.0867675682615
0.0998875340783
0.132430931692
0.18101425637
0.145087888869
0.214035769712
0.226201160428
0.198771131676
0.295016685225
0.354283077267
0.410984875982
0.50817857422
0.644228162213
0.999801317999
0.881827552099
1.12634179084
1.22098193844
1.11590072053
1.27106671988
1.50496778724
1.25864187567
1.1313982254
0.945886857763
0.111130917271
0.222677878338
0.20358205185
0.257578583691
0.330912124213
0.220031854475
0.307505885488
0.218896013738
0.128657744083
0.139303996824
0.0734883291099
0.140239010885
0.0679168490123
0.077759756309
0.0477984730198
0.0580587028388
0.00633112046617
0.0703266934126
0.0466100074275
0.0424936174939
0.0619687000827
0.0980414999423
0.0315114846677
0.0411450430004
0.042377300337
0.0376033319158
0.0564535755967
0.042932404748
0.0407621228102
0.0118130993347
0.0887885266548
0.0529303471711
0.0809717486726
0.0757640117697
0.0112213248037
0.0936479175546
0.0645661909894
0.0482699839872
0.0128072781801
0.0933468228484
0.0843313232103
0.0979446226235
0.123753735745
0.133999034029
0.121324889637
0.111396279868
0.130324884552
0.104902172524
0.089054521271
0.09791114027
0.0954580682768
0.0885306141551
0.0857754087213
0.0603863186115
0.0432148311289
0.0458892215726
0.0316599445557
0.00980726616559
0.0623562583053
0.0210845179541
0.0736681285506
0.147139948981
0.0971706870068
0.0753892728728
0.0359616449394
0.0248295781436
0.0690074018725
0.0398980037923
0.0671747955544
0.0261766374237
0.0176997047172
0.0424720576177
0.0563551202347
0.0672032038487
0.154071936167
0.0598256473489
0.0191806309956
0.0806272967566
0.0662205687942
0.105468529953
0.0213239080751
0.0423338560979
0.0440926153081
0.0676128564035
0.0366258789573
0.0956923912725
0.0916842379008
0.153343442567
0.185788737044
0.198950582505
0.0987773132508
0.062566276371
0.113995870288
0.190361385543
0.220146329771
0.164438870978
0.186607070603
0.213729626882
0.24658755582
0.279983390727
0.276179242145
0.382520387249
0.484436316724
0.552645545038
0.604139383962
0.665553767069
0.598339056081
0.750034359854
0.608896984133
0.766496790114
0.612540863707
0.793962914447
0.533131330616
0.613635033764
0.57709157073
0.33828305927
0.17259252652
0.0971740352217
0.0755868132669
0.027322409754
0.065633924268
0.0355546279563
0.0557022019077
0.069996925672
0.0604673158633
0.0428329139603
0.0898815209985
0.117935907202
0.141272466988
0.168257882147
0.187064497217
0.185358756224
0.214121100571
0.248607859732
0.26360891155
0.307176931716
0.371826324599
0.417676013806
0.446913509131
0.489464418854
0.521665159074
0.539460186408
0.537003108424
0.509789452392
0.52436872945
0.546529579916
0.512567441517
0.533717223824
0.446761298631
0.383923054199
0.448100310675
0.514354768851
0.552758561435
0.99666347015
0.0641006509745
0.172684664603
0.168909865328
0.171659636326
0.190605866242
0.185554526618
0.218031610822
0.18287065621
0.211128135814
0.216025015547
0.229906735655
0.228074336627
0.168469537934
0.197151281088
0.157110141998
0.158223390613
0.153422175769
0.135770307976
0.121857772221
0.108825773776
0.113369991505
0.107801418983
0.162993452389
0.0667668799523
0.0720581962291
0.064638687339
0.128458126187
0.155088937602
0.185397734213
0.248091431702
0.242945194974
0.260159569131
0.26245963454
0.273856088075
0.271100173153
0.281736533106
0.300879041121
0.282257738588
0.315850983708
0.342559065632
0.32911643674
0.327257018516
0.316706792248
0.269159364297
0.217793748197
0.22746570329
0.188871102713
0.118049049379
0.0515816240627
0.054928666921
0.0400220548588
0.111255759782
0.114942492357
0.0365875283293
0.0291211752611
0.0182056411555
0.0129491917367
0.0278038006601
0.0150972533049
0.0287616543851
0.0524304521928
0.0437717779267
0.0353765102031
0.0527734126245
0.0524120151541
0.0875075891575
0.0325310290879
0.0947028684776
0.0281162027882
0.018467166656
0.0547045060141
0.0779348336123
0.0587823586131
0.0229898963615
0.0384512579394
0.0553397860154
0.09115239094
0.0526381406162
0.0973509215127
0.114449819049
0.0591996213469
0.0881845416767
0.0910318474623
0.0946307535266
0.0851206480565
0.0982214785686
0.135560519041
0.190383848291
0.208239261621
0.228096205635
0.289049407631
0.365278165322
0.520215536222
0.771322980237
1.16621102882
1.19176613015
1.41986240935
0.876611661592
1.44677697684
1.46212646992
1.01215257857
0.373686158387
0.258090917893
0.285157470089
1000000.0
0.0
0.0
0.0
0.0
0.0
0.0
0.0
0.0
0.0
0.0
0.0
0.0
0.0
0.0
0.0
0.0
0.0
0.0
0.0
0.0
0.0
0.0
0.0
0.0
0.0
0.0
0.0
0.0
0.0
0.0
0.0
0.0
0.0
0.0
0.0
0.0
0.0
0.0
0.0
0.0
0.0
0.0
0.0
0.0
0.0
0.0
0.0
0.0
0.0
0.0
0.0
0.0
0.0
0.0
0.0
0.0
0.0
0.0
0.0
0.0
0.0
0.0
0.0
0.0
0.0
0.0
0.0
0.0
0.0
0.0
0.0
0.0
0.0
0.0
0.0
0.0
0.0
0.0
0.0
0.0
0.0
0.0
0.0
0.0
0.0
0.0
0.0
0.0
0.0
0.0
0.0
0.0
0.0
0.0
0.0
0.0
0.0
0.0
0.0
0.0
0.0
0.0
0.0
0.0
0.0
0.0
0.0
0.0
0.0
0.0
0.0
0.0
0.0
0.0
0.0
0.0
0.0
0.0
0.0
0.0
0.0
0.0
0.0
0.0
0.0
0.0
0.0
0.0
0.0
0.0
0.0
0.0
0.0
0.0
0.0
0.0
0.0
0.0
0.0
0.0
0.0
0.0
0.0
0.0
0.0
0.0
0.0
0.0
0.0
0.0
0.0
0.0
0.0
0.0
0.0
0.0
0.0
0.0
0.0
0.0
0.0
0.0
0.0
0.0
0.0
0.0
0.0
0.0
0.0
0.0
0.0
0.0
0.0
0.0
0.0
0.0
0.0
0.0
0.0
0.0
0.0
0.0
0.0
0.0
0.0
0.0
0.0
0.0
0.0
0.0
0.0
0.0
0.0
0.0
0.0
0.0
0.0
0.0
0.0
0.0
0.0
0.0
0.0
0.0
0.0
0.0
0.0
0.0
0.0
0.0
0.0
0.0
0.0
0.0
0.0
0.0
0.0
0.0
0.0
0.0
0.0
0.0
0.0
0.0
0.0
0.0
0.0
0.0
0.0
0.0
0.0
0.0
0.0
0.0
0.0
0.0
0.0
0.0
0.0
0.0
0.0
0.0
0.0
0.0
0.0
0.0
0.0
0.0
0.0
0.0
0.0
0.0
0.0
0.0
0.0
0.0
0.0
0.0
0.0
0.0
0.0
0.0
0.0
0.0
0.0
0.0
0.0
0.0
0.0
0.0
0.0
0.0
0.0
0.0
0.0
0.0
0.0
0.0
0.0
0.0
0.0
0.0
0.0
0.0
0.0
0.0
0.0
0.0
0.0
0.0
0.0
0.0
0.0
0.0
0.0
0.0
0.0
0.0
0.0
0.0
0.0
0.0
0.0
0.0
0.0
0.0
0.0
0.0
0.0
0.0
0.0
0.0
0.0
0.0
0.0
0.0
0.0
0.0
0.0
0.0
0.0
0.0
0.0
0.0
0.0
0.0
0.0
0.0
0.0
0.0
0.0
0.0
0.0
0.0
0.0
0.0
0.0
0.0
0.0
0.0
0.0
0.0
0.0
0.0
0.0
0.0
0.0
0.0
0.0
0.0
0.0
0.0
0.0
0.0
0.0
0.0
0.0
0.0
0.0
0.0
0.0
0.0
0.0
0.0
0.0
0.0
0.0
0.0
0.0
0.0
0.0
0.0
0.0
0.0
0.0
0.0
0.0
0.0
0.0
0.0
0.0
0.0
0.0
0.0
0.0
0.0
0.0
0.0
0.0
0.0
0.0
0.0
0.0
0.0
0.0
0.0
0.0
0.0
0.0
0.0
0.0
0.0
0.0
0.0
0.0
0.0
0.0
0.0
0.0
0.0
0.0
0.0
0.0
0.0
0.0
0.0
0.0
0.0
0.0
0.0
0.0
0.0
0.0
0.0
0.0
0.0
0.0
0.0
0.0
0.0
0.0
0.0
0.0
0.0
0.0
0.0
0.0
0.0
0.0
0.0
0.0
0.0
0.0
0.0
0.0
0.0
0.0
0.0
0.0
0.0
0.0
0.0
0.0
0.0
0.0
0.0
0.0
0.0
0.0
0.0
0.0
0.0
0.0
0.0
0.0
0.0
0.0
0.0
0.0
0.0
0.0
0.0
0.0
0.0
0.0
0.0
0.0
0.0
0.0
0.0
0.0
0.0
0.0
0.0
0.0
0.0
0.0
0.0
0.0
0.0
0.0
0.0
0.0
0.0
logs/alpha_1.8/PGSD_200steps_0.log 1000123.19762 1000.12319762 0.0124564741377 1000000.0 0.0 505
