Initial Policy Parameters:	0.0 0.0
Learning Rate:			1.0
Learning Steps:			900
Start Time:			1437154349.2082753

-- LEARNING STOPPED --

Stop Time:			1437154475.9035885
Duration:			126.69531321525574
Final Policy Parameters:	-1.07785468202 1.29301769225
