Policy Parameters:	-1.33946652149 3.87896948119
Control Steps:		1000
Start Time:		1438316314.5373068

-- TESTING STOPPED --

Stop Time:		1438316437.9675512
Duration:		123.43024444580078
Cost Matrix:
0.122243586849
0.244230880151
0.226929390966
0.0840610203971
0.206436872951
0.227724482133
0.186223232072
0.230389029959
0.280249268631
0.164404539173
0.339786940752
0.528504245517
0.429708240808
0.520258729931
0.995864328097
0.894966483574
0.899941378185
1.12176898742
1.07441621138
1.03695132076
1.05337475967
0.951877089101
1.00234646957
1.00199537301
0.477766934013
0.308894428947
0.407698816222
0.243251853477
0.10172238219
0.120882091177
0.0681168749518
0.0923636005434
0.272514340488
0.0447248339285
0.136067660102
0.220263511532
0.0862482016266
0.21127630089
0.188426333804
0.0767986633981
0.228184648769
0.141812248541
0.00408518949449
0.0214686859362
0.0548913199911
0.22052473554
0.103048444195
0.0524749499552
0.112644253764
0.202107665682
0.0615424857657
0.158654649752
0.197017627106
0.0868645283859
0.267208082244
0.289102634741
0.234578336082
0.354522951908
0.36366120022
0.36381744448
0.405825125269
0.457460627901
0.939532751939
1.01008014318
2.19561858277
0.631256665212
1.40490357069
0.997318686441
1.31078297947
1.1137428992
1.25244066686
0.824214700492
1.03981780113
0.607557924882
0.427819606665
0.0832469487064
0.0848112237651
0.101098561961
0.0715941964827
0.0355856751322
0.0184375178967
0.0555861034221
0.275559294094
0.0721554727763
0.0403962438566
0.0250719154891
0.105268714225
0.216082944479
0.269224554404
0.335322917265
0.18591543562
0.207978707386
0.107568139696
0.2190972079
0.165866738487
0.0993739606209
0.220488003366
0.127690673289
0.121497102823
0.183892213434
0.144520631067
0.173976273241
0.113607665667
0.162943107352
0.0843667736976
0.170624859609
0.0468853381424
0.0277367280439
0.0317302460332
0.0663381980043
0.171549854952
0.0774650342996
0.130641324969
0.186503666314
0.118734871565
0.0867026595261
0.0782429654866
0.15605743754
0.358708319974
0.342636575592
0.105032193996
0.279447590301
0.158541614494
0.178652287744
0.230816320191
0.0928974320059
0.167285036926
0.129670291787
0.204188785809
0.119466953081
0.0917055660665
0.130687034913
0.0594057074689
0.132711242558
0.322449332445
0.213325955703
0.384796008585
0.2145675557
0.414836136208
0.539714822363
0.432682501825
0.463813499395
0.434883580027
0.480835825561
0.39855098483
0.432192036425
0.258769298078
0.391089553355
0.26293538895
0.70211960347
2.85716825826
0.0270530904349
0.0762013354678
0.105074526026
0.0779686699803
0.0981307352265
0.0896350605618
0.100088642852
0.0986671758331
0.149412775757
0.168158260006
0.197504445376
0.213068301286
0.210247087859
0.218382812613
0.239439766769
0.236659933222
0.228795368026
0.239537532745
0.250263389593
0.263419680371
0.267978598518
0.254947983919
0.264359486103
0.307042212453
0.316022049013
0.278048241089
0.214940386893
0.215429207955
0.243429918352
0.269187411038
0.265906552745
0.184953022365
0.1549377494
0.200636996426
0.211016690196
0.139587700769
0.0515814397305
0.0545606537556
0.188109152334
0.20219050738
0.255451215871
0.242933716072
0.422695903714
0.103213664081
0.29392670377
0.243468264702
0.206608482955
0.200242774715
0.117852926123
0.361341237803
0.43727619918
0.418992195138
0.313461704619
0.749759317943
0.372656331039
0.378480608183
0.538706508232
0.533360952169
0.472043597595
0.32424372528
0.496478355248
0.412117354852
0.447728803628
0.606550433464
0.230179042106
0.226912128356
0.295716841359
0.389203813488
0.264480763849
0.0946026530069
0.0455028292689
0.0746053773488
0.103487723363
0.0799902566149
0.104686091022
0.0422366418514
0.0896076554792
0.0842673979354
0.0736929844567
0.0463202935325
0.0580669584633
0.0780052563861
0.0966703383213
0.0628492059067
0.0872815805476
0.0872210072482
0.120827224569
0.0974041010019
0.0499669837489
0.0763925117001
0.0807745064321
0.0786836179496
0.0315381295471
0.0602836794195
0.0677180561461
0.0980809823052
0.140885753759
0.178630096365
0.207574324457
0.257409174303
0.332725330128
0.371279358301
0.400006434761
0.385650820055
0.384450551853
0.420080406582
0.442102617236
0.436478575509
0.431360050283
0.437525320176
0.455077894292
0.4475662497
0.441107437767
0.409095583337
0.361399269328
0.365399084272
0.376414747867
0.296387433434
0.220208295644
0.202660306472
0.155333191387
0.0231177294121
0.145177184598
0.147514997913
0.22735827394
0.187636313075
0.197227833046
0.183209599469
0.188286743954
0.231697456983
0.21540368162
0.218029274456
0.226356143015
0.219068467918
0.262020078594
0.264019829494
0.282719612704
0.302520820931
0.268411387237
0.27567896396
0.273590047099
0.286057724861
0.305828110598
0.301715216233
0.304337366567
0.338899662188
0.329702637373
0.320870905695
0.337596351336
0.366894230847
0.351087193962
0.376801649701
0.370235230876
0.381608404909
0.39591445242
0.378872088734
0.408460928102
0.415468262108
0.396178688869
0.42778814962
0.440236800678
0.4571956425
0.460729859597
0.486607372261
0.475271008541
0.522026745049
0.514316198099
0.515165722314
0.499442217999
0.489986114141
0.538488576457
0.542020282275
0.635747338147
0.482012759675
0.601201623596
0.518022253919
0.640191623471
0.531901168929
0.693013317266
0.522023031044
0.69912153992
0.539208587879
0.830519331059
0.533880372741
0.766282299096
0.552471442626
0.804326078397
0.522437852378
0.739745610981
0.545788257516
0.820143811346
0.514159439024
0.808546245098
0.525209003293
0.674520517306
0.555580018666
0.785828280762
0.480829504388
0.698990097435
0.493381764891
0.57795711801
0.505337524329
0.541448518932
0.53731105334
0.536728054735
0.540783599828
0.467741239738
0.506563634321
0.425538541553
0.51185258963
0.491079506007
0.496255781579
0.418276219278
0.381627887216
0.397456398115
0.429066810758
0.34393524149
0.387421299457
0.313269965142
0.288756757724
0.318175450551
0.333764057972
0.359176850169
0.331626584124
0.272018215393
0.326543587686
0.261906764315
0.254811154916
0.276094462993
0.308655484321
0.311679348356
0.31339567073
0.332107932673
0.324806123237
0.313676114273
0.313632513529
0.359956205753
0.372320385332
0.400482206743
0.396273185955
0.400391596599
0.434014668846
0.421089192077
0.399606633233
0.462627023528
0.453153760973
0.47745602437
0.480592263727
0.497298763807
0.512967148397
0.622520464623
0.487387819107
0.636758870523
0.49910104742
0.712804080706
0.510759863441
0.781690300643
0.535180193195
0.813860285395
0.541450543175
0.896657522401
0.596162893919
0.876128884244
0.599179890228
1.25451821722
0.522545394179
1.01040561713
0.561770208388
1.03043829242
0.709634863137
0.948577181522
0.613764559585
0.891076049726
0.682445349363
0.729720584068
0.861097096196
0.78588242032
1.08479793515
0.785453109418
1.37938034342
0.464142750097
1.0257488407
0.567293731862
1.03229388987
0.51620874941
1.01712903138
0.617115742082
0.859748292608
0.658513957868
0.739464327527
0.605636271841
0.573308678252
0.651320046271
0.527160106379
0.532778809457
0.547939687988
0.528104261677
0.503773030965
0.381792191481
0.367538504261
0.393242437167
0.485131144176
0.331677736968
0.395934112481
0.436836368924
0.382415490383
0.383771597002
0.373186637556
0.244014374778
0.311180964451
0.25850038225
0.211324975126
0.299776229361
0.309207059705
0.255852158243
0.313370426682
0.300426603406
0.282263424748
0.113652314343
0.162932553176
0.234408959856
0.18578644587
0.156283945385
0.125056889975
0.178865916384
0.255506764009
0.13925955626
0.460957280511
0.0208163581046
0.112697537788
0.216229399326
0.193144421192
0.180218938256
0.0369262807466
0.0313300046168
0.159372341107
0.120245491639
0.0876630913686
0.0634455909449
0.0386683467864
0.0349423835621
0.0278312181195
0.127476649179
0.0645255774145
0.00281165259286
0.0221111639918
0.0462283876587
0.0536799563475
0.0421037923447
0.0435498531694
0.0720250341477
0.0390238163264
0.0477641023008
0.0713518090061
0.0586969207258
0.0300984968342
0.0790441294563
0.0107810037106
0.0556656113764
0.0445568700127
0.0160173502793
0.00454003896699
0.0644789070269
0.0433203243108
0.0405026563558
0.0579232765645
0.0687815252267
0.0406070465942
0.0497380353429
0.0734480192692
0.0756434703784
0.077426051649
0.0370845147752
0.0733249854946
0.117422002082
0.131471006788
0.102277337009
0.16924005241
0.0932877645331
0.144674535493
0.281874033315
0.486994536368
2.94681663212
0.463113638844
1.49806705891
4.07880944434
3.77117392197
0.469864529683
2.71369174724
0.57246175651
2.90249436628
0.65186758649
2.54365607152
0.179739345668
1.00320559867
0.0605706726036
0.132104482807
0.275553538946
0.20903926814
0.340701727081
0.293035091175
0.018104175692
0.060278625461
0.061400727798
0.236236517025
0.0420112041552
0.119811222783
0.0677613136786
0.0708658342116
0.119581234425
0.0573229824028
0.133998455274
0.202094038566
0.152196005528
0.0136668615705
0.0139420405986
0.0730904620052
0.137128605745
0.291843275077
0.0584752818242
0.0116022343413
0.172130868291
0.0837943508761
0.144597352465
0.245280030995
0.334065451548
0.404936917426
0.465886689481
0.440339649156
0.544911389202
0.572507703779
0.581280915548
0.709991465942
1.02499992927
0.855712657819
0.896366171542
0.940109966309
1.02735861633
0.499611021687
0.546743781918
0.371434768736
0.300387923276
0.3032292439
0.305118716459
0.328279243481
0.145839353806
0.115811970813
0.0723241323524
0.0583346513814
0.0989174301137
0.0495887619168
0.123527640465
0.307147053985
0.0640778360564
0.0950352697206
0.0568267432693
0.280493890539
0.165949839138
0.250047781946
0.259665499537
0.360419983703
0.247181902942
0.130992683011
0.301300370932
0.30362457862
0.265910155417
0.245763791442
0.192238381252
0.240667522939
0.319750773656
0.340278357332
0.290147326553
0.192388004284
0.37724711826
0.703090769968
0.365768489927
0.437048062677
0.769067966862
0.75336952226
1.0095483689
0.902435377505
0.948520357549
0.792954115033
0.76091500821
0.9948745949
0.50381964753
0.938769697726
0.543953857305
0.971216860832
0.479617524898
0.340653163355
0.488044950251
0.235712090942
0.0703935144764
0.0868514004876
0.020206438584
0.0715974911742
0.0696591168435
0.0530526501465
0.10810794391
0.0413219839827
0.0866696698002
0.0601570939709
0.00918142142979
0.0475644432481
0.0595166625241
0.0724053403262
0.00289510808073
0.0519980709877
0.0545112782413
0.0551614412588
0.0361980899135
0.0351908483391
0.0108753487647
0.027178305471
0.0104211661812
0.0128768791116
0.0226483075337
0.109769350344
0.109632899493
0.127940874157
0.261023770551
0.0260232311266
0.0784139393278
0.0538462644022
0.110339863721
0.0192428057904
0.144984534413
0.174478936105
0.0832500165349
0.0164916881754
0.0788944801378
0.0672667815823
0.100458435929
0.296950515205
0.208753453838
0.0911204699671
0.0594697362892
0.126512861531
0.342184773372
0.0624077513155
0.173200098242
0.157741776007
0.169816450375
0.0441695277431
0.0966557021897
0.194296135017
0.212852198741
0.390762882074
0.281406953751
0.334569882706
0.329795972352
0.341613819539
0.403790499922
0.292860537052
0.29840806325
0.347155478507
0.152366719063
0.132306329264
0.247747459666
0.428259347558
0.669459055039
1.20938594426
1.19808719994
1.23704947165
1.51361700217
0.519720880577
1.39462721393
2.39586768153
1000000.0
0.0
0.0
0.0
0.0
0.0
0.0
0.0
0.0
0.0
0.0
0.0
0.0
0.0
0.0
0.0
0.0
0.0
0.0
0.0
0.0
0.0
0.0
0.0
0.0
0.0
0.0
0.0
0.0
0.0
0.0
0.0
0.0
0.0
0.0
0.0
0.0
0.0
0.0
0.0
0.0
0.0
0.0
0.0
0.0
0.0
0.0
0.0
0.0
0.0
0.0
0.0
0.0
0.0
0.0
0.0
0.0
0.0
0.0
0.0
0.0
0.0
0.0
0.0
0.0
0.0
0.0
0.0
0.0
0.0
0.0
0.0
0.0
0.0
0.0
0.0
0.0
0.0
0.0
0.0
0.0
0.0
0.0
0.0
0.0
0.0
0.0
0.0
0.0
0.0
0.0
0.0
0.0
0.0
0.0
0.0
0.0
0.0
0.0
0.0
0.0
0.0
0.0
0.0
0.0
0.0
0.0
0.0
0.0
0.0
0.0
0.0
0.0
0.0
0.0
0.0
0.0
0.0
0.0
0.0
0.0
0.0
0.0
0.0
0.0
0.0
0.0
0.0
0.0
0.0
0.0
0.0
0.0
0.0
0.0
0.0
0.0
0.0
0.0
0.0
0.0
0.0
0.0
0.0
0.0
0.0
0.0
0.0
0.0
0.0
0.0
0.0
0.0
0.0
0.0
0.0
0.0
0.0
0.0
0.0
0.0
0.0
0.0
0.0
0.0
0.0
0.0
0.0
0.0
0.0
0.0
0.0
0.0
0.0
0.0
0.0
0.0
0.0
0.0
0.0
0.0
0.0
0.0
0.0
0.0
0.0
0.0
0.0
0.0
0.0
0.0
0.0
0.0
0.0
0.0
0.0
0.0
0.0
0.0
0.0
0.0
0.0
0.0
0.0
0.0
0.0
0.0
0.0
0.0
0.0
0.0
0.0
0.0
0.0
0.0
0.0
0.0
0.0
0.0
0.0
0.0
0.0
0.0
0.0
0.0
0.0
0.0
0.0
0.0
0.0
0.0
0.0
0.0
0.0
0.0
0.0
0.0
0.0
0.0
0.0
0.0
0.0
0.0
0.0
0.0
0.0
0.0
0.0
0.0
0.0
0.0
0.0
0.0
0.0
0.0
0.0
0.0
0.0
0.0
0.0
0.0
0.0
0.0
0.0
0.0
0.0
0.0
0.0
0.0
0.0
0.0
0.0
0.0
0.0
0.0
0.0
0.0
0.0
0.0
0.0
logs/alpha_1.0/PGSD_800steps_4.log 1000261.00225 1000.26100225 0.144829534953 1000000.0 0.0 720
