Initial Policy Parameters:	0.0 0.0
Learning Rate:			1.0
Learning Steps:			400
Start Time:			1437151886.255536

-- LEARNING STOPPED --

Stop Time:			1437151947.939935
Duration:			61.684398889541626
Final Policy Parameters:	-1.64552938023 1.85525069221
