Policy Parameters:	-2.53560308251 1.29184993223
Control Steps:		1000
Start Time:		1438311336.670224

-- TESTING STOPPED --

Stop Time:		1438311415.5111403
Duration:		78.84091639518738
Cost Matrix:
0.00942534795292
0.136963462916
0.208042810084
0.298680577614
0.410209234055
0.493865103293
0.470060606699
0.407372440521
0.438295018508
0.336302589566
0.30786842168
0.184235788739
0.182003473323
0.113064403973
0.170039544294
0.269815279652
0.415876111193
0.442627404432
0.365799136996
0.321031819477
0.251464445992
0.260249417817
0.201110874758
0.0884098467347
0.0643589567891
0.0547884876933
0.0195072305059
0.00905829586478
0.0329936005306
0.0453370221476
0.0443215994403
0.0758519726739
0.0569011627432
0.148970802017
0.188467822698
0.0253784697263
0.0859009798344
0.0905750310076
0.151932268738
0.172376893399
0.119805037844
0.0388676260429
0.0349241836287
0.0146856071152
0.0800993242948
0.0665318999912
0.0791205097282
0.150275332807
0.133314723856
0.128644670563
0.342340093968
0.258476843678
0.241117294148
0.0549866568596
0.202623644595
0.240555498305
0.106059332333
0.143979871287
0.147754543846
0.152227080421
0.231107663295
0.275792300802
0.373213336365
0.364591478766
0.327335263671
0.218048735503
0.307057832333
0.365749585297
0.392415407242
0.300364292236
0.322363114611
0.146802161187
0.236687629358
0.233946273582
0.137541339571
0.204698215937
0.208878050526
0.222770443929
0.0432261002556
0.0296307511564
0.0256474069283
0.0775366744561
0.100913907899
0.0580597876243
0.0627929108246
0.111831689305
0.121114802293
0.129515001219
0.137157773033
0.0661903539074
0.0981041234927
0.119984772487
0.116216270322
0.17328285976
0.226146795356
0.193094530882
0.278295416047
0.355416364498
0.433225769372
0.524604795341
0.596912025266
0.653687643446
0.729981361296
0.782077813053
0.786503271622
0.677010686223
0.78139633833
0.878818488976
0.839547530866
0.865417745006
1.06135939569
0.883662748509
0.188417120386
0.214454489933
0.148875008318
0.0699982838864
0.0540736971312
0.0515829240149
0.0630849113519
0.0266629367634
0.0510344866467
0.0449934687831
0.0534586903265
0.0897401558454
0.0818470882854
0.0569694094662
0.049343480262
0.0759056104066
0.0466604573195
0.0289555507043
0.0317965814823
0.0184025718621
0.0566750033479
0.0923771771825
0.0574512478015
0.173453415294
0.184055432286
0.115893874157
0.106733689545
0.102584753648
0.0919065602674
0.0428956250957
0.0207846580981
0.0250291028875
0.0553631464559
0.0855127581967
0.10302335635
0.0685289605942
0.0282602236127
0.00647992118113
0.0480391375293
0.0339920206924
0.0283560510236
0.0626245872094
0.0812973275959
0.0475733628526
0.102816547066
0.138622430637
0.0748977410486
0.0895800889289
0.102793568747
0.0913540644734
0.0484109476303
0.0343388059449
0.0363683658419
0.0457403859574
0.0597219358705
0.061676206898
0.0894286985624
0.0795664478669
0.00527056731598
0.113523990642
0.189002393735
0.245033425668
0.260728610622
0.385291600932
0.495485398156
0.794632343926
1.27469211191
2.37365046801
0.928365572921
2.15804854538
1.48572210553
2.07808157332
1.62804820682
2.16741135407
1.27321216368
1.17555034049
1.51341212629
0.145982423654
0.429415943137
0.118966859726
0.115279920324
0.187124139781
0.111033538361
0.138260245176
0.15172318251
0.153010322955
0.182362759049
0.105528113525
0.121768530699
0.161659327779
0.190290375261
0.149486660677
0.136596615749
0.0997731043638
0.153339482734
0.271408242009
0.206662543483
0.24893436626
0.219295826433
0.218643014646
0.160811844029
0.212029625585
0.189600711533
0.240462963418
0.293550072239
0.241778338334
0.25071652667
0.307627561686
0.345543969018
0.369384227494
0.567359601738
0.83242789261
1.19611860554
1.42932868686
1.58288816531
1.44600956748
1.9860985315
1.80369193881
1.66165342667
2.34648653128
0.90314058103
1.46016432422
0.12861973606
0.371266797983
0.303908206729
0.310420559669
0.368585718221
0.17328466669
0.247356790349
0.355786572547
0.282574972671
0.205737068899
0.301650791648
0.335480159409
0.363634248323
0.413318347183
0.400536503018
0.427753984326
0.418818688992
0.434031017833
0.484743485804
0.342480680706
0.476220294169
0.350720413949
0.205570196022
0.229487236974
0.381625011779
0.271724385467
0.25103870406
0.277529805678
0.060197635017
0.042056350494
0.0899251013374
0.158473491262
0.294516806724
0.277267895591
0.0155117453416
0.115261827633
0.0956736762709
0.0193986485048
0.0224776131778
0.0822674405547
0.113689651375
0.132396320452
0.133047361985
0.226637447454
0.214928188488
0.0880877971912
0.0246785240162
0.104484431801
0.245233485495
0.210340212205
0.279789286368
0.22644265012
0.120026757772
0.100623838413
0.177921111652
0.290632318465
0.360800343844
0.489648447202
0.648979105209
0.739695448797
0.696349672319
0.886455156369
0.903662295258
0.848948751057
0.745484906291
1.09082531468
0.729139370593
1.14409900205
0.683759536792
0.565171926153
0.364648953886
0.283796241108
0.0643125608669
0.0604800794425
0.225507532646
0.327857211416
0.239116301046
0.244928708076
0.225632409937
0.256527652406
0.198787536549
0.119073600731
0.114018309684
0.0709189510682
0.0490632040909
0.044148050216
0.0393769437787
0.039812592153
0.0562137683218
0.0605019425988
0.0467024293197
0.0154927011714
0.0657654102538
0.184004944715
0.193161480645
0.192748200849
0.112058757256
0.187837355093
0.166371073675
0.141122788441
0.164166521828
0.176903285591
0.193917711522
0.117257470343
0.206831638202
0.225153606095
0.227780619559
0.238345874125
0.279331530461
0.386911261111
0.412849780897
0.510774950233
0.462305818861
0.482488132548
0.482473385526
0.464711158741
0.503520682836
0.472673614347
0.468405833849
0.425816158037
0.283359485804
0.111590108285
0.109190399393
0.114457618874
0.110789915357
0.0998955072837
0.127418464933
0.232939665625
0.240448214355
0.0879286110629
0.0543100482192
0.0801387394697
0.118506053176
0.138380483534
0.124899717735
0.157440241583
0.261694939739
0.147904774307
0.183684409625
0.214885883808
0.205209540333
0.15202566705
0.17364826517
0.151625792632
0.209323457356
0.304672577325
0.30051886866
0.269958061443
0.273870890061
0.289227185324
0.284115913332
0.323654735325
0.337498027073
0.359088785639
0.361077343472
0.40874346407
0.412403081211
0.435237336404
0.608177569921
0.665230488236
0.582367054667
0.536004355164
0.745656763732
0.59276526492
0.905550467918
0.452315697084
0.555126731441
0.485042108708
0.512345060691
0.391632595489
0.407688524784
0.23660216346
0.210387532865
0.217020640449
0.215516634773
0.170808830154
0.197310674102
0.188802539817
0.188794791416
0.183053139855
0.180480701083
0.188437276618
0.209332572107
0.20704228324
0.224312453346
0.2085645478
0.203925233321
0.18668920717
0.190946385015
0.198046096401
0.210105439594
0.209150039695
0.181939273041
0.205211646817
0.205734861192
0.210326345492
0.199398157354
0.200603469592
0.197340412149
0.192876504709
0.194824781
0.195704329024
0.210516042497
0.212793383582
0.199264391558
0.193045064563
0.213509312277
0.19638246824
0.204532431404
0.174159392536
0.206819485843
0.199485596752
0.187915047954
0.172979574413
0.160487957189
0.191125060523
0.199527796902
0.207508419765
0.170738655527
0.16894340357
0.129718501096
0.13205600982
0.160829221933
0.200247786229
0.191703225811
0.103983698131
0.0904781146398
0.0707850594571
0.0772539353553
0.120325624663
0.193085582399
0.313830325307
0.396106434621
0.465500623731
0.608582894154
0.779745384348
0.756681280435
1.02730657283
0.912487381289
1.24214127221
1.15916272435
0.81764920852
1.46199390168
0.11450478769
0.0568363493467
0.493040289964
1000000.0
0.0
0.0
0.0
0.0
0.0
0.0
0.0
0.0
0.0
0.0
0.0
0.0
0.0
0.0
0.0
0.0
0.0
0.0
0.0
0.0
0.0
0.0
0.0
0.0
0.0
0.0
0.0
0.0
0.0
0.0
0.0
0.0
0.0
0.0
0.0
0.0
0.0
0.0
0.0
0.0
0.0
0.0
0.0
0.0
0.0
0.0
0.0
0.0
0.0
0.0
0.0
0.0
0.0
0.0
0.0
0.0
0.0
0.0
0.0
0.0
0.0
0.0
0.0
0.0
0.0
0.0
0.0
0.0
0.0
0.0
0.0
0.0
0.0
0.0
0.0
0.0
0.0
0.0
0.0
0.0
0.0
0.0
0.0
0.0
0.0
0.0
0.0
0.0
0.0
0.0
0.0
0.0
0.0
0.0
0.0
0.0
0.0
0.0
0.0
0.0
0.0
0.0
0.0
0.0
0.0
0.0
0.0
0.0
0.0
0.0
0.0
0.0
0.0
0.0
0.0
0.0
0.0
0.0
0.0
0.0
0.0
0.0
0.0
0.0
0.0
0.0
0.0
0.0
0.0
0.0
0.0
0.0
0.0
0.0
0.0
0.0
0.0
0.0
0.0
0.0
0.0
0.0
0.0
0.0
0.0
0.0
0.0
0.0
0.0
0.0
0.0
0.0
0.0
0.0
0.0
0.0
0.0
0.0
0.0
0.0
0.0
0.0
0.0
0.0
0.0
0.0
0.0
0.0
0.0
0.0
0.0
0.0
0.0
0.0
0.0
0.0
0.0
0.0
0.0
0.0
0.0
0.0
0.0
0.0
0.0
0.0
0.0
0.0
0.0
0.0
0.0
0.0
0.0
0.0
0.0
0.0
0.0
0.0
0.0
0.0
0.0
0.0
0.0
0.0
0.0
0.0
0.0
0.0
0.0
0.0
0.0
0.0
0.0
0.0
0.0
0.0
0.0
0.0
0.0
0.0
0.0
0.0
0.0
0.0
0.0
0.0
0.0
0.0
0.0
0.0
0.0
0.0
0.0
0.0
0.0
0.0
0.0
0.0
0.0
0.0
0.0
0.0
0.0
0.0
0.0
0.0
0.0
0.0
0.0
0.0
0.0
0.0
0.0
0.0
0.0
0.0
0.0
0.0
0.0
0.0
0.0
0.0
0.0
0.0
0.0
0.0
0.0
0.0
0.0
0.0
0.0
0.0
0.0
0.0
0.0
0.0
0.0
0.0
0.0
0.0
0.0
0.0
0.0
0.0
0.0
0.0
0.0
0.0
0.0
0.0
0.0
0.0
0.0
0.0
0.0
0.0
0.0
0.0
0.0
0.0
0.0
0.0
0.0
0.0
0.0
0.0
0.0
0.0
0.0
0.0
0.0
0.0
0.0
0.0
0.0
0.0
0.0
0.0
0.0
0.0
0.0
0.0
0.0
0.0
0.0
0.0
0.0
0.0
0.0
0.0
0.0
0.0
0.0
0.0
0.0
0.0
0.0
0.0
0.0
0.0
0.0
0.0
0.0
0.0
0.0
0.0
0.0
0.0
0.0
0.0
0.0
0.0
0.0
0.0
0.0
0.0
0.0
0.0
0.0
0.0
0.0
0.0
0.0
0.0
0.0
0.0
0.0
0.0
0.0
0.0
0.0
0.0
0.0
0.0
0.0
0.0
0.0
0.0
0.0
0.0
0.0
0.0
0.0
0.0
0.0
0.0
0.0
0.0
0.0
0.0
0.0
0.0
0.0
0.0
0.0
0.0
0.0
0.0
0.0
0.0
0.0
0.0
0.0
0.0
0.0
0.0
0.0
0.0
0.0
0.0
0.0
0.0
0.0
0.0
0.0
0.0
0.0
0.0
0.0
0.0
0.0
0.0
0.0
0.0
0.0
0.0
0.0
0.0
0.0
0.0
0.0
0.0
0.0
0.0
0.0
0.0
0.0
0.0
0.0
0.0
0.0
0.0
0.0
0.0
0.0
0.0
0.0
0.0
0.0
0.0
0.0
0.0
0.0
0.0
0.0
0.0
0.0
0.0
0.0
0.0
0.0
0.0
0.0
0.0
0.0
0.0
0.0
0.0
0.0
0.0
0.0
0.0
0.0
0.0
0.0
0.0
0.0
0.0
0.0
0.0
0.0
0.0
0.0
0.0
0.0
0.0
0.0
0.0
0.0
0.0
0.0
0.0
0.0
0.0
0.0
0.0
0.0
0.0
0.0
0.0
0.0
0.0
0.0
0.0
0.0
0.0
0.0
0.0
0.0
0.0
0.0
0.0
0.0
0.0
0.0
0.0
0.0
0.0
0.0
logs/alpha_1.0/PGSD_600steps_4.log 1000149.63094 1000.14963094 0.0 1000000.0 0.0 480
