Initial Policy Parameters:	0.0 0.0
Learning Rate:			7.0
Learning Steps:			100
Start Time:			1442264557.1770577

-- LEARNING STOPPED --

Stop Time:			1442264573.6829834
Duration:			16.50592565536499
Final Policy Parameters:	-0.903153562998 1.81517676343
