Policy Parameters:	-0.745238468033 0.582931892289
Control Steps:		1000
Start Time:		1442430122.3594897

-- TESTING STOPPED --

Stop Time:		1442430174.5394607
Duration:		52.17997097969055
Cost Matrix:
0.0221618568226
0.00720104902792
0.00718367403569
0.00967133875068
0.0503943588049
0.0441523978369
0.0621074163525
0.0822015228286
0.0823398855009
0.0738447131129
0.0821695349082
0.0596963823168
0.019459366771
0.0517113970244
0.0898232118845
0.117126859155
0.114764917666
0.126798840418
0.0917588931073
0.0348332672736
0.0272670407601
0.0500422732468
0.0385906374669
0.0553114632211
0.056435867931
0.0788999717716
0.109871026293
0.107867184476
0.111534627418
0.147678795872
0.141077721163
0.132976586279
0.0941842560233
0.0955198331934
0.118411688138
0.115405756163
0.0791427685642
0.0737517751276
0.0821213461561
0.0909574081916
0.074335848833
0.0755169485254
0.0767776255152
0.109650757008
0.0767259211477
0.0136171129941
0.0183767278927
0.0190541721059
0.0201239568223
0.00676215702379
0.0720701853763
0.0897419297593
0.0661424069705
0.0393333518438
0.0763869717421
0.0944067901024
0.0948018509812
0.0855876621811
0.0762254585603
0.0507151062756
0.0376315083749
0.0258043189861
0.0960804989959
0.0885534167775
0.0581233783561
0.039931240185
0.117024613471
0.112646865849
0.0736684464334
0.127002465779
0.130246748076
0.104100955149
0.111030419642
0.101458551996
0.111676658226
0.121236520668
0.11081216137
0.128527428463
0.115131355346
0.0967998215489
0.0954710551625
0.081709265545
0.0864957853362
0.0987652963769
0.0912135671901
0.11005972966
0.104311831069
0.0557879330852
0.0526308472375
0.0767542485496
0.0854023560245
0.0943854575727
0.0642376310634
0.0923736308414
0.115368294609
0.0921042528883
0.0535383193466
0.0240762055904
0.0195779518689
0.045269436283
0.075239627196
0.0838173027081
0.0673978342317
0.122713931048
0.0955542036528
0.0195825115851
0.016267864244
0.0112020228104
0.0455782891749
0.0394620979435
0.0446979139639
0.0701565701634
0.0681136481433
0.0866875025254
0.0877409764667
0.0444098131001
0.0412455988437
0.0407243813507
0.088856536178
0.115845426232
0.108538439033
0.0981114115019
0.152369089032
0.174254924282
0.189857243169
0.19669899362
0.192360403155
0.228316723272
0.261363714529
0.260467564182
0.258488143063
0.248576997574
0.225780570475
0.240730327503
0.253107718851
0.26933842347
0.264610451211
0.31520810641
0.402306706267
0.325794537149
0.27499791766
0.263290425273
0.195667581987
0.148487335603
0.125771057915
0.0549371632601
0.0407919593122
0.0862403436345
0.0850233883412
0.0869990375874
0.0819602410584
0.120469031419
0.126354080185
0.094714421571
0.0820155591438
0.157854226925
0.143187562842
0.117823986489
0.084569526858
0.0614744287497
0.0501751220931
0.0961958682207
0.101486920615
0.106916732476
0.0993034789394
0.0717584081002
0.058289064333
0.0566229448594
0.0350462133752
0.0128106569269
0.00390938044406
0.0682147439488
0.0621178033055
0.044759169898
0.0421983383909
0.0306363879098
0.0162956846742
0.0137896354125
0.0493912918172
0.0572077334686
0.0380678891332
0.073144609162
0.0639331763195
0.0234440290838
0.00389307519905
0.000437256993577
0.0280180342407
0.0267330904675
0.00931242453338
0.0555994954576
0.0438958553917
0.0147612790637
0.0300355837143
0.0487229802828
0.0403356231761
0.00228005736943
0.00959590757164
0.00307065305399
0.00544544030633
0.0290064492149
0.0602634442926
0.057239330309
0.0292806672858
0.0315076322296
0.0560171757084
0.0877096603365
0.0734781476784
0.0400596709212
0.0295566259223
0.00357482509579
0.00967733760263
0.046005582916
0.0819759581902
0.0867426694733
0.0919413139696
0.0495693185111
0.0122659737572
0.0526256031227
0.102318396789
0.0573411263909
0.0866352749051
0.0913630318012
0.101402255909
0.164672977294
0.204691416846
0.218502050943
0.192379001838
0.225460311179
0.228998129753
0.224870824662
0.235733742151
0.232576077413
0.212790128002
0.251345871808
0.256036394339
0.199888892375
0.22272557739
0.256993127339
0.269766426745
0.269613531334
0.27214602207
0.249442518895
0.257897887852
0.232960632191
0.260308499432
0.277833517017
0.248147911362
0.199714779918
0.145987649653
0.118341353626
0.0591034973353
0.0468961904862
0.0232735481891
0.020015031
0.00768914308798
0.0291079337154
0.0325901153799
0.00975210184068
0.0233300244071
0.0462335807346
0.0351729598531
0.0463368340638
0.0862450321693
0.0479081481164
0.0164685159561
0.0252341544953
0.0846502155241
0.0848732092455
0.0693249165721
0.097140554424
0.0508048970285
0.0449057835037
0.0152668378734
0.0911340351849
0.0525344490885
0.103061542685
0.0879177151616
0.0993693062196
0.128122287999
0.1326152582
0.135438698211
0.149082372819
0.151915368138
0.151515941967
0.185575868144
0.168519239345
0.160291801206
0.154683359292
0.129288076637
0.194506667778
0.206083108898
0.191999167549
0.167923261043
0.197249088774
0.203365508956
0.214971610331
0.181856726817
0.162615460585
0.14666857348
0.183923399905
0.189611766593
0.19864296785
0.174195506123
0.188047834845
0.167960866352
0.163909289136
0.1403068903
0.111012782367
0.119180454362
0.0923123061517
0.0693081598739
0.122042600763
0.118166997644
0.0653097494766
0.027963400647
0.0180429063457
0.0279098177894
0.0356126854688
0.0438423468686
0.0353061819926
0.0115721570128
0.0250123711111
0.0199230849303
0.0584814843456
0.0702624903669
0.0569239158683
0.0493217422911
0.058545504439
0.0472397703364
0.0240964127853
0.0574939769946
0.0681209322313
0.114509377254
0.0991603448888
0.0744870923838
0.0779375070967
0.0712852923163
0.0479533682732
0.0460395078837
0.0700979027889
0.0977790125244
0.0744932724549
0.0367045613087
0.100293030473
0.0782744949522
0.0254555235708
0.0393282990459
0.0972766064632
0.108998692103
0.0650700468125
0.041993681749
0.0685011526919
0.116404093247
0.144113620039
0.170901308281
0.249022485457
0.248745040183
0.273371276026
0.350026296932
0.458817912712
0.614651768701
0.727816939143
0.849868438354
0.725399696399
0.464236920823
0.369592241683
0.511480721615
0.381866192926
0.429781432986
0.319616005089
0.045391120982
0.171879565746
0.0674017258591
1000000.0
0.0
0.0
0.0
0.0
0.0
0.0
0.0
0.0
0.0
0.0
0.0
0.0
0.0
0.0
0.0
0.0
0.0
0.0
0.0
0.0
0.0
0.0
0.0
0.0
0.0
0.0
0.0
0.0
0.0
0.0
0.0
0.0
0.0
0.0
0.0
0.0
0.0
0.0
0.0
0.0
0.0
0.0
0.0
0.0
0.0
0.0
0.0
0.0
0.0
0.0
0.0
0.0
0.0
0.0
0.0
0.0
0.0
0.0
0.0
0.0
0.0
0.0
0.0
0.0
0.0
0.0
0.0
0.0
0.0
0.0
0.0
0.0
0.0
0.0
0.0
0.0
0.0
0.0
0.0
0.0
0.0
0.0
0.0
0.0
0.0
0.0
0.0
0.0
0.0
0.0
0.0
0.0
0.0
0.0
0.0
0.0
0.0
0.0
0.0
0.0
0.0
0.0
0.0
0.0
0.0
0.0
0.0
0.0
0.0
0.0
0.0
0.0
0.0
0.0
0.0
0.0
0.0
0.0
0.0
0.0
0.0
0.0
0.0
0.0
0.0
0.0
0.0
0.0
0.0
0.0
0.0
0.0
0.0
0.0
0.0
0.0
0.0
0.0
0.0
0.0
0.0
0.0
0.0
0.0
0.0
0.0
0.0
0.0
0.0
0.0
0.0
0.0
0.0
0.0
0.0
0.0
0.0
0.0
0.0
0.0
0.0
0.0
0.0
0.0
0.0
0.0
0.0
0.0
0.0
0.0
0.0
0.0
0.0
0.0
0.0
0.0
0.0
0.0
0.0
0.0
0.0
0.0
0.0
0.0
0.0
0.0
0.0
0.0
0.0
0.0
0.0
0.0
0.0
0.0
0.0
0.0
0.0
0.0
0.0
0.0
0.0
0.0
0.0
0.0
0.0
0.0
0.0
0.0
0.0
0.0
0.0
0.0
0.0
0.0
0.0
0.0
0.0
0.0
0.0
0.0
0.0
0.0
0.0
0.0
0.0
0.0
0.0
0.0
0.0
0.0
0.0
0.0
0.0
0.0
0.0
0.0
0.0
0.0
0.0
0.0
0.0
0.0
0.0
0.0
0.0
0.0
0.0
0.0
0.0
0.0
0.0
0.0
0.0
0.0
0.0
0.0
0.0
0.0
0.0
0.0
0.0
0.0
0.0
0.0
0.0
0.0
0.0
0.0
0.0
0.0
0.0
0.0
0.0
0.0
0.0
0.0
0.0
0.0
0.0
0.0
0.0
0.0
0.0
0.0
0.0
0.0
0.0
0.0
0.0
0.0
0.0
0.0
0.0
0.0
0.0
0.0
0.0
0.0
0.0
0.0
0.0
0.0
0.0
0.0
0.0
0.0
0.0
0.0
0.0
0.0
0.0
0.0
0.0
0.0
0.0
0.0
0.0
0.0
0.0
0.0
0.0
0.0
0.0
0.0
0.0
0.0
0.0
0.0
0.0
0.0
0.0
0.0
0.0
0.0
0.0
0.0
0.0
0.0
0.0
0.0
0.0
0.0
0.0
0.0
0.0
0.0
0.0
0.0
0.0
0.0
0.0
0.0
0.0
0.0
0.0
0.0
0.0
0.0
0.0
0.0
0.0
0.0
0.0
0.0
0.0
0.0
0.0
0.0
0.0
0.0
0.0
0.0
0.0
0.0
0.0
0.0
0.0
0.0
0.0
0.0
0.0
0.0
0.0
0.0
0.0
0.0
0.0
0.0
0.0
0.0
0.0
0.0
0.0
0.0
0.0
0.0
0.0
0.0
0.0
0.0
0.0
0.0
0.0
0.0
0.0
0.0
0.0
0.0
0.0
0.0
0.0
0.0
0.0
0.0
0.0
0.0
0.0
0.0
0.0
0.0
0.0
0.0
0.0
0.0
0.0
0.0
0.0
0.0
0.0
0.0
0.0
0.0
0.0
0.0
0.0
0.0
0.0
0.0
0.0
0.0
0.0
0.0
0.0
0.0
0.0
0.0
0.0
0.0
0.0
0.0
0.0
0.0
0.0
0.0
0.0
0.0
0.0
0.0
0.0
0.0
0.0
0.0
0.0
0.0
0.0
0.0
0.0
0.0
0.0
0.0
0.0
0.0
0.0
0.0
0.0
0.0
0.0
0.0
0.0
0.0
0.0
0.0
0.0
0.0
0.0
0.0
0.0
0.0
0.0
0.0
0.0
0.0
0.0
0.0
0.0
0.0
0.0
0.0
0.0
0.0
0.0
0.0
0.0
0.0
0.0
0.0
0.0
0.0
0.0
0.0
0.0
0.0
0.0
0.0
0.0
0.0
0.0
0.0
0.0
0.0
0.0
0.0
0.0
0.0
0.0
0.0
0.0
0.0
0.0
0.0
0.0
0.0
0.0
0.0
0.0
0.0
0.0
0.0
0.0
0.0
0.0
0.0
0.0
0.0
0.0
0.0
0.0
0.0
0.0
0.0
0.0
0.0
0.0
0.0
0.0
0.0
0.0
0.0
0.0
0.0
0.0
0.0
0.0
0.0
0.0
0.0
0.0
0.0
0.0
0.0
0.0
0.0
0.0
0.0
0.0
0.0
0.0
0.0
0.0
0.0
0.0
0.0
0.0
0.0
0.0
0.0
0.0
0.0
0.0
0.0
0.0
0.0
0.0
0.0
0.0
0.0
0.0
0.0
0.0
0.0
0.0
0.0
0.0
0.0
0.0
0.0
0.0
0.0
0.0
0.0
0.0
0.0
0.0
0.0
0.0
0.0
0.0
0.0
0.0
0.0
0.0
0.0
0.0
0.0
0.0
0.0
logs/alpha_7.0/PGSD_200steps_2.log 1000042.09551 1000.04209551 0.0 1000000.0 0.0 373
