Policy Parameters:	-26.2345491905 26.9405751879
Control Steps:		1000
Start Time:		1442448027.6330063

-- TESTING STOPPED --

Stop Time:		1442448266.2595646
Duration:		238.626558303833
Cost Matrix:
2.11968851107
0.027387254342
1.19819680182
0.010334063321
0.305725658294
0.730735659186
0.292144397328
0.201053946147
0.463788152875
2.0163329738
0.00396030047606
0.118500218481
2.2348066137
0.421601937618
3.67424196481
0.0897299177668
3.3279475079
0.33285520483
3.77332009497
3.77118807617
0.355139733414
1.17108488209
0.046722953759
1.85124948223
2.50294666137
0.0196238395168
0.786859304555
0.042912693025
1.74947509953
0.15418452234
1.4461154702
0.0176206539519
0.48600873948
2.9981814218
0.0358471505188
1.423491331
3.77117426139
0.351241941664
3.77117392197
0.0177261661227
0.760146409052
0.0114841304776
0.374502628926
2.6900838893
0.00610348432251
0.200232076778
2.48223932951
0.036669997137
1.58747279792
2.47607321475
3.77117392197
0.0360245162383
1.48058578922
0.0186279951263
0.528147944619
1.88771210148
0.0105437528509
0.299787987575
1.62421037854
1.7450475444
0.0331427898721
1.43822467933
0.00418529347486
0.172859931556
1.72692746527
0.00152859142176
0.0778391016571
0.800610961824
1.78110844524
1.70533527786
1.0147652827
1.95696720382
1.20711107834
3.77216833343
3.18758901972
0.141285063832
3.77117426139
0.0820656312031
2.99698921565
2.0088714086
0.0246782440502
1.00070419662
1.48817640035
0.000320612423361
0.0346612737582
0.279848175698
0.0235800846296
0.987575563483
0.739493653895
1.87791701664
0.0496990674193
2.06260140249
0.0192153360328
0.699022232859
0.0
0.0519316225787
0.460789674545
2.98882391333
1.11157503927
2.918455725
0.0627465835558
2.40443538671
0.0307102880944
1.18619599084
2.33524914814
0.0419957382194
1.80639919655
0.259693597363
2.06044173269
0.0460914449632
1.95451187871
0.0275148591552
1.04693668888
0.16057062661
1.70200466078
3.77117426139
0.0464943656417
1.96087817141
1.83266176275
0.573862673147
2.71947021073
3.77126007152
1.04098368313
0.050040083159
0.185747509788
0.405806730268
0.511949548086
1.25139955237
0.0486225752514
1.94143196944
1.0603812542
3.77117432498
0.0935868396471
1.34982292644
0.0490269163336
2.03979321827
0.0395110402571
1.72475911433
0.0129884673737
0.420532877639
0.00737128766591
0.263311983678
0.618680334211
1.96132387802
0.010448691848
0.348852209349
2.06428688145
0.00947672400667
0.253261696641
1.69674020326
0.0314023514981
1.33992493827
0.280865004912
1.6221667736
1.29645825946
1.83930680438
0.0120176266777
0.397207568329
0.0794282844228
2.9340697017
3.77117392197
0.0829560069
3.01546919645
0.0352890979006
2.05579332815
0.00893911198956
0.269888394856
2.55093844864
0.0323824500952
1.39193283608
1.36241102842
0.0492318232681
1.99831009209
0.00293165857385
0.163935232226
3.77117426139
0.0213911880889
0.899718981946
2.8086331509
0.00826245087353
0.313157594164
2.96912317602
0.0136160634049
0.376512247278
0.0426754371828
1.82069537985
3.77117426139
0.0274479878503
1.1670034183
0.0225056585298
0.794116619489
0.592100257769
1.62005715555
0.0210825476343
0.646259421311
2.41604631436
1.45953600074
2.96049877536
2.59393351478
1.06983195899
2.73318743386
0.0125784942459
0.346006822645
2.69697881105
0.00917145199422
0.306860092584
1.58798116625
0.0253689916817
0.980193160631
2.03551787054
0.0141769915818
0.392617326816
1.00838609384
1.07743261296
1.67273032186
0.0047027492032
0.119064295257
2.06638336182
0.385768696749
2.61216590418
0.0764038781998
2.82875130912
2.01940604102
3.77120858612
0.549759360089
3.77117426139
0.0633634939674
2.55413551604
0.500360685905
0.789859849302
1.89985045803
0.0220487898724
0.773909979667
0.429731616544
0.165869418287
0.660222681704
0.132552870781
0.148586625572
1.58580105189
0.00580933482226
0.216869831273
1.49529925613
0.0286807375829
1.20549142122
0.00415413524654
0.159237161376
1.55363886119
0.00329686680169
0.133709798567
0.476673280047
0.0416145784903
1.76750112206
0.0301873746794
1.19249297498
0.00989054577918
0.351200594348
2.51930985338
0.0274430847964
1.16414016417
1.87928674842
0.435302631952
3.23574351362
2.35509793813
0.0648681373745
2.56464142634
0.051303278123
2.12166903346
0.0241563431366
0.925574227464
0.0129408937155
0.356027638159
0.0092203612012
0.266306518825
0.162465313556
0.00482506201503
0.175705332654
2.1659846279
0.0220013107227
0.85626093332
0.304983510907
3.40277763854
3.33537154075
0.134356882355
3.77130891452
1.35781772266
0.14484095711
3.12547995785
2.20981244939
0.00824997759121
0.268447613193
0.152847081981
0.0463117168721
1.89116016523
0.0257110778168
1.01376698761
0.0608040298634
2.38313898284
0.376108148203
3.45014278501
0.328334701097
1.45256321595
0.0089940608842
0.318901919871
1.56760989216
0.039976132042
1.64596656551
0.13117508733
3.77117426139
0.0395736016368
1.71767165658
0.022429722821
0.876208631927
0.00789258193697
0.25659092926
0.0550700363773
2.19260386785
0.01139220359
0.342732657238
1.49164097983
0.0294100858961
1.26076113811
0.00679363226182
0.244052061018
2.34812458757
0.0115137613333
0.362131327246
0.0263787678503
1.04939244413
0.171625336418
2.24517820493
0.000310446030292
0.0480920916133
0.0915897411446
2.68719794025
0.000452574157778
0.0705960979829
0.762322413082
0.220856444513
0.374900679984
0.249118448632
0.364184888084
1.42760477064
0.00601486588471
0.20261367051
2.0526416855
0.00239569456057
0.0986314378552
1.31636894742
0.132220536755
0.519093754323
2.09624260627
0.0152340897142
0.407893678173
2.20520822708
0.638686690883
2.67129943928
0.0696411565295
2.64177146768
0.0328577750592
1.34437548147
0.355047074964
2.11462668775
0.031085967712
1.27004639895
0.00513104831927
0.204397688497
0.466334959629
2.55086096048
0.0508161842288
2.49730863562
0.0349816033696
1.55176302912
0.0115791316846
0.329503714521
3.33207564144
0.0212163757501
0.81120821573
0.200604563906
3.77145192477
1.92139634096
0.0826137778927
3.00269458569
0.0553565332865
2.27187962167
0.00456326426069
0.126349647974
0.298349604662
1.74904848396
0.0162663990962
0.460672272953
1.10817340534
0.0431240283932
1.83757335048
0.0
0.0500095366563
0.141856485227
0.954672573805
0.00202499552304
0.10368044994
2.26506041421
0.0163137171208
0.469965848289
0.124986613677
2.2185693023
0.0230182119486
0.934803724529
0.654766369193
3.77117392197
0.0160709005986
0.455175673946
0.774504185078
0.4450101268
1.77749575633
0.0431354424964
1.8480309995
0.032870666783
1.42384385662
0.00176416723005
0.121913993412
2.23035171673
0.0
0.0494658135729
0.910215447923
1.49470416432
1.14582390421
3.29426858841
1.16525096923
3.77117392197
0.00509200423031
0.154861048906
2.37982911443
0.0523212699582
2.18166023734
2.12313885642
0.004680033229
0.206631793473
2.94787005529
0.0958383928106
3.34395780474
0.00425431288589
0.137860073783
1.77956448144
0.00867527229315
0.304925897827
2.21891204
0.000695766202879
0.0370198158656
0.444344481733
2.21914217096
0.0328525000247
1.44914713079
0.280634318317
2.63415214552
0.00640166034645
0.19255506262
2.15709356751
0.0
0.0190396428981
0.4923546653
2.36075959043
0.0323345721058
0.296147478133
3.21818163091
0.00258028152558
0.101329059246
2.48351710819
0.000928058092548
0.039421154626
1.00123059878
2.175444871
0.0152465964335
0.418712878432
3.03863222276
0.0201061221593
0.31940007064
3.07236107484
0.346391377368
3.23811066676
1.07235476241
2.266831064
0.0549064282683
2.18912924142
0.0485395942993
1.96335327813
0.217469266634
3.06388607533
0.00740171629187
0.27593949057
0.0310826437421
1.26610649717
1.77888574648
1.05816396061
2.35519322217
0.300381629088
3.77864521422
3.7714082596
1.79539433395
3.77117392197
0.198337573914
3.85059618668
3.77147929815
1.95486680611
1.52840470098
2.03577705062
3.57250202554
0.728144740852
2.84379205933
0.274841701397
2.80591471672
0.717693260372
3.77118582752
0.293515588403
1.71228469714
0.0657207312843
2.5916860852
0.0049776547935
0.161930333126
3.08039027595
0.0550886314117
2.2631392009
0.459703898103
2.81329515589
0.0199653748645
0.565931522775
1.79330642636
0.0395616183484
1.69480925631
0.0489427415674
2.06478951365
0.0433096673335
1.77531694409
0.1015668993
3.596928756
3.77117392197
0.163783026028
3.77611091794
3.77117392197
0.154380385117
3.77146017376
1.79993052737
0.577474271151
2.53477184565
0.0447346563354
1.82127544101
0.0128225883613
0.375819023206
2.03075149992
1.33070297256
0.0100876719639
0.33644538115
2.82534237826
0.00204757402801
0.122330379033
1.78322300043
0.0190124613245
0.661546597878
2.06117309535
0.00804654777443
0.284786218796
1.78625720377
0.0128042014582
0.364843345671
2.01119525085
0.0137745149573
0.394156316647
2.02169648577
0.00642429450854
0.216226756275
3.09504226009
0.0296289686924
1.31964663813
1.43173897868
3.77117392197
0.00496600924546
0.15749100334
2.21466572283
0.0312455849956
1.24618290342
0.968377471001
2.1669827197
0.0421912361466
1.82476568181
3.77703339233
3.77122503591
0.688743310741
1.47068297112
0.0333881416293
0.26842179721
1.96889149415
0.00147746223637
0.12145081998
1.94023931399
0.0
0.0427100277098
0.352607866033
3.03714700328
0.00240111173952
0.177769813183
3.65274988569
3.77260906227
3.56481496861
0.461470577313
3.22775605875
1.38437946741
3.34983131557
3.20349394892
0.275525079345
2.2157602245
0.0475701532032
1.9025151275
1.27824793166
2.5580706894
0.391284811216
3.64036443069
0.065954026025
2.65386827152
1.95256277121
1.54715825512
1.17014722643
2.05282877456
0.0271028884003
0.629508430333
3.5773953727
0.0227083635962
1.00392715428
2.91313029297
0.137874774488
1.79358354743
0.861670824291
2.74932610016
0.0487307022256
1.92777263922
2.39482908922
1.09457338667
3.58100271539
2.15595464118
0.0340107896859
1.32539340043
3.18198256625
2.0439975564
1.36901154696
2.47081439789
0.0782134256298
3.01179514972
0.0161480442316
0.427683347481
3.77151621778
2.10182783532
0.500256336933
3.77117586847
0.184949927547
3.11736498279
0.598409860632
3.77132529368
1.46192560399
2.39432414381
0.505710686886
3.77383797381
3.77195510306
2.91931076273
1.62348231727
2.93320261653
2.20203783522
2.83803338301
3.31475230286
0.0889354045679
3.30766691566
3.77219659184
3.22258335841
3.77134747965
1.5022946324
0.0877005377387
3.23293242356
0.241951028465
3.72213506471
0.0797530856212
3.00044832901
0.0208443549439
0.873674764662
3.77117392197
0.124568070337
3.779638465
3.77267616484
3.69209249131
2.3861466985
0.0497430394266
2.07195194549
3.77314532668
3.77647277345
3.77117426139
0.00104694177492
0.0643395000286
0.254128177166
2.41256021181
0.771821904728
0.0758051296572
1.40000869895
0.174574422909
0.324130373394
1.20551764974
1.63869804586
0.0520632956702
2.08328266335
2.76786263151
0.044863056316
1.82667680018
0.0635986519193
1.4208939962
0.748772466124
0.151394005474
1.26025632843
0.0383907405514
1.66852071708
0.0234618428728
0.846832777647
0.979849736259
0.0303616816127
1.29117454294
0.429965594785
3.04463954619
0.0
0.0681961407189
0.437855655301
1.55453573547
0.00429606228124
0.135078396445
1.38390249979
0.0125371957447
0.394794646927
0.228840205004
1.48661937873
1.25730435218
0.00658288966969
0.203964467264
2.6544382424
0.0123677554124
0.34616909659
0.694381271298
0.0124892467871
0.364140492465
0.154760964519
3.13933760074
0.018765116155
0.505606428253
1.8352576917
0.383806041795
3.45988100757
0.0297864915412
1.13100857428
3.67507150676
0.0419220491266
1.73083219804
0.00541263009803
0.186079533703
2.40486274984
0.00972901198179
0.276474555247
1.43848120699
0.0570119096454
0.0800250597874
1.54180015795
0.00511632950419
0.180964724903
0.125974784641
1.53422284407
0.00343243944139
0.139121347876
1.28256629261
0.944591284506
1.46465978688
2.01622599806
3.77117426139
0.136492799821
3.77117426139
0.0582373409918
2.26228604618
0.0664687716277
2.62716104353
0.0131059175662
0.35519053441
0.93659247102
0.421067256747
1.79919593139
0.0555799145438
2.26490766476
0.0003048074344
0.0158105131837
0.287281289394
2.61463828057
0.0334398986247
1.32379450763
0.16631073588
2.51061683355
0.0063469203788
0.257168962087
2.54699545848
0.0349741882888
1.5141432412
0.860093619993
1.74010285508
0.306320660276
2.42528749152
0.00581859892111
0.231752216803
2.49054229952
0.0325398433328
1.38630971235
0.00594505948196
0.218778236234
1.12169356012
0.0356946421267
1.45147464999
0.00228575370598
0.124183636979
1.21490269129
0.0220633884218
0.861407015904
0.0203119088024
0.333391496332
1.83044394943
0.00710804971461
0.254106736721
1.61363434491
0.0135911247716
0.419787402342
1.38424104484
0.000402178155422
0.0748224265384
1.2085408409
0.00697205785659
0.243240102061
0.368376715628
1.62341805361
0.0420236838973
1.71886459471
0.352347713093
1.73348291031
0.478366928642
2.67057380414
2.05804860123
0.0895577210598
3.16827561049
0.0163465278065
0.433017396545
2.2704205505
0.0
0.0761264612816
2.72927922941
0.0223055501448
0.91520273274
2.19059044909
0.02836150976
1.07716891098
0.509120458898
1.62536251433
0.052912147194
2.18149657473
0.0142134516192
0.378919686317
0.200968774237
2.10616211787
0.0619200470468
2.47131438292
0.0307001769355
1.33676392483
1.3528198138
0.640693406204
2.29458600943
0.0259573460181
0.963617889544
0.459295702511
3.08847618952
0.0220573589869
0.898216136032
2.52964630617
0.00488439895661
0.212614371883
2.57036082147
0.00668106920994
0.251524358599
2.01559936066
2.20962476781
0.00206278863786
0.0679323615665
0.406608427208
0.146127134272
1.43313209187
0.178593528693
2.38154850023
0.0326601059757
1.41906805281
0.973054113844
2.04549945678
0.0131506834534
0.4200887598
1.81431961248
0.0104777285835
0.347078288524
1.81805090539
0.00930106287949
0.268238923171
2.34673382973
0.0066163661649
0.247744115854
1.57604465883
0.0
0.0220028294331
0.350187512902
2.58232152443
0.00614444096395
0.233071703923
2.41641026403
0.0204408878783
0.785243105487
3.1380839854
3.41520293307
0.101256316882
3.58302786767
0.0
0.00450098500434
0.145832840077
0.0133697881427
0.395977037601
2.04856787272
2.69027315588
0.0
0.0272637074506
0.48161321241
0.312378772589
1.92037190627
0.0428734678527
1.81913076723
0.0048086891958
0.160468221472
1.88075016487
0.0417794344286
1.72537646947
0.0
0.0448011678445
1.44051003899
0.0159363561235
0.477744369487
0.959638389959
0.0240443476688
0.969664829633
0.00475595661008
0.1858710016
0.0115306466311
0.342817205671
0.822350224308
0.0203488016929
0.677362470312
0.00929897707061
0.27961855859
1.61056685239
0.00517942960406
0.185944873007
2.20996096086
0.0341890157808
1.37879744082
1.77118942441
1.93008700711
2.91253083065
1.51075848113
3.582135051
0.0166484982035
0.474728967436
2.49165162445
0.0186690019622
0.581683738507
0.550348505046
0.288419071383
2.54209062187
0.00256403209771
0.130196087952
1.43291340107
0.00405431923349
0.1779576666
1.3963464169
0.0227966231461
0.885490696715
0.00699917592709
0.210286158897
0.327167885681
0.573769358853
1.40009521961
0.00422223985218
0.173475939581
1.02939924632
0.00823118113132
0.277444388021
1.43720165893
0.00182182167205
0.124275817173
2.8089887796
0.0696369924907
2.71185052331
0.0262187097313
1.10455354414
1.99377947827
logs/alpha_7.0/PGSD_700steps_2.log 1108.76095666 1.10876095666 0.515521651204 3.85059618668 0.0 -1
