Policy Parameters:	-3.30252920861 6.96414223609
Control Steps:		1000
Start Time:		1442428991.508909

-- TESTING STOPPED --

Stop Time:		1442429174.2748303
Duration:		182.76592135429382
Cost Matrix:
0.485922237653
1.69771526926
0.859484702084
1.32895094608
0.579914275452
0.149416640665
0.4937312839
0.252798924845
0.118771558224
0.366139919305
0.114843852771
0.0700936878899
0.338080253976
0.0877463917229
0.0507060151146
0.439142502444
0.381245131382
0.2324011924
0.0475735642537
0.242214585972
0.130972239471
0.263569270678
0.29206411704
1.10460872714
0.0845778378121
0.899209398993
0.447115865072
0.466445867938
1.0715786151
0.373697279573
0.796821385068
0.376850750897
0.515114268069
0.427662068494
0.719447606907
0.709372245503
0.250732884403
0.24389657908
0.382868845094
0.130867661003
0.248573774934
0.179166468006
0.0800862068497
0.0662629368284
0.134730127247
0.244397236472
0.226832664041
0.0848390754029
0.10254616939
0.167355124554
0.179746119717
0.0160335398355
0.0478915792704
0.21315173664
0.206892590349
0.190764600839
0.515402607483
0.255133849019
0.214700044021
0.225638968172
0.636054917086
0.273009442205
0.06516710045
0.350873218667
0.366093467502
0.205466918476
1.02069767678
0.508112986344
1.16210282746
0.956963403101
0.66588506678
1.64457906979
0.644361768064
1.69257393893
1.2098743928
1.90408002468
1.66112146335
2.12532106556
1.77179943297
1.50212185637
1.72177477364
1.26692312986
0.417322646841
1.22952641052
0.15195527432
1.17548679794
0.519238733104
0.14078519577
0.249662286991
0.500071426334
1.32842665594
0.453549145992
0.948836128332
0.548920057397
0.928820370385
0.547882069108
0.567908818165
0.818505531346
0.272153652258
0.46952639526
0.406902349822
0.511803849327
0.433437881731
0.295475740933
0.388944690467
0.249974668915
0.101881337496
0.258631530562
0.229572027976
0.0746644396399
0.0282917111366
0.0189386844836
0.0207380876171
0.0175373252096
0.266673361193
0.361850064921
0.252308531662
0.377975325003
0.79075609258
0.252086475042
0.461940891864
0.482484683424
0.762667699647
0.414580110114
0.531309954534
0.287921034228
0.379038405472
0.173063412656
0.274668414114
0.194138583072
0.109096476916
0.81919341198
0.160858465754
0.359343044439
0.554809064794
0.435507700114
0.0557544343287
0.852273370053
0.0874125952368
0.305478784834
0.33427873142
0.338321325949
0.250565127927
0.379256873327
0.329170585724
0.422837886231
0.437702201366
0.500053838931
0.924763040268
0.566915252631
1.27462814115
1.07514807391
1.24188627278
1.27937929109
1.43638818546
1.46336932267
1.46703528218
1.47315859194
1.41631767544
1.16696121087
0.5885441056
1.4916598061
0.832444052638
0.525916124749
0.650323749802
0.489691291108
0.303662607335
0.264248070391
0.134636298589
1.20336782544
1.41452476672
0.532178785841
1.11031868742
0.485727204604
1.2047258743
0.540847387158
1.15127309758
0.329911768658
0.696439145358
0.173033720403
0.282237759915
0.0569505249199
0.0601797084481
0.0157917566237
0.193185280273
0.475700973516
0.449625592184
0.569283301058
0.347245478861
0.589517273336
0.219239750437
0.42189923398
1.01592325083
0.344575054702
0.486144819554
0.289500511797
0.370167726305
0.978749756523
0.283905973949
1.18716916714
0.16729542622
0.0709811277504
0.133733265649
0.301720088197
0.093799724642
0.334231760142
0.39627093895
0.460688555625
0.497416633464
0.937532158731
0.373793950385
0.605219461961
0.979531465452
0.786580769436
1.04418203857
0.880612417349
0.907141321391
0.98361965703
0.876122244754
1.00351622665
0.89075715776
0.487171942767
0.556311585947
0.612616228574
0.394809904276
0.359547458737
0.282405578628
0.339764222361
0.114852310743
0.286740257733
1.26961358251
0.0864381164529
0.602279107903
0.700448089874
0.751553205799
0.341374693893
0.997478072417
0.422380209343
0.558161377577
0.436907319233
0.460982162627
0.439793351305
0.470153298502
0.328546558557
0.608845357976
0.389301276541
0.410633342626
0.353632127588
0.978671563177
1.42904368059
0.456280347515
1.54698900274
1.11223578147
0.907471756428
0.841667789578
1.10863079368
0.970011089587
1.07730784871
0.395830426917
1.44115130693
0.0875664299356
0.265611562282
0.4590359423
0.474298990392
0.471163062344
0.463710540797
0.468629659396
0.466905783929
0.493225088549
0.48224765651
0.487677570607
0.483344805191
0.476768079251
0.489739733193
0.487890620755
0.46099982484
0.504237243462
0.495543404086
0.471541542913
0.486261618012
0.493848790509
0.512087653053
0.525607166296
0.483468699979
0.495610355714
0.528100196021
0.499973513214
0.521579077643
0.480886924212
0.473726612885
0.503343278898
0.463497968037
0.51982889523
0.475511217929
0.481296533923
0.462552834698
0.42482145836
0.410112646995
0.423587558622
0.403302872584
0.402874565732
0.422063503029
0.393440130653
0.384465956474
0.348022754261
0.391437267343
0.398400315795
0.213979016649
0.448617500532
0.467328454077
0.439529456601
0.432069907321
0.344691925964
0.39128129995
0.425664585147
0.441370434745
0.454689645467
0.479378714062
0.754291106176
0.593364849312
0.900289592479
0.865571952859
1.40107883392
1.10668439024
1.27968648381
1.28811386197
1.34143660858
1.31504675658
1.31512380858
1.36591776192
1.30238305517
1.12882809856
1.15192816201
0.967159063838
0.447188781028
0.535866115198
0.432330272499
0.482278418822
0.0689798518151
0.200418174328
0.121284405245
0.0949837222851
0.920100981815
0.0348144529525
0.125518896375
0.172410501036
0.216898811299
0.230314938199
0.0959866647982
0.106503027462
0.0497360263843
0.177558344446
0.182659777885
0.144489942785
0.306372300421
0.358409424247
0.144547919191
0.3721490775
0.263946982446
0.258223709543
0.122149559091
0.391878194784
0.120904385998
0.0662568037545
0.168572640066
0.277418146172
0.307372960308
0.188943618985
0.219079305219
0.154499746274
0.416960120031
0.242653083214
0.20557733481
0.338156627391
0.122202364764
0.209390985313
0.257676364931
0.155044033492
0.127611569531
0.399630852382
0.302438172932
0.425426134658
0.438902128144
0.542095255095
0.724635695717
0.822373380503
0.862746765539
1.1984729865
1.2128580413
1.67666020804
1.41564873712
1.50778538335
1.33602821805
1.32110661365
0.627169791517
1.81045402973
0.700398416337
1.27234713274
0.345386428059
0.904637571511
0.487045678702
0.464835911747
0.330114734521
0.336212154318
0.178685379403
0.440851182205
0.157517013201
0.108559561411
0.217744821828
0.135169415999
0.194468189447
0.317760422437
0.424018184407
0.298515333943
0.147565802191
0.175141717584
0.210806175719
0.376466873324
0.237206834051
0.25229479823
0.11334804455
0.191094004428
0.207874805766
0.0219831582834
0.245980776812
0.364073063907
0.474762099691
0.0
0.30441038371
0.0388963851877
0.0950173171964
0.71146927233
0.127220272124
0.290755894738
0.730588676326
0.42579566265
0.0437027505789
0.130050321252
0.288035252003
0.269903492848
0.298605358497
0.404299243943
0.420033055297
0.530850877857
0.846158075216
0.916689659282
1.32239608958
0.993421153742
1.31578456139
1.34001573334
1.45936164966
1.51608049859
1.73646379965
1.48774796866
0.868009185256
1.77036183726
0.376170719669
1.57141499908
0.191098688495
0.339220713721
0.437112774085
0.434314354772
0.144714469304
0.247191991392
1.12077518285
0.693603530165
1.05169972597
0.935811170825
0.461051829985
0.405768783458
0.798634157892
1.39430394761
0.353551099454
0.366487520722
0.320248263768
0.0153003463292
0.0723998358068
0.178779092292
0.0797783028594
0.0172098726545
0.284651127743
0.0102791441687
0.0820085827944
0.168473404948
0.271384989638
0.063373127894
0.233276750399
0.317786154568
0.258472813586
0.365481366848
0.237726260779
0.18477768447
0.220484144077
0.252377243148
0.378809988431
0.297249133646
0.306519388249
0.340259284518
0.394131132967
0.356104625858
0.316967321147
0.280018836084
0.205990198112
0.170657745148
0.238078925308
0.219692128986
0.11064401421
0.275144137766
0.0132510151598
0.187335681995
0.0757934448075
0.383980729669
0.00880681630672
0.0359189096878
0.057235225793
0.410771207539
0.262780972788
0.33100655325
0.43030170928
0.435562109128
0.241782173228
0.67271223496
0.293097996731
0.482110232536
0.86690940847
0.354691948144
0.370188769965
0.513811480098
0.812446507219
0.27641214497
1.19339968248
0.0937925531078
0.878751004817
0.763057275619
0.791035553061
0.851750685266
0.193439848208
0.480600093169
0.202558781282
0.738554804589
0.40033008448
0.39408328251
0.0229596585384
0.043208445468
0.20233241773
0.0
0.00975826656767
0.160737080904
0.003238531246
0.0808239244389
0.0121914386591
0.0964235669364
0.0569900742699
0.603380530869
0.0603373574285
0.864287300945
0.034168403497
0.184984664662
0.0745590847292
0.22111878647
0.0321745260689
0.019155271228
0.10393984624
0.112601216269
0.122360806409
0.0515057069411
0.211940941733
0.077548947716
0.349524323162
0.473928137196
0.04438811
0.134597762482
0.121007860651
0.035614725116
0.0680951892937
0.378571255903
0.385251621434
0.463009134661
0.365105591692
0.813476127704
0.295987130653
0.29119744969
0.176900716425
1.09532198225
0.00233209427375
0.109017004886
0.178413988359
0.630485749989
0.384742314718
0.449113478505
0.390420048678
0.0484644242866
0.0796838020786
0.189912643182
0.111611825593
0.0190153105394
0.120111707847
0.149047027384
0.352015904763
0.401077846965
0.0843835636816
0.109427858955
0.225999710882
0.686642433644
0.8121336882
1.19371030529
1.08847243539
1.51192981082
1.64534023651
1.8803596697
1.6538040564
2.14084734358
1.12086493837
2.14134915157
0.576177986801
1.55860852631
1.22854635419
0.900878729146
0.541483929387
0.912413960256
0.119419623403
0.120390070086
0.0408062102592
0.140215091187
0.468878506224
0.418336420535
0.195847392759
0.741423134876
0.512056019843
0.876725811566
0.666788426161
1.00547279512
0.630676796299
0.96826732464
0.878691272454
0.800987265833
1.30220222315
0.308965340065
1.57895733102
0.230142814013
0.859846150733
0.0468926607467
0.331445942724
0.720262599206
0.361633601687
0.276811992644
0.00154108882753
0.117993211135
0.470027366886
0.764023442193
0.0326621866114
0.106908372324
0.156369806594
0.0656724316553
0.0522281962926
0.115570895709
0.186942557575
0.460537728318
0.251759614616
0.536745346041
0.584720440008
0.314737366503
0.841971891542
0.0384252014736
0.170719534659
0.321322412945
0.504892429751
0.626633206069
0.948677924775
0.288711037427
0.596215964972
0.409844692786
0.303519917864
0.242833312081
0.320176349007
0.308356290957
0.0923120511366
0.675402600001
0.27549282366
0.745973022176
0.290805987216
0.310406594861
0.328245342882
0.00368544524997
0.144739144998
0.445081185139
0.353867339444
0.256333368718
0.0531407912165
0.19191810034
0.236131730566
0.147329057884
0.231100865069
0.093302395527
0.157570001256
0.304598682849
0.175844365251
0.117686569806
0.13417651849
0.291748871658
0.338852107902
0.341184868041
0.339177074283
0.381022511826
0.421848843171
0.381789752612
0.312365815751
0.555702986059
0.520842195321
0.598356263939
0.536735317099
0.521277388591
0.553244547901
0.563043947893
0.52883619048
0.91060475282
0.261568986013
0.367861028841
0.395702280261
0.325737450782
0.48069782047
0.20786152371
0.291277391679
0.479233908614
1.89815978777
0.0239542228409
0.22543585448
0.312603182239
0.21190108013
0.53306319403
0.342850715611
0.42145233869
0.64935257038
0.168735432293
0.752033323391
0.181683866181
0.450174381227
0.0219002137992
0.208049162936
0.0153514294019
0.276769903694
0.178745646192
0.269217772389
0.00387880202667
0.0689422911283
0.0327167816081
0.0543054444957
0.463206939265
0.528058640711
0.159283856672
0.00636450833574
0.120559996547
0.412790438082
0.152642137247
0.0129665019018
0.215203565829
0.00518396837989
0.0799211853597
0.0229892876066
0.140284539048
0.0332383601788
0.318957490254
0.238053746169
0.214362884367
0.0846524728813
0.126918132386
0.181712275613
0.046157601994
0.0311189223342
0.270294999404
0.270719236503
0.227653896119
1.26523136819
0.500102383022
0.979261880192
0.588655403213
1.14044139092
0.683679553582
1.84258562027
1.93145487529
1.92011628753
2.83245593759
1.56585339823
3.02482952779
0.393387175047
3.28120870877
0.167939416826
2.07920146276
0.0199530861697
1.96103701632
0.0134524750643
0.0595916882937
0.25767564325
0.195133277941
0.180544113403
0.228919302867
0.198614877785
0.198522767474
0.0597378717763
0.18035387111
0.187429992829
0.503825866107
0.0657691477121
0.155189386052
0.233262301722
0.242055125211
0.305467302586
0.169332968118
0.286297090944
0.258718085145
0.235778406541
0.259490592655
0.413149508183
0.370478490098
0.229112033678
0.306656109324
0.328211982314
0.316207016975
0.369589967053
0.404013835749
0.346408447023
0.317376389756
0.265400279497
0.220815847148
0.198395070449
0.216477418584
0.188702619719
0.151085596679
0.155116812385
0.0944831045298
0.111550952056
0.102130661459
0.13184509081
0.151205650608
0.109670476697
0.118486472439
0.140032960988
0.108851038681
0.1399055319
0.157997787708
0.142719637232
0.159503797999
0.158364136727
0.127259564808
0.139550154376
0.126990632634
0.173775679079
0.152517983958
0.145879948606
0.167738140042
0.142809920102
0.158998829732
0.192719822052
0.194354335593
0.154705304949
0.203782317101
0.193765762381
0.172030364764
0.184552866163
0.157777128414
0.183339604884
0.192659280097
0.217543073572
0.234397284643
0.196281575279
0.209427913686
0.198502871709
0.198535826177
0.222494395538
0.220081510209
0.237311165898
0.233061205582
0.230281164003
0.24887753096
0.247228078471
0.223466761149
0.229639154506
0.234347276569
0.247907165565
0.279934641901
0.2802600375
0.273182347009
0.275223158683
0.272248712004
0.268114505878
0.295656047837
0.297189216464
0.294539532419
0.314547541793
0.327283620001
0.332718327017
0.332827269241
0.314551377911
0.314495275182
0.34168386342
0.351417216123
0.345561301245
0.343564035808
0.34965293654
0.344015084462
0.373573862529
0.37383445791
0.375878458591
0.375447882146
0.393913021459
0.392700289798
0.411952819944
0.414216656789
0.429256826867
0.425234721869
0.436731250868
0.436888163952
0.461205869603
0.450481293846
0.449567894175
0.451082147622
0.475291371869
0.463598468425
0.483900940459
0.497082051517
0.480307023372
0.484153661282
0.504292205678
0.507628185086
0.531743921723
0.542094781883
0.510141121541
0.548726679112
0.538283847239
0.543539105353
0.541101399828
0.552018037965
0.633763719791
0.539351460769
0.546625950638
0.632382468765
0.5092106713
0.539072241503
0.58139688891
0.531349523738
0.553880013086
0.548894957774
0.638256377728
0.513735394357
0.637921595084
0.496600817789
0.540696537235
0.535557247371
0.555127080972
0.51136258847
0.503056210557
0.489531826067
0.466838053876
0.499041195783
0.487392304979
0.474365167628
0.450252602933
0.44820999918
0.45846960557
0.445372142921
0.428504810428
0.429085532002
0.418486351071
0.420167656835
0.386995764435
0.467450134863
0.451219900398
0.322245774346
0.287761409279
0.117353559547
0.919966852732
1.70192436042
0.44802062041
1.63395480168
0.139252904452
0.103229175795
0.0775885123658
0.156071531075
0.415266124335
0.472004739447
0.503154104581
0.467646104135
0.428070122935
0.413202965441
0.472014767852
0.450931693124
0.460738875744
0.361446548255
0.337892259585
0.401259192251
0.364997495511
0.396450831189
0.361442241827
0.394672043479
0.377251795977
0.280075913373
0.365997040754
0.318836296181
0.358955506135
0.344343626695
logs/alpha_7.0/PGSD_200steps_0.log 469.178221485 0.469178221485 0.366045254128 3.28120870877 0.0 -1
