Policy Parameters:	-5.04968040239 6.32884419901
Control Steps:		1000
Start Time:		1442121576.8164904

-- TESTING STOPPED --

Stop Time:		1442121767.6083276
Duration:		190.79183721542358
Cost Matrix:
0.962008908784
0.181334347542
1.3763396461
0.317125520605
1.21256360361
0.413843392177
2.01792856556
0.226306951936
1.69674055134
1.09660408412
1.73537429273
0.492127340292
0.571903918281
0.534834319901
0.620911648631
0.0200037527351
0.0602569933253
0.295572538589
0.0322415098703
0.170896299266
0.0497855978178
0.347817369451
0.206979941572
0.40609283843
0.0446466748634
0.292613171723
0.138193472513
0.0236084830443
0.190238413843
0.251241843967
0.30380140955
0.0309537069061
0.237007962825
0.0977188399966
0.328972300446
0.0244245477799
0.234948754288
0.261775124229
0.983551322896
0.150416505573
0.0107343189883
0.0459233547486
0.0530036655364
0.0592971264417
0.0823943981971
0.257414001301
0.322767793539
0.622689812795
0.383876340364
0.533280180079
0.531558039001
0.779966767549
0.285899409617
0.283634996634
0.484403117939
0.373781939279
0.784600020563
0.302245801261
1.06055645494
0.27173644082
0.447784168571
0.476213802973
1.23076983018
2.50985450647
0.041245985498
0.335872059295
1.16114132619
0.348241592214
0.926688125294
0.114770833904
0.531946850028
1.0416624914
0.254852333396
0.00157149297425
0.0587249997989
0.0346714390396
0.29314140877
0.415514263413
0.249096937022
1.1073529989
0.00142561287461
0.0664617488133
0.0968477404888
0.280334937888
0.230537820008
0.251467487978
0.335615655044
0.194143535549
0.0862931426774
0.0845331744871
0.0786949359536
0.0376216473063
0.157407275945
0.341932996445
0.385377073226
0.00171996649769
0.0266506360547
0.140234575649
0.391140861253
0.0575856955288
0.197361306026
0.140548847812
0.277063266765
0.0479313468977
0.325862198841
0.192517006368
0.401246955595
0.161516247907
0.119119051502
0.0135813833133
0.175330420554
0.392683979257
0.416532881717
0.397480862651
0.462242074402
0.420391190157
0.539874369726
0.537252342109
0.490386643703
1.18094540586
1.14655903826
1.17295456948
1.22211351813
1.30825350443
1.19137695262
1.46371489633
1.28508657507
0.903755436978
1.57139873118
0.567246890635
1.60866910262
0.0330881251485
0.327465279433
1.23812211896
0.0210479651785
0.107749231975
0.364348446066
0.293786700933
0.488733931089
0.503685999043
0.440487395218
0.670289750877
0.516232032616
0.522321387203
1.24982760745
0.441548984075
0.985266739807
0.30896166182
0.754530526694
0.495795011969
0.618716689876
0.394535507453
0.899855891107
0.223397741843
0.342733654482
0.262976007552
0.0889892817254
0.103894863058
0.488597109967
0.333116250316
0.284559213644
0.13682170751
0.413636785356
0.176247069573
0.0124684642101
0.00298002633256
0.0730896685547
0.184615701501
0.247718027236
0.268277523858
0.0514545644829
0.00600229182641
0.048925502021
0.0513396416453
0.143856087189
0.316096643861
0.227720273267
0.15361560206
0.234894920365
0.0365149916655
0.142289954946
0.126419175024
0.229524033246
0.588843436052
0.724924417354
0.191534318341
0.384286327159
0.264616464751
0.334639345827
0.287245476537
0.521277095444
0.379603265712
0.468570588374
0.228570718724
0.113608682748
0.341657447458
0.518559562587
0.136786632546
0.452047536967
0.420197811954
0.525208860193
1.15898816276
0.925407673117
1.49869966162
2.58970648033
0.164773113712
1.71130486172
1.51416137589
1.04433309063
1.35488624889
1.64239524521
0.657683718144
1.24078219596
0.0
0.0919203785218
0.639215762191
0.242408557815
0.389929959018
0.182636390344
0.519225563354
0.418315037598
0.488252296142
0.525382603491
0.858957324076
0.46933196498
1.06703662747
0.37446657695
0.93265660725
0.0352384830053
0.146554982479
0.338509514142
0.688000402467
0.410694684663
0.641749176476
0.790312173588
0.543510294438
0.760017983253
0.510231890675
0.933992970011
0.333338275187
0.52933929038
0.384714348821
0.44411992142
0.353426125076
0.178746668154
0.114968040178
1.03742460261
0.520307734878
1.15091527908
0.0831301857542
0.322807449992
0.25734195777
0.0377698129675
0.166622112686
0.145606348234
0.0419507739316
0.252927150876
0.611248758281
0.0827670869534
0.226845483674
0.0128411171181
0.12450984239
0.941561407104
0.0211863434487
0.116993688329
0.136934398976
0.165841071425
0.152088998568
0.180210120697
0.146988067718
0.119625498293
0.11130725343
0.108070399312
0.11812179907
0.103328022738
0.0854346958609
0.23299863937
0.0743141347318
0.0826809964683
0.0859828507815
0.123171731655
0.125025915592
0.362166392195
0.281536515479
0.0498467360436
0.114333460269
0.139701258542
0.364136916007
0.310919514506
0.135136741368
0.220326744038
0.223079403702
0.379045883476
0.400397601242
0.121430917712
0.31428997272
0.213962049745
0.175477454366
0.464502419765
0.43131398799
0.454425920027
0.410470277993
0.599882393208
0.480118393378
1.22434307077
0.610723085545
1.2483098912
0.897656752077
1.46628272517
1.22199853598
0.827306900827
1.18644110512
0.639191829849
1.38962948911
0.598873933049
1.28793857866
0.101339652809
0.225518224895
0.288333504355
0.375829258178
0.0947767838237
0.0348605080886
0.239462103266
0.363798559403
0.477092530765
0.487755604197
0.345863983064
0.467451988473
0.220083939409
0.274252775503
0.327826138376
0.265854368306
0.0941609621197
0.152362821466
0.14303867535
0.0777418445507
0.396506765172
0.117428930666
0.153613408262
0.206777969182
0.181543583716
0.220973115329
0.235026835094
0.258193347641
0.366413598716
0.30681274211
0.266803347056
0.261986780929
0.226471404338
0.213433680616
0.516619032894
0.480117599612
0.504880722063
0.542350830824
0.930288815509
0.393983540291
1.08495623476
0.639586552531
1.25583672556
0.766879573686
1.27454299623
0.876205788631
1.05321747785
0.840552687115
0.94253396242
2.87858270545
0.0381271361694
0.307290100891
0.240689163473
0.37907377262
0.258738412215
0.193620526457
0.31864891945
0.010336900249
0.0396757389532
0.032235488404
0.071626661075
0.0528374778488
0.0288344620778
0.0505777361122
0.0708151481961
0.0852629808006
0.0674100752147
0.0289632265009
0.0481336459255
0.0572244438645
0.0393151162818
0.0234476497696
0.0578956793144
0.12765506913
0.144656165275
0.0623026976765
0.0542783268188
0.111226585557
0.0326556865673
0.0430370829291
0.063288789427
0.0573235668559
0.0598463835865
0.154071301945
0.077348886741
0.0574738291374
0.0606785276609
0.0948147676496
0.0610716447989
0.0575024175601
0.0513243183672
0.043783861211
0.0956274454004
0.193507671366
0.104049317111
0.20315948437
0.176289094478
0.22165684977
0.0755266295565
0.0490898162423
0.0823344113999
0.0685028097787
0.244934476605
0.38059848404
0.28922397343
0.0879314998587
0.310202479257
0.396668071819
0.460360578746
0.43797091279
0.949707848115
1.23445032413
1.91662000948
1.12423971951
2.41139009312
1.10419612284
2.25606636387
1.02416522067
2.43863366476
1.47507296897
0.322870106637
1.27726649204
0.00967451993612
0.0362729701037
0.0355831306231
0.0135700717871
0.0404857099113
0.0384589253399
0.0570374057712
0.192792484401
0.0651038526064
0.185199734934
0.428348758524
0.234180136613
0.376703849165
0.222137826677
0.255299834362
0.420820584121
0.388332629403
0.653214497956
0.260919484904
0.31522840157
0.394328093656
0.201166656613
0.23612622911
0.51364013439
0.678643651389
0.344094616119
0.362786359532
0.497909935677
0.348214143619
0.303358416263
0.277773858492
0.336197452323
0.496565911097
0.459584724884
0.185354795333
0.499479022533
0.164427924758
0.0483828243471
0.243460100239
0.268151966721
0.344976530901
0.262358954443
0.433830042321
0.238156670595
0.171887870552
0.162438270751
0.108045343757
0.0896510657981
0.0746937726122
0.384626610546
0.492948906783
0.87824016325
0.36868177975
0.818074267843
2.57268895527
0.353333369761
1.80711840187
0.543467295534
1.63859913981
0.207177665853
0.572812430239
1.13556701107
0.417573394083
1.84458042854
0.0830330071376
0.388883481218
0.478920878314
1.07687161271
0.230060855069
0.634394295506
0.132513760267
0.0077191584247
0.0874268854572
0.347812564632
0.0451139830697
0.348273815536
0.0969256188558
0.150925191375
0.00571233532644
0.129302854662
1.09079045738
0.055252656826
0.331057316113
0.391272304211
0.322084791184
0.528268814184
0.556092880576
0.695421540529
0.911475566633
0.954899593243
1.398952749
1.067957973
1.42497652199
1.34925688165
1.69642674756
0.39291496846
1.76339106817
0.0809472443423
0.626242780736
0.464652054211
0.363249797891
0.50377205825
0.316817180493
0.363177594208
0.514635888388
0.0812414884704
0.134771782216
0.0471902065504
0.0693566859032
0.095208947517
0.15816606446
0.291203635424
0.288138558787
0.243306437058
0.276047750602
0.209016382747
0.213135363878
0.178756460628
0.160652415836
0.191051781421
0.175766302203
0.204257868012
0.263899693261
0.257946453616
0.173657513019
0.275590055107
0.30813675417
0.201428776997
0.164624523968
0.176337056322
0.20701511304
0.193329867566
0.162248054588
0.131785096553
0.160342350144
0.348565660306
0.0904687581383
0.187512782076
0.151116565266
0.173716500663
0.155314396793
0.246247259137
0.340010121083
0.316718398608
0.157832029187
0.242040244328
0.228516890579
0.278935787435
0.260754735632
0.44209388961
0.37463129469
0.33417484743
0.424998105268
0.371233246203
0.435582315064
0.436347158548
0.485360882801
0.902335835302
0.601783374048
0.385462081844
1.12039739016
0.618276268127
1.16747368871
0.835166592967
0.927828828649
0.872002651249
0.83379171291
0.655502054918
1.24671159179
0.349736879957
0.758076026546
0.548050951136
1.02665011085
0.362449065939
0.513714873231
0.519454072493
0.635664352466
0.514783855537
0.669948326486
0.548709661465
0.782314679844
0.532990140852
0.829400174342
0.603177990467
0.827391954477
0.729357194672
0.811933688485
0.921906112007
0.807105484461
0.901403357516
0.846416478422
0.870862828699
0.92822975691
0.918817205073
1.07611778376
0.844095058807
1.16555100978
0.88744450404
1.08537780305
1.01890423032
1.0312785323
0.917638626275
1.02222997983
1.06318503411
0.982516271144
1.03211258034
1.01036574507
0.999373560644
1.05718297534
0.996684242562
0.995513717884
1.01716045346
1.09389434964
0.901973227252
1.05850448522
0.894431859713
0.995733348893
0.893519909134
0.924545596675
0.918888268289
0.711452689921
0.901685692479
0.730694337633
0.823102429067
0.68132288102
0.846760611737
0.664261513903
0.493016462047
0.869126145596
0.841693980484
0.782201910567
0.314518776008
0.453225591267
0.348923600988
0.327044993452
0.323385331337
0.410394909655
0.238692752282
0.297139459335
0.267556619585
0.333775373755
0.311125769231
0.228679043479
0.596709173283
0.331254735248
0.337280045588
0.265315562061
0.390270122824
0.319246547614
0.308010921079
0.384135887388
0.223676137496
0.257112061186
2.10089395654
2.12347107598
2.60656728033
0.267543721437
2.5633661713
0.0548445499647
0.47837931441
0.213701214894
0.80777398898
0.0505945270537
0.231145917393
0.54870060995
0.936094980932
0.475046502944
0.537840380116
0.536955514144
0.545839523488
0.531492148221
0.537126386677
0.408090998148
0.471247711483
0.782083144897
0.484674738708
0.532052673067
0.335153661426
0.299323646917
0.441371935572
0.517265497233
0.459935223805
0.499570601039
0.489341832649
0.509921222335
0.96978198877
0.761313753471
0.980369932036
0.802061648881
1.00546477067
0.994895451009
0.834539724887
0.967938104995
0.932744886518
0.733821374839
0.951642011796
0.749554767266
0.501597418463
0.816209016005
0.349947704235
0.535685059541
0.668272367831
0.206198954685
0.289493215678
0.00314919815933
0.0532828971022
0.191462157701
0.038972492976
0.254148090886
0.102299560076
0.24072763526
0.322695395584
0.426825682194
0.534732507
0.23618019596
0.411735082014
0.199622805976
0.219832046242
0.266150973281
0.134746089383
0.385109800998
0.18775659707
0.0500232756849
0.24880172149
0.230482658724
0.0526338251234
0.248732230187
0.346258220712
0.25317490928
0.235343730683
0.285227057068
0.130894781778
0.501932165025
0.668732152452
0.542777313806
1.18615954094
1.2616232898
1.29934798269
1.33430539003
1.70600211661
0.885495840325
1.50638101965
1.04235906506
1.13376162055
0.997745205103
0.850438488846
0.304906073959
0.419124296289
0.423003520356
0.266850565021
0.461208625663
0.232025070595
0.322988055801
0.519208430651
0.290926107285
0.308593904933
0.364357566226
0.855827669194
0.369464114605
0.883243837546
0.389493310272
0.365872105641
0.456097205569
0.924610302995
0.464318869911
1.43368683994
1.40502982635
1.83385777116
1.87591024569
2.0112501314
2.0746190608
1.35861088655
2.06948760544
1.2404001083
1.43597079631
0.437801610152
0.481125264841
0.419271488248
0.307809444066
0.759312511763
0.489254845877
0.576890636508
0.440465592473
1.10927596602
0.242078514335
0.423058990934
0.331970811267
0.35302040395
0.382789679347
0.389772160036
0.397991884862
0.436467047656
0.525877731897
0.772678759574
0.587807510493
0.848952326825
0.868799309586
0.944176943363
1.05587600824
1.18575509542
1.25383362652
1.27231253196
1.42742149531
1.44496920699
1.51701437363
1.61887178352
1.68265342288
1.40657118106
1.90043195082
1.09352580757
2.37404499858
0.514178655502
2.62690812822
0.158299636524
0.921490071467
2.86950492902
0.736471661295
3.77347207079
1.29100028654
2.79084055868
3.77118376285
0.278676866459
2.4310255995
1.04947755693
0.796725008915
2.19250692325
0.543140770061
2.086690405
0.0364381552463
0.32973392639
1.61949427153
0.282945484745
1.0654685775
0.698041512006
0.715735671712
0.455333176572
0.531846260015
0.524758904672
0.409391032582
0.139205482201
0.192547173185
0.265222608555
0.567902433207
1.8077352528
1.47950716535
3.25308885851
0.535840625539
3.73052900687
0.483716456745
3.81467255137
3.79284182537
3.37809730853
0.0403301010623
0.0664220307645
0.0215650448315
0.0641231241298
0.295719308458
0.63554615798
0.537868055583
0.43934994883
0.374948081107
0.0860686823285
0.0365606209309
0.105684401168
0.30826149264
0.112722269706
0.146415875115
0.307855836956
0.215835452064
0.145952315321
0.610567040346
0.0427598119945
0.224373801672
0.14307122499
0.030666945444
0.15975605119
0.289685732499
0.653132696252
0.295367030283
0.396556302074
0.495261271445
0.374386069669
0.440545220235
0.276872296506
0.513705791431
1.14122406999
1.2400819448
1.42986887786
1.22830114857
1.66748096997
1.62770922739
2.02944802707
1.71073737257
1.2555567261
2.2988884779
0.19632560061
1.32752226673
0.27605068981
0.443921018829
0.481486010409
0.0111183892928
0.116981059752
0.575503376124
2.84995085344
0.0723821090659
0.47954661789
0.908874639029
0.593044176132
0.881659775461
0.394988271483
0.257410007419
0.703006182312
1.06421516262
0.0097719731647
0.115574928267
0.30301117198
0.367929953653
0.233950134573
0.30722300129
0.182840817239
0.296735277315
0.0551672548445
0.351863639121
0.236517437467
0.124062058529
0.43947284774
0.427578404594
0.456187843331
0.356809829719
0.298660528666
0.151950841704
0.328545159182
0.975947887602
1.28135301638
0.967419122335
1.18678432538
1.78488762264
1.75616352275
1.9065036086
1.90704483898
2.00826347597
1.87797647281
1.59647737066
1.75846307778
0.523758217602
1.80182816735
0.0672088802374
0.31294524088
0.625561628
0.73925148353
0.77103642959
0.607729057189
0.972606312657
0.40969692919
0.740411810808
0.357441345077
0.357036455997
0.319939140462
0.314933817264
0.355373706501
0.198757034368
0.149548015838
logs/alpha_7.0/PGSD_1000steps_4.log 567.01279655 0.56701279655 0.379338519166 3.81467255137 0.0 -1
