Policy Parameters:	-0.960730000535 0.872605113012
Control Steps:		1000
Start Time:		1442431756.0313632

-- TESTING STOPPED --

Stop Time:		1442431813.2739444
Duration:		57.2425811290741
Cost Matrix:
0.0135960576729
0.00864118830261
0.0142031758654
0.0325596060555
0.034494582941
0.0300818457032
0.0291997225463
0.0175783841588
0.022379927725
0.0182409299838
0.023191037787
0.063053800577
0.0777929282361
0.0842785642591
0.0858466596882
0.0733081114743
0.0857918787729
0.105594456876
0.141135866983
0.160886870035
0.17461317364
0.195802054044
0.185530711965
0.179307565239
0.218265376301
0.533392337274
0.519710245474
0.238971618925
0.229032063036
0.243141469098
0.277296104888
0.272964697798
0.243520500831
0.253747891414
0.270796080348
0.295421225892
0.286438307021
0.284493879017
0.310507109422
0.291036468678
0.26690490863
0.24467905605
0.235160820482
0.337634428264
0.30847095262
0.159954698088
0.152037697853
0.113115260142
0.0878108525744
0.133101962802
0.173217069778
0.167756962475
0.14840769865
0.16090970548
0.11255866393
0.036238091703
0.135719495729
0.238515834134
0.252692118675
0.310421418259
0.344508757549
0.310248950503
0.329642473412
0.358278613388
0.353301215754
0.358288129014
0.386132735899
0.406208714191
0.38589686848
0.39605203238
0.422729507173
0.425391574208
0.429451072476
0.40314423585
0.353793851631
0.29846122798
0.244051299456
0.212436749479
0.187977432302
0.135728730802
0.114843291505
0.0916730327457
0.0386164605522
0.0209538115988
0.00133368818212
0.0198438445903
0.0272344759327
0.0214259881319
0.0117015039607
0.00197670704288
0.0
0.0130394912206
0.0312480942307
0.0311634540852
0.0499043476132
0.0472728871167
0.017786012666
0.0208211826038
0.0848170150852
0.0740670720815
0.0182059145639
0.0138135324767
0.0293228707453
0.0304034577841
0.0315169892229
0.031400298513
0.00452516571929
0.0115409035874
0.0179497416532
0.0173585610006
0.0431749085147
0.0436790904632
0.0275893274486
0.0321918671576
0.0485810694864
0.0516419188193
0.0385885065549
0.0557089801437
0.0747942417995
0.102313808568
0.10993366231
0.110193001894
0.123872581977
0.119262493488
0.145037056542
0.171098110204
0.180675897671
0.198328965058
0.211721485608
0.392685036665
0.406314602958
0.283276052937
0.291074337709
0.288239977756
0.275598485019
0.294035790956
0.312277793853
0.313282713186
0.31082947631
0.317362441083
0.324286063991
0.323917263488
0.331531476093
0.312769784051
0.29609877189
0.303368061153
0.261808712086
0.214218487732
0.183637406097
0.138484472455
0.0814044148571
0.0262219494214
0.0227138508574
0.0285100298484
0.0333395520607
0.0193110854757
0.0321884983663
0.039357231054
0.0299987379825
0.0373908038266
0.0470264873566
0.042357989837
0.0585726993891
0.0777305884501
0.0909192477688
0.0692336403628
0.0351998987387
0.0475509212612
0.0388790564251
0.0320942740768
0.06944875478
0.105604598102
0.113076612584
0.0911190615917
0.0817413990876
0.0588182498436
0.0619607556439
0.110185714461
0.125919011006
0.0968820369409
0.0697642505115
0.0933284672474
0.155215477022
0.18123145452
0.184637330237
0.195414850779
0.224200405526
0.250599033135
0.264843695316
0.291342695735
0.356639460934
0.439689179875
0.486278492176
0.508633456904
0.537058211112
0.575189627924
0.600967533943
0.631188549567
0.607255535291
0.653675473699
0.749952322029
0.8101648682
0.724624489084
0.636198256602
0.531655777214
0.49176985038
0.398201552516
0.134353701673
0.0688835099851
0.0833556537558
0.117265124873
0.133576299422
0.143433549941
0.158776347559
0.175914917114
0.187627005297
0.197609813335
0.229259026214
0.244736391929
0.246096667239
0.251670273805
0.254977628248
0.261695477288
0.262089178109
0.27129011906
0.282641856924
0.281349700525
0.279706937572
0.282781995202
0.281248233019
0.277225315393
0.258575864597
0.225161920792
0.205790951888
0.213192280388
0.201493681994
0.186254315317
0.141794089567
0.0587534071624
0.0716266129024
0.0760718708192
0.0480209326985
0.071050817093
0.0601972409958
0.0324790137035
0.0427502457118
0.0478022704318
0.0384930884563
0.0379195769794
0.0882949382252
0.123643550535
0.117251438528
0.0910532696001
0.0910981158859
0.138717234764
0.166642026145
0.156672731626
0.141443730671
0.142284503797
0.165145041641
0.187901909341
0.189724270408
0.191924962922
0.208915632419
0.202930261424
0.21200525572
0.236257896104
0.24304882323
0.241767974319
0.231998574219
0.232582457828
0.216236852301
0.189788342398
0.21522094649
0.203849581683
0.194456848378
0.198934685455
0.198682083011
0.170795153655
0.0939387197019
0.0515972409007
0.0125938388894
0.0102499877115
0.024043800239
0.0463815379706
0.0557233008387
0.0678785553092
0.0976822942841
0.0818533373318
0.0569871021854
0.0543012950609
0.0437479831305
0.077266816413
0.0852777381873
0.122677838761
0.141599086157
0.165778592896
0.198897073142
0.205380424156
0.162980597918
0.133817398295
0.18151692888
0.238535638541
0.239360773646
0.24954398267
0.27588050246
0.28109110082
0.269581479628
0.26904725743
0.310178448635
0.36963949086
0.347802443941
0.291439392066
0.280477248978
0.271690808113
0.291314166256
0.271661813371
0.209321737352
0.175709938938
0.152043019625
0.109910199563
0.124853465366
0.135769404617
0.081196889572
0.066884206204
0.0617407292909
0.0175111193869
0.0651484400724
0.0868090059192
0.0760956970995
0.0614562527894
0.0634702434267
0.0599987243415
0.0397800438332
0.0186974875713
0.00771202222447
0.018044074757
0.014945798634
0.0133780600439
0.0369226541549
0.0406914282873
0.0312270022159
0.0205250698247
0.0251116285764
0.0388065607989
0.0303299901501
0.0201517433067
0.0207490750372
0.0260637480254
0.0463654291024
0.0390449577603
0.00806207538046
0.0231943530283
0.0363543042801
0.0301640475344
0.0450690111225
0.0452035135028
0.0261377190034
0.0411950671813
0.0444234463834
0.0521793068898
0.0421369119822
0.0374304518687
0.0413844051282
0.0192082027228
0.0158740120811
0.0171023528145
0.0379730085957
0.0478965026259
0.0747375746451
0.0925105331399
0.117424981725
0.135510214569
0.123526660837
0.125348075104
0.155232438186
0.190812042974
0.257297657883
0.374779144234
0.575638881638
0.726562559135
0.624984363985
0.354793407772
0.995848106316
1.29783854066
0.819676357586
1.07934779457
0.906913619065
1000000.0
0.0
0.0
0.0
0.0
0.0
0.0
0.0
0.0
0.0
0.0
0.0
0.0
0.0
0.0
0.0
0.0
0.0
0.0
0.0
0.0
0.0
0.0
0.0
0.0
0.0
0.0
0.0
0.0
0.0
0.0
0.0
0.0
0.0
0.0
0.0
0.0
0.0
0.0
0.0
0.0
0.0
0.0
0.0
0.0
0.0
0.0
0.0
0.0
0.0
0.0
0.0
0.0
0.0
0.0
0.0
0.0
0.0
0.0
0.0
0.0
0.0
0.0
0.0
0.0
0.0
0.0
0.0
0.0
0.0
0.0
0.0
0.0
0.0
0.0
0.0
0.0
0.0
0.0
0.0
0.0
0.0
0.0
0.0
0.0
0.0
0.0
0.0
0.0
0.0
0.0
0.0
0.0
0.0
0.0
0.0
0.0
0.0
0.0
0.0
0.0
0.0
0.0
0.0
0.0
0.0
0.0
0.0
0.0
0.0
0.0
0.0
0.0
0.0
0.0
0.0
0.0
0.0
0.0
0.0
0.0
0.0
0.0
0.0
0.0
0.0
0.0
0.0
0.0
0.0
0.0
0.0
0.0
0.0
0.0
0.0
0.0
0.0
0.0
0.0
0.0
0.0
0.0
0.0
0.0
0.0
0.0
0.0
0.0
0.0
0.0
0.0
0.0
0.0
0.0
0.0
0.0
0.0
0.0
0.0
0.0
0.0
0.0
0.0
0.0
0.0
0.0
0.0
0.0
0.0
0.0
0.0
0.0
0.0
0.0
0.0
0.0
0.0
0.0
0.0
0.0
0.0
0.0
0.0
0.0
0.0
0.0
0.0
0.0
0.0
0.0
0.0
0.0
0.0
0.0
0.0
0.0
0.0
0.0
0.0
0.0
0.0
0.0
0.0
0.0
0.0
0.0
0.0
0.0
0.0
0.0
0.0
0.0
0.0
0.0
0.0
0.0
0.0
0.0
0.0
0.0
0.0
0.0
0.0
0.0
0.0
0.0
0.0
0.0
0.0
0.0
0.0
0.0
0.0
0.0
0.0
0.0
0.0
0.0
0.0
0.0
0.0
0.0
0.0
0.0
0.0
0.0
0.0
0.0
0.0
0.0
0.0
0.0
0.0
0.0
0.0
0.0
0.0
0.0
0.0
0.0
0.0
0.0
0.0
0.0
0.0
0.0
0.0
0.0
0.0
0.0
0.0
0.0
0.0
0.0
0.0
0.0
0.0
0.0
0.0
0.0
0.0
0.0
0.0
0.0
0.0
0.0
0.0
0.0
0.0
0.0
0.0
0.0
0.0
0.0
0.0
0.0
0.0
0.0
0.0
0.0
0.0
0.0
0.0
0.0
0.0
0.0
0.0
0.0
0.0
0.0
0.0
0.0
0.0
0.0
0.0
0.0
0.0
0.0
0.0
0.0
0.0
0.0
0.0
0.0
0.0
0.0
0.0
0.0
0.0
0.0
0.0
0.0
0.0
0.0
0.0
0.0
0.0
0.0
0.0
0.0
0.0
0.0
0.0
0.0
0.0
0.0
0.0
0.0
0.0
0.0
0.0
0.0
0.0
0.0
0.0
0.0
0.0
0.0
0.0
0.0
0.0
0.0
0.0
0.0
0.0
0.0
0.0
0.0
0.0
0.0
0.0
0.0
0.0
0.0
0.0
0.0
0.0
0.0
0.0
0.0
0.0
0.0
0.0
0.0
0.0
0.0
0.0
0.0
0.0
0.0
0.0
0.0
0.0
0.0
0.0
0.0
0.0
0.0
0.0
0.0
0.0
0.0
0.0
0.0
0.0
0.0
0.0
0.0
0.0
0.0
0.0
0.0
0.0
0.0
0.0
0.0
0.0
0.0
0.0
0.0
0.0
0.0
0.0
0.0
0.0
0.0
0.0
0.0
0.0
0.0
0.0
0.0
0.0
0.0
0.0
0.0
0.0
0.0
0.0
0.0
0.0
0.0
0.0
0.0
0.0
0.0
0.0
0.0
0.0
0.0
0.0
0.0
0.0
0.0
0.0
0.0
0.0
0.0
0.0
0.0
0.0
0.0
0.0
0.0
0.0
0.0
0.0
0.0
0.0
0.0
0.0
0.0
0.0
0.0
0.0
0.0
0.0
0.0
0.0
0.0
0.0
0.0
0.0
0.0
0.0
0.0
0.0
0.0
0.0
0.0
0.0
0.0
0.0
0.0
0.0
0.0
0.0
0.0
0.0
0.0
0.0
0.0
0.0
0.0
0.0
0.0
0.0
0.0
0.0
0.0
0.0
0.0
0.0
0.0
0.0
0.0
0.0
0.0
0.0
0.0
0.0
0.0
0.0
0.0
0.0
0.0
0.0
0.0
0.0
0.0
0.0
0.0
0.0
0.0
0.0
0.0
0.0
0.0
0.0
0.0
0.0
0.0
0.0
0.0
0.0
0.0
0.0
0.0
0.0
0.0
0.0
0.0
0.0
0.0
0.0
0.0
0.0
0.0
0.0
0.0
0.0
0.0
0.0
0.0
0.0
0.0
0.0
0.0
0.0
0.0
0.0
0.0
0.0
0.0
0.0
0.0
0.0
0.0
0.0
0.0
0.0
0.0
0.0
0.0
0.0
0.0
0.0
0.0
0.0
0.0
0.0
0.0
0.0
0.0
0.0
0.0
0.0
0.0
0.0
0.0
0.0
0.0
0.0
0.0
0.0
0.0
0.0
0.0
0.0
0.0
0.0
logs/alpha_7.0/PGSD_300steps_1.log 1000070.20651 1000.07020651 0.0 1000000.0 0.0 388
