Policy Parameters:	-6.59242542593 7.05472939437
Control Steps:		1000
Start Time:		1442445079.9673297

-- TESTING STOPPED --

Stop Time:		1442445273.2144017
Duration:		193.24707198143005
Cost Matrix:
0.15521039946
0.311901293362
0.000566149714366
0.0584554262986
0.431222308563
0.260520013416
0.0714448456791
0.408776983765
0.441300085817
0.0068531002873
0.0523950836498
0.136767433863
0.25164388213
0.656362561895
0.104748959884
0.374311536942
0.41727045522
0.535363386087
0.474628920866
0.509292253856
0.322011635469
0.517185895783
0.632548346718
0.348840661043
0.222095777439
0.293304554284
0.471001985293
1.14495025786
0.0620617628851
0.20418074891
0.0901692523954
0.103337749233
0.0474028052167
0.225547385681
0.334651144055
0.266165176002
0.526221403975
0.222577193131
1.03490375751
0.147654412237
0.301010477691
0.441823050113
0.437844743686
0.412956393298
0.389017824777
0.385380665853
0.130711639024
0.193505662196
0.623178330036
0.312448443214
0.023186474499
0.158910038385
0.12102332149
0.0285838009577
0.192600378158
0.301213641916
0.18049721521
0.0143238227924
0.0996619752916
0.0991614905147
0.396772568737
0.264202411905
0.165528662914
0.00689408884332
0.041238808738
0.0584124607719
0.182809017203
0.0506921702371
0.339543292587
0.303758749249
0.463658017407
0.296216109512
0.243260934665
0.156294035919
0.332704413745
0.0775261509606
0.114608711101
0.171657742003
0.267267287933
0.0875918973551
0.44987031349
0.226398812559
0.186422312494
0.0204049151773
0.169400123813
0.167521764067
0.493285795957
0.347497268572
0.0443028227926
0.291830082011
0.0643574737691
0.00458992354481
0.0423911876571
0.163364978105
0.0686931884979
0.25078634262
0.468017846252
0.284311865609
0.240086209077
0.48367290221
0.507066094996
0.565129878062
0.38164918202
0.38109943093
0.97026343348
0.850346297344
1.30344353781
2.03304303297
2.00357114145
2.72275400501
2.27949376847
1.69361701071
2.35240564
1.89402769948
0.956931884076
1.85437461938
0.286782591685
0.101481020288
0.0277145132632
0.218788152906
0.159928189018
0.337542786964
0.370606600028
0.505093270067
0.528236704189
1.29388198689
0.207609475312
0.851763536914
0.525958400778
2.02508336266
0.279324508584
1.18347112726
0.452097990954
1.69509743082
0.275855809747
1.51968697195
0.0165262209122
0.176621766696
0.91386065035
0.167132009519
0.110288718284
0.163188475928
0.478948609866
0.025878910164
0.169172118853
0.0816198858349
0.0632049639501
0.0964798119631
0.457704296785
0.082259052871
0.12840353693
0.180112222489
0.198451975811
0.190232956934
0.0290482327914
0.20634870308
0.239064368572
0.0374986234662
0.267429718077
0.489576587111
0.14095549928
0.344194347416
0.422519377442
0.468105618031
0.203045001563
0.0361864150536
0.227545311072
0.000207875348624
0.0229004682081
0.143602343748
0.0195464515384
0.168563449482
0.867580659791
0.374377054318
0.0404477369097
0.211756813822
0.427047019188
0.908163830008
0.367464483963
0.7042255262
0.928595276317
1.07967483896
1.51839097291
0.854889760155
1.40121880667
0.717306229567
1.44702360624
0.503701149256
1.18752808923
0.592307097461
0.271143419659
0.523406600164
1.05854503522
0.210934953194
0.0877813965347
0.19976906878
0.265010839984
0.0327686142187
0.0836168232196
0.415199105224
0.327526096499
0.49334035403
0.168543885332
0.0101583810439
0.0767691203734
0.372966397124
0.771747680328
0.310001947682
0.44594309856
0.536410671131
1.12739046515
0.327114357254
1.26568198485
0.228084723544
1.1370845211
0.355989007151
0.503262547435
0.472276223872
0.272100174119
0.53362549995
0.453509456656
0.344414561317
0.38040758696
0.0593779357687
0.229862996135
0.505488731371
0.433392638013
0.279645587886
0.384742887989
0.348924218019
0.0147021712281
0.126263379208
0.327139674016
0.488821867797
0.470966188152
0.0150692688701
0.0675190403668
0.47606030111
0.436478141954
0.421671966857
0.631892148462
0.471458232219
0.353225646491
1.02067638795
0.542077113894
0.849334527329
0.498497550816
0.50012812517
0.816850620923
1.2898893074
0.487009541751
1.56076831597
1.37614687773
1.19296175268
1.02373825158
1.13918340198
1.54008305428
0.4888712873
1.3953207923
0.383796497197
0.355294575224
0.193804827129
0.2928074166
0.114575473267
0.0568564627262
0.37282736621
0.0103639016916
0.0893918315039
0.164165371088
0.372959151881
0.185685809759
0.161722190289
0.0902745403272
0.167785901903
0.116050319357
0.877023114986
0.0280377526205
0.191751845744
0.133882049869
0.290203956889
0.0
0.0103386805418
0.0826638429702
0.129703628789
0.46107728092
0.52160941604
0.29163746112
0.104473561275
0.336674730872
0.456128327624
0.0833798297116
0.514823304924
0.214463768789
0.356615553513
0.353555463405
0.319505470191
0.241052301008
0.204264575877
0.172044964291
0.163265901157
0.434444231162
0.333636389705
0.530982113248
0.276485027003
0.23899189102
0.256416835467
0.226652899155
0.288369572457
0.545616885828
0.460383488482
1.34380343614
0.451791111226
1.22695877884
1.25618334958
1.36597833206
1.27631158342
1.41170074277
0.939086116086
1.40509978323
0.859513395944
0.849284013181
0.456536988995
1.11150081811
0.346062072578
0.335423309684
0.3987917354
0.398109999803
0.248350976999
0.0
0.0570271759313
0.409016240609
0.869909683804
0.428772492723
0.776056437587
0.0297696470009
0.20841904723
0.344661439043
0.286749036767
0.00129391873048
0.0476956046306
0.0697843330174
0.0409262138256
0.112252738323
0.0644438098872
0.098847054919
0.249315993813
0.137624255836
0.0877303748797
0.146089940467
0.479651852842
0.298616536458
0.424422141919
0.298576489387
0.142868155021
0.273118574653
0.24222306599
0.220739354846
0.3859427399
0.600207839866
0.669778824745
0.449461416451
0.982126743504
0.558847390008
0.480735838788
1.26997942128
0.441155951887
1.18739926231
0.113464124874
0.72926940233
0.314021324595
0.858413982985
0.2840763317
1.29605591178
0.15858324254
0.945647128271
0.026553519687
0.213768866979
0.361866710142
0.252789009353
0.00509236026751
0.00272405341329
0.0190246548724
0.13856929511
0.249163837713
0.0391718229063
0.264453565756
0.04510833864
0.320572578508
0.935800324065
0.0499784679096
0.12029728951
0.285640466611
0.0532741636338
0.216022527763
0.0641177710635
0.411555056058
0.183833876388
0.223259354407
0.127508201301
0.363224502232
0.431102002031
0.408628629603
0.12297263651
0.0507060530676
0.272973133609
0.0304529892205
0.231668115194
0.0946148689416
0.0608416562068
0.0480855819705
0.299373932908
0.0200133800132
0.0530995753022
0.357012522134
0.297512731895
0.69589171844
0.520618898222
0.708769178828
0.945831137917
1.39147285642
1.3233179399
1.94060149364
2.06054051057
2.08702167034
1.99459849327
0.781981344484
2.54058479776
0.984981426144
1.55006761105
0.996963188691
1.08864535737
0.285468142575
0.476016877384
1.10696866246
0.551591706532
1.01737857245
0.41189825061
1.26546748617
0.371398361463
0.818597169702
0.271710334529
0.257488019473
0.775079349958
0.277429973054
1.26105244396
0.104554130236
0.230582978148
0.433046543477
0.458592112683
0.0920362008555
0.0500791530425
0.11211240999
0.38959839082
0.180802792886
0.115317099892
0.0888060679947
0.224826622825
0.531942878519
0.85389132767
1.29363386221
1.54787249054
1.91341862949
1.83858719792
1.90228949875
1.86569063074
1.65233069052
1.82141295638
1.00724153539
1.7888499171
0.348897821311
0.493315016746
0.756655565392
0.431800602834
0.630714287613
0.570293713457
0.451463817415
0.515522077059
1.51294392949
0.448832656741
1.13415578022
0.341890199528
0.603490655248
0.411045802303
0.198760583808
0.899056628043
1.60428751623
0.520429893015
0.28272383165
0.250104225335
0.206639960479
0.756713945698
0.391292979228
0.335311967506
0.475406009952
0.43679137893
0.350834591075
0.446151682352
0.584814357602
0.350881196507
0.656965977547
0.484252519196
0.795812363684
1.30844206707
0.756412497276
0.937260934284
1.42140886544
0.776987735817
1.01823205208
0.921922423612
0.578771164966
0.623214581365
0.975854185878
0.427579421663
0.262553982781
0.244168861423
0.248340046958
2.01925113444
0.451058530152
1.21011910393
0.334066711933
1.1052174828
0.071792363977
0.210131416789
1.42017706789
0.241408417179
0.189814096696
0.393184559018
0.147930225117
0.244359709683
0.502539093173
0.43161818769
0.189590912875
0.205584011241
0.374045982853
0.229261306858
0.302215785887
0.407084197906
0.506978634135
0.601863936724
0.06776532205
0.293794764236
0.237633173237
0.375849287501
0.783380889326
0.0313070695838
0.209369332725
0.335670682606
0.183519381184
0.424518225612
0.317039492714
0.437115581219
0.310088561146
0.296960642296
0.364705154562
0.382350090281
0.532615275282
0.51260451504
0.961961009081
1.26338279581
1.19997413627
1.68351931718
1.97090779567
2.00470241211
2.16344173337
1.62708753413
1.90860762643
1.76836412211
1.2343914277
1.24548263608
1.1876078591
2.25597729345
0.0229666631657
0.208756014495
0.495890772958
0.89627762391
1.36341404526
1.09284532511
1.58241366087
0.98247797905
1.98574060074
0.689519030919
2.01454384651
0.273360105151
1.37054392976
0.410339824681
1.19077137764
0.239689912795
0.429215986813
0.439906775359
0.456729186393
0.58998909885
0.447267582055
0.542801006792
0.756972864093
0.474995904648
0.728828262976
0.5572017823
0.759499149765
0.583865021339
0.870286500377
0.725853371734
0.84630547023
0.53573239149
1.15029176822
0.579823456603
1.15706491694
0.63284218813
1.20232852994
0.672502482723
1.25719571739
0.886129489718
1.23752240577
0.870553682912
1.19853628825
1.00748834837
1.22537077547
1.04256547689
1.24707204094
1.0684968465
1.300205046
1.10754595775
1.25302606665
1.05348371808
1.38596249753
1.1041252322
1.33475481608
1.14708849308
1.3048886075
1.12268818562
1.27552595078
1.15864557667
1.21571909754
1.14489958334
1.16500728071
1.07454267239
1.08921071707
1.01822251529
1.14203956838
1.03386617179
0.977463327536
1.00366175251
0.965217042763
0.699154694671
1.16825044172
0.569187285772
1.13290365997
0.620465866141
1.05071784712
0.510668244011
1.04045790187
0.529359437204
0.986984305663
0.592753775356
0.71764787113
0.538734211457
0.826060435546
0.509873822003
0.815733278169
0.602108765026
0.735361786652
0.706598997329
0.751388411111
0.539508553009
1.02944149059
0.538223787574
1.03295519763
0.813978012016
0.77943796136
0.743849693963
1.08763747977
0.820461942245
1.06395991411
0.837560528786
1.1972339348
0.825118394945
1.11215896244
0.86847100205
1.21759900025
0.90208074917
1.12404825203
0.921035289498
1.13625306668
0.97831836753
1.08217922831
1.07983575235
1.0610829529
1.03318926923
1.06431888509
1.06474677575
0.996098891233
1.04435335625
1.01880114921
1.20708112969
1.45705059525
0.583276145856
1.87432292316
0.887201601311
1.89444908676
1.57204032746
1.94247673817
2.03883800776
1.69892610954
3.2079004166
0.55696412892
3.77131439315
0.316289529541
2.36094558336
2.66116641716
0.606058594207
0.368874080539
0.242943424757
0.79931778982
0.528142899077
0.135845825497
0.170691150466
0.448635964046
0.24425425622
0.668721772144
0.358396690947
0.246902636131
0.668288824812
0.419343560353
0.566387109297
0.285615392675
0.268496073278
0.141174263115
0.248313135809
0.276017845668
0.432874035822
0.734039609025
0.316164934773
0.415331881091
0.424278789937
0.513555411827
1.54101485433
0.355964314031
0.606040190628
0.842779931133
1.40258451608
0.379118435669
1.02830065565
0.739707802936
1.36814406818
0.2446036346
1.06844616557
0.32213712446
0.793522052898
0.466220612527
0.467879719066
0.5171425906
0.442637670211
0.0523710016215
0.39688171076
0.403927746665
0.298032486206
0.314810639031
0.128106987882
0.0773367697041
0.502935345314
0.0165673142718
0.12816548601
5.70669408238e-06
0.041342040003
0.251899828981
0.412605177095
0.0772434359303
0.0520954258355
0.0975421077723
0.292369896195
0.095421419528
0.442412384694
0.0471461361855
0.34534714969
0.239889397789
0.362318810766
0.401082227847
0.234813534926
0.472829334214
0.440017607494
0.468911180644
1.19058095287
0.369979091446
1.50729860888
1.32093908095
1.84448137763
2.09113405584
2.31318590251
2.11725059013
2.4721534851
0.482268515593
3.70239704629
0.414235348242
0.727948183274
0.0286113405506
0.224623953458
1.01824101384
0.34560589442
0.916345150574
0.457894137312
0.838535276478
0.53308272337
1.72503492399
0.501612325716
1.88908312267
0.466184485031
2.10564029084
0.547957011623
1.79301627922
0.204362912998
1.4757763644
0.151210451537
1.13313295974
0.452010531617
0.478825426388
0.515253965499
0.250715252517
0.0392083404819
0.0773286872397
0.0545106449477
0.0427414072738
0.31941258058
0.0203534958665
0.123166626911
0.0794690749377
0.105926162005
0.0942574995897
0.167477615327
0.107281204055
0.31185263791
0.136840700906
1.37724434987
1.0660807671
0.231770657592
0.40229161284
0.430713207076
0.391913370746
0.238955784677
0.144509086859
0.171040399083
0.773438406342
0.0167080049485
0.114747206847
0.0460733830577
0.367777691229
1.35991434891
0.212345929512
0.800803470824
0.682110510211
0.494510304945
0.500969176155
0.193089913852
0.526603033935
0.597437524763
0.538012704133
0.376360328556
0.891164349067
0.0737043760573
0.278514000232
0.343880804235
0.441984248393
0.411719891211
0.440713392981
0.182053188328
0.0738196790787
0.193717604255
0.416628371158
0.230481041648
0.042044186575
0.293792120861
0.480486752044
0.438157785783
0.472951381686
0.414272631323
0.483193452528
0.479607973894
0.481021367134
0.450161107558
0.4787081264
0.455142147472
0.436794195581
0.431349900473
0.434243894648
0.440378660436
0.432648725232
0.39575086336
0.417455600282
0.245796960795
0.446647908678
0.382753685678
0.344795816874
0.370248795779
0.364588204741
0.456888951382
0.489647315075
0.238125642006
0.756785705337
0.433078635721
0.613716220742
0.449253205373
0.562112747544
0.539304598748
0.734898379274
0.513683935998
1.17138118111
1.10823014091
1.19487049221
1.32941494414
1.86915583053
1.42799844312
1.90038488379
1.33749685242
1.60993639109
0.921776326089
1.61114745894
0.529815542541
1.85713006846
0.142154729334
1.42328654196
0.0702869120483
0.507366181085
0.117510307706
0.0
0.0388065317927
0.297082243516
0.54435680206
0.0333287586493
0.246870316234
0.143437423292
0.441184279136
0.246422969082
0.0396972961648
0.266370052028
0.485809846663
0.166564255839
0.434919196789
0.304087039236
0.233384086417
0.398021211764
0.456354909293
0.777034486683
0.30956460141
0.30707808128
0.701633841645
0.622185646303
1.05067759759
0.996310590316
1.45558886498
1.55777869777
1.6994377118
1.83359848287
1.23636568841
1.77447560149
1.68095064559
1.40395459131
0.457318774929
1.10745683603
0.61055355506
0.0335831808604
0.262909854146
0.166727675036
0.00446131598097
0.06511731552
0.211797139308
0.153605505787
0.587649742827
0.00499085701433
0.0204565020207
0.1084995601
0.342047435182
0.121825043144
0.58380023506
0.324908444363
0.0340865515453
0.241289769192
0.366014507076
0.270558404168
0.269219827678
0.463744165858
0.333084055919
0.339106975501
0.278834355642
0.277117453556
0.446702996959
0.254997168608
0.253678625547
0.337510020168
0.244775759923
0.231550540773
0.277096898203
0.283251539968
0.198729885927
0.208330549713
0.285995996155
0.182761769877
0.213003193113
0.323915511864
0.18300381459
0.329566152616
0.123205129102
0.212185110919
logs/alpha_7.0/PGSD_700steps_0.log 592.392311481 0.592392311481 0.431162155297 3.77131439315 0.0 -1
