Policy Parameters:	-1.7489627932 2.48595838922
Control Steps:		1000
Start Time:		1448640634.3

-- TESTING STOPPED --

Stop Time:		1448640738.35
Duration:		104.047843933
Cost Matrix:
0.0155381862699
0.0717457200129
0.239961106017
0.43466243807
0.422021030749
0.357899364899
0.294394772305
0.303707595759
0.197709318969
0.216956040533
0.20318441245
0.100580507906
0.0558313536615
0.0253823780944
0.0188677078
0.0218860513516
0.040093658756
0.0351087597641
0.0911087572949
0.106820674896
0.218876511427
0.146561429392
0.189213532825
0.157565844964
0.289726621451
0.325146627723
0.261141126667
0.327567645619
0.591791381074
0.486615647485
0.393159105968
0.565406944411
0.635734434123
0.281342593859
0.561013067773
1.06006597416
0.762844992736
0.609318452025
0.532590284978
0.32876878272
0.486141731346
0.335573539932
0.320593920835
0.371334738487
0.219092523538
0.265623707783
0.0615031900614
0.0614983665973
0.0392059212219
0.12859752708
0.0387457640231
0.0593120229459
0.130849877138
0.0779116894126
0.0435180607951
0.0186456673432
0.115918280106
0.0906625773766
0.126590199391
0.249661265027
0.314661820895
0.349149227153
0.424628839236
0.408297170563
0.461177710192
0.466913453924
0.555706292183
0.818920470946
0.490891512113
0.496391773584
0.186475267709
0.0862101204688
0.0678614239362
2.40000096092
0.0392539827919
0.0855794482733
0.190218223709
0.150351906058
0.11529897409
0.170179477207
0.163581454092
0.0813120201279
0.100791824935
0.0228816189889
0.0370671569955
0.0702750588684
0.00147096377039
0.13008336947
0.238960195924
0.446263952371
0.47282833602
0.478068819841
0.494593679085
0.547220037779
0.150525256477
0.110601391283
0.100448053323
0.0408684826399
0.0330153008821
0.0517052327579
0.0447467537717
0.0396681039961
0.0875449867711
0.0789280571148
0.0621257000874
0.0829444958536
0.0767236182402
0.0965738064434
0.0547169905298
0.117500317302
0.0829522609931
0.0798438697039
0.13095531251
0.0955153679959
0.12592143593
0.113431611768
0.193552977415
0.0772949817139
0.128821840053
0.128582527049
0.133211656534
0.147541159639
0.118037138338
0.123664513265
0.197464548281
0.162265700184
0.113877229164
0.147171130421
0.134358810152
0.188579397355
0.103413930457
0.159543229891
0.236805606842
0.218546301191
0.238342699801
0.3557654295
0.478598557344
0.306243435596
0.295615402715
0.221721358255
0.288070140469
0.342138131514
0.242422581853
0.32492797468
0.283573714919
0.286898895867
0.286797606311
0.35502202426
0.393222751183
0.357034913411
0.514618938322
1.14292787397
1.30108059574
0.984822068688
0.609593658809
0.471848996964
0.608740595656
0.615769602751
0.544570732262
0.512385692287
0.261169167364
0.111635386977
0.141834667508
0.201743128314
0.189869213875
0.250292397951
2.40364106875
0.0
0.0220206049305
0.213470704544
0.122342030464
0.196300756106
0.0803109884338
0.157201933174
0.0584915987386
0.117873843795
0.02128961015
0.0673789176218
0.121000248516
0.101218948885
0.117441042531
0.0785833289167
0.121265862949
0.0946843647776
0.158381202974
0.0439296964847
0.105255010217
0.0508761407071
0.0719471576596
0.0520702889223
0.0546723662026
0.160920214582
0.142626200286
0.0921163227355
0.0454912872314
0.0650221951381
0.0100421900936
0.0529958695399
0.0300507115891
0.0741804018909
0.000969926553459
0.039432931864
0.0424410190661
0.071941206452
0.0551260053185
0.0468640753093
0.0641225073891
0.0907189533294
0.0757917184147
0.0860244419864
0.113687188751
0.135017449598
0.133889127625
0.158893921299
0.19518500903
0.139439979863
0.176592208293
0.178500833603
0.153313671718
0.157118917858
0.087122183259
0.145561191702
0.0182694536127
0.0837746014359
0.137307332294
0.0579217977034
0.100169026074
0.0346897855801
0.193517717255
0.521340594313
0.0
0.0827418210112
0.00722975313357
0.0018844278937
0.0904510842248
0.475340111748
1.5401774575
0.0976115896214
0.485121015442
0.336129005576
0.235738265178
0.239399730668
0.335789204723
0.380650674098
1.36061911948
0.107136183551
0.164166704787
0.300583713637
0.554542571244
0.437700540795
0.756572685144
0.372903197298
0.657946830456
0.211533990396
0.240436316765
0.272204220163
0.0742150615051
0.0914827846237
0.0349558705723
0.0580869516476
0.0238145435736
0.0280235268209
0.0361839250951
0.0542222441803
0.0194147798166
0.0194473277712
0.0420725807902
0.0739797399458
0.0851886704417
0.0736872144316
0.11383209924
0.0932888976887
0.126196925339
0.113513406801
0.150117358635
0.140502823026
0.147751273057
0.192036903317
0.259436534668
0.225712079685
0.246531288753
0.301902831537
0.347095054005
0.361508020756
0.394456180756
0.45093666553
0.496214696769
0.535881649895
0.713520003891
1.40187029425
2.00956364256
2.64322042239
0.387347504146
0.0
0.0
0.0
0.0024226612204
0.0
0.0
0.0
0.0
0.0
0.0
0.0
0.0
0.0
0.0
0.0
0.0
0.0
0.0
0.0
0.0
0.0
0.0
0.0
0.0
2.4
0.0
0.000850396788855
0.0713744431982
0.178448062927
0.226255646854
0.21245186038
0.189700918463
0.196024212934
0.179707578895
0.280677303836
0.417206357086
0.547766371208
1.00983679848
1.37706790676
1.01206322217
1.83055782132
1.76586086717
1.38386935196
1.12322064757
0.750815255826
0.130436022132
0.216920434114
0.099627034795
0.0985588835538
0.27000964456
0.404558882573
0.61148966401
1.03707855246
0.725960264468
0.357986363489
0.458460102182
0.236884937515
0.282764771158
0.115928595105
0.200789914984
0.115084165615
0.199434119086
0.182511271419
0.185046710764
0.226638680455
0.307212738054
0.309762639788
0.332476133541
0.321336770125
0.348796256073
0.461155984473
0.628497311164
0.529437486679
0.476470058325
1.09555910471
0.175735161346
1.15159993319
1.53602055394
1.50948974553
3.19680039223
2.38156154202
1.82012325741
0.346621625168
0.273044648287
0.1014471866
0.064506740755
0.0312209500892
0.0325138625606
0.0258337917462
0.0217712117808
0.0441081156294
0.0200480074019
0.0682558091345
0.148012458414
0.196937670941
0.262552565775
0.187505011248
0.316635528203
0.544532404162
1.57605387076
2.40041594791
1000000.0
0.0
0.0
0.0
0.0
0.0
0.0
0.0
0.0
0.0
0.0
0.0
0.0
0.0
0.0
0.0
0.0
0.0
0.0
0.0
0.0
0.0
0.0
0.0
0.0
0.0
0.0
0.0
0.0
0.0
0.0
0.0
0.0
0.0
0.0
0.0
0.0
0.0
0.0
0.0
0.0
0.0
0.0
0.0
0.0
0.0
0.0
0.0
0.0
0.0
0.0
0.0
0.0
0.0
0.0
0.0
0.0
0.0
0.0
0.0
0.0
0.0
0.0
0.0
0.0
0.0
0.0
0.0
0.0
0.0
0.0
0.0
0.0
0.0
0.0
0.0
0.0
0.0
0.0
0.0
0.0
0.0
0.0
0.0
0.0
0.0
0.0
0.0
0.0
0.0
0.0
0.0
0.0
0.0
0.0
0.0
0.0
0.0
0.0
0.0
0.0
0.0
0.0
0.0
0.0
0.0
0.0
0.0
0.0
0.0
0.0
0.0
0.0
0.0
0.0
0.0
0.0
0.0
0.0
0.0
0.0
0.0
0.0
0.0
0.0
0.0
0.0
0.0
0.0
0.0
0.0
0.0
0.0
0.0
0.0
0.0
0.0
0.0
0.0
0.0
0.0
0.0
0.0
0.0
0.0
0.0
0.0
0.0
0.0
0.0
0.0
0.0
0.0
0.0
0.0
0.0
0.0
0.0
0.0
0.0
0.0
0.0
0.0
0.0
0.0
0.0
0.0
0.0
0.0
0.0
0.0
0.0
0.0
0.0
0.0
0.0
0.0
0.0
0.0
0.0
0.0
0.0
0.0
0.0
0.0
0.0
0.0
0.0
0.0
0.0
0.0
0.0
0.0
0.0
0.0
0.0
0.0
0.0
0.0
0.0
0.0
0.0
0.0
0.0
0.0
0.0
0.0
0.0
0.0
0.0
0.0
0.0
0.0
0.0
0.0
0.0
0.0
0.0
0.0
0.0
0.0
0.0
0.0
0.0
0.0
0.0
0.0
0.0
0.0
0.0
0.0
0.0
0.0
0.0
0.0
0.0
0.0
0.0
0.0
0.0
0.0
0.0
0.0
0.0
0.0
0.0
0.0
0.0
0.0
0.0
0.0
0.0
0.0
0.0
0.0
0.0
0.0
0.0
0.0
0.0
0.0
0.0
0.0
0.0
0.0
0.0
0.0
0.0
0.0
0.0
0.0
0.0
0.0
0.0
0.0
0.0
0.0
0.0
0.0
0.0
0.0
0.0
0.0
0.0
0.0
0.0
0.0
0.0
0.0
0.0
0.0
0.0
0.0
0.0
0.0
0.0
0.0
0.0
0.0
0.0
0.0
0.0
0.0
0.0
0.0
0.0
0.0
0.0
0.0
0.0
0.0
0.0
0.0
0.0
0.0
0.0
0.0
0.0
0.0
0.0
0.0
0.0
0.0
0.0
0.0
0.0
0.0
0.0
0.0
0.0
0.0
0.0
0.0
0.0
0.0
0.0
0.0
0.0
0.0
0.0
0.0
0.0
0.0
0.0
0.0
0.0
0.0
0.0
0.0
0.0
0.0
0.0
0.0
0.0
0.0
0.0
0.0
0.0
0.0
0.0
0.0
0.0
0.0
0.0
0.0
0.0
0.0
0.0
0.0
0.0
0.0
0.0
0.0
0.0
0.0
0.0
0.0
0.0
0.0
0.0
0.0
0.0
0.0
0.0
0.0
0.0
0.0
0.0
0.0
0.0
0.0
0.0
0.0
0.0
0.0
0.0
0.0
0.0
0.0
0.0
0.0
0.0
0.0
0.0
0.0
0.0
0.0
0.0
0.0
0.0
0.0
0.0
0.0
0.0
0.0
0.0
0.0
0.0
0.0
0.0
0.0
0.0
0.0
0.0
0.0
0.0
0.0
0.0
0.0
0.0
0.0
0.0
0.0
0.0
0.0
0.0
0.0
0.0
0.0
0.0
0.0
0.0
0.0
0.0
0.0
0.0
0.0
0.0
0.0
0.0
0.0
0.0
0.0
0.0
0.0
0.0
0.0
0.0
0.0
0.0
0.0
0.0
0.0
0.0
0.0
0.0
0.0
0.0
0.0
0.0
0.0
0.0
0.0
0.0
0.0
0.0
0.0
0.0
0.0
0.0
0.0
0.0
0.0
0.0
0.0
0.0
0.0
0.0
0.0
0.0
0.0
0.0
0.0
0.0
0.0
0.0
0.0
0.0
0.0
0.0
0.0
0.0
0.0
0.0
0.0
0.0
0.0
0.0
0.0
0.0
0.0
0.0
0.0
0.0
0.0
0.0
0.0
0.0
0.0
0.0
0.0
0.0
0.0
0.0
0.0
0.0
0.0
0.0
0.0
0.0
0.0
0.0
0.0
0.0
0.0
0.0
0.0
0.0
0.0
0.0
0.0
0.0
0.0
0.0
0.0
0.0
0.0
0.0
0.0
0.0
0.0
0.0
0.0
0.0
0.0
0.0
0.0
0.0
0.0
0.0
0.0
0.0
0.0
0.0
0.0
0.0
0.0
0.0
0.0
0.0
0.0
0.0
0.0
0.0
0.0
0.0
0.0
0.0
0.0
0.0
0.0
0.0
0.0
0.0
0.0
0.0
0.0
0.0
0.0
0.0
0.0
0.0
0.0
0.0
0.0
0.0
0.0
0.0
0.0
0.0
0.0
0.0
0.0
0.0
0.0
0.0
logs/lernen/4-5_erfolge_in_simu/durchschnitt/1/PGSD_600steps_2.log 1000120.5398 1000.1205398 0.0 1000000.0 0.0 394
