Policy Parameters:	-0.892403118271 1.04619362493
Control Steps:		1000
Start Time:		1442358277.4731944

-- TESTING STOPPED --

Stop Time:		1442358342.7593427
Duration:		65.28614830970764
Cost Matrix:
0.0297073434444
0.0806576297524
0.0849221041771
0.0672089401039
0.0462511545017
0.0354369096085
0.0451517441556
0.0426754764185
0.0292352039623
0.0267965646693
0.0732031886937
0.0628599937498
0.0160261907981
0.0677806527087
0.0784729702057
0.0765911366721
0.0714938951492
0.028723814342
0.0897812668929
0.0940021695873
0.0111003965308
0.063910570409
0.0678702650587
0.0310249795562
0.0339310850792
0.011498373166
0.0423197540988
0.047466366114
0.0253337183438
0.0346684690734
0.0293990230374
0.0263976890179
0.0333310565914
0.0253549098067
0.0152114170476
0.0331670166314
0.0383116259979
0.0319021190589
0.057585272127
0.0658410316942
0.0972533389533
0.103241961455
0.0835868447126
0.104455237012
0.0997499106507
0.0505731549752
0.0599250411833
0.0598171730083
0.0285687430023
0.05634372468
0.0610772321934
0.0387252146001
0.0121507675724
0.00661474018525
0.0473323700493
0.0672449899606
0.0739331656852
0.0872520462288
0.0782182545612
0.0498123138092
0.0223803153581
0.0340725397344
0.0214284818259
0.0242217233736
0.0547912750567
0.0494464430943
0.0406944997
0.0943893997051
0.142532508247
0.180402951474
0.20653299839
0.203087211497
0.19679263834
0.209658332122
0.263449718869
0.318125576767
0.301455227081
0.30310078402
0.315007496188
0.299023509676
0.290055842248
0.286014919451
0.299136091453
0.294323465619
0.245875128236
0.184885700363
0.192133307506
0.16083705717
0.0990823029565
0.107666476453
0.188243949837
0.207697803042
0.127461081553
0.0318056846345
0.0760589566136
0.0994898346546
0.151512850436
0.146973988058
0.106986012775
0.106152221548
0.034157560006
0.010450227123
0.0106854550873
0.0188531926495
0.0218505235795
0.115303074881
0.107161303036
0.0358522849725
0.0293442781884
0.0
0.056123951159
0.0611013317201
0.058307647859
0.051073645151
0.0234607780899
0.0157835028705
0.0279435106534
0.0378467345741
0.0691843691945
0.0700518701952
0.0553228809924
0.044429743422
0.0242853995423
0.0117731112608
0.0161535764234
0.0103581538744
0.00788906821554
0.0147738605543
0.0240545029449
0.018191557956
0.0301460390138
0.0342574447576
0.0329972925512
0.0274464029902
0.0623432714743
0.0571500687705
0.0148940685903
0.0120417883366
0.0182176066826
0.0134935502994
0.0249500342225
0.0330406081422
0.00658474866951
0.0310687487555
0.0314743032955
0.0187501320001
0.0156049073073
0.0335574998766
0.0734876222623
0.0825316900273
0.0554820118162
0.0684045311719
0.0917253771442
0.0867939002998
0.05374936173
0.043891324727
0.0812104754415
0.0905616466854
0.114340435407
0.130560990605
0.0855884678244
0.0680536168887
0.09899861191
0.212875406039
0.228284841328
0.12044043083
0.132272320846
0.16450660579
0.158411672574
0.132349755707
0.131567963531
0.16878511006
0.181397353122
0.195577934816
0.208988178514
0.225026305827
0.247480954473
0.281414064641
0.330780416142
0.37413818065
0.457027310385
0.559219298534
0.672455049559
0.734423770962
0.661072965438
0.728132970626
0.967766731502
0.762667501135
0.72340710477
0.702163951063
0.766966366472
0.98766056875
0.819648405544
0.679951138274
0.829859071645
0.614228550403
0.561183308634
0.449468708113
0.36492802916
0.140388611383
0.0610973033038
0.0487079361126
0.0677963029634
0.0829510061572
0.108907923319
0.12735388593
0.105968276886
0.108709340063
0.118891427181
0.0990495594448
0.072552508841
0.0782701540197
0.0708803531374
0.0256093284278
0.0405701612076
0.0352898680147
0.069516809308
0.0948529652469
0.116992806704
0.11434324354
0.0716068212096
0.0551325114376
0.0423122200827
0.0382838993841
0.0261170976487
0.0713246143363
0.0862508587698
0.0762511573793
0.0726592500893
0.0593169281656
0.0602020783555
0.06070346008
0.0873928011263
0.128491131339
0.129580415054
0.12051654422
0.159631883097
0.161937583036
0.146814875006
0.19733944962
0.229729870774
0.269809740987
0.299312629714
0.306386910323
0.342470261003
0.366063398174
0.393015031313
0.433357391121
0.470618558997
0.493936618548
0.526884278428
0.565823188027
0.597155973642
0.586525220663
0.535366893751
0.529950490109
0.526808645282
0.511278821307
0.468533652035
0.397500055723
0.401922339975
0.445580648255
0.36616568292
0.210053417292
0.16317308933
0.099549725414
0.109326765347
0.0944076930894
0.128875628877
0.133847124764
0.0971792908874
0.057726561641
0.0707707434549
0.0660402147125
0.090715715039
0.0890434047049
0.0661333140135
0.13342978976
0.117929444195
0.0265742604428
0.0724943669204
0.0674872771202
0.0391312401799
0.0751548483478
0.0603821193585
0.018612511598
0.0438097790937
0.0570293390073
0.0584381632823
0.0492431076538
0.045000658795
0.0418294283597
0.0153047017259
0.0359016136389
0.0424061765882
0.019300340986
0.0217508400234
0.104743652857
0.11295402623
0.0520698966581
0.0421149541743
0.0676660482795
0.0727008517364
0.0460075182009
0.0966482635597
0.1286621715
0.130401017962
0.126102560362
0.121776680578
0.117289131589
0.146231954641
0.172597679692
0.14318293123
0.0993502603479
0.104231171
0.14432432304
0.174470036231
0.15590939971
0.140897981025
0.159803613835
0.155874415177
0.140049997511
0.134347025042
0.149946581543
0.158702821543
0.160614743297
0.162652531653
0.132546324012
0.111033563012
0.115651320362
0.0933848782923
0.095020859318
0.102299709419
0.104133785077
0.0969516480476
0.0716981612415
0.31136566264
0.328259847773
0.0513730832272
0.0161059686683
0.0462651270627
0.058901232962
0.0953624233881
0.0987161929358
0.0828670587192
0.104982807275
0.107380883152
0.118985384988
0.119410035359
0.139463356659
0.158016610157
0.157473497428
0.155469050918
0.153208569013
0.167069372054
0.188136268413
0.179340037926
0.160222481581
0.159325129228
0.19717975698
0.189333390545
0.192366779986
0.218231286899
0.200086367177
0.175386262324
0.166486476223
0.168235043537
0.181870350596
0.189443855717
0.189398599422
0.186667597124
0.180403088296
0.169835439962
0.154538596497
0.139987595178
0.120513703964
0.0890016281096
0.072663425183
0.062356003278
0.0391082179785
0.017687600837
0.0070658325835
0.00185205255995
0.00953698371804
0.0146625575669
0.0119175014287
0.00359151328246
0.00826496484802
0.0173338604495
0.0277529337609
0.0163443585998
0.0252327188265
0.0272349631046
0.0220544990099
0.0303788049242
0.0453992783299
0.039864704669
0.0242415161383
0.0269258775691
0.0258420412741
0.017622015075
0.02236845324
0.027183195291
0.0230165642027
0.0309810996652
0.0283691034328
0.019184756498
0.0195502484374
0.0241274114105
0.0250400101717
0.0343120259654
0.0320695764596
0.0421542501544
0.0462057133199
0.0381464214396
0.0410726308993
0.0477072754954
0.0466970365957
0.0517383702527
0.0669219900941
0.0657060871271
0.048701615006
0.0452181987886
0.0503075707424
0.0580136800273
0.0698285940782
0.0783282668205
0.0841624407737
0.0923009603153
0.0825986062202
0.0750116377121
0.0988381625166
0.143292915688
0.165729077237
0.155102244593
0.14847294445
0.141043940826
0.135467149384
0.188799791003
0.21927258826
0.248140636613
0.315161530328
0.409732099787
0.422527140076
0.292689331022
0.423077208492
0.532335092772
0.287176697822
0.272707159602
0.208760583506
0.0889882590332
0.0
1000000.0
0.0
0.0
0.0
0.0
0.0
0.0
0.0
0.0
0.0
0.0
0.0
0.0
0.0
0.0
0.0
0.0
0.0
0.0
0.0
0.0
0.0
0.0
0.0
0.0
0.0
0.0
0.0
0.0
0.0
0.0
0.0
0.0
0.0
0.0
0.0
0.0
0.0
0.0
0.0
0.0
0.0
0.0
0.0
0.0
0.0
0.0
0.0
0.0
0.0
0.0
0.0
0.0
0.0
0.0
0.0
0.0
0.0
0.0
0.0
0.0
0.0
0.0
0.0
0.0
0.0
0.0
0.0
0.0
0.0
0.0
0.0
0.0
0.0
0.0
0.0
0.0
0.0
0.0
0.0
0.0
0.0
0.0
0.0
0.0
0.0
0.0
0.0
0.0
0.0
0.0
0.0
0.0
0.0
0.0
0.0
0.0
0.0
0.0
0.0
0.0
0.0
0.0
0.0
0.0
0.0
0.0
0.0
0.0
0.0
0.0
0.0
0.0
0.0
0.0
0.0
0.0
0.0
0.0
0.0
0.0
0.0
0.0
0.0
0.0
0.0
0.0
0.0
0.0
0.0
0.0
0.0
0.0
0.0
0.0
0.0
0.0
0.0
0.0
0.0
0.0
0.0
0.0
0.0
0.0
0.0
0.0
0.0
0.0
0.0
0.0
0.0
0.0
0.0
0.0
0.0
0.0
0.0
0.0
0.0
0.0
0.0
0.0
0.0
0.0
0.0
0.0
0.0
0.0
0.0
0.0
0.0
0.0
0.0
0.0
0.0
0.0
0.0
0.0
0.0
0.0
0.0
0.0
0.0
0.0
0.0
0.0
0.0
0.0
0.0
0.0
0.0
0.0
0.0
0.0
0.0
0.0
0.0
0.0
0.0
0.0
0.0
0.0
0.0
0.0
0.0
0.0
0.0
0.0
0.0
0.0
0.0
0.0
0.0
0.0
0.0
0.0
0.0
0.0
0.0
0.0
0.0
0.0
0.0
0.0
0.0
0.0
0.0
0.0
0.0
0.0
0.0
0.0
0.0
0.0
0.0
0.0
0.0
0.0
0.0
0.0
0.0
0.0
0.0
0.0
0.0
0.0
0.0
0.0
0.0
0.0
0.0
0.0
0.0
0.0
0.0
0.0
0.0
0.0
0.0
0.0
0.0
0.0
0.0
0.0
0.0
0.0
0.0
0.0
0.0
0.0
0.0
0.0
0.0
0.0
0.0
0.0
0.0
0.0
0.0
0.0
0.0
0.0
0.0
0.0
0.0
0.0
0.0
0.0
0.0
0.0
0.0
0.0
0.0
0.0
0.0
0.0
0.0
0.0
0.0
0.0
0.0
0.0
0.0
0.0
0.0
0.0
0.0
0.0
0.0
0.0
0.0
0.0
0.0
0.0
0.0
0.0
0.0
0.0
0.0
0.0
0.0
0.0
0.0
0.0
0.0
0.0
0.0
0.0
0.0
0.0
0.0
0.0
0.0
0.0
0.0
0.0
0.0
0.0
0.0
0.0
0.0
0.0
0.0
0.0
0.0
0.0
0.0
0.0
0.0
0.0
0.0
0.0
0.0
0.0
0.0
0.0
0.0
0.0
0.0
0.0
0.0
0.0
0.0
0.0
0.0
0.0
0.0
0.0
0.0
0.0
0.0
0.0
0.0
0.0
0.0
0.0
0.0
0.0
0.0
0.0
0.0
0.0
0.0
0.0
0.0
0.0
0.0
0.0
0.0
0.0
0.0
0.0
0.0
0.0
0.0
0.0
0.0
0.0
0.0
0.0
0.0
0.0
0.0
0.0
0.0
0.0
0.0
0.0
0.0
0.0
0.0
0.0
0.0
0.0
0.0
0.0
0.0
0.0
0.0
0.0
0.0
0.0
0.0
0.0
0.0
0.0
0.0
0.0
0.0
0.0
0.0
0.0
0.0
0.0
0.0
0.0
0.0
0.0
0.0
0.0
0.0
0.0
0.0
0.0
0.0
0.0
0.0
0.0
0.0
0.0
0.0
0.0
0.0
0.0
0.0
0.0
0.0
0.0
0.0
0.0
0.0
0.0
0.0
0.0
0.0
0.0
0.0
0.0
0.0
0.0
0.0
0.0
0.0
0.0
0.0
0.0
0.0
0.0
0.0
0.0
0.0
0.0
0.0
0.0
0.0
0.0
0.0
0.0
0.0
0.0
0.0
0.0
0.0
0.0
0.0
0.0
0.0
0.0
0.0
0.0
0.0
0.0
0.0
0.0
0.0
0.0
0.0
0.0
0.0
0.0
0.0
0.0
0.0
0.0
0.0
0.0
0.0
0.0
0.0
0.0
0.0
0.0
0.0
0.0
0.0
0.0
0.0
0.0
0.0
0.0
0.0
0.0
0.0
0.0
0.0
0.0
0.0
0.0
0.0
0.0
0.0
0.0
0.0
0.0
0.0
0.0
0.0
logs/alpha_4.0/PGSD_700steps_4.log 1000063.20696 1000.06320696 0.0 1000000.0 0.0 452
