Initial Policy Parameters:	0.0 0.0
Learning Rate:			4.0
Learning Steps:			900
Start Time:			1442256513.5212808

-- LEARNING STOPPED --

Stop Time:			1442256659.892071
Duration:			146.3707902431488
Final Policy Parameters:	-2.1468307233 5.41740898438
