Policy Parameters:	-1.82154748868 5.36483234392
Control Steps:		1000
Start Time:		1442351939.0783384

-- TESTING STOPPED --

Stop Time:		1442352118.6002455
Duration:		179.52190709114075
Cost Matrix:
0.258469386285
1.05898206192
0.549655810922
0.916698828532
0.469532830716
1.37024979485
0.687989527243
1.14361736848
0.955999518891
0.82424813261
0.502049003087
1.27131942843
0.267757075746
0.36190375422
0.303821617622
0.252895349422
0.0854016641442
0.16346138666
0.340267510398
0.0403478438821
0.270554001307
0.226562267385
0.118018408524
0.295883401405
0.0128185377676
0.0486361359194
0.237534871808
0.00584038044381
0.241758878697
0.264673656285
0.104429744936
0.311268770327
0.0177944374191
0.022231338564
0.0710159634601
0.0135061813904
0.0810421305163
0.0424282561253
0.283567601295
0.227918313309
0.314282611272
0.344639203569
0.0834069053753
0.208374810955
0.666228109838
0.213157801638
0.151232621341
0.327522392478
0.466783600735
0.32429807025
0.333755574732
0.330419709683
0.104890399359
0.272690843564
0.270366866691
0.40685207609
0.482280741859
0.441550853746
0.172316260394
0.861294269677
0.543990953251
0.866843550626
0.863879739914
1.09701066671
1.68433010981
1.10500495633
1.55767522466
1.40939031116
1.05778717394
1.7131017893
0.446060606974
1.9009633988
0.192172841145
0.268587982043
0.180710277395
0.00843900713028
0.202850623079
0.192882634115
0.274575343997
0.299697375556
0.371354234176
0.146639983522
0.187558688678
0.0131287447351
0.0264029974328
0.165453420066
0.230978683328
0.193325392466
0.318645826197
0.149179537302
0.206859262709
0.45264857096
0.266121263961
0.311888663217
0.331134631884
0.208120584266
0.40786327818
0.433442331572
0.343104970313
0.295032470139
0.32949719652
0.234264713951
0.465684160244
0.372180140765
0.51267790375
0.33999785984
0.220524307185
0.092793718674
0.173864222647
0.178887902443
0.335068875903
0.366702348278
0.302714489453
0.337621974908
0.358536356822
0.290067596302
0.303084480368
0.257713231716
0.258953923831
0.247494798582
0.26608389374
0.196767741104
0.225673279939
0.189443984173
0.190490665298
0.190019182948
0.0348579208615
0.269955664679
0.154013495964
0.20902979716
0.352977552959
0.17482698458
0.243412592154
0.194658994933
0.277959340568
0.104237572609
0.165971743418
0.395366391011
0.778674953912
0.0136223246776
0.073941639741
0.151822113406
0.242937510556
0.320178610644
0.368448586081
0.239254020782
0.36643028731
0.165088566141
0.0514836829593
0.136559134311
0.296272078991
0.0774313027118
0.195311205674
0.0405466744052
0.196634440713
0.139315432371
0.0275190027655
0.131939288444
0.191430590021
0.358881752325
0.233445992956
0.422787548805
0.312762933245
0.247755958416
0.282852134997
0.216160976248
0.490378926188
0.506634657563
0.499257205668
0.983114595293
0.284833703913
1.02549966387
0.32233410474
0.792767463648
0.498621453018
0.305092295188
0.519306127317
0.927901422848
0.343502696392
0.358545273638
0.168581102443
0.167082353259
0.199480798984
0.374021583575
0.392166988545
0.407514209051
0.424517171878
0.492707224216
0.531643838424
0.547310811793
0.544443084087
0.525480813914
0.492588815466
0.470493499789
0.404031554729
0.364117433873
0.414557972348
0.492296179512
0.989756553138
0.0916024756168
0.0403450241762
0.0513174638583
0.251437787562
0.305292915161
0.104000016995
0.215636191923
0.214474154572
0.38698096659
0.116548413098
0.15693092916
0.281776402038
0.391736675539
0.466640138535
0.441528323456
0.487104943894
0.431050316982
0.618584727095
0.58300581341
1.07646637481
1.15200614006
1.24669051791
1.25835362761
1.26694574067
0.811283833763
2.02423757761
0.231485149533
0.702985126203
0.697801085176
0.53452982115
0.375080144657
0.326790941436
0.398038803833
0.41036187626
0.406944753104
0.341418085075
0.419897610824
0.304039495338
0.441449918007
0.0381417694466
0.321526442459
0.224963720076
0.304413615398
0.143799550517
0.143521976257
0.136441304234
0.0846891205491
0.0808969849093
0.0659428605665
0.109401677112
0.143672698583
0.155663924044
0.106663074878
0.178504072619
0.179388468784
0.290782677057
0.222936686566
0.151632050345
0.307628050866
0.0951861723069
0.240132511053
0.20969634936
0.170231833106
0.149175684881
0.151716204134
0.183777216239
0.2325951128
0.301734547783
0.234840749903
0.330368013941
0.339340827115
0.378816172755
0.451726518555
0.448028802114
0.502539232916
0.454826191276
0.463534405388
0.494619069638
0.441546054254
0.608203575589
0.322516221463
1.00455199156
0.520929901384
1.26354045728
0.476556890321
1.1325154559
0.862935781261
0.538295851381
0.984026350688
0.45749193882
0.978411385606
0.353368346715
0.821773334848
0.382529045441
0.340484981559
0.382194216685
0.364938176657
0.318743991084
0.368894464767
0.315144433833
0.389940592495
0.417465202897
0.389854104901
0.421987155089
0.350544629386
0.330748098882
0.366718789769
0.421162034366
0.418536457804
0.44012174167
0.446998086486
0.527582091798
0.593750675868
0.522994748853
0.669986505814
0.738275784587
0.700680464307
0.715550254283
0.843393534188
0.888857727483
0.873713965744
0.998205050961
1.04231687229
1.05129915571
1.12602208547
1.1891025677
1.23305189508
1.42250896235
1.14220004337
1.79955711138
1.08288465382
1.71865193602
1.39180489249
1.55586529279
1.58785125301
1.62549094946
1.6919716798
1.99618952232
1.5593185031
1.84757322944
1.89507887142
1.90870896692
1.56432068153
1.97202349174
1.39933609695
1.92651753088
1.54632799088
1.74980799785
1.42069746089
1.86692388981
1.97003768338
0.996166905567
1.56810949157
1.19325689658
1.36011574594
1.03900403077
1.161295622
1.02781717108
1.0301047868
0.865357977542
0.711413156771
0.874575926856
0.536212012562
0.866040217317
0.328410528914
0.532100398545
0.532394470452
0.471181152329
0.46232744782
0.212841477221
0.318044338205
0.242155461957
0.282066347475
0.144994959846
0.282314198482
0.279323020467
0.224598596421
0.258298694704
0.174157783061
0.281602784818
0.246061793144
0.127450866754
0.151092306225
0.337311112469
0.238032650676
0.245623439442
0.345426526791
0.00747259075262
0.0988525004661
0.14165233665
0.240895905505
0.3009963273
0.151348242666
0.21653758406
0.0468080864401
0.202438753026
0.011055622617
0.0822201053224
0.0721092114346
0.00341174048328
0.0499337128797
0.021363469897
0.0595861733917
0.0933505058042
0.082451429857
0.0815746824852
0.187364314065
0.00652300160942
0.133490603084
0.0734364585986
0.439240444121
0.135355663803
0.0131081585226
0.0483040330669
0.23767544149
0.363740280122
0.0647715481838
0.00601347660336
0.0437323349719
0.0313819297889
0.0151770425742
0.0633868371265
0.334616542812
0.00962958295456
0.0215495278064
0.140878396217
0.0141468016245
0.118318147408
0.0355794163085
0.0129480205974
0.0578471546779
0.0392412792869
0.0115155075292
0.136432395632
0.107927438662
0.497547454919
0.0120332070723
0.0251335708609
0.17763863083
0.13932129011
0.645200165814
0.0372551024952
0.213983442749
0.11890549706
0.431192723302
0.0549873362823
0.053019888698
0.042609911977
0.0127218006545
0.0671155456029
0.107038224635
0.158647594463
0.209731137531
0.38525207042
0.0363154158685
0.165777473711
0.404707291195
0.156729050651
0.0194100753666
0.0494087542363
0.1578709745
0.0848911272352
0.409308904378
0.483499775975
0.319411441717
0.521763010222
0.40702701972
0.425663683609
0.779291676412
0.561036932869
1.74464631593
1.24196199471
2.510001378
2.39210563507
1.61936250996
2.27576605348
1.95379049427
1.44848320775
0.900588117613
1.97962299328
0.101782374955
0.844777829395
0.455143199303
0.0112236727836
0.0202566316826
0.0760202899593
0.0734930963574
0.154076470214
0.247559800372
0.234062247588
0.140266483499
0.088704976149
0.0940784748975
0.0794761181719
0.0781994946127
0.0851951382372
0.132712193419
0.169853703297
0.123722278511
0.20601009595
0.187117624873
0.127381294236
0.118343422395
0.111581993623
0.08002376416
0.0415992035799
0.010384640854
0.0820219604669
0.283057778893
0.163924222248
0.348513446064
0.241648242251
0.362998733092
0.483590705431
0.357476156893
0.414135069617
0.395287340014
0.304233268819
0.336725915373
0.43317612567
0.507330690051
0.510072090816
0.797897265707
0.422263056127
0.872627093601
0.461495240048
0.753233255538
0.456898057771
1.11132481602
0.347676649561
0.573312410943
0.464345951778
0.490378811012
0.590552702514
0.349565726095
0.283230759697
0.440499538646
0.437152417857
0.273406375569
0.275267138704
0.210908932027
0.269209317731
0.318551597885
0.332363137641
0.0239132702751
0.138048046794
0.303763561709
0.569448227955
0.575571402916
0.485373672967
0.518524937094
1.97067731006
0.747455354892
1.67209597278
2.34226985252
0.589104850828
2.65532266791
1.61271776086
1.64989137967
1.31594865354
1.38236991955
0.843614605452
0.926818473161
0.168249831302
0.345155424877
0.511935541056
0.532921642388
0.272264007842
0.138979765209
0.129216176941
0.104198845294
0.0813709771522
0.107720024961
0.0413376647685
0.104427491135
0.130612692495
0.116881919757
0.197248965116
0.0662128681984
0.057221446027
0.0380204516025
0.065229328516
0.0078933659514
0.0915289680776
0.102870143984
0.115348886491
0.342891500202
0.335744628318
0.413130949383
0.252185744713
0.0801103306993
0.188603450994
0.409360548366
0.125187042069
0.438233005573
0.335062211394
0.465459130736
0.392698951376
0.156450383085
0.212855713519
0.132727331034
0.28804645283
0.361473974778
0.537459452779
0.218062221343
0.0679383744732
0.283766691225
0.254554120911
0.0459057980411
0.222848996775
0.190608368581
0.00215343119004
0.175064272663
0.775384846956
0.00677927157135
0.0435209233048
0.205684909115
0.381596033049
0.0739922587119
0.0738369575896
0.0936797752136
0.0971960830929
0.192321261979
0.372555557328
0.54351457462
0.526692158109
0.792542498911
0.461290009464
0.813470970781
0.545461644266
1.34458346855
0.98717630559
1.49978365524
1.29011950231
1.70671031181
1.53861947117
1.3063916071
1.41938740732
0.809264799595
1.41169626213
0.501800571354
1.22102722186
0.369267311764
0.938589173459
0.0807429592533
0.300703512832
0.273975371093
0.415342794245
0.379808030996
0.342960900031
0.263248038881
0.315904242199
0.272752060079
0.174887844612
0.341086984979
0.30492386033
0.335398947448
0.386150465191
0.449281627382
0.508201992743
0.537700194403
0.533926125781
0.654630669799
0.921346075811
0.667810686128
1.80247487738
0.559725310449
1.62135117378
0.771197167656
1.14625470688
0.97527820386
0.481205709989
1.40108602275
0.336933572504
0.669728680633
0.297736047801
0.350471441221
0.374963060413
0.365226383058
0.353187834009
0.342709839688
0.385495858905
0.42496642811
0.413160944495
0.441570266974
0.413081195452
0.39838698878
0.412612696173
0.412334598507
0.460663240867
0.430822918642
0.467180354791
0.430009365977
0.46115999337
0.492857891701
0.35839458657
0.743265670729
0.472015304352
0.919066836659
0.63286333799
1.01736320225
0.872971188416
1.46745428315
1.57048141715
2.38256587923
1.64882201095
3.0730846953
1.43782639608
3.17700588796
2.57020342013
0.188730405383
1.56548154062
0.512282707555
1.81884230428
0.034357760854
0.0582073424002
0.094982639821
0.125512105971
0.159737631404
0.0704355595252
0.17869419884
0.288937523602
0.190843697909
0.268932274637
0.207821881647
0.206396824303
0.22609001864
0.17313195324
0.217867410665
0.175729417305
0.175947957541
0.178222284853
0.106837955307
0.135584593153
0.144450236195
0.153304231172
0.157830480267
0.207993869398
0.189074913766
0.171564096128
0.245764853349
0.219340872955
0.193126322364
0.231768790265
0.221131581815
0.128802247896
0.179347149697
0.35668035029
0.130565752917
0.179537620107
0.171149077147
0.210487735669
0.259494811595
0.311290085074
0.30304538198
0.280259184282
0.282428259465
0.434731780413
0.256701194437
0.391189815006
0.221226717312
0.476457994998
0.477051229495
0.641777652818
0.349704311815
0.404091027053
0.376395050263
0.653900542837
0.255583772608
0.410689865387
0.5012683241
0.963646200342
0.572525687896
0.855210563317
0.540220526895
0.943332750034
0.41947051791
0.733210862583
0.906136508602
0.323453561562
0.449264624759
0.524920853466
0.22440969017
0.190201879818
0.138068591213
0.175862767908
0.168797025106
0.112832538691
0.0772200487017
0.107081435996
0.0909712698539
0.147304874817
0.235564545383
0.223242948397
0.213031820087
0.226144823829
0.212234315181
0.276642734433
0.293550514989
0.334887136056
0.373149314619
0.408483574276
0.328722174054
0.367504836707
0.376563123857
0.364509180662
0.321641057366
0.305228195553
0.353789025887
0.329944158617
0.281508801253
0.332155108458
0.305246605772
0.340863760499
0.314199061642
0.336581795774
0.350297986432
0.325732365348
0.291517441955
0.250404731011
0.260759260472
0.268353989254
0.260647930418
0.287683709926
0.233202696073
0.269335336807
0.242127438103
0.238703767867
0.201938223767
0.234594915995
0.328556002312
0.261269519028
0.210769588203
0.171816644252
0.168656858892
0.22598473599
0.30251727838
0.189494050751
0.279645308295
0.333500229865
0.160434856953
0.161640309586
0.252795941739
0.247491524469
0.186514700533
0.107082595627
0.100074897631
0.13994171255
0.239393300227
0.329904514571
0.369207720645
0.356051916899
0.404874992142
0.427690223072
0.457178400595
0.391392482653
0.412691986033
0.354884759529
0.333924280659
0.24161863697
0.255863088434
0.157844803464
0.200181987591
0.201232177021
0.156747103541
0.178371375545
0.142449224679
0.103089372416
0.0088247186572
0.184813970051
0.370241123244
0.374781581154
0.294199202311
0.286034137846
0.340057551932
0.279350929021
0.246829984897
0.288195096763
0.273753351843
0.303827615413
0.337667178462
0.252063565826
0.309299465897
0.231629024404
0.214650686396
0.267945068335
0.275826644865
0.333045004009
0.205306027321
0.159990778061
0.189817766455
0.20729186855
0.234122766251
0.381803323327
0.341105270847
0.429027143536
0.402761642896
0.362413187334
0.206113397008
0.227374095552
0.345829632098
0.261228769446
0.237511703138
0.260239714131
0.53017803589
1.00938992647
0.340846543439
0.613573057851
1.1947396765
0.742316162639
1.41996798881
1.11427836589
1.58693752132
1.06957470179
1.59622654753
0.924953027581
1.2451173878
1.26551465154
1.19959745777
0.952228749748
0.373735026986
0.463222193475
0.440355819556
0.125056415249
0.0860792438541
0.266895046345
0.0835560475184
0.411300272961
0.0169107599734
0.207340942171
0.41364584652
0.272901776324
0.210190769839
0.217959973586
0.325447489439
0.368344416262
0.417564030697
0.147754328714
0.269377183734
0.284250228258
0.288578948909
0.255158912461
0.0677010772362
0.183887640541
0.212937888119
0.20223208002
0.129859777483
0.257564789106
0.244766080845
0.34790729282
0.330425839903
0.391825267431
0.502381902297
0.697228138801
0.551152556288
0.616197825247
0.709421933504
0.583996054533
0.715737628046
0.592773182859
0.672672566097
0.600147745091
0.712424364461
0.473342191724
0.506286852658
0.420573798987
0.240812694453
0.113535733437
0.0369563010491
0.220781462804
0.120776835335
0.172519794064
0.225019235847
0.138425786804
0.0366948436962
0.0721216445482
0.0289019038402
0.173409190463
0.172555179946
0.184706211196
0.0570202382956
0.112981372779
0.026797957207
0.0249639372666
0.0163371734277
0.118126467726
0.0343785612116
0.0452760457633
0.0650593130612
0.101912278766
0.0924552560614
0.079897396385
0.0592031628634
0.118265676887
0.112714083196
0.13363541466
0.179310758945
0.133134818871
0.11090928135
0.130774253477
0.164574859567
logs/alpha_4.0/PGSD_500steps_4.log 442.746874274 0.442746874274 0.305008077759 3.17700588796 0.00215343119004 -1
