Policy Parameters:	-6.06205131611 2.00435698643
Control Steps:		1000
Start Time:		1442345227.616466

-- TESTING STOPPED --

Stop Time:		1442345403.0474956
Duration:		175.43102955818176
Cost Matrix:
0.126265861985
0.377828077289
0.847564716605
1.09350407432
0.682369582204
1.38997042904
1.6165150521
0.932067941069
1.42748469451
1.04943026081
1.41257244053
0.734425727641
1.14653045268
0.672434806066
1.07453283572
0.39167752649
0.0930664968406
0.139638674541
0.134444742815
0.209240868085
0.156742677786
0.0503538330432
0.098702797061
0.121718220593
0.173714510453
0.207304209623
0.19506939377
0.150070753486
0.129576424637
0.143394605078
0.180343520227
0.114104592037
0.115436791415
0.0594836055606
0.232298649669
0.223501783895
0.231755496637
0.239617160247
0.10577272783
0.221898869172
0.0811353959132
0.0509387153317
0.0452987126312
0.0935265294802
0.0643397551416
0.036220213413
0.0214550176658
0.0108877731194
0.0708947686467
0.15247005343
0.0272992278977
0.0599798253991
0.246725973987
0.0624162269308
0.217608200437
0.328059430222
0.410235953892
0.506626042258
0.352510117373
0.272583283887
0.363636656185
0.334309405398
0.430475623936
0.372448889923
0.290060454341
0.718870370723
0.456697284293
0.356017032874
0.397214469678
0.338122490245
0.41170495862
0.368821621382
0.57078943814
0.439621523866
0.520512089941
0.305100039331
0.196821116109
0.209984886663
0.392478479167
0.189226207927
0.375801712871
0.306973006739
0.21017500378
0.238283789465
0.263545058503
0.439854605411
0.0827237244845
0.211728638802
0.289288718368
0.239354184019
0.275527862925
0.243944274442
0.33613514881
0.393096458274
0.436399107644
0.515631696544
0.748025427058
0.859029799751
0.843445118564
0.995085677323
0.95329225456
1.10183008872
1.07302011055
1.21079351031
0.939456551384
1.42961873594
1.00422295861
0.959752921146
0.904221601163
0.643791649472
1.66545766519
0.0109064781633
0.114215057959
0.174048792511
0.116436343346
0.139093089238
0.142937364432
0.0513881624244
0.0521698007707
0.323963669922
0.315316720006
0.155652112874
0.318629189362
0.231220011562
0.203063653582
0.291669112483
0.215523356641
0.334489803976
0.229037997
0.309677707441
0.286079818205
0.513063910953
0.314678674097
0.277523449775
0.213941373302
0.28023469841
0.267659266266
0.360528163112
0.161336540536
0.273047645405
0.191682789593
0.286777462175
0.0621910518486
0.127658336183
0.254703634704
0.107606890393
0.327546707164
0.216803281635
0.225851067859
0.135365082375
0.19828691423
0.256276507041
0.436594423339
0.13155891039
0.335050591847
0.401322853254
0.469907231034
1.09378036282
0.61910506506
1.09054600753
1.49279707343
0.961747097543
1.37630023391
1.15228678019
1.18808802307
0.970902105168
1.3133047835
0.452265919196
1.14700584032
0.449277996699
0.682066819077
0.550992421202
0.0332765969679
0.349267817297
0.0459696238552
0.0185223166894
0.0492644078264
0.0373101138389
0.206285798183
0.175118924363
0.283419127381
0.327485168084
0.269775085034
0.501204846825
0.625977088653
0.494832165589
0.538017641561
1.06668583623
0.147501783835
0.824702379088
0.872117714411
0.349089474465
0.497191111043
0.268942379252
0.565207336052
0.0106246817482
0.227143733712
0.18405963775
0.331415622414
0.448540467748
0.0518872303584
0.092576503707
0.156117257654
0.172720454263
0.233684334302
0.24009199912
0.210369996066
0.316897922481
0.321971260385
0.363373445755
0.441860498966
0.467863594732
0.432198629144
0.451716085934
0.538163378167
0.539512858771
0.547148510052
0.517224029716
0.49206041606
0.479491604623
0.483104594411
0.502784121698
0.414550280783
0.438199399785
0.327915179764
0.219729096583
0.792343688174
2.29300849838
0.0320091058654
0.30752979843
0.105777110602
0.403032793384
0.085262163132
0.152878784967
0.262300585647
0.310070918707
0.174569256662
0.0061921618389
0.0335351206603
0.148452745793
0.392023980292
1.22496637097
0.0551780441198
0.370321737603
0.246936681652
0.431893241241
1.28870131199
0.0415943242767
0.40570665769
0.393002657923
0.470076094852
0.695577770824
0.514347361312
1.57689104712
0.41148590913
1.15540646589
1.11947496467
1.04621114176
0.480694681079
1.85088931256
0.0863890719825
0.745812064427
1.63483853015
0.0297278643481
0.307606240498
0.521111247499
0.330859223615
0.464678204775
0.247222681939
0.510879359268
0.382439790853
0.37846401689
0.345480128052
0.0147005008946
0.217217574655
0.0786043297276
0.0907655869697
0.157106217545
0.114113885861
0.107001618512
0.0788628226801
0.028321653539
0.0440469796625
0.153153907975
0.48233412161
0.00775198475844
0.151016621488
0.157414582057
0.0555254869315
0.0259265381927
0.0835323527105
0.21834969383
0.0960892840285
0.115989229667
0.0659394202663
0.146133536187
0.200408255717
0.0877338401663
0.00352546590797
0.0911430436883
0.137019537352
0.241765003976
0.139174034585
0.179599846022
0.097569095879
0.118803882449
0.0435715245784
0.0445508916885
0.0177453108227
0.0487711801895
0.232533748087
0.111286866623
0.228423795032
0.089708789835
0.0929416612704
0.159548678312
0.0782971396145
0.195726094591
0.122605051019
0.313797881396
0.160833151721
0.205840555829
0.335926634029
0.196688183957
0.19771982661
0.280418649179
0.0952738897996
0.140710114849
0.230752393866
0.0917920744172
0.169788927987
0.194492193879
0.138796880338
0.191329901106
0.139622989736
0.149289853874
0.243860459294
0.741711981999
0.34805279106
0.299802642997
0.345482083275
0.3231809076
0.765528948775
0.54189282083
0.939323067973
1.10018979447
1.27185311993
1.71216473895
2.16738861961
1.77102849933
1.78712706776
1.55414177952
1.63658756427
1.62607726778
0.700241670667
2.10847445183
0.0174550376781
0.116726167314
0.11601914394
0.204929071016
0.073207080947
0.244396113454
0.0554811218853
0.23986143441
0.0285330043039
0.179451039808
0.313895835393
0.0819201508129
0.0891649750151
0.106933161238
0.221885953755
0.0921190098237
0.101350203664
0.222283268758
0.0267042571424
0.228666057676
0.104673008086
0.421037891188
0.324095315534
0.393733963388
0.0456512301908
0.247809503454
0.268084247095
0.297258859865
0.256352410658
0.106958419033
0.272623480551
0.17363742629
0.0274830011711
0.040575644305
0.219165136661
0.254276997205
0.304915494247
0.333174680305
0.107342608367
0.384253573054
0.451165085975
0.331194763504
0.313920072354
0.424212894412
0.512759239185
0.497929655829
0.664910342742
1.12793197452
1.04496054321
1.30031780153
1.16319083152
1.38097328683
1.31123444338
1.13495663424
1.16371701857
1.09499431645
1.17183340713
0.8718484515
0.451758395635
0.581360297267
0.458988635736
0.303983338612
0.250460064196
0.0806060812807
0.111804683444
0.293696233816
0.463578515368
0.600566749918
0.380790872817
0.354286853853
0.332813674806
0.388432236042
0.117423238728
0.342407685429
0.246184539462
0.186718910335
0.250447750145
0.308288725551
0.240441421557
0.284169425078
0.261770717464
0.29479095628
0.196006411774
0.231365545026
0.227941384463
0.172169808144
0.208608736478
0.22004389765
0.232457877578
0.172187013401
0.207949841969
0.213275468944
0.165393525771
0.18679783302
0.232141137294
0.191619417641
0.193250526135
0.207435893401
0.107878498816
0.132903301414
0.188765309526
0.157261936646
0.133390772088
0.142929828846
0.221527802333
0.401114169864
0.478654147797
0.462372595869
0.442202810902
0.405510658125
0.46235568471
0.544913524713
0.640145161395
1.32961824146
0.184296217743
0.292060935811
0.248161692452
0.229517008426
0.302554286658
0.170133652885
0.0282411270591
0.206215863116
0.356439821793
0.366321241136
0.326721446789
0.347531178715
0.29990344764
0.391236397817
0.392102045054
0.407967948287
0.378625862482
0.390688130473
0.365966932456
0.422684087409
0.380473145337
0.392281482225
0.460006817588
0.445156306018
0.450524184167
0.421348820794
0.465054427041
0.386521692171
0.442537508172
0.47757823149
0.435461999257
0.450684094343
0.427166917448
0.445928197966
0.470631509444
0.466125320139
0.468991946664
0.48606686466
0.475686608979
0.51736065332
0.566613325925
0.478980428149
0.486896906892
0.47623543645
0.509352284353
0.478876457097
0.501997287423
0.452511904905
0.455397707694
0.430594623083
0.401187564946
0.486038693693
0.485386226902
0.453570752689
0.453109292014
0.476151231577
0.423540289467
0.505414661857
0.459029189749
0.440940159948
0.468215361325
0.44080239062
0.469455203485
0.442998989292
0.49262155819
0.428307679806
0.432062898159
0.394442714585
0.370276721574
0.333387892225
0.375502203497
0.392732594577
0.345830324418
0.337442135966
0.339627220954
0.332110746648
0.364273598141
0.288055883009
0.297115662758
0.25944060498
0.261246606618
0.289737802001
0.296131348881
0.236015745042
0.311208237549
0.201563604099
0.292773877531
0.210811372543
0.238270961774
0.228026069698
0.253353483515
0.258534010983
0.299034318861
0.2105243626
0.216182835093
0.235249371232
0.141735768816
0.295149405756
0.257393298783
0.211957138507
0.211876949791
0.217279501238
0.213744019347
0.21175556118
0.189386355504
0.197640586433
0.161021304659
0.114904939833
0.155102579192
0.186368872427
0.168933516357
0.298802025667
0.113572960237
0.111700274162
0.120963811176
0.0685472143597
0.148173618964
0.0990536622199
0.111117740002
0.136848738643
0.0927387219817
0.113955584976
0.180618254397
0.378943842481
0.00821771314343
0.0761443553722
0.0174317562255
0.0208798682229
0.0580048234703
0.0134288666685
0.0633524515898
0.376168482119
0.199199923908
0.185747172884
0.093750525351
0.0593908000211
0.11212885492
0.0809050058218
0.0580009101753
0.0522887526892
0.0406239267015
0.0639222065827
0.157600562766
0.175328803473
0.124695349909
0.0697116413801
0.049944071381
0.11575236714
0.200164547444
0.188202558915
0.302626950824
0.91732657074
1.70453155631
2.24948956571
3.04640782119
0.567020279609
3.77117426139
0.555160988526
3.77405669056
1.38754385884
2.44897266767
0.0142518451979
0.183656841485
0.506272238253
0.293359964381
0.43449938035
0.302460934319
0.238209936461
0.203159853646
0.32447290298
0.0719142058842
0.40054979231
0.0910469780629
0.220974546674
0.262740832274
0.15875429185
0.091838665704
0.332767156859
0.162896712587
0.187704562416
0.141329425668
0.188882019155
0.281055051722
0.09740473137
0.0284313982025
0.101839354662
0.245343028067
0.0540953488937
0.251937390675
0.159056910592
0.21490578048
0.158773811897
0.00726092655688
0.1026180413
0.211087932459
0.0970824297846
0.0899490089667
0.165908750078
0.145851606948
0.118179265283
0.137736498781
0.151349470948
0.114185038716
0.0720256425753
0.0783837472445
0.125161547931
0.212787184717
0.226174894394
0.225533209199
0.169356786214
0.206210516961
0.272644637509
0.298710995505
0.334019107994
0.425845146729
0.430034246527
0.510815496237
0.57922002147
0.69332244981
0.644296147806
0.827038389776
0.723768184438
0.77732563745
0.849987345593
0.758771084249
0.599215904634
0.940759527334
0.548384312857
0.986241522814
0.326458243346
0.456350179274
0.288938662282
0.210946034571
0.182502883272
0.114680574433
0.0704003002019
0.115401702141
0.0526025997754
0.0557890348808
0.0991607233627
0.129767407208
0.132840283117
0.130602237513
0.0732795957595
0.0618205128823
0.0188142237833
0.0478830272656
0.253042606613
0.193737283837
0.0259184366153
0.0272633539601
0.0678954137139
0.0675536567317
0.0244220302772
0.174946232866
0.044441984704
0.108371544566
0.127398256376
0.0873283476947
0.230873330894
0.0856980221887
0.0718105803109
0.0621207545398
0.111804982965
0.0786434171521
0.0836445959372
0.341481798018
0.207290802847
0.363691741426
0.109620769514
0.2527940287
0.0451085665619
0.156618257984
0.0238811459577
0.177688933752
0.327225369898
0.361057063591
0.140943816058
0.226001093622
0.342213929282
0.34990887872
0.522548761073
0.346629622166
0.520596971995
0.677952857638
1.30607333818
1.25734035835
1.61955370304
2.22014947575
1.6858327837
1.76952631148
2.47448763385
0.46332091178
3.02500063294
0.225365587325
1.58560014483
0.299230071618
0.460252806986
1.11444388876
0.00819288571098
0.07365015332
0.0930405988889
0.055241772209
0.0424726199512
0.0456698265158
0.353831841268
0.216401334484
0.0816530592202
0.300967564508
0.14090835351
0.383080963972
0.216461151895
0.226523734145
0.116146761706
0.229627350636
0.257724431677
0.275486321721
0.308324551836
0.383339637464
0.423403337425
0.40345296006
0.442161996538
0.464293137768
0.482620107094
0.576897476183
0.593171301446
0.601829709976
0.570955993362
0.634668791781
0.506183268135
0.57807895068
0.564964568006
0.454970390053
0.368165278174
0.346106529344
0.298184495117
0.232010244599
0.240192069339
0.11689227009
0.322036737546
0.143791499589
0.239024086941
0.0264343358527
0.0220281321632
0.0860517876451
0.215209539996
0.0543821087818
0.0708123036996
0.153786789907
0.287880546143
0.352628368375
0.276302562257
0.4400497486
0.441893497437
0.310900539329
0.346168176267
0.483029932229
0.474703968897
0.390299141349
0.509359103519
0.822765034383
0.99855413477
0.402404215907
1.04759745897
0.838040932772
0.889747403311
1.20205708146
1.30096484475
1.3613984171
1.30382084113
1.29353878692
1.08437507154
1.13871612945
1.28268563725
1.0547969618
0.761004098089
0.925131629366
0.367450021645
0.221673006241
0.375283396087
0.104792980771
0.280789658522
0.503073622757
0.312625623016
0.129139668542
0.265148090821
0.407451823449
0.10144787047
0.117783731298
0.0839477107153
0.204513278537
0.384050613353
0.387636378491
0.36575406068
0.210391427048
0.212847224635
0.390726782621
0.396757445106
0.2347528107
0.212784824121
0.0546079653666
0.0557642436908
0.377548187657
0.415869667989
0.398788674126
0.428800993359
0.880995309808
0.176648566907
0.496694142497
0.86489819555
0.448940677784
1.05664194601
0.372205938302
0.826790005566
0.495959623399
0.310856689263
1.08666000278
0.132203554374
0.173859786937
0.160266632679
0.324315703004
0.292947906675
0.400295931957
0.091140438482
0.0664295294913
0.138344801229
0.297258065318
0.432057439551
0.536883584176
0.897110485634
0.863304162226
0.876942645574
1.03516654268
0.950752547003
1.05975934339
1.07073366278
1.05269997182
1.01464465972
1.01807828996
1.18992309509
0.755906187204
0.434331963099
0.918932923033
1.79589143301
0.0168200601379
0.155354282991
0.253142700772
0.407578242874
0.590261953474
0.432753673281
0.269405206293
0.267572486513
0.177908778589
0.135233429487
0.0548703149833
0.218170277285
0.00808390429871
0.159665148341
0.161041767987
0.25508493056
0.116939454996
0.354708084808
0.194096349749
0.0353405310491
0.0231259709215
0.0506872262121
0.0398945441809
0.0544540728578
0.141241050169
0.204383914056
0.107536671614
0.139827636114
0.203505468122
0.229271920039
0.208429054596
0.207910667157
0.224767905008
0.241338597245
0.267562924965
0.290390818331
0.245606530823
0.329860815198
0.293385821059
0.335620330983
0.586907858799
0.915817058133
0.776042175537
0.681509759028
1.33494473805
0.909724810345
1.08532641893
0.96454957973
1.00727413681
0.925928154096
0.843234992481
0.913711097057
0.814784116526
0.81509494981
0.45823668446
0.379472150903
0.195812543417
0.0292684069961
0.149074982371
0.411831071855
0.710064633382
0.375763890368
0.284839038725
0.257638013791
0.373241606596
0.211266980712
0.190322376177
0.0270924469011
0.0761121775414
0.107787766843
0.0369731720629
0.0446016100275
0.0578563560028
0.306927147863
0.667961084236
0.07709120352
0.0745299554962
0.140025585972
0.0545610100985
0.0843765874809
0.200571069211
0.271647933805
0.309960219087
0.33960474442
0.338512146965
0.415798952643
logs/alpha_4.0/PGSD_300steps_4.log 402.174526205 0.402174526205 0.282237089552 3.77405669056 0.00352546590797 -1
