Policy Parameters:	-0.537614866585 0.845914577964
Control Steps:		1000
Start Time:		1442341997.1377668

-- TESTING STOPPED --

Stop Time:		1442342025.5321708
Duration:		28.39440393447876
Cost Matrix:
0.108775349385
0.0919563169182
0.0954698412271
0.108061928889
0.097866291717
0.0926141065108
0.0859338572793
0.113959395435
0.0875324511785
0.096819303319
0.0706344521995
0.0712834155213
0.149947853632
0.173434169761
0.154581707947
0.118102455284
0.0492585169014
0.0288135732621
0.0541167258613
0.056158130294
0.0749880343461
0.0294824304935
0.0231828596667
0.0232753039502
0.0383988067982
0.0631312413245
0.0525695977818
0.0797946872975
0.0883468868389
0.077672116772
0.0489500722547
0.033238319883
0.02599033346
0.0463216072452
0.0735232326728
0.0324660368855
0.01945351714
0.0495877299137
0.0432242419553
0.0199419261089
0.0407146159633
0.0338378050076
0.0334170939565
0.0408176855189
0.0194279587857
0.0103483477669
0.0869825525144
0.0827957818036
0.0733563450842
0.0656621658832
0.0288307095683
0.0314559937001
0.0319457588122
0.0278145832934
0.0221798005367
0.0144471696014
0.00746924553807
0.0392747897389
0.0403219577306
0.0503630046899
0.049485963813
0.029275840507
0.0212535041078
0.0550188623454
0.0597645537459
0.0499270221186
0.0582413788934
0.0681753746328
0.0703487855062
0.0869276934215
0.0786096668209
0.0449452223869
0.0590131278982
0.0778175444963
0.109682747166
0.113237243796
0.153449657791
0.162396488213
0.176310515729
0.365958634331
0.347859839189
0.222397856309
0.255004057101
0.289673983514
0.26668508034
0.259419224779
0.265740038727
0.263077378395
0.280795976404
0.307669618832
0.296192758935
0.279231845816
0.277412628578
0.287065202705
0.28537437741
0.309313464006
0.317023329208
0.281241791881
0.263482119346
0.220953120188
0.155116054694
0.270256732388
0.26736097231
0.207386493868
0.154903126457
0.125518026861
0.0943853265432
0.0479524695499
0.0307220037538
0.0138919124821
0.0523497517139
0.0169193152788
0.0405585465638
0.0491259700612
0.00389511054176
0.0256527779481
0.0201848032764
0.00980529657431
0.0116942639419
0.0071669571413
0.0170368431452
0.0314568134386
0.0329070552161
0.00656426266925
0.043133737035
0.0400008377212
0.0199890181536
0.00388879845565
0.0243009198602
0.0281899836485
0.0215186898805
0.0176531648662
0.00465268943168
0.0208346339507
0.019089694238
0.0384410390518
0.0197045651416
0.0269261294724
0.00979528560079
0.0392318607062
0.0144174000309
0.0235175598357
0.0116799740194
0.0180683724133
0.0149779313185
0.0202311490237
0.0168352779469
0.0158056742937
0.0352509596365
0.0203219637745
0.0186784467793
0.0305700235059
0.0245081879414
0.0157103358621
0.0250353283248
0.0318073842407
0.0330668246794
0.006868135526
0.0295188284172
0.0304414549938
0.0189204079488
0.0247143863003
0.0305180078463
0.0123602230114
0.0290967296402
0.0369672485696
0.0354877186953
0.0232306344892
0.0620748334323
0.0824404880633
0.0640161089535
0.0717023420608
0.0708010386173
0.0496038873732
0.0697511368076
0.033367016205
0.0491980802579
0.0325295668737
0.0538305026014
0.0591118681846
0.0466462295932
0.0808223452741
0.118359466636
0.0761954243619
0.111897026444
0.115603104153
0.211006671668
0.221046452575
0.432228406665
0.502839146213
0.465767080689
0.513872437067
0.493147385168
0.280412871448
0.048386423291
0.205554398996
0.287148591615
0.359440635111
0.532756058828
0.487797373006
0.375253378575
0.604987391616
0.24620397561
0.0981293783
1000000.0
0.0
0.0
0.0
0.0
0.0
0.0
0.0
0.0
0.0
0.0
0.0
0.0
0.0
0.0
0.0
0.0
0.0
0.0
0.0
0.0
0.0
0.0
0.0
0.0
0.0
0.0
0.0
0.0
0.0
0.0
0.0
0.0
0.0
0.0
0.0
0.0
0.0
0.0
0.0
0.0
0.0
0.0
0.0
0.0
0.0
0.0
0.0
0.0
0.0
0.0
0.0
0.0
0.0
0.0
0.0
0.0
0.0
0.0
0.0
0.0
0.0
0.0
0.0
0.0
0.0
0.0
0.0
0.0
0.0
0.0
0.0
0.0
0.0
0.0
0.0
0.0
0.0
0.0
0.0
0.0
0.0
0.0
0.0
0.0
0.0
0.0
0.0
0.0
0.0
0.0
0.0
0.0
0.0
0.0
0.0
0.0
0.0
0.0
0.0
0.0
0.0
0.0
0.0
0.0
0.0
0.0
0.0
0.0
0.0
0.0
0.0
0.0
0.0
0.0
0.0
0.0
0.0
0.0
0.0
0.0
0.0
0.0
0.0
0.0
0.0
0.0
0.0
0.0
0.0
0.0
0.0
0.0
0.0
0.0
0.0
0.0
0.0
0.0
0.0
0.0
0.0
0.0
0.0
0.0
0.0
0.0
0.0
0.0
0.0
0.0
0.0
0.0
0.0
0.0
0.0
0.0
0.0
0.0
0.0
0.0
0.0
0.0
0.0
0.0
0.0
0.0
0.0
0.0
0.0
0.0
0.0
0.0
0.0
0.0
0.0
0.0
0.0
0.0
0.0
0.0
0.0
0.0
0.0
0.0
0.0
0.0
0.0
0.0
0.0
0.0
0.0
0.0
0.0
0.0
0.0
0.0
0.0
0.0
0.0
0.0
0.0
0.0
0.0
0.0
0.0
0.0
0.0
0.0
0.0
0.0
0.0
0.0
0.0
0.0
0.0
0.0
0.0
0.0
0.0
0.0
0.0
0.0
0.0
0.0
0.0
0.0
0.0
0.0
0.0
0.0
0.0
0.0
0.0
0.0
0.0
0.0
0.0
0.0
0.0
0.0
0.0
0.0
0.0
0.0
0.0
0.0
0.0
0.0
0.0
0.0
0.0
0.0
0.0
0.0
0.0
0.0
0.0
0.0
0.0
0.0
0.0
0.0
0.0
0.0
0.0
0.0
0.0
0.0
0.0
0.0
0.0
0.0
0.0
0.0
0.0
0.0
0.0
0.0
0.0
0.0
0.0
0.0
0.0
0.0
0.0
0.0
0.0
0.0
0.0
0.0
0.0
0.0
0.0
0.0
0.0
0.0
0.0
0.0
0.0
0.0
0.0
0.0
0.0
0.0
0.0
0.0
0.0
0.0
0.0
0.0
0.0
0.0
0.0
0.0
0.0
0.0
0.0
0.0
0.0
0.0
0.0
0.0
0.0
0.0
0.0
0.0
0.0
0.0
0.0
0.0
0.0
0.0
0.0
0.0
0.0
0.0
0.0
0.0
0.0
0.0
0.0
0.0
0.0
0.0
0.0
0.0
0.0
0.0
0.0
0.0
0.0
0.0
0.0
0.0
0.0
0.0
0.0
0.0
0.0
0.0
0.0
0.0
0.0
0.0
0.0
0.0
0.0
0.0
0.0
0.0
0.0
0.0
0.0
0.0
0.0
0.0
0.0
0.0
0.0
0.0
0.0
0.0
0.0
0.0
0.0
0.0
0.0
0.0
0.0
0.0
0.0
0.0
0.0
0.0
0.0
0.0
0.0
0.0
0.0
0.0
0.0
0.0
0.0
0.0
0.0
0.0
0.0
0.0
0.0
0.0
0.0
0.0
0.0
0.0
0.0
0.0
0.0
0.0
0.0
0.0
0.0
0.0
0.0
0.0
0.0
0.0
0.0
0.0
0.0
0.0
0.0
0.0
0.0
0.0
0.0
0.0
0.0
0.0
0.0
0.0
0.0
0.0
0.0
0.0
0.0
0.0
0.0
0.0
0.0
0.0
0.0
0.0
0.0
0.0
0.0
0.0
0.0
0.0
0.0
0.0
0.0
0.0
0.0
0.0
0.0
0.0
0.0
0.0
0.0
0.0
0.0
0.0
0.0
0.0
0.0
0.0
0.0
0.0
0.0
0.0
0.0
0.0
0.0
0.0
0.0
0.0
0.0
0.0
0.0
0.0
0.0
0.0
0.0
0.0
0.0
0.0
0.0
0.0
0.0
0.0
0.0
0.0
0.0
0.0
0.0
0.0
0.0
0.0
0.0
0.0
0.0
0.0
0.0
0.0
0.0
0.0
0.0
0.0
0.0
0.0
0.0
0.0
0.0
0.0
0.0
0.0
0.0
0.0
0.0
0.0
0.0
0.0
0.0
0.0
0.0
0.0
0.0
0.0
0.0
0.0
0.0
0.0
0.0
0.0
0.0
0.0
0.0
0.0
0.0
0.0
0.0
0.0
0.0
0.0
0.0
0.0
0.0
0.0
0.0
0.0
0.0
0.0
0.0
0.0
0.0
0.0
0.0
0.0
0.0
0.0
0.0
0.0
0.0
0.0
0.0
0.0
0.0
0.0
0.0
0.0
0.0
0.0
0.0
0.0
0.0
0.0
0.0
0.0
0.0
0.0
0.0
0.0
0.0
0.0
0.0
0.0
0.0
0.0
0.0
0.0
0.0
0.0
0.0
0.0
0.0
0.0
0.0
0.0
0.0
0.0
0.0
0.0
0.0
0.0
0.0
0.0
0.0
0.0
0.0
0.0
0.0
0.0
0.0
0.0
0.0
0.0
0.0
0.0
0.0
0.0
0.0
0.0
0.0
0.0
0.0
0.0
0.0
0.0
0.0
0.0
0.0
0.0
0.0
0.0
0.0
0.0
0.0
0.0
0.0
0.0
0.0
0.0
0.0
0.0
0.0
0.0
0.0
0.0
0.0
0.0
0.0
0.0
0.0
0.0
0.0
0.0
0.0
0.0
0.0
0.0
0.0
0.0
0.0
0.0
0.0
0.0
0.0
0.0
0.0
0.0
0.0
0.0
0.0
0.0
0.0
0.0
0.0
0.0
0.0
0.0
0.0
0.0
0.0
0.0
0.0
0.0
0.0
0.0
0.0
0.0
0.0
0.0
0.0
0.0
0.0
0.0
0.0
0.0
0.0
0.0
0.0
0.0
0.0
0.0
0.0
0.0
0.0
0.0
0.0
0.0
0.0
0.0
0.0
0.0
0.0
0.0
0.0
0.0
0.0
0.0
0.0
0.0
0.0
0.0
0.0
0.0
0.0
0.0
0.0
0.0
0.0
0.0
0.0
0.0
0.0
0.0
0.0
0.0
0.0
0.0
0.0
0.0
0.0
0.0
0.0
0.0
0.0
0.0
0.0
0.0
0.0
0.0
0.0
0.0
0.0
0.0
0.0
0.0
0.0
0.0
0.0
0.0
0.0
0.0
0.0
0.0
0.0
0.0
0.0
0.0
0.0
0.0
0.0
0.0
0.0
0.0
0.0
0.0
0.0
0.0
0.0
0.0
0.0
0.0
0.0
logs/alpha_4.0/PGSD_300steps_0.log 1000021.42847 1000.02142847 0.0 1000000.0 0.0 204
