Policy Parameters:	-6.59036521627 5.88438408886
Control Steps:		1000
Start Time:		1442345601.0161734

-- TESTING STOPPED --

Stop Time:		1442345696.8936894
Duration:		95.87751603126526
Cost Matrix:
0.179325767122
0.290140167736
0.213199670898
0.463380128551
0.318659593255
1.3138015742
0.532150458981
0.878265702511
0.753763332081
1.1861156749
0.523929283822
1.39934556839
0.554665782394
1.57736928549
0.33905263006
0.865487641951
0.539006301667
0.538668937944
1.0897689682
0.373488855989
0.337993240961
0.154952492327
0.144867195568
0.155499181592
0.266983661099
0.0674605670566
0.101559657643
0.21842274491
0.376950546824
0.0711011848656
0.105166245606
0.178794959489
0.211029191805
0.068271463803
0.411918405035
0.355674482599
0.140136246424
0.00980027182289
0.0663345162966
0.0867954670638
0.0551712539181
0.0466772116802
0.25531995027
0.369121137664
0.328056215791
0.239097055184
0.131474771444
0.907181780592
0.2820043676
0.536752628336
0.487245503328
0.253356762543
0.499401147235
1.08921947516
0.833774065667
0.35920909715
0.941507452496
0.679570685189
1.32923803156
0.902849142458
1.94995880243
1.71106986382
1.98587010916
1.97726016972
1.85880136738
0.855678969728
2.35915579813
0.368963459843
0.429769440613
1.93100257465
0.4285775723
1.31182518351
0.277118991072
0.500202326773
0.779201093425
0.612168920367
0.330469237175
0.800657688364
0.165743857273
0.449799267685
0.499733841906
0.496820953307
0.231332055025
0.385303302385
0.519364881437
0.229254221569
0.174112740071
0.394886258625
0.191791242146
0.368706469154
0.19009083978
0.274812691145
0.205214970332
0.196825002615
0.106002524327
0.177126875952
0.0680027800753
0.239812224355
0.271210996623
0.211601883288
0.313862596321
0.455823049351
0.299946890343
0.218355774045
0.25913386598
0.164138429883
0.324418002857
0.394282775593
0.624587349925
0.212343545031
0.666564102578
0.531963382424
0.677179578427
1.00516513757
0.439719774832
1.5809763069
0.466426264638
1.18808977071
0.400054471056
1.16009919232
0.638354320503
0.528369878893
0.839624275414
0.375080546782
0.427456408542
0.329836040006
0.0776257326303
0.336184947911
0.660716622154
0.288827832473
0.503548810684
0.180286005321
0.346883380003
0.306876284074
0.381406703252
0.868375006813
0.238682059159
0.726192498505
0.317100431576
0.341490241566
0.840593939094
0.475861929121
1.07181660774
0.290159096009
0.304318954168
0.610636662991
0.5522412529
3.32069664933
0.0168804291037
0.102915879178
0.390514925004
0.434705299551
0.481496912103
0.471853490947
0.530975160476
0.548087495864
0.526451051849
0.675481668386
0.52358332055
0.729250514159
0.465083192928
0.712933367816
0.575204391411
0.858359087987
0.48315636138
0.91981450357
0.626273057097
0.804213959714
0.699025825874
0.797217091978
0.677991189151
0.817500150154
0.762240536073
0.814092521645
0.890671379828
0.780832655418
0.794327178552
0.820355684981
0.91513671359
0.818032774706
0.925905801361
0.83303333217
0.907261454687
0.950553940608
0.848260947786
0.918104693086
1.02823645404
3.37781061492
0.407095117293
1.41650581697
0.748893084894
1.2729910868
0.869639618072
1.20321759529
0.916037268361
1.11105296497
0.938680438636
1.10646064295
1.1570733634
0.980319194163
0.979798552148
1.05652632044
0.943667287446
1.03821222659
0.908852744384
0.939481862529
0.815039524335
0.916252560867
0.783294219217
0.911732551079
0.780641375614
0.697853719855
0.804915521666
0.680781755566
0.827144460884
0.535303527367
0.816517484198
0.580696788019
0.796861315414
0.421792968774
0.698924062916
0.421684416194
0.269994477144
0.476050264508
0.399208649626
0.464617042862
0.323418765153
0.386342225304
0.474411136063
0.303460743865
0.442785958744
0.388292383135
0.358743629668
0.259728845555
0.270936757467
0.192822126265
0.24274800033
0.190798124348
0.0905667465647
0.215434477511
0.267383113741
0.1953762121
0.158671126956
0.182524076067
0.161597096656
0.177612183343
0.194368931015
0.948107793096
0.0197251696978
0.130043303079
0.3068599375
0.454133795589
0.130021873906
0.336404561062
0.0162968169903
0.0524921532582
0.0590110239004
0.0591484279238
0.201306560132
0.0580059854064
0.242428998963
0.249459489519
0.0123500200991
0.0902842215698
0.2471848924
0.0367888401931
0.215677573251
0.0754947549684
0.281698507709
0.17955682666
0.0619801376163
0.260417327207
0.0292373334383
0.171729433374
0.129021737527
0.167939351519
0.243143490327
0.258125794275
0.0217618377255
0.023214596528
0.146305202593
0.170886309452
0.860304655458
0.0223517153518
0.0267751357633
0.076571102693
0.076060215437
0.153718393004
0.400665677628
0.169618055851
0.856815201573
0.20301642828
0.462385067586
1.93562044524
0.00210599013142
0.0585518430864
0.173034712447
0.363517889586
0.454076811985
0.356750488933
0.686802565597
0.227996137705
0.0700754480352
0.35590388526
0.89117698674
0.062114304021
0.44464908146
0.389441465334
0.357438744911
1.1012313836
0.337030165286
1.61372059989
0.0
0.0645777360417
0.146134246291
0.671835228349
0.572468272641
1.01399149251
1.11587338734
1.99708467675
1.52610865523
2.70225245921
1.71417048066
2.71754022228
1.11157249814
2.78407712856
0.141741694013
1.52372308428
0.0123802179841
0.17147181924
0.479860483614
0.0862371959566
0.525810772099
1.11214212167
0.624406355391
0.962373090869
0.822339511159
0.856273578782
0.812914384749
0.781060958227
0.866839700097
0.794726704596
0.755343853213
0.780936754186
0.744295949796
0.704444806903
0.72654344252
0.789063365911
0.755340604647
0.823879743149
0.803941930314
0.668082114017
0.820046857046
0.536615574845
0.834269656926
0.531298990126
0.895165145983
0.49030131025
0.61071334002
0.58306569175
0.573678414852
0.521218121113
0.630486467441
0.34152913443
0.658057056254
0.496523413731
0.403020493074
0.516221457467
0.489439568927
0.428475295845
0.405059112159
0.46125545969
0.335835844581
0.470868306186
0.456427682599
0.345683048632
0.330406845978
0.067850408438
0.354187230631
0.346806039777
0.337603703676
0.246325871969
0.131043285221
1.26448254279
1.14704442465
1.35905262754
0.822996387621
1.33763745094
0.569547710842
3.18545414745
0.136664722413
0.0944810179651
0.300762731722
0.488046291487
0.35698876912
0.420219152157
0.266939264253
0.419112067411
0.273403251825
0.504676324901
2.90405304656
0.0708733775792
0.428571415134
1.32772914891
0.538289191122
1.2031890014
0.533378268308
1.0928481637
0.636662985014
0.952407203395
0.623793277035
0.85944288422
0.506799841592
0.924951348317
0.662866320074
0.835894923272
0.478682022503
0.935662032723
0.438880630286
0.758387423297
0.533217660704
0.83300634984
0.436636258954
0.527557519574
0.708125198624
0.490559249796
0.468165314455
0.554382055243
0.691766832819
0.455800317362
0.494718427557
0.545826478289
0.76570906097
0.443179310397
0.791883528115
0.482599070393
0.869620310558
0.506138752821
0.861592041426
0.641032821348
0.766447406868
0.625861939209
0.842747564921
0.751098540504
0.879085363259
0.870184024949
0.876578283119
0.923016739642
0.852659167511
0.915539011017
0.993410831088
0.815703565561
1.08143369916
0.958978859853
0.992565131399
1.01201965335
0.999220298641
1.10700074252
0.921993753155
1.2272167053
0.868259675366
1.13057705224
0.948237314127
1.03116410994
1.07597964883
0.9867375635
1.03002555252
1.07610733843
1.05212815757
0.954184834263
1.03050594072
1.02572011374
1.13525219564
1.48423868695
1.19619038761
1.55878480298
1.7070449322
2.18272928388
3.77117392197
0.209735951771
1.50189382687
1000000.0
0.0
0.0
0.0
0.0
0.0
0.0
0.0
0.0
0.0
0.0
0.0
0.0
0.0
0.0
0.0
0.0
0.0
0.0
0.0
0.0
0.0
0.0
0.0
0.0
0.0
0.0
0.0
0.0
0.0
0.0
0.0
0.0
0.0
0.0
0.0
0.0
0.0
0.0
0.0
0.0
0.0
0.0
0.0
0.0
0.0
0.0
0.0
0.0
0.0
0.0
0.0
0.0
0.0
0.0
0.0
0.0
0.0
0.0
0.0
0.0
0.0
0.0
0.0
0.0
0.0
0.0
0.0
0.0
0.0
0.0
0.0
0.0
0.0
0.0
0.0
0.0
0.0
0.0
0.0
0.0
0.0
0.0
0.0
0.0
0.0
0.0
0.0
0.0
0.0
0.0
0.0
0.0
0.0
0.0
0.0
0.0
0.0
0.0
0.0
0.0
0.0
0.0
0.0
0.0
0.0
0.0
0.0
0.0
0.0
0.0
0.0
0.0
0.0
0.0
0.0
0.0
0.0
0.0
0.0
0.0
0.0
0.0
0.0
0.0
0.0
0.0
0.0
0.0
0.0
0.0
0.0
0.0
0.0
0.0
0.0
0.0
0.0
0.0
0.0
0.0
0.0
0.0
0.0
0.0
0.0
0.0
0.0
0.0
0.0
0.0
0.0
0.0
0.0
0.0
0.0
0.0
0.0
0.0
0.0
0.0
0.0
0.0
0.0
0.0
0.0
0.0
0.0
0.0
0.0
0.0
0.0
0.0
0.0
0.0
0.0
0.0
0.0
0.0
0.0
0.0
0.0
0.0
0.0
0.0
0.0
0.0
0.0
0.0
0.0
0.0
0.0
0.0
0.0
0.0
0.0
0.0
0.0
0.0
0.0
0.0
0.0
0.0
0.0
0.0
0.0
0.0
0.0
0.0
0.0
0.0
0.0
0.0
0.0
0.0
0.0
0.0
0.0
0.0
0.0
0.0
0.0
0.0
0.0
0.0
0.0
0.0
0.0
0.0
0.0
0.0
0.0
0.0
0.0
0.0
0.0
0.0
0.0
0.0
0.0
0.0
0.0
0.0
0.0
0.0
0.0
0.0
0.0
0.0
0.0
0.0
0.0
0.0
0.0
0.0
0.0
0.0
0.0
0.0
0.0
0.0
0.0
0.0
0.0
0.0
0.0
0.0
0.0
0.0
0.0
0.0
0.0
0.0
0.0
0.0
0.0
0.0
0.0
0.0
0.0
0.0
0.0
0.0
0.0
0.0
0.0
0.0
0.0
0.0
0.0
0.0
0.0
0.0
0.0
0.0
0.0
0.0
0.0
0.0
0.0
0.0
0.0
0.0
0.0
0.0
0.0
0.0
0.0
0.0
0.0
0.0
0.0
0.0
0.0
0.0
0.0
0.0
0.0
0.0
0.0
0.0
0.0
0.0
0.0
0.0
0.0
0.0
0.0
0.0
0.0
0.0
0.0
0.0
0.0
0.0
0.0
0.0
0.0
0.0
0.0
0.0
0.0
0.0
0.0
0.0
0.0
0.0
0.0
0.0
0.0
0.0
0.0
0.0
0.0
0.0
0.0
0.0
0.0
0.0
0.0
0.0
0.0
0.0
0.0
0.0
0.0
0.0
0.0
0.0
0.0
0.0
0.0
0.0
0.0
0.0
0.0
0.0
0.0
0.0
0.0
0.0
0.0
0.0
0.0
0.0
0.0
0.0
0.0
0.0
0.0
0.0
0.0
0.0
0.0
0.0
0.0
0.0
0.0
0.0
0.0
0.0
0.0
0.0
0.0
0.0
0.0
0.0
0.0
0.0
0.0
0.0
0.0
0.0
0.0
0.0
0.0
0.0
0.0
0.0
0.0
0.0
0.0
0.0
0.0
0.0
0.0
0.0
0.0
0.0
0.0
0.0
0.0
0.0
0.0
0.0
0.0
0.0
0.0
0.0
0.0
0.0
0.0
0.0
0.0
0.0
0.0
0.0
0.0
0.0
0.0
0.0
0.0
0.0
0.0
0.0
0.0
0.0
0.0
0.0
0.0
0.0
0.0
0.0
0.0
0.0
0.0
0.0
0.0
0.0
0.0
0.0
0.0
0.0
0.0
0.0
0.0
0.0
0.0
0.0
0.0
0.0
0.0
0.0
0.0
0.0
0.0
0.0
0.0
0.0
0.0
0.0
0.0
0.0
0.0
0.0
0.0
0.0
0.0
0.0
0.0
0.0
0.0
0.0
0.0
0.0
0.0
0.0
0.0
0.0
0.0
0.0
0.0
0.0
0.0
0.0
0.0
0.0
0.0
0.0
logs/alpha_4.0/PGSD_400steps_0.log 1000306.20978 1000.30620978 0.0 1000000.0 0.0 481
