Policy Parameters:	-0.945355799908 1.41303966732
Control Steps:		1000
Start Time:		1442353708.2520814

-- TESTING STOPPED --

Stop Time:		1442353740.5346882
Duration:		32.28260684013367
Cost Matrix:
0.0493211575377
0.0706638149587
0.0109218413979
0.0112875337327
0.00668438566246
0.013145490508
0.0161359306385
0.0203152470776
0.0333644691251
0.00414772613452
0.056286951317
0.0944491297401
0.0517233540511
0.0500005463798
0.0866807073313
0.0392154635967
0.0138389066256
0.0203774983866
0.0222338677375
0.0215591343569
0.0284697125156
0.0201711471289
0.0102853514514
0.0907868418197
0.0858017273807
0.0310419860957
0.0260215653033
0.0220851147208
0.0307077785527
0.0291435945388
0.0143035720519
0.0362943215356
0.0541748023425
0.00127555443161
0.0221181354045
0.0418350624771
0.046276557715
0.0724607506938
0.0394442399092
0.0373560388486
0.0374057133442
0.0472963528359
0.0758925677486
0.0531513415137
0.0485855731458
0.0443728847427
0.0270887789253
0.0448551418345
0.0279724036933
0.0433017121363
0.0612727431072
0.0304592377233
0.0166421557469
0.0183993974252
0.0348278634424
0.0776203295481
0.11057353179
0.150155579988
0.114076539888
0.1282356705
0.132401632383
0.120043432969
0.130528108836
0.135493957313
0.197355562813
0.272889958202
0.336748406961
0.399859645154
0.452647938034
0.539327720792
0.605596989151
0.714911585786
0.718052816371
0.971921880428
1.05926967738
1.10732640096
0.771870421193
1.20718977301
0.647918103467
0.859160525532
1.25744840433
0.792958716567
0.622408893921
0.713430404539
1.08887654228
0.563168703558
0.425029556961
0.229361977106
0.243269961555
0.0684067364342
0.080884356668
0.0326605533243
0.0814781085183
0.12105283099
0.0595334452511
0.0741701728455
0.0741780902299
0.0262132843229
0.0217075713224
0.0407770061167
0.0542074140616
0.0347445071213
0.028316926938
0.0341995231062
0.0375445552571
0.0963276358198
0.109035368681
0.120031179614
0.119617381245
0.115232180094
0.0755136515737
0.0658622974173
0.0813243600572
0.0352131388044
0.0613975370167
0.0307902525756
0.0471543869682
0.0767235002831
0.0234628362729
0.0466638341129
0.111884150411
0.0983596445248
0.116807393272
0.108741683682
0.0702244295315
0.0987591002517
0.051519132703
0.0992419168832
0.16450315091
0.173856740693
0.15932813389
0.145671047161
0.092639743678
0.0770309603792
0.132240624549
0.198424726214
0.234445690164
0.231342980912
0.218282906774
0.195311914618
0.211283125918
0.214565951416
0.207878023933
0.218485445891
0.21382815263
0.236909975954
0.228988200529
0.203123451875
0.182743307707
0.183275337896
0.211660056737
0.199477149133
0.165465829156
0.143717825611
0.100503692462
0.0225617806539
0.0199719598871
0.0576113275033
0.0114354571414
0.0436973398159
0.0473693955372
0.0224420312499
0.0166956469195
0.0406261313339
0.0525694133431
0.0399368266091
0.0170000449866
0.0313331901453
0.0302116657915
0.0288420353812
0.0266704008795
0.0170762145372
0.00640778318254
0.0218787308389
0.0162587263944
0.027400076643
0.0578139210161
0.105234696384
0.0909924804476
0.0283513325707
0.00784892641941
0.0240606212242
0.0467976504829
0.0661054032192
0.0478210052366
0.0291014283677
0.0434009159047
0.0588092916103
0.0246823311343
0.0598455427456
0.0754029111171
0.0729082533317
0.0313922373327
0.0439088901761
0.0393719554821
0.0598754689593
0.0562480482402
0.0702512129371
0.0988799054967
0.16097911716
0.192607270823
0.201149077695
0.185746051813
0.209555587896
0.320707247231
0.538516670342
0.897082634512
1.24217634161
1.38237509554
1.55856387055
1.430039958
1.02217943143
0.344746626711
0.305261098165
0.126879426562
0.453507956063
1000000.0
0.0
0.0
0.0
0.0
0.0
0.0
0.0
0.0
0.0
0.0
0.0
0.0
0.0
0.0
0.0
0.0
0.0
0.0
0.0
0.0
0.0
0.0
0.0
0.0
0.0
0.0
0.0
0.0
0.0
0.0
0.0
0.0
0.0
0.0
0.0
0.0
0.0
0.0
0.0
0.0
0.0
0.0
0.0
0.0
0.0
0.0
0.0
0.0
0.0
0.0
0.0
0.0
0.0
0.0
0.0
0.0
0.0
0.0
0.0
0.0
0.0
0.0
0.0
0.0
0.0
0.0
0.0
0.0
0.0
0.0
0.0
0.0
0.0
0.0
0.0
0.0
0.0
0.0
0.0
0.0
0.0
0.0
0.0
0.0
0.0
0.0
0.0
0.0
0.0
0.0
0.0
0.0
0.0
0.0
0.0
0.0
0.0
0.0
0.0
0.0
0.0
0.0
0.0
0.0
0.0
0.0
0.0
0.0
0.0
0.0
0.0
0.0
0.0
0.0
0.0
0.0
0.0
0.0
0.0
0.0
0.0
0.0
0.0
0.0
0.0
0.0
0.0
0.0
0.0
0.0
0.0
0.0
0.0
0.0
0.0
0.0
0.0
0.0
0.0
0.0
0.0
0.0
0.0
0.0
0.0
0.0
0.0
0.0
0.0
0.0
0.0
0.0
0.0
0.0
0.0
0.0
0.0
0.0
0.0
0.0
0.0
0.0
0.0
0.0
0.0
0.0
0.0
0.0
0.0
0.0
0.0
0.0
0.0
0.0
0.0
0.0
0.0
0.0
0.0
0.0
0.0
0.0
0.0
0.0
0.0
0.0
0.0
0.0
0.0
0.0
0.0
0.0
0.0
0.0
0.0
0.0
0.0
0.0
0.0
0.0
0.0
0.0
0.0
0.0
0.0
0.0
0.0
0.0
0.0
0.0
0.0
0.0
0.0
0.0
0.0
0.0
0.0
0.0
0.0
0.0
0.0
0.0
0.0
0.0
0.0
0.0
0.0
0.0
0.0
0.0
0.0
0.0
0.0
0.0
0.0
0.0
0.0
0.0
0.0
0.0
0.0
0.0
0.0
0.0
0.0
0.0
0.0
0.0
0.0
0.0
0.0
0.0
0.0
0.0
0.0
0.0
0.0
0.0
0.0
0.0
0.0
0.0
0.0
0.0
0.0
0.0
0.0
0.0
0.0
0.0
0.0
0.0
0.0
0.0
0.0
0.0
0.0
0.0
0.0
0.0
0.0
0.0
0.0
0.0
0.0
0.0
0.0
0.0
0.0
0.0
0.0
0.0
0.0
0.0
0.0
0.0
0.0
0.0
0.0
0.0
0.0
0.0
0.0
0.0
0.0
0.0
0.0
0.0
0.0
0.0
0.0
0.0
0.0
0.0
0.0
0.0
0.0
0.0
0.0
0.0
0.0
0.0
0.0
0.0
0.0
0.0
0.0
0.0
0.0
0.0
0.0
0.0
0.0
0.0
0.0
0.0
0.0
0.0
0.0
0.0
0.0
0.0
0.0
0.0
0.0
0.0
0.0
0.0
0.0
0.0
0.0
0.0
0.0
0.0
0.0
0.0
0.0
0.0
0.0
0.0
0.0
0.0
0.0
0.0
0.0
0.0
0.0
0.0
0.0
0.0
0.0
0.0
0.0
0.0
0.0
0.0
0.0
0.0
0.0
0.0
0.0
0.0
0.0
0.0
0.0
0.0
0.0
0.0
0.0
0.0
0.0
0.0
0.0
0.0
0.0
0.0
0.0
0.0
0.0
0.0
0.0
0.0
0.0
0.0
0.0
0.0
0.0
0.0
0.0
0.0
0.0
0.0
0.0
0.0
0.0
0.0
0.0
0.0
0.0
0.0
0.0
0.0
0.0
0.0
0.0
0.0
0.0
0.0
0.0
0.0
0.0
0.0
0.0
0.0
0.0
0.0
0.0
0.0
0.0
0.0
0.0
0.0
0.0
0.0
0.0
0.0
0.0
0.0
0.0
0.0
0.0
0.0
0.0
0.0
0.0
0.0
0.0
0.0
0.0
0.0
0.0
0.0
0.0
0.0
0.0
0.0
0.0
0.0
0.0
0.0
0.0
0.0
0.0
0.0
0.0
0.0
0.0
0.0
0.0
0.0
0.0
0.0
0.0
0.0
0.0
0.0
0.0
0.0
0.0
0.0
0.0
0.0
0.0
0.0
0.0
0.0
0.0
0.0
0.0
0.0
0.0
0.0
0.0
0.0
0.0
0.0
0.0
0.0
0.0
0.0
0.0
0.0
0.0
0.0
0.0
0.0
0.0
0.0
0.0
0.0
0.0
0.0
0.0
0.0
0.0
0.0
0.0
0.0
0.0
0.0
0.0
0.0
0.0
0.0
0.0
0.0
0.0
0.0
0.0
0.0
0.0
0.0
0.0
0.0
0.0
0.0
0.0
0.0
0.0
0.0
0.0
0.0
0.0
0.0
0.0
0.0
0.0
0.0
0.0
0.0
0.0
0.0
0.0
0.0
0.0
0.0
0.0
0.0
0.0
0.0
0.0
0.0
0.0
0.0
0.0
0.0
0.0
0.0
0.0
0.0
0.0
0.0
0.0
0.0
0.0
0.0
0.0
0.0
0.0
0.0
0.0
0.0
0.0
0.0
0.0
0.0
0.0
0.0
0.0
0.0
0.0
0.0
0.0
0.0
0.0
0.0
0.0
0.0
0.0
0.0
0.0
0.0
0.0
0.0
0.0
0.0
0.0
0.0
0.0
0.0
0.0
0.0
0.0
0.0
0.0
0.0
0.0
0.0
0.0
0.0
0.0
0.0
0.0
0.0
0.0
0.0
0.0
0.0
0.0
0.0
0.0
0.0
0.0
0.0
0.0
0.0
0.0
0.0
0.0
0.0
0.0
0.0
0.0
0.0
0.0
0.0
0.0
0.0
0.0
0.0
0.0
0.0
0.0
0.0
0.0
0.0
0.0
0.0
0.0
0.0
0.0
0.0
0.0
0.0
0.0
0.0
0.0
0.0
0.0
0.0
0.0
0.0
0.0
0.0
0.0
0.0
0.0
0.0
0.0
0.0
0.0
0.0
0.0
0.0
0.0
0.0
0.0
0.0
0.0
0.0
0.0
0.0
0.0
0.0
0.0
0.0
0.0
0.0
0.0
0.0
0.0
0.0
0.0
0.0
0.0
0.0
0.0
0.0
0.0
0.0
0.0
0.0
0.0
0.0
0.0
0.0
0.0
0.0
0.0
0.0
0.0
0.0
0.0
0.0
0.0
0.0
0.0
0.0
0.0
0.0
0.0
0.0
0.0
0.0
0.0
0.0
0.0
0.0
0.0
0.0
0.0
0.0
0.0
0.0
0.0
0.0
0.0
0.0
0.0
0.0
0.0
0.0
0.0
0.0
0.0
0.0
0.0
0.0
0.0
0.0
0.0
0.0
0.0
0.0
0.0
0.0
0.0
0.0
0.0
0.0
0.0
0.0
0.0
logs/alpha_4.0/PGSD_600steps_2.log 1000040.02518 1000.04002518 0.0 1000000.0 0.0 216
