Policy Parameters:	-0.0597537159559 0.697624889739
Control Steps:		1000
Start Time:		1442340361.8243034

-- TESTING STOPPED --

Stop Time:		1442340409.7432935
Duration:		47.91899013519287
Cost Matrix:
0.223062231422
0.234135384657
0.256691369916
0.211311426056
0.257671179173
0.245641622591
0.229398101907
0.23018601307
0.167355573544
0.176962571592
0.20922823373
0.262106076866
0.229797847183
0.247004540551
0.253188974518
0.228390993983
0.224316133132
0.181446938722
0.21126725618
0.193888529571
0.203359123939
0.115391891688
0.0877751205213
0.0444796031495
0.0818707011789
0.128918391414
0.163289049008
0.144655957945
0.131887509456
0.130113948127
0.200952017117
0.198226390891
0.206813243645
0.176545155199
0.195329963759
0.231656484348
0.23177838753
0.221611312218
0.196620111915
0.201134065084
0.200910774024
0.233852128565
0.227356530901
0.18940631377
0.2342811043
0.226214409635
0.270853116573
0.26852491331
0.204193048718
0.236018529605
0.244920723362
0.212680031868
0.162291543862
0.179494746627
0.173261147654
0.120062894056
0.0971708673318
0.0825748797662
0.0880842443851
0.0716641672133
0.0549337937717
0.0333067390979
0.049305342318
0.0581421207609
0.0476028417207
0.0842413103841
0.0842688901809
0.0561017717551
0.07130118689
0.0639511427698
0.0199337044946
0.0627809810244
0.0411080174912
0.0301833468761
0.0542572898927
0.0420568596822
0.0689813299232
0.0113784138965
0.0558110667809
0.0366845913511
0.049648616466
0.0457569208476
0.0766283102992
0.0646880862099
0.0251263962774
0.0703576487386
0.0846825350861
0.0647776863046
0.030694465327
0.0172309801749
0.0221600288432
0.0448106718956
0.0131827693114
0.0296263216863
0.0060797104301
0.0791074897748
0.0665961710464
0.0271839406363
0.0339491568633
0.0288473674061
0.0184801096796
0.0388389063569
0.0611611921839
0.0797057798778
0.0580143206968
0.0665969586157
0.0442792387975
0.0236245625799
0.018421200853
0.0381242690767
0.000926015954639
0.0115879814377
0.0303713603731
0.0166892568445
0.0381531270807
0.0226584268947
0.00248504352487
0.0275571297984
0.00611661788559
0.0168263273058
0.00295693199119
0.0491795966283
0.015965701151
0.0371982881635
0.0199619896402
0.0276134508992
0.0142768859816
0.0794744026019
0.0450714391005
0.0672098047206
0.0802504671873
0.0304320559327
0.0770673083626
0.0583732829363
0.0601820938359
0.0910662982742
0.0894388104613
0.110251752889
0.151983667696
0.184358358928
0.124869587143
0.116935933073
0.208542429007
0.119317347865
0.175335881544
0.203326055787
0.215055855466
0.190361547288
0.256571948901
0.284503451518
0.295140391987
0.287259407792
0.328624818479
0.370109354747
0.391530636757
0.404103127363
0.443294616605
0.484713724914
0.485899437242
0.440538748058
0.476218564546
0.521783569608
0.422128081709
0.480803313883
0.529431127559
0.538784994646
0.406243433216
0.384203970623
0.530422906364
0.464178601999
0.507193910978
0.595532246585
0.574243625369
0.616980474267
0.463127081505
0.456589466939
0.371073194424
0.462188518443
0.461763361307
0.165893201347
0.321235251989
0.0120527548905
0.0405856758323
0.0793196623379
0.0189885874749
0.0367678516836
0.0306295381909
0.0450761341712
0.0409269290281
0.0261642031202
0.0327328058606
0.0649160905261
0.0863195711478
0.0320388406805
0.0688659945411
0.0629627944088
0.0625705131994
0.0540421862466
0.0324767637704
0.0354826766813
0.035492774225
0.0534854773104
0.0504725222693
0.086710723364
0.0673697364409
0.0562612229226
0.0614719107214
0.0760903736528
0.058700308052
0.0883534323203
0.164095732805
0.150266943535
0.141591713226
0.137064843869
0.138460016127
0.148002314622
0.169597254628
0.176691123311
0.202883595778
0.199936679483
0.228870491416
0.277076434321
0.287614006313
0.277428131814
0.280315310166
0.295007256182
0.292621234897
0.308014676318
0.30408787437
0.335334605339
0.300901492477
0.289793966573
0.276870247786
0.284664537489
0.280175797305
0.249036253649
0.226656347898
0.168150095604
0.179832036108
0.155991619218
0.143261667895
0.110444475247
0.0773770485146
0.0520187743429
0.0264377857544
0.019967755635
0.0161456973324
0.0265474166838
0.00160158389261
0.0208173723892
0.0109873297232
0.0219254706484
0.018980810519
0.0334456222034
0.0234955037523
0.0131174295096
0.0290193473183
0.02099714415
0.0223559985952
0.0340193935317
0.0199024467482
0.0414079109033
0.0378868869721
0.0215245453324
0.0199469430574
0.0169979763675
0.0505210136081
0.0469558020627
0.0711712330289
0.0460319732896
0.0365437750855
0.0459048710562
0.0490348712125
0.0515656660773
0.0710922349379
0.0489090277439
0.0459783023238
0.0440041234032
0.0265059249487
0.0316325079998
0.0119888831549
0.117561280266
0.157289959461
0.0969504283858
0.073978491729
0.0769274736866
0.149515786353
0.176021464773
0.0628156044484
0.0682619056576
0.0478407757882
0.0197629347043
0.0784110794842
0.0947048200859
0.0992164314433
0.0967759940994
0.115135055765
0.0742768938626
0.0634846300193
0.0604014167936
0.0478179555538
0.060508015718
0.0611596089252
0.0700364659035
0.0535284404862
0.0363441794199
0.0565017651765
0.0400525722644
0.0489801868505
0.0304380335137
0.0706182871319
0.025457326649
0.0834117962773
0.0213749408064
0.0700237231369
0.0579481759716
0.0792262021902
0.0858477875195
0.103329902626
0.106571398807
0.159238723466
0.132320019651
0.187388235391
0.245052343502
0.32110754786
0.370643905747
0.344876419156
0.426265323721
0.487300522287
0.55556543644
0.484224926525
0.563346815967
0.464293806275
0.643948107286
0.522452219914
0.622921237668
0.571873644117
0.76921727115
0.68464212021
0.802531315588
1.14533927299
0.82960946942
0.95550179605
0.913837616394
0.654529446993
0.776015748031
0.864950620638
0.563593323501
1000000.0
0.0
0.0
0.0
0.0
0.0
0.0
0.0
0.0
0.0
0.0
0.0
0.0
0.0
0.0
0.0
0.0
0.0
0.0
0.0
0.0
0.0
0.0
0.0
0.0
0.0
0.0
0.0
0.0
0.0
0.0
0.0
0.0
0.0
0.0
0.0
0.0
0.0
0.0
0.0
0.0
0.0
0.0
0.0
0.0
0.0
0.0
0.0
0.0
0.0
0.0
0.0
0.0
0.0
0.0
0.0
0.0
0.0
0.0
0.0
0.0
0.0
0.0
0.0
0.0
0.0
0.0
0.0
0.0
0.0
0.0
0.0
0.0
0.0
0.0
0.0
0.0
0.0
0.0
0.0
0.0
0.0
0.0
0.0
0.0
0.0
0.0
0.0
0.0
0.0
0.0
0.0
0.0
0.0
0.0
0.0
0.0
0.0
0.0
0.0
0.0
0.0
0.0
0.0
0.0
0.0
0.0
0.0
0.0
0.0
0.0
0.0
0.0
0.0
0.0
0.0
0.0
0.0
0.0
0.0
0.0
0.0
0.0
0.0
0.0
0.0
0.0
0.0
0.0
0.0
0.0
0.0
0.0
0.0
0.0
0.0
0.0
0.0
0.0
0.0
0.0
0.0
0.0
0.0
0.0
0.0
0.0
0.0
0.0
0.0
0.0
0.0
0.0
0.0
0.0
0.0
0.0
0.0
0.0
0.0
0.0
0.0
0.0
0.0
0.0
0.0
0.0
0.0
0.0
0.0
0.0
0.0
0.0
0.0
0.0
0.0
0.0
0.0
0.0
0.0
0.0
0.0
0.0
0.0
0.0
0.0
0.0
0.0
0.0
0.0
0.0
0.0
0.0
0.0
0.0
0.0
0.0
0.0
0.0
0.0
0.0
0.0
0.0
0.0
0.0
0.0
0.0
0.0
0.0
0.0
0.0
0.0
0.0
0.0
0.0
0.0
0.0
0.0
0.0
0.0
0.0
0.0
0.0
0.0
0.0
0.0
0.0
0.0
0.0
0.0
0.0
0.0
0.0
0.0
0.0
0.0
0.0
0.0
0.0
0.0
0.0
0.0
0.0
0.0
0.0
0.0
0.0
0.0
0.0
0.0
0.0
0.0
0.0
0.0
0.0
0.0
0.0
0.0
0.0
0.0
0.0
0.0
0.0
0.0
0.0
0.0
0.0
0.0
0.0
0.0
0.0
0.0
0.0
0.0
0.0
0.0
0.0
0.0
0.0
0.0
0.0
0.0
0.0
0.0
0.0
0.0
0.0
0.0
0.0
0.0
0.0
0.0
0.0
0.0
0.0
0.0
0.0
0.0
0.0
0.0
0.0
0.0
0.0
0.0
0.0
0.0
0.0
0.0
0.0
0.0
0.0
0.0
0.0
0.0
0.0
0.0
0.0
0.0
0.0
0.0
0.0
0.0
0.0
0.0
0.0
0.0
0.0
0.0
0.0
0.0
0.0
0.0
0.0
0.0
0.0
0.0
0.0
0.0
0.0
0.0
0.0
0.0
0.0
0.0
0.0
0.0
0.0
0.0
0.0
0.0
0.0
0.0
0.0
0.0
0.0
0.0
0.0
0.0
0.0
0.0
0.0
0.0
0.0
0.0
0.0
0.0
0.0
0.0
0.0
0.0
0.0
0.0
0.0
0.0
0.0
0.0
0.0
0.0
0.0
0.0
0.0
0.0
0.0
0.0
0.0
0.0
0.0
0.0
0.0
0.0
0.0
0.0
0.0
0.0
0.0
0.0
0.0
0.0
0.0
0.0
0.0
0.0
0.0
0.0
0.0
0.0
0.0
0.0
0.0
0.0
0.0
0.0
0.0
0.0
0.0
0.0
0.0
0.0
0.0
0.0
0.0
0.0
0.0
0.0
0.0
0.0
0.0
0.0
0.0
0.0
0.0
0.0
0.0
0.0
0.0
0.0
0.0
0.0
0.0
0.0
0.0
0.0
0.0
0.0
0.0
0.0
0.0
0.0
0.0
0.0
0.0
0.0
0.0
0.0
0.0
0.0
0.0
0.0
0.0
0.0
0.0
0.0
0.0
0.0
0.0
0.0
0.0
0.0
0.0
0.0
0.0
0.0
0.0
0.0
0.0
0.0
0.0
0.0
0.0
0.0
0.0
0.0
0.0
0.0
0.0
0.0
0.0
0.0
0.0
0.0
0.0
0.0
0.0
0.0
0.0
0.0
0.0
0.0
0.0
0.0
0.0
0.0
0.0
0.0
0.0
0.0
0.0
0.0
0.0
0.0
0.0
0.0
0.0
0.0
0.0
0.0
0.0
0.0
0.0
0.0
0.0
0.0
0.0
0.0
0.0
0.0
0.0
0.0
0.0
0.0
0.0
0.0
0.0
0.0
0.0
0.0
0.0
0.0
0.0
0.0
0.0
0.0
0.0
0.0
0.0
0.0
0.0
0.0
0.0
0.0
0.0
0.0
0.0
0.0
0.0
0.0
0.0
0.0
0.0
0.0
0.0
0.0
0.0
0.0
0.0
0.0
0.0
0.0
0.0
0.0
0.0
0.0
0.0
0.0
0.0
0.0
0.0
0.0
0.0
0.0
0.0
0.0
0.0
0.0
0.0
0.0
0.0
0.0
0.0
0.0
0.0
0.0
0.0
0.0
0.0
0.0
0.0
0.0
0.0
0.0
0.0
0.0
0.0
0.0
0.0
0.0
0.0
0.0
0.0
0.0
0.0
0.0
0.0
0.0
0.0
0.0
0.0
0.0
0.0
0.0
0.0
0.0
0.0
0.0
0.0
0.0
0.0
0.0
0.0
0.0
0.0
0.0
0.0
0.0
0.0
0.0
0.0
0.0
0.0
0.0
0.0
0.0
0.0
0.0
0.0
0.0
0.0
0.0
0.0
0.0
0.0
0.0
logs/alpha_4.0/PGSD_100steps_4.log 1000059.86965 1000.05986965 0.0 1000000.0 0.0 348
