Policy Parameters:	-2.67393600784 4.17324235573
Control Steps:		1000
Start Time:		1438540080.4607797

-- TESTING STOPPED --

Stop Time:		1438540253.877736
Duration:		173.41695642471313
Cost Matrix:
0.048426303063
0.271089495132
0.564633452158
0.53132632709
0.804273066927
0.788833239349
1.0382795472
1.09828562611
1.39413659256
1.47406572585
1.60835830473
1.76147714491
1.77016246548
1.66269803045
1.76385065968
1.08881002202
1.48153737817
0.803093482499
0.762313560945
0.743998156809
0.413753172867
0.364042030035
0.194494878012
0.111155451749
0.096154009785
0.104073430566
0.131966901624
0.158309642821
0.102994516469
0.0238420838183
0.146199263715
0.317346147079
0.37946356542
0.221951614779
0.250450629351
0.477657537097
0.169350941208
0.198076535356
0.0933323979933
0.359730290911
0.332561989719
0.332471441492
0.334853997858
0.3702776711
0.537926141689
0.364292658364
0.254364171849
0.21334846839
0.250778242532
0.188161404371
0.139703938369
0.106611963756
0.187086229546
0.478869914784
0.167070674488
0.267740214725
0.1357493673
0.245463604149
0.000843936601784
0.0532430295373
0.0968031645799
0.038605314371
0.0915598988716
0.126681869731
0.114025227567
0.0987367455003
0.124711476729
0.0249067961997
0.0585562405076
0.0856745557081
0.0193570234466
0.0145937676853
0.0854270196874
0.0849564541265
0.0411000248323
0.0728784903014
0.0479400960517
0.12976149646
0.104282364222
0.167027325796
0.155990036043
0.111206866697
0.153060507391
0.260636883848
0.18694106199
0.216750840875
0.268444728974
0.276069334114
0.313978502914
0.434002169487
0.419197889457
0.53182200368
0.500808896092
0.549774654656
0.746833971609
0.515376366391
0.626347264796
0.569840005423
0.481731257254
0.480632735538
0.513726101031
0.436004788735
0.414410217114
0.562829407722
0.477620742802
0.310689934551
0.0452996526799
0.0846911270097
0.069831393287
0.124572917664
0.196065938104
0.15689527171
0.22334869961
0.0625961909488
0.0879891777956
0.201847382284
0.146937593877
0.123075915909
0.180168928667
0.111097676355
0.19001148762
0.0360705712258
0.0157443908775
0.0989632729192
0.262554753172
0.322826896243
0.0979163264959
0.108252670412
0.201054868488
0.219084975064
0.342428721671
0.437240722027
0.420374070203
0.601948779308
0.912306544512
0.995038997311
1.64110971164
1.48895672815
1.66494205923
1.6881510013
1.36494148497
2.0131717379
1.60809794669
1.55032911232
1.46753123901
0.276464619439
0.328310354612
0.208487787102
0.334425217592
0.320241293194
0.325147877292
0.40781153516
0.694616635751
0.521172456877
0.458660848053
0.406292223177
0.523207988945
0.353051382141
0.366027255373
0.409706251852
0.307748366035
0.29353058198
0.281601318128
0.263311897051
0.0992025344799
0.0541871630993
0.0688847406119
0.196699281198
0.257079890055
0.171912400458
0.211163370533
0.269275441999
0.236436008729
0.334333437804
0.419216643926
0.505150792611
0.713230810297
0.678471146685
0.788669708132
0.745499810298
0.749530812237
0.759426872731
0.64039473001
0.698981436571
0.372913669277
0.855844841357
0.253415187609
0.329269073933
0.156456510807
0.197539146831
0.026613282296
0.141338803303
0.226778426556
0.0252133453385
0.0310051873098
0.037096986085
0.0745609371247
0.246517488323
0.00115387418633
0.0638297697233
0.153473771337
0.0191020823015
0.0434106855078
0.122188414745
0.181552771285
0.171025217422
0.038938269412
0.11715517078
0.144722857183
0.04835116079
0.0295138839187
0.171630205668
0.0954108736774
0.0566019014717
0.225416095472
0.289556944898
0.0701795269883
0.0940114437041
0.133257241773
0.342232658787
0.194519559231
0.254718708222
0.509430967732
0.409477800251
0.498353827748
0.752310819209
0.98928050919
1.081535723
1.43559269557
1.38873262887
1.46921390104
1.60680380457
1.41405986546
0.829957536036
1.39305021546
1.09855079416
0.89226809703
0.312176352138
0.389638313662
0.21614779223
0.225167922388
0.280287797632
0.359526642362
0.193610506408
0.0751342730795
0.126167567871
0.200749243562
0.225711515237
0.103882461718
0.235857201834
0.34005884863
0.0239929099682
0.315782639937
1.8944302355
0.00189837921739
0.0638660461938
0.0314760702758
0.164698164703
0.204089128998
0.212168045649
0.322097144057
0.245537812386
0.148733315081
0.126681071058
0.185692546591
0.337124956195
0.286518040047
0.401994505
0.118127550302
0.19735189697
0.139842680395
0.254785219418
0.283715736221
0.33600979039
0.330220111958
0.286876227004
0.302238299808
0.310823707292
0.362568662231
0.404803624693
0.50950992079
0.710959150914
0.987299303884
1.04342280257
1.51058222899
1.65060641877
1.70837076001
1.82210883762
1.98419562777
1.71406672025
1.8489308168
2.79983760296
0.212194460968
0.386702587579
0.405496322073
0.388621605329
0.422220200683
0.461460161112
0.468512697082
0.44296422011
0.463913765051
0.499349824084
0.489051896693
0.496506464284
0.546458361759
0.509667175225
0.57119013322
0.528634130922
0.576040322603
0.51207469925
0.531078068271
0.641902318783
0.521505603014
0.689174635715
0.655760730832
0.537531831465
0.644234975958
0.562425725919
0.634693021693
0.523533724963
0.711503564865
0.519437648169
0.690161443951
0.539332758069
0.645243240912
0.497948407121
0.646127160982
0.500833707725
0.527833637273
0.593134504311
0.497984277132
0.637251413947
0.486101937019
0.614239554055
0.501699721201
0.539047273436
0.536649032218
0.524598804725
0.430840790656
0.468597474659
0.496024070456
0.499917921634
0.434480902728
0.416666944677
0.424231921425
0.437960017108
0.403230710909
0.520977597006
0.386368985864
0.444167362174
0.479673738996
0.443511127883
0.414534016107
0.467187549948
0.327175356099
0.233222895834
0.329080992887
0.343317752976
0.247597511283
0.106929734338
0.127536398027
0.314544768809
0.116418402783
0.0798825871397
0.0892047142098
0.082882283447
0.0759173116338
0.165440717823
0.333936006427
0.375180622386
0.236131190188
0.289793311755
0.33306970561
0.19299376428
0.322661847321
0.942532660397
0.0718737830294
0.0586022222581
0.0288202446381
0.157712091664
0.226568388544
0.208967065813
0.224119310922
0.204959488156
0.192903064267
0.261353345139
0.369370666773
0.395791897216
0.335172160328
0.218464741889
0.233843992673
0.295663428975
0.255415475691
0.276601011382
0.325753225849
0.452853449612
0.440253261147
0.66507846365
0.487955062283
0.826963583923
0.406699581219
0.478876840019
0.985402626423
0.431555258414
0.715868221264
0.507011422682
0.748331399853
0.470306812342
0.426555914332
0.504129876008
0.47914280124
0.451418343998
0.312261170168
0.292787682004
0.382550504415
0.0455697249792
0.122987906853
0.101014051265
0.0
0.0310977387614
0.117942755564
0.0416172819775
0.192453303528
0.0472720257574
0.120032284081
0.108081673435
0.172058620335
0.165382094639
0.143151318449
0.0963645561009
0.0560265890934
0.240789867759
0.057297093812
0.00721291968542
0.0325862573445
0.00881471787576
0.0185107602633
0.0789239175321
0.0228533851708
0.0161614457734
0.0249810176668
0.0366410131618
0.0962413506404
0.0199082346597
0.0834896713031
0.197992432434
0.216348830866
0.224231343325
0.129926384925
0.136835922955
0.124427208126
0.166054317381
0.159800288663
0.194894872424
0.334889152968
0.4465450584
1.38937056196
0.408693644625
1.20427054417
1.28004575789
1.47507656802
1.45578177112
1.60297526771
1.53773640108
1.85285505295
1.41310365534
1.51242398233
1.18999074258
0.463631625797
1.54211326955
0.341623368037
0.165990071078
0.0402669151352
0.0685663679666
0.283843987972
0.0714292102036
0.25823032304
0.308263514065
0.0462790189907
0.142203468071
0.147677466961
0.154361475909
0.185212200779
0.213632980322
0.289702475051
0.319871822756
0.272742613668
0.202346064534
0.479955253778
0.399521474507
0.459597085353
1.0866360656
0.335511893373
0.550641626102
0.741604920062
0.516731649604
0.736933023466
0.321169354983
0.390008595055
0.405045073371
0.275537840809
0.476457860128
0.269473559171
0.0828397447711
0.15635525862
0.362865432852
0.00873242321912
0.0393975292605
0.113877476981
0.211305705965
0.251699439518
0.0488529436721
0.0600642415012
0.0969238372675
0.113537114943
0.10902663494
0.0454413765671
0.100101220246
0.0693340270553
0.13309713232
0.13386384159
0.17320617534
0.0744017477652
0.11274582628
0.186363268057
0.248314916202
0.144915559061
0.30070658867
0.282953100629
0.160030462113
0.315743627598
0.374849931155
0.379956512983
0.375745150399
0.49668228535
0.395051374199
0.489845450498
0.417041909971
0.396450531311
0.342568783786
0.408393495473
0.351620179478
0.288485826705
0.326221705073
0.324321381172
0.394121332647
0.0713165761121
0.0600940727766
0.136774452952
0.0371962150006
0.0584374170695
0.136729948864
0.195055940599
0.230033008254
0.164056853279
0.152557464364
0.147871811842
0.110891572951
0.143891397849
0.128335142172
0.17325874955
0.172588693788
0.113588522519
0.0584049355663
0.0860962873527
0.167871848027
0.194894257683
0.0830653166573
0.0275184501881
0.0200007465971
0.0115739011813
0.0400369584654
0.196148243701
0.296977384184
0.166934331316
0.131315340465
0.111617638285
0.298390510247
0.115449530604
0.327258956547
0.218878542575
0.35135891268
0.229689961785
0.29950914547
0.365886738144
0.224122433638
0.345335955116
0.401189343881
0.443604291365
0.542004388901
0.480947079065
1.04686603366
0.493715420256
0.98953740696
0.506377725766
1.34358563469
0.561430417793
1.47768565781
0.394562046722
0.518227274132
0.487426097797
0.328212966636
0.335038764472
0.34958822798
0.0197869436185
0.12137310564
0.0639753247257
0.156811287094
0.226279082358
0.202463448441
0.120475420701
0.187612291472
0.148249154988
0.153453357956
0.161910553218
0.120547651141
0.0856007356095
0.0734581245174
0.0707015659107
0.114124502749
0.161955470078
0.193805305715
0.154035932016
0.223569905958
0.158159929261
0.125269973162
0.146820258078
0.182681826701
0.187661581552
0.0784989550445
0.0593029701183
0.0668571328791
0.150602056406
0.0186318091078
0.152195990067
0.250339100969
0.144792972498
0.0409532156251
0.0379755797659
0.0529940045188
0.150056528912
0.148252238904
0.103771289871
0.130912022619
0.163226906066
0.0530239635299
0.114836346494
0.0694187418569
0.00759476118669
0.0396492989636
0.0759680212117
0.185374034431
0.0332201486379
0.0677408482238
0.0369385775924
0.0691007857045
0.108560910578
0.115300813357
0.239479445379
0.295009961174
0.185106415573
0.262807826773
0.0938001913338
0.181448286014
0.347902909516
0.238515047333
0.322765968956
0.445442649961
0.259723006686
0.352484005387
0.358729192353
0.414879113945
0.37728956563
0.455436607421
0.514785293146
0.515436360514
0.616293794433
0.512950584635
1.17243109487
1.03745563682
1.43286608241
1.14017182554
1.34027534932
1.32264936607
1.34284801499
1.22806175232
1.31673071927
1.1551681283
0.843161800285
0.381665236976
0.524924101074
0.420181051889
0.249985845288
0.38099115637
0.322849057997
0.357183149603
0.295962438525
0.256183777153
0.11889315883
0.188768412378
0.15377077659
0.117272749267
0.231786146095
0.173096788531
0.30836745555
0.146268230838
0.168580391019
0.157173682356
0.315391459889
0.138120614419
0.0865776209943
0.152850463228
0.146412859004
0.0459572272284
0.109707053115
0.199827719129
0.257281940746
0.27891195085
0.242790427673
0.249024135939
0.216336529388
0.230692250508
0.211765565378
0.251603230021
0.212383926894
0.189553427136
0.116083518069
0.130253587056
0.0796935800534
0.113325382019
0.0544963688449
0.101102512055
0.104510224188
0.230223907527
0.415916870348
0.375771982111
0.587420633988
0.926219801543
0.965080099308
1.55168859651
1.87733723121
1.41270124944
2.05555054211
1.78070939074
0.638047479623
2.50825099382
0.852174711312
1.76734644455
0.15510677045
0.436240335145
0.257260939584
0.219175239543
0.176282743111
0.116818829206
0.109648273706
0.270186847472
0.597307745942
0.82333817351
0.646203348418
0.503637008623
0.566067794291
0.552079217272
0.762722046831
0.551498923888
0.537202220621
0.599696393362
0.395315467193
0.249458362088
0.0439040787424
0.232871390646
0.48196750004
0.401795123126
0.37889420282
0.571121069282
0.332892994359
0.47196059426
0.447267644778
0.229383194605
0.30570400946
0.367395848709
0.333287101911
0.257276644824
0.255832857637
0.242082490451
0.2702868175
0.162272590431
0.237991504185
0.117060813453
0.00056280317588
0.0273433993625
0.0630975220703
0.0455213970834
0.105184278594
0.0600871730135
0.0966924969304
0.153587637856
0.147961372999
0.207591120689
0.0315575517549
0.0899467455353
0.13467334678
0.144958849271
0.095666598532
0.137622941464
0.149706311039
0.140340414822
0.249184801988
0.0791567253792
0.161055503055
0.207725789119
0.211192907541
0.223587227642
0.194877412678
0.226416811277
0.259413957482
0.41813336562
0.46001352924
0.415379332331
0.467591898287
0.377362466472
0.461094059891
0.399968368445
0.330899231935
0.458167797983
0.377354454939
0.339951206552
0.381837407606
0.331307644653
0.29307726035
0.352505135623
0.303536493453
0.112729532881
0.121188195018
0.132136056392
0.0463727389436
0.0639452528259
0.215160606536
0.160581801108
0.436508184552
0.292431044317
0.262311887246
0.261987647739
0.307389987059
0.371096928268
0.336653915789
0.40991565514
0.398291402381
0.461399332017
0.510081618153
0.44544178514
0.367697249144
0.371855011416
0.360058536284
0.285388464163
0.418184795235
0.324258463848
0.0744832905058
0.18026600123
0.195655338859
0.182552687331
0.165732711059
0.366826117839
0.125790400098
0.217465619325
0.197573686023
0.193849449394
0.290457622986
0.23439734956
0.334245653112
0.226756839681
0.301666036139
0.373922467044
0.228697525494
0.361815435413
1.37206433434
0.163474445054
0.269296660882
0.456126950592
0.38208199211
0.361400410895
0.424592100243
0.556437148041
1.395608218
1.67812502229
1.76063293678
2.02772919475
1.0939526107
2.71767761813
1.30832461881
1.24339968922
1.76844377652
1.27946824963
1.17824611153
1.11819225323
0.372943172388
0.0365410888161
0.103429352756
0.0448616632007
0.113674047141
0.161916885594
0.063530145817
0.0189125954997
0.0703789697443
0.071419128602
0.0779525971636
0.136593731771
0.177980350783
0.147671599748
0.03851172693
0.0132075796663
0.0939230199946
0.0803788021321
0.119862459567
0.103704643351
0.227554445365
0.307916618914
0.202755434742
0.0652389557042
0.0957885332397
0.249331687952
0.151924454886
0.036028218466
0.171101704953
0.0633411731312
0.162305058327
0.0569897946319
0.116215045537
0.191896774765
0.138427330253
0.116151146994
0.0147776469078
0.0628746189222
0.197057619892
0.322585083274
0.256844177
0.177143198356
0.232035378532
0.403018089625
0.215181121874
0.270223838364
0.4694694602
0.27952080593
0.364609380396
0.394713219431
0.389042610141
0.388709190554
0.521506659981
0.864493282483
0.759823218354
0.461715576582
0.894693445709
0.449563694971
1.13467519312
0.552613958178
1.18112433822
0.26427434135
0.405294547674
0.35111049704
0.214020617803
0.137546455222
0.166188704024
0.110258249011
0.0168293608535
0.0408077424293
0.0858292449695
0.202296748768
0.0509713352535
0.039800405598
0.0
0.0616399904107
0.113355053497
0.307926490527
0.204841275995
0.22729166269
0.353063780086
0.161542487665
0.217334385955
0.106703796073
0.0921550978668
0.123847495564
0.271125944504
0.166043919947
0.220256663614
0.177843469293
0.115921969253
0.155715124277
0.168211331859
0.154065527957
0.130458128471
0.309684045997
0.328502631209
0.157112673304
0.19222311554
0.289794632861
0.265582809668
0.234983953175
0.232777483603
0.341823550179
0.134368758941
0.241031422981
logs/alpha_1.9/PGSD_1000steps_0.log 381.590151074 0.381590151074 0.256962033528 2.79983760296 0.0 -1
