Policy Parameters:	-4.55519231734 5.01463819568
Control Steps:		1000
Start Time:		1438531431.2692695

-- TESTING STOPPED --

Stop Time:		1438531612.1092331
Duration:		180.8399636745453
Cost Matrix:
0.0700624295599
0.14224979931
0.486378022585
0.00903825610258
0.0693079204316
0.148503812155
0.169600640719
0.245090851915
0.299051772802
0.154130347822
0.198093235056
0.222968791838
0.183607719454
0.0402790714616
0.116900003944
0.236581315252
0.0457590229466
0.11006216224
0.0964215533866
0.0635086416196
0.00349774800726
0.0259873617979
0.103105381136
0.272951462814
0.0996201651144
0.0722434182401
0.225120531629
0.175621403958
0.153585983235
0.00717298641892
0.0684877773774
0.277330968305
0.187769942451
0.290692302537
0.137102223569
0.257527570632
0.196152416445
0.350202635283
0.458996861483
0.257025492683
0.307539198699
0.176781573656
0.281842356289
0.214118628002
0.148945404197
0.206548633376
0.336509845099
0.340178016123
0.150212850606
0.373297824105
0.290510644201
0.282377390423
0.270382783199
0.316714825212
0.19829199567
0.645338750759
0.45053283489
0.843318311019
1.9114433038
2.01627936616
2.25144059256
2.24191341215
1.417239266
2.17777589053
2.6866498586
1.93679065144
1.74960542617
0.875262498632
0.0122207878766
0.085572409971
0.307653360671
0.428889844063
0.348836258641
0.351471900343
0.312483222863
0.332996557865
0.133574190048
0.330161781815
0.439414276678
0.245238315531
0.434926943064
0.475607587675
0.412512366585
0.336692263183
0.324409548037
0.434271126869
0.455288865735
0.43957329639
0.265145041195
0.270975081213
0.195270077245
0.358548677291
0.306604211294
0.171567586291
0.272572615142
0.143250736424
0.0362678708392
0.215696144366
0.336120290179
0.0801938188698
0.410270758047
0.060190787197
0.136962821044
0.020804384597
0.117387695172
0.133028474125
0.108568403409
0.421520666367
0.012802527755
0.0774121142394
0.133989915317
0.0999579192414
0.15420796959
0.373975206778
0.309671227256
0.431776801693
1.47474870418
0.660071386324
2.0094109937
2.00173543593
1.95872912758
1.94940584278
2.00490579337
1.7101060347
2.01443765343
0.712287132159
1.27985608631
0.228749357638
0.0804913880982
0.382232253763
0.784818411414
0.470885619877
0.507732859787
0.371619252536
0.284271355354
0.169963495809
0.166917275665
0.292478955009
0.258895832814
0.234770417794
0.244128425995
0.382247336609
0.128281036789
0.300277284791
0.118607063052
0.185109812676
0.160604711607
0.164809653435
0.0217993907919
0.130614097604
0.176273828115
0.427371476993
0.422221624241
0.488675210537
0.519591655056
0.628880966177
0.86400003873
0.563248631997
1.49555838509
0.887321666733
1.34909063838
1.06923836613
1.24357492298
0.947309501851
1.13514846659
0.958512777095
0.568366232871
1.10563108284
0.438405816913
0.482202504713
0.202953541838
0.382421387736
0.350774535826
0.396206433264
0.460200978746
0.439628446338
0.291891584339
0.266804139762
0.270664708585
0.398366053539
0.152659250626
0.12628331936
0.214208009076
0.226848071454
0.496449702223
0.0813229656364
0.321198477907
1.09851626733
0.55112498646
1.06500504472
0.398496169647
1.22277895154
0.530687108483
1.50721105983
0.379851750826
1.22990214215
0.119910196886
0.45513342198
0.37454698516
1.4644659721
0.16130902107
0.265443233386
0.197693141416
0.0943134022085
0.173537281559
0.346653831448
0.262505239167
0.166025046053
0.169919694472
0.393864374519
0.0498115240041
0.272033425749
0.390445557376
0.254593997063
0.301592551
0.351343093163
0.0906340618486
0.079654275808
0.219477601052
0.10139546184
0.244803753276
0.0584407055054
0.157180200313
0.0968525599473
0.00914324989622
0.0138065848321
0.0355450703521
0.192063685253
0.0284293928772
0.0620712837171
0.031070826369
0.0674772690433
0.302216929061
0.458179225217
0.223514314844
0.429894265301
0.311772281038
0.166641310085
0.137052577126
0.237465192959
0.152024717697
0.337202846119
0.237940064379
0.252192340272
0.0528532188068
0.168141385641
0.030260893076
0.0412900399196
0.038098192937
0.163984490384
0.0269840488646
0.101046470491
0.111359565491
0.016147794834
0.0859168908815
0.205362028447
0.0989862299273
0.15169426462
0.091935751736
0.115657256985
0.087816251802
0.0360396202613
0.0608844169837
0.241813866277
0.529261155086
0.236402634513
0.123559004019
0.349967953192
0.439026483264
0.48187487949
0.513322588361
0.54306845648
1.01533273048
0.768431414495
1.55579879786
1.83860144419
1.84472763415
2.0040722855
1.81043799901
1.34513021274
1.96982779477
1.80622874678
1.42446741174
0.60769952092
0.861814034863
0.00850559021163
0.121826441241
0.495385760521
0.940206759991
0.262558499206
0.439017577759
0.935675043316
0.376752681774
0.316214513966
0.478482691584
0.166384726838
0.275178151448
0.2984181988
1.59424687276
0.0
0.033395647811
0.143558233589
0.231317508604
0.145895043463
0.21009183248
0.246766126993
0.282184314061
0.188765538985
0.237673051908
0.317566972798
0.133405993208
0.300703874641
0.411158016655
0.489947131302
0.463769650904
0.630574211842
0.422169262737
0.963511542817
0.509513155601
0.464152265252
0.856560161833
0.525930705916
0.465065468152
0.528872106696
0.204463829025
0.130743288468
0.272791306727
0.985884790857
0.106429667261
0.119301248231
0.0361953974494
0.147830084226
0.177906198572
0.315515750351
0.206787440966
0.176622079788
0.201559158362
0.135715719887
0.243515024719
0.249394205458
0.0930890234008
0.138958460406
0.190044980719
0.136143540504
0.426288287863
0.219242102598
0.251339906403
0.132944871057
0.116345152999
0.259360850263
0.111139289599
0.025822699302
0.17121421051
0.383322765263
0.51364240349
0.591887848998
0.723975418566
0.664751027251
0.421988896069
0.958015496154
0.708296164709
0.991746544164
1.19132286536
1.64234203476
1.84191960847
1.8839042497
2.05418796227
1.42108534094
2.15473305783
0.727563272154
1.99613637724
0.0788126029645
0.442841402794
1.19510745
0.0223645938066
0.119000866356
0.3100312525
0.238589449051
0.292968234693
0.235970048469
0.387386410151
0.270001533914
0.330224570775
0.385998769367
0.366328229457
0.502411652038
0.532353686013
0.492120383699
1.1598191426
0.475145987648
1.24775208384
0.473250959944
0.638696044215
0.727832774507
0.693582266155
0.895042450925
0.397025942438
0.522269579713
0.440552313492
0.498558562146
0.459484742009
0.274162747427
0.264787206549
0.263379995416
0.275604153079
0.253745249364
0.269221060814
0.299727634062
0.240962807336
0.213637942118
0.234273681683
0.341251593661
0.244990667335
0.364570243793
0.244277411211
0.367487205088
0.249374590648
0.256336323578
0.278788003043
0.321846100078
0.312882837372
0.341090361329
0.307561368533
0.263220948198
0.261749235993
0.251193655205
0.228883360685
0.240764121046
0.22847445945
0.277814352702
0.26182746304
0.342541242269
0.314045442157
0.271467586375
0.241184374269
0.419767598894
0.394139208326
0.365922509926
0.339188108344
0.363890129136
0.39161033498
0.401323689937
0.437310152237
0.485436439461
0.538505967695
0.765014144128
0.522028936457
0.849593896085
0.548410219397
1.05535724016
0.801981841715
1.08348515664
0.875386594915
1.1547579436
1.22837808521
1.11596447051
1.30159986941
1.34433897688
1.36645683696
1.42622375046
1.27600518721
1.47926826871
1.19847184668
1.70568171801
0.526020021788
2.32588408542
0.765815198113
2.00294520969
1.4840053311
1.32154585657
1.3347484395
2.06615494902
2.2111673469
1.26947079851
1.73046891827
0.473377391571
2.37962797756
0.604955162097
2.50903358754
0.538366573839
2.31690805877
1.40233806878
1.69006664548
0.468231987391
2.13281835903
0.782760556679
1.40275461746
0.474164059325
1.35688141868
0.410631830341
0.718608871776
0.525592400546
0.647282429258
0.782419099614
0.366363500288
0.455099229085
0.720040373325
0.0893007290844
0.209015243869
0.424223232304
0.0602565480399
0.172536940218
0.204744421744
0.327735428085
0.213294278574
0.2321059372
0.274558100604
0.228120588076
0.322024958418
0.586046630785
2.71788460638
0.15104733406
1.0271757776
2.29325160818
0.905288520359
2.39620409376
1.54898958984
1.21420280844
1.87133599528
1.37655342636
1.1086038086
0.600765397483
2.45294591979
0.036386893519
0.239946219873
0.459155278051
0.548592657312
1.09745020386
0.657981327585
0.975042699945
0.63904769665
1.045174001
0.584043064965
0.808604452646
0.0425957507003
0.0584664316
0.0509495355284
0.303841614192
0.498388777739
0.141097173521
0.44496661773
0.0629639087918
0.287659823005
0.349045434517
0.294066794074
0.367697139518
0.297537454395
0.207649843606
0.257982150957
0.30881993116
0.525809919346
0.445027164282
0.361223475441
0.330914931291
0.167486642196
0.167004629165
0.232430459785
0.128133480614
0.18578191642
0.360809915051
0.127605903579
0.104126280056
0.0760131468529
0.191990391264
0.0286478004948
0.162828463281
0.216957507942
0.0579208845482
0.307832582489
0.326755737255
0.463254837235
0.209758586755
0.0323067777782
0.180937203022
0.264563053062
0.212425283128
0.189100594054
0.155426786422
0.0984282793829
0.203202910241
0.171958839695
0.147670859754
0.242471514818
0.315561228566
0.866466457217
0.25465665472
0.477655786057
0.997306707829
2.13414520575
1.33603945099
0.495729137464
1.32515699564
0.528972934443
1.61152859915
0.430403201514
0.94208696853
0.604450145298
0.914959659199
0.352514663247
0.369935272444
0.391195449616
0.422383757627
0.172508390116
0.0317262979039
0.0152642084862
0.0292592348812
0.038559968642
0.210348185124
0.272295639989
0.353043887094
0.1478554679
0.00941422171955
0.058972800455
0.279422285771
0.538208170865
0.527405138299
0.43705940845
0.468450123976
0.475536174444
0.29107308292
0.446230194383
0.297025446507
0.344330649057
0.240561537984
0.367699939127
0.0615755640149
0.196133883762
0.329505457221
0.393214999369
0.365440409078
0.104188697765
0.271527966833
0.12533371821
0.222848848044
0.454738077721
0.0853873642685
0.22833189831
0.120639741838
0.125610023027
0.204672822939
0.179671904824
0.106659171362
0.383811667549
0.269470641935
0.440883427444
0.307348963755
0.199562246592
0.290005328606
0.329859491789
0.118339427139
0.288051867403
0.337877515296
0.0901268088441
0.474777552007
0.436822989171
0.419989337622
0.264049187309
0.0314479782393
0.0668111779236
0.0279830891958
0.129703433121
0.0644134709356
0.105221155596
0.278353569481
0.280325522903
0.172033830878
0.0616984347868
0.0376851532346
0.0470834959273
0.238192695983
0.365566958195
0.369197713806
0.50317899494
0.207123720149
0.370797647832
0.749457528922
0.736571331166
0.994304728734
1.38495305821
1.60932828917
2.05914269976
1.77990471061
2.15760531863
2.03207543621
1.97949852312
1.86644874012
0.487746600701
2.290083644
0.011480541836
0.0988931460487
0.321123095503
0.0144925431795
0.0596059548895
0.048783217172
0.227323060378
0.154282355214
0.368177845348
0.410781112562
0.168385920744
0.00686553334134
0.0399378360248
0.134921235956
0.0900025782088
0.0724440383287
0.155616492769
0.0611763335496
0.142684906933
0.0966550245905
0.348508955171
0.289295655797
0.283713864613
0.0792518154052
0.0639144396146
0.129403655728
0.213918103484
0.294127340374
0.0881015177692
0.139475280212
0.0984199953537
0.18344136288
0.337714754206
0.349673268185
0.415359012903
0.429265324908
0.220630080247
0.222906761797
0.303600583489
0.200405371632
0.213485784768
0.273871854151
0.283547404807
0.442436454591
0.426511387699
0.455503835523
0.502006587206
0.340414004623
0.418130623202
0.878106108853
0.467683674641
0.541252659401
0.744695524411
0.466179432189
0.728041674208
0.357486658739
0.490992176399
0.378451551593
0.52622182073
2.3643766191
0.0895746098327
0.0790672818088
0.0821299191199
0.0134994552006
0.0702911712693
0.0772983082418
0.0858688896939
0.0975263170498
0.069142543052
0.0221935455376
0.130534948558
0.196130157942
0.210036456839
0.365531736943
0.0125154392047
0.0266419174774
0.0325317549588
0.0590454895254
0.08597415284
0.149928892454
0.176194401534
0.159568727207
0.11755317281
0.0951200424479
0.0847137785877
0.075844414229
0.0455333439955
0.106571951229
0.0885788446192
0.0871860510703
0.0877773253897
0.0445525249034
0.176696280853
0.452417835206
0.488068523811
0.0106730255151
0.0548419338805
0.102569950754
0.125948534647
0.134837167168
0.107532479405
0.156855310827
0.121488634586
0.0951561864692
0.145729066886
0.119923109019
0.112257319914
0.0981782924178
0.24091326553
0.219660960083
0.237006217993
0.146673015023
0.0674636465381
0.101441767096
0.0980207063
0.104064619596
0.0800581651691
0.223518634953
0.136168832003
0.318732910915
0.0877526615247
0.0437955176032
0.166206526026
0.251062200369
0.310705644211
0.197772277112
0.143618611907
0.240799678172
0.431054190839
0.444233598394
0.487629919413
0.523840668697
1.09128851351
0.713790084998
1.29735770273
2.0694068276
0.440772007558
0.428834200423
0.199450674025
0.62978926175
2.35139450148
1.26323532944
1.62805151848
0.874603551436
1.09829730349
1.05434670764
0.685287527482
0.462915282702
0.440988148078
0.207649298168
0.166033434414
0.19341838415
0.186879025746
0.215174057558
0.129007431847
0.623189160754
1.19667306044
0.545598676406
1.07175501281
1.17375276511
0.513829945551
0.3679750717
0.518955485846
0.287691846586
0.928896466271
0.095283054277
0.266846787982
0.268215277249
0.153685045763
0.00640187855708
0.046111435211
0.0155456130875
0.0681207291041
0.162514391551
0.0239077957552
0.115411738995
0.268017374055
0.249750195038
0.220216229624
0.261543298867
0.241481205362
0.436992328045
0.876204407519
0.359588897093
0.366920739188
0.574859344538
0.323763139673
0.260413681912
0.370252827035
0.364885527242
0.404260037959
0.328759513838
0.125535246234
0.377410016235
0.180945225987
0.248598421688
0.139357566711
0.0328771582326
0.0981901961406
0.165385125649
0.0766349289722
0.228866384266
0.273096485178
0.162934286618
0.240782156486
0.270124460444
0.168052057607
0.214560695272
0.193355464196
0.235843700663
0.217590295363
0.149275481374
0.203634019126
0.232193129053
0.0559450836791
0.0590877676757
0.240668202488
0.0757791976786
0.0863029597668
0.206971992606
0.156471016734
0.0787516852138
0.0644880060281
0.0913222884478
0.112938969736
0.133475974184
0.081394682
0.132558138722
0.131437427038
0.093885818675
0.10422925033
0.202433418078
0.145187534674
0.133065250595
0.227143117158
0.431562285253
0.299701612581
0.0142489258607
0.106271566046
0.315550125096
0.305729791293
0.622481197247
0.329730292252
0.501264828853
1.21560522044
0.789346980289
1.45556233723
1.00415108662
1.159330183
0.982321124963
0.972129301602
1.04206585129
0.747603592523
1.15725457218
0.650039110694
1.02106988065
0.194891786728
0.3283315452
0.109210266261
0.110329123774
0.171784012201
0.129290915437
0.162751657783
0.198672572715
0.145368715044
0.154207622898
0.245209761105
0.268307447373
0.225411878826
0.237122507621
0.207501196211
0.237586085781
0.243588767379
0.231098570088
0.229388390631
0.241849740437
0.249641584964
0.279556059845
0.279944551626
0.30007649434
0.281700298915
0.283235311863
0.312421614583
0.314777886723
0.358310107802
0.34987973491
0.346183290747
0.338318641653
0.326854057631
0.366278583243
0.378338079665
0.369728110767
0.405662866217
0.400887736376
0.427158612874
0.457563952157
0.448989673898
0.492291677455
0.492291937681
0.511509985633
0.532663907047
0.675413672665
0.508952425574
0.689253423267
0.547873424547
0.796212086439
0.499140486166
0.848990585705
0.51900444521
0.876284700941
0.583748404386
0.955428508288
logs/alpha_1.9/PGSD_700steps_1.log 462.550019771 0.462550019771 0.2886737616 2.71788460638 0.0 -1
