Policy Parameters:	-5.26099703765 4.79134573201
Control Steps:		1000
Start Time:		1438526782.3252306

-- TESTING STOPPED --

Stop Time:		1438526968.7606325
Duration:		186.4354019165039
Cost Matrix:
0.318168640001
2.41521131416
0.216622225516
1.75758445196
0.0281507098832
0.169538242039
0.464648681114
0.0462213582604
0.22129313288
0.190154895759
0.0227020728925
0.0612802813102
0.0439108382609
0.185109568408
0.510649411066
0.402769888646
0.331925618975
0.30992184048
0.261353341864
0.507146527002
0.327676288939
0.420906286794
0.348246187936
0.432070704931
0.477674372161
1.19824302227
0.481314931275
1.51031717869
1.36828837
1.49369983259
1.28943935915
1.11481776347
1.00815725516
0.810403621955
1.34616203979
0.541869729718
0.58794130819
0.3654840869
0.0044498417795
0.0386757397844
0.209772304345
0.419143795596
0.0377501710324
0.146627330555
0.24950089345
0.189520244367
0.491598587816
0.0918644037407
0.0814380491778
0.22387890382
0.352525457659
0.38484914401
0.215461507997
0.302900387885
0.350068337025
0.31507981562
0.141442581146
0.477362034741
0.254485743334
0.160931915893
0.129606843884
0.0765590638475
0.13587061958
0.309950135957
0.444215857727
0.357204104184
0.327344628814
0.179563260643
0.215221586445
0.23185059449
0.469608210273
0.160397837503
0.226591738821
0.339503599667
0.360024476102
0.513337939912
0.845465686328
1.5952861501
1.9411230314
1.98182804987
0.841615575492
2.85343642696
0.559656251495
3.14185946454
0.15073370793
0.985960964283
1.81443842219
0.31090595236
1.09745670921
0.134178532338
0.304033515631
1.32725350372
0.52622084654
1.33733926908
0.451724605908
1.32620878743
0.502682179
0.441979295362
1.39201250605
0.250952960124
0.524179248034
0.391751567463
0.194811946613
0.19658868136
0.0299995880946
0.0461035364587
0.0311031579106
0.117926185237
0.171521600216
0.0670874366691
0.249022478167
0.115437482008
0.0118082040537
0.0572976245822
0.0238785498185
0.0695783392406
0.0340985664671
0.199211851444
0.166943624625
0.212124519455
0.274503256231
0.112463544905
0.343339524475
0.242468035716
0.274671021945
0.105173497645
0.160748246732
0.253964504727
0.347013918465
0.762162465239
0.420581771701
0.633187018718
1.02694601104
0.743511939032
1.6356759928
1.80777801284
2.37388958586
2.07219889013
1.385967561
2.6289234497
1.78744587513
2.16029645982
1.4499365451
1.33841863206
1.12884348462
0.305115507886
0.504742052401
0.368031272705
0.314402778034
0.382319229586
1.30044937608
0.300394232662
0.722228619298
0.439276343156
0.428643406993
0.526753945982
0.332572947852
0.84150148434
0.33612345165
0.491726045632
0.607202817245
0.309958620184
0.304964795966
0.466062007682
0.205434469395
0.123494001556
0.600416100985
1.98132584531
1.06251900793
1.60555336587
0.988724007783
1.33010511146
1.16976083405
1.0509190529
1.1866426214
0.341491138961
0.708658496544
0.371448592596
0.315667275194
0.019037630577
0.0489561984946
0.121740014068
0.255128792192
0.18498778663
0.285546662667
0.167205780516
0.172213675846
0.287177131474
0.00608306429225
0.0482019907074
0.16791263676
0.224789282553
0.219815482295
0.23380721833
0.26002018784
0.187633212279
0.226778055184
0.303324699228
0.41644326963
0.388287759639
0.433718364126
0.490745973532
0.474422286036
0.661848566375
0.260385103712
0.243484801344
0.234825206288
0.184457243697
0.1899281319
0.447264816827
0.42854366264
0.591581787073
0.185324252003
0.36683190947
0.49135010169
0.167451058416
0.157475468678
0.00146631919247
0.0635578929059
0.303455511459
0.0186578632487
0.0773320741378
0.111434180005
0.187600379122
0.382557064666
0.211226554816
0.191919318085
0.196636035868
0.122403540354
0.0687587243717
0.304296257899
0.259221750021
0.188313597136
0.111023300213
0.172817646364
0.306982485571
0.0778947328352
0.317445334665
0.241376112315
0.247766078615
0.518864949076
0.572177585455
0.473749924484
1.48307777913
0.779970570424
1.67008914889
1.08503160171
1.3924436848
1.21217205207
1.28928035863
0.929216668937
1.0608088892
0.537498497699
0.992340073352
0.237782292342
0.471363524147
0.453199352504
0.318007367159
0.196515381951
0.411103570862
0.274975968948
0.094062071652
0.277619580465
0.368968821309
0.0119560392978
0.0875266834134
0.020883311835
0.0679128987317
0.186783485813
0.395508669186
0.268460483947
0.794133091714
0.0355584410421
0.133248565787
0.0944282036936
0.318350450068
0.0894791467184
0.117318302777
0.379626615786
0.19302748765
0.223846401264
0.224827682538
0.249468439329
0.0755145134978
0.0645520961866
0.355117358619
0.336322373737
0.495122335091
0.433366826972
0.815872674192
0.888306850568
1.22857189568
1.23755940363
1.64269475932
1.31891046142
1.80376726144
0.224642820175
1.05454683867
1.79320933779
0.477905870415
1.63790429929
0.335416813077
0.222478833693
0.447469802661
0.293985164422
0.150878963379
0.396847197069
0.41352713276
0.37812250983
0.575859868303
0.49489006602
0.745674184984
0.423654284568
1.00863812662
1.16114953432
0.591925274782
1.14509245452
0.33525030051
0.47609163929
0.523061255545
1.36146465124
2.43016729437
0.969750264554
1.03462241566
0.410787912631
0.745303986886
0.486222829939
0.595352089971
1.92309616222
0.000675762578231
0.0100689657171
0.061865524401
0.240568382467
0.192236497466
0.303862353481
0.339739361302
0.380338242822
0.368505008875
0.402436385378
0.403032140951
0.423198993151
0.397722477274
0.54024927207
0.551737642208
0.987825565302
0.687433186533
0.813173119046
0.988141773093
0.534655300201
0.957810328563
0.462002126465
1.0836524925
0.416799774319
0.304501472189
0.366418601485
0.468142486894
0.315944667542
0.334347647326
0.264476091452
0.242785088057
0.23742803772
0.298315837332
0.315117771028
0.301115940111
0.246280744428
0.25410956401
0.262003091615
0.250948205571
0.325220069712
0.299470349416
0.273404329776
0.290796947462
0.316913804101
0.305740843358
0.306479272619
0.317686011884
0.338833987595
0.342447608489
0.34576006488
0.324224704097
0.294319027362
0.310067398928
0.292764628419
0.331100691225
0.349098277364
0.333905089367
0.330803236568
0.310557083813
0.319410847785
0.350337428742
0.358355403658
0.394019965164
0.354475242038
0.37340152888
0.276990097409
0.354972729162
0.365337908974
0.35651055951
0.362727633723
0.354600902429
0.324676291412
0.329542931531
0.337721144593
0.3470878155
0.301689826603
0.293796046101
0.31821653743
0.346325702916
0.361452606879
0.392601816117
0.369002264176
0.303036842066
0.111835705183
0.12668446841
0.258135303735
0.306927788424
0.31718404297
0.342571944113
0.328411040307
0.324018372264
0.291709688591
0.305506342951
0.271674498133
0.289109646821
0.245268791801
0.227852726684
0.304610788103
0.368913658522
0.222915101999
0.23866815956
0.122690052679
0.360141156875
2.33591647978
2.24536469655
1.83449156597
2.23558526335
2.26280593382
2.09128692479
0.836201203134
3.77117426139
0.0870103827175
0.436695067896
0.746556281396
0.673079377077
0.677669355299
0.765613388844
0.665207627204
0.817758235859
0.704092098607
0.859560343838
0.54947972312
0.968759768044
0.531185321196
1.06872977124
0.552658398386
1.10305140354
0.514637830937
1.07936842594
0.643123779756
0.914195441903
0.556109802749
1.12286716345
0.632535226139
0.982085838446
0.690703581476
0.820912647366
0.760540251023
0.789178936386
0.752903599997
0.679989148261
0.792519552731
0.697983673591
0.682578865036
0.634966039015
0.684980680892
0.619500275696
0.686938777172
0.518681967931
0.693536496857
0.511869578953
0.657632913928
0.486057491646
0.490236473174
0.545647096229
0.583262194506
0.457252728393
0.414302058155
0.433750170353
0.3999710154
0.408691409447
0.400454134161
0.389668010013
0.419555910916
0.300133270658
0.307000055402
0.300528365047
0.27085817025
0.272379069415
0.313435194594
0.325273431774
0.291740761663
0.310661525122
0.324734292333
0.229698819725
0.303977561257
0.243406870485
0.233735164481
0.196427929799
0.290832690796
0.328708913745
0.28085953518
0.252837787807
0.287508854013
0.287876033096
0.271333179273
0.289972803937
0.28012084619
0.326501642067
0.291282625416
0.338729388699
0.327323530902
0.301986104678
0.365748634073
0.366871625711
0.348188779875
0.374671012303
0.365352606069
0.394610654299
0.412275122701
0.430269140312
0.446700952614
0.458180299935
0.420613129791
0.441634975853
0.435694491287
0.496502765183
0.494913620591
0.460311546014
0.492266375775
0.521808494649
0.532505911956
0.508884325234
0.533408905831
0.697135923382
0.508445819552
0.797776586873
0.533882113152
1.60621677208
0.406191935291
1.1327443066
1.49686721398
1.10035333716
1.31648545375
1.93774810985
2.32685755089
2.13231955824
2.12683127553
1.97751519306
1.47244742455
1.87012207157
0.84147514662
1.66344353127
0.242317589035
0.195795719671
0.13808352449
0.053681532333
0.081779743823
0.0495552508116
0.277506636939
0.781608991243
0.305458493703
0.27673058138
0.510220471717
0.430585214992
0.446044469832
0.374215997722
0.264953797399
0.947390520147
0.167948218069
0.35589343103
0.19556859448
0.167353160614
0.270122462217
0.0911256306242
0.0768078340186
0.0548769050695
0.0592199056841
0.204408536923
0.333012511012
0.327695895656
0.36261723641
0.377471595875
0.358906287884
0.349219862664
0.319347397344
0.331261035827
0.275232834936
0.20827458452
0.36753116666
0.395475646656
0.453295070836
0.399954882273
0.402710591358
0.395344197711
0.349928406319
0.400919945413
0.401653950012
0.431987320548
0.42766154694
0.501208786054
0.536153980168
1.14374842683
0.718269458456
1.39530370093
2.51739712897
0.613082329537
2.32496483795
1.29213603283
1.73353930202
1.08418813657
1.21376012688
0.63257994238
0.800282998324
0.699132001366
0.175702280116
0.171883732027
0.365311544334
0.324030274522
0.0572414427003
0.0847577690572
0.134449068842
0.290528854653
0.45631411057
0.260743064611
0.265621008277
0.41757860391
0.446469733329
1.06441116628
0.49741534809
0.549070575033
1.1322857254
0.466897616508
0.631979240554
0.7173808319
0.482536925322
0.460179729227
0.636995676831
1.00141980883
0.311587581702
0.537860603363
0.39787312024
0.283317949214
0.0878086631052
0.2750874518
0.627341793671
0.135357371245
0.324239340915
0.312399155139
0.234910471319
0.229397460598
0.00889173723268
0.0663974429094
0.294463335852
0.430341774652
0.669088314629
2.22378946872
2.24630650019
1.09077935607
1.89789160527
1.51916217191
1.70526656634
1.28235997665
1.46907932095
1.04151667377
1.00507313913
0.720301697063
0.185745967104
0.098885759059
0.122239489086
0.214327722097
0.321881486928
0.228760011095
0.00453986280902
0.0861762187777
0.342934773029
0.719574965906
0.324775114832
0.648781942845
2.0890821475
0.114797051615
1.22861573317
0.463030160115
1.08055703724
0.36516434916
1.46660721103
0.309220884876
0.560336251903
0.794523191119
0.355276061204
0.980502810288
0.391911271363
0.182851228842
0.469158806579
0.354196321754
0.407591297735
0.330931007835
0.0277404874027
0.148165964276
0.251478905274
0.274314994215
0.2901187231
0.440935201468
0.459882643812
0.938909120153
0.456042523166
1.13751280791
0.597230181549
0.964704189659
0.552513721005
1.09362303025
0.485097149927
1.0756009517
0.211674598373
0.436720320153
0.427869502946
0.269705500648
0.303803531724
0.497266242684
0.302776745642
0.311109104207
0.205622574085
0.502907675642
0.462801094759
0.358799812916
0.412541661143
0.430988307738
0.29189355158
0.456453974753
0.291839561992
0.395967993922
0.273305664268
0.213082405561
0.445919184185
0.12850671854
0.310033539962
0.147385613571
0.0102638664949
0.0674185535024
0.0920692352586
0.235028203749
0.182513843053
0.267360734591
0.34057738384
0.246507713788
0.159257880041
0.253140790205
0.505073416694
0.460900826929
0.949156134593
1.10952630398
1.43272378351
1.60968741577
2.38620753763
1.52519805391
2.05647168251
1.75380999354
2.42373240427
1.09766936982
2.17635703646
0.555392433827
1.08922727843
0.264041097937
0.199758107255
0.23240915137
0.116524860756
0.143869792635
0.0298011196344
0.153796053211
0.42735929535
0.376893440052
0.483427858621
0.530729040036
0.485823640042
0.224350294964
0.381216041175
0.309157308417
0.452479509516
0.149340567029
0.436412514254
0.215126556343
0.235491454619
0.128131545381
0.256508243866
0.0436738510591
0.2297372961
0.400167825243
0.380617257688
0.340913158584
0.327770845803
0.530092173222
0.495210750927
0.42594171237
0.485421000986
0.723779829285
0.708966657552
0.550479357732
0.375322785075
0.509864984048
0.523775662042
0.368119957576
0.494418982549
0.341294515773
0.490961941577
0.405228265649
0.443946264223
0.13492523197
0.0481514111189
0.197290546249
0.304710317977
0.0802536455221
0.0206570239912
0.121092987734
0.132440100698
0.064454136569
0.133680021588
0.184652044751
0.194356010447
0.33519209477
0.199655266311
0.00975656730369
0.04191856998
0.0886288236819
0.13804924364
0.0469501705992
0.2019323774
0.355212758416
0.207999477998
0.239566145118
0.152243560755
0.341371837515
0.318840382378
0.329059483447
0.235766414232
0.394587065887
0.928051008139
0.598159491361
0.991164732053
0.453757126307
0.911385440315
0.548532707217
0.959762756519
0.406486207445
0.443050727053
0.519714232173
0.691899385426
0.386511798411
0.507601009511
0.224686944403
0.126278549324
0.437012223308
0.0517111357051
0.140466688432
0.134454691597
0.0432572719195
0.21169164416
0.137013612078
0.216142017704
0.271069448951
0.133944230272
0.0450983204882
0.135374039986
0.194632710933
0.134687309472
0.252020515374
0.121871258865
0.30335062135
0.339698096788
0.44516086445
0.336207686305
0.389436155457
0.420185126989
0.42756740388
0.485957882554
0.546105676549
0.87105114069
0.627385701325
1.17493692866
0.542184344317
1.35491513133
0.4968817864
1.07499732275
0.717662167116
1.00516817958
0.382340280081
0.841975808801
0.542869226592
0.531107365724
0.657678701195
0.0670063348361
0.372892828569
0.774668440936
0.410835253275
0.28239589845
0.026535408542
0.168541253633
0.212595293097
0.172763021426
0.221027716369
0.194132805942
0.0507783995892
0.222313426407
0.214459811268
0.213437295583
0.0530584531939
0.177638335193
0.0407390624069
0.039446896594
0.188689432205
0.331134280856
0.16083139811
0.353850753832
0.181832087186
0.459651818183
0.514605881679
0.654748154838
0.425487246114
0.498464902398
0.877061257056
0.751511714592
0.462484067797
0.486249192135
0.231289291381
0.202081716243
0.429983076271
0.18105730666
0.263142683432
0.112520819413
0.212791684969
0.0673473443268
0.0734758808458
0.226845269849
0.129411429275
0.256123779034
0.250483037862
0.251710375351
0.323128488994
0.387712951626
0.670575207141
0.437804531829
0.601449752045
0.665629071709
0.429229978306
0.456609655623
0.737922470128
0.434410078688
0.535082750622
0.563851491939
0.255996419444
0.472267496994
0.323474916402
0.282410283781
0.391259124704
0.0276096862104
0.168878782248
0.0739063291213
0.325877870229
0.0280064121167
0.164807298052
0.410248359267
0.115056167133
0.0793558828688
0.0786613774223
0.122711395576
0.0610821973728
0.11855908178
0.248078344762
0.165294783445
0.290600019185
0.0978458126921
0.38886485408
0.00777476061249
0.0410725311315
0.0712166418319
0.24945508222
0.0799030802525
0.293266435197
0.512028622326
0.325973640977
0.0608565777822
0.220962492175
0.0154259842352
0.0520992806403
0.019274106866
0.0834512707777
0.213163542744
0.122516357174
0.0793883560768
0.0685118775649
0.124575760603
0.107837387865
logs/alpha_1.9/PGSD_500steps_3.log 507.042554834 0.507042554834 0.354538072233 3.77117426139 0.000675762578231 -1
