Policy Parameters:	-6.83367868297 4.09736551386
Control Steps:		1000
Start Time:		1438525857.8353164

-- TESTING STOPPED --

Stop Time:		1438526043.4658563
Duration:		185.630539894104
Cost Matrix:
0.0728988239245
0.216130159986
0.643170968987
2.23278434418
0.239575260408
0.856254321864
0.546263800391
1.17198831289
0.35727607976
1.0439952512
0.803591687953
0.594869666909
0.690549247283
0.294408453237
0.336085188117
0.353911620537
0.344713639791
0.251556878976
0.397481418977
0.190326086438
0.249091559124
0.21138764422
0.144871617202
0.0692792697156
0.0941705536081
0.125035806868
0.223026094336
0.285436674179
0.277524493115
0.224038589936
0.23916280122
0.268260217142
0.139274357327
0.189807539586
0.354646972103
0.456643581987
0.458079952908
0.504984335481
0.573739637922
1.64136605522
0.157767343936
0.455171557022
0.098016936777
0.373223484841
0.374161503052
0.813559328627
0.275842029412
0.256604254748
0.415612548759
0.343913002643
0.177672288199
0.0757055297335
0.22030408907
0.064255356158
0.510515693947
0.303619373381
0.521901655333
0.48612728124
0.626825228966
1.36851174614
0.770991185985
0.701111191407
1.12907702468
1.28020179003
1.76678514875
1.15118233288
1.81702633882
0.902356120761
1.90785538021
0.49246572291
1.85703871454
0.299706425194
0.896105342197
0.647983819508
0.23655403279
0.384545946373
1.57002378963
0.473413791968
0.989520925528
0.274221466649
0.399480023558
0.0557895570502
0.185279207963
0.479642202507
0.473337714302
0.0144483645471
0.12270097139
0.229487256459
0.0682709629184
0.360116512868
0.187282439884
0.525955221827
0.215953027422
0.0200281925441
0.0131723180127
0.0488790579253
0.280989317511
0.488916049414
0.390203679975
0.0470491616962
0.145078972453
0.162304204159
0.414334047492
0.0881965162171
0.241108016598
0.478327402526
0.88251623226
0.907366234898
0.357116090402
1.17504886588
0.480282139582
1.04718925467
0.372432678055
0.751555172425
0.292522572026
0.370868341904
1.15725439993
0.101119000008
0.242971287894
0.0915083439992
0.158206320234
0.0156030917093
0.118718640836
0.0165622777212
0.0806761343021
0.125284440504
0.144145012553
0.0180154305091
0.07904685109
0.180175722005
0.346332934557
0.225878767744
0.3196633557
0.50691265953
0.271074806045
0.734856653748
0.214982281815
0.426094377434
0.0560462586344
0.209247645318
0.112008481084
0.498937461429
0.776753758956
0.525463632652
0.699593960812
1.09724964686
0.27948096755
1.26328873347
0.615708835046
1.65611508226
1.56722663835
1.52331250521
1.24362125393
1.77963340773
1.52147998953
1.19892140011
1.37343328155
0.160806975234
0.572983012454
0.00803550861666
0.15673355841
0.21089162688
0.2162091418
0.0556678458269
0.309795470382
0.132625612095
0.0830897909337
0.228486064357
0.291644819807
0.00732034521707
0.0266273903411
0.0972495221886
0.116407292082
0.189237307636
0.117774866486
0.290553690939
0.057050257339
0.0185853420542
0.0364127236176
0.128701869348
0.236214445047
0.0479796639858
0.192972761151
0.363292998789
0.467074084063
1.12830681938
0.248334415684
0.46743197838
0.398537620978
0.284795275536
0.313794330707
0.375740940011
0.166040184063
0.360699836713
0.27982744527
0.240419587901
0.419436776295
0.188227947111
0.204761715757
0.501432259376
0.219479469265
0.222698141141
0.17901874143
0.278985044825
0.527249263207
0.449238637009
0.642922081027
0.477169131061
1.29473512907
1.25185307674
1.73946142036
1.07356386407
1.70720662785
0.758652065176
1.60767714135
0.478954789971
1.40289639537
0.864839431929
3.28404942208
0.0103135094297
0.138753795538
0.244759150053
0.389985178789
0.195752582125
0.294971306515
0.366508760975
0.365634362637
0.0937719520464
0.243723654184
0.288998760892
0.394427712772
0.0859797869639
0.0908024587584
0.193903511875
0.42939201896
1.22330876092
0.102764270368
0.277428944063
0.322252844038
0.617595925883
0.266995658991
0.100340763267
0.117711105594
0.461525786847
0.399566424775
0.562818600045
1.01526294071
0.908388204896
0.880301146323
0.945031221624
0.791990309734
0.960769208168
0.240356270285
0.960000606683
1.03236637098
0.455033627798
1.16215274856
0.428083476059
0.244860768194
0.461407220047
0.395000565273
0.0137046368534
0.185272052357
0.493360847207
0.825218103553
0.388618307126
0.086363342809
0.377911174619
0.126982011835
0.242480844854
0.16277390297
1.03755819817
0.0128198709721
0.120082746449
0.213811742334
1.00904838232
0.145921733274
0.345878411439
0.479440279478
0.241811504973
0.0398640610444
0.150450320706
0.149838291001
0.167321442057
0.137703627572
0.237150104565
0.186372345606
0.0333759441687
0.322788657814
0.0639234048132
0.482518649706
1.2493197619
0.0234964758487
0.227969299009
0.280200721457
0.436544216163
0.214345855907
0.506771837109
0.179073814676
1.06768398986
0.154786637019
0.782044797939
0.608679147194
1.20732470917
1.45832903537
1.67581680399
1.63222227024
1.77848979958
1.12120049688
1.41126270767
1.26019821847
1.28663136188
0.569872673885
0.823880603343
0.243954948999
0.394977204641
0.357100481209
0.429649515755
0.504781227587
0.909618137686
0.592616655045
1.08130637047
0.735490560239
0.734952882476
0.643842424396
1.25556976194
0.530950994649
1.36748001998
0.192714243162
0.680952057303
0.482763322843
0.33250841163
0.156508390546
0.177833417588
0.664835537512
1.27492027858
1.09724248616
1.22464906157
1.18096386637
1.2501526171
1.25748866919
0.933515155841
1.23704877253
0.514060970278
0.976691941091
0.402089635621
0.432464584377
0.331888744397
0.365524274386
0.376831261587
0.369107624293
0.323616882218
0.354911568856
0.384977408654
0.337501457007
0.39915239467
0.439870059263
0.380251978276
0.476066075546
0.299344872788
0.468900208377
0.343958591994
0.428491600411
0.342423656815
0.309431128404
0.267110044333
0.397511320228
0.169037544018
0.326412631098
0.27341856768
0.0925741219833
0.089695344068
0.155033249304
0.744995932195
0.48988562936
0.712489811234
0.390590427096
0.752768074639
0.953383574693
0.919865175726
0.88714988396
1.17515604105
1.47499037238
1.4503932232
1.35848270258
1.44841374602
1.25852571558
0.655588612661
1.500033574
0.531392722197
1.68988259061
0.241203653851
0.634933959634
0.148869063541
0.0813114306925
0.133504691588
0.369220398623
0.121633300191
0.230425188814
0.190488891684
0.167758433523
0.184881843967
0.171557340608
0.143814318974
0.277356178183
0.424843280677
0.447879775598
0.334727382203
0.569726686268
0.260273457568
0.274878523821
0.17924351274
0.226125457804
0.212742754466
0.181778594253
0.156383801518
0.174969080011
0.318611995973
0.387942837461
0.301229865172
0.396278295567
0.263507322557
0.298203608362
0.413099767164
0.523597100537
0.5938629648
1.04182104524
0.928409360007
0.981448338539
1.87381992316
2.08126467462
2.09250871967
2.19339292095
1.46462023555
1.95016114122
1.41903945044
1.2452135001
0.665127089291
1.49687868755
0.127249040747
0.406573158927
0.510830975286
0.46157546812
0.519649490846
0.522391448822
0.539520742907
0.47475631442
0.596509297692
0.455151892473
0.6932497083
0.495668061238
0.53118179335
0.541577110887
0.601411526244
0.5027607143
0.573901199053
0.530987223941
0.81825983198
0.570805229223
0.971232811579
1.16372782483
1.21951696939
1.51653143285
2.06525635891
1.817849736
3.47165556341
0.641856043515
3.77360343409
1.42107928215
1.54713031541
1.34571482005
1.43410806958
1.53398155967
0.000743101419962
0.0324570279256
0.140125838658
0.179817549382
0.0386831006821
0.165091499283
0.0447093942884
0.171086016315
0.170968739775
0.288898763623
0.386383791374
0.0708386435292
0.103872263824
0.0280174331215
0.0586121347114
0.171520710044
0.0566696549819
0.127260642589
0.162210850793
0.103584488711
0.179831773553
0.0511609807251
0.163184930155
0.330645447646
0.145001805185
0.149550511534
0.0872495848644
0.146423838284
0.33066338659
0.0639888971293
0.0709695621136
0.0643216965714
0.073446112778
0.248630363764
0.31957565142
0.324175049439
0.186076105787
0.235152836568
0.339468070191
0.322735857856
0.413737211397
0.301161410694
0.300041463397
0.308783288819
0.289773410303
0.350583101962
0.538606389796
0.82956973997
0.313630953324
0.457402253717
0.939151196971
0.485270824819
0.759464304027
0.407371969724
0.808940615455
0.287354725446
0.4278478713
0.374272839865
0.447956828412
0.26405896135
0.439985301825
0.342031145225
0.227442280222
0.101827569168
0.238606187845
0.210159409792
0.292779092566
0.122774525047
0.233847735142
0.13556097536
0.246828193013
0.0540908025158
0.133891521528
0.409435967742
0.351020521664
0.314253901892
0.225520535266
0.317581104836
0.391817096972
0.301993589231
0.195399617066
0.259031425872
0.0837599903691
0.0832497340123
0.778133016357
1.01074221359
0.638079512298
1.3061595727
1.6178697617
3.16503865046
0.16159954437
1.81005533803
1.47389574856
0.428285324711
1.54317130498
0.212534563254
0.971173298391
0.196985687225
0.403056586314
0.362953106178
0.187443936613
0.056239249143
0.0629775252577
0.217066453884
0.0551867957276
0.202600181035
0.346219014735
0.149521056468
0.114872603579
0.0845878662938
0.253147414767
0.255477451949
0.423997543919
0.486147909148
0.526518466238
0.725660538481
0.948886860424
1.00452090257
1.13750882844
1.0434239291
1.0276991572
1.18281208861
1.08298214476
1.0584908865
0.670222509732
0.534715277858
0.81687817764
0.504872734852
0.495608508211
0.202261290602
0.0852351686063
0.0259177449987
0.161783192546
0.174566346401
0.186158927221
0.191437145507
0.236035853577
0.224464956262
0.147735553041
0.199801904801
0.25004761664
0.321367892403
0.147561077684
0.19155127194
0.247911907944
0.249472387196
0.138156844602
0.234483811762
0.111549178254
0.163255745038
0.144275602934
0.0736459279712
0.0489771346808
0.0884318712486
0.234464673772
0.048378451952
0.383203046867
0.0697315594592
0.432653871193
0.015187192093
0.0198377173745
0.0331475617978
0.0230478398099
0.0230117891583
0.132507613199
0.118889228443
0.192522678001
0.0755257418394
0.111464860486
0.379762993853
0.0
0.0504971196484
0.0929943550357
0.0999730796704
0.162518103663
0.270485393068
0.0615674786232
0.0622676915675
0.280083859509
0.0349011993084
0.103192905822
0.0867071928122
0.0981546541816
0.280940144987
0.0193504450543
0.187472865491
0.0434900466865
0.0925879844914
0.0327847350431
0.134066960639
0.0914831437948
0.0254805806286
0.0643042487505
0.234742345998
0.0346355197294
0.122447967923
0.229659241547
0.324340864072
0.283712716881
0.113718342571
0.371301145026
0.176542581698
0.343410566779
0.362524930614
0.362776933915
0.483997473357
0.897952952299
0.96253551314
1.61595806034
1.8441021573
1.94512353831
1.97693163143
2.13395961977
1.57777962434
2.05224105527
0.413158880072
2.10839775624
0.00172077712462
0.152691734651
0.373400426853
0.649427151072
0.533094861856
0.808789756579
0.453790627175
0.827033452634
0.434660663286
0.764062348326
0.481587597008
0.765981789906
0.463138191688
0.692184103848
0.510812867306
0.745632863159
0.523919433343
0.638136904698
0.498436017679
0.647858593432
0.506014643114
0.7079160767
0.407376988265
0.580694787407
0.44738514373
0.506730214439
0.47433197171
0.469250871467
0.397591973131
0.447567377121
0.5032546237
0.445900389632
0.28612300365
0.401143511261
0.347810137225
0.361643491825
0.214171747609
0.350159559201
0.347839722846
0.430936958872
0.24911959965
0.238557828308
0.208783055052
0.285295404767
0.161702959062
0.23913011456
0.595480618795
0.365276813747
0.478733557931
0.403043443606
0.0504799178916
0.271541608255
0.201542568623
0.377102407751
0.0594326817609
0.188857725822
0.352035197051
0.471959101843
0.442027718301
0.576192297267
0.47882956535
0.249555054099
0.365523377634
0.534469136371
0.383796242921
0.205037335181
0.458895532277
0.287241036905
0.260669885026
0.236628578615
0.265123738113
0.131015096261
0.323481577083
0.476080931275
0.15849366094
0.175637139459
0.0793246636326
0.022284587174
0.197841783353
0.409054727546
0.377488113222
0.518854033307
0.436185574988
0.289008062397
0.337291994185
0.301484982812
0.219417527444
0.292185183853
0.238540957322
0.421413245688
0.373262854576
0.179595384475
0.315258151773
0.551638149304
0.0772659252948
0.188219263838
0.350735558451
0.434950342051
0.425258972342
0.0553438118625
0.426524146519
0.50539588122
0.285403473956
0.941341455607
0.475626211172
0.481401197161
0.603545098609
0.560313952298
1.05514183909
3.77117765104
0.0925226380942
0.88616529438
0.766981081768
0.493031586479
1.12638747613
0.127631709263
0.34826472367
0.0717225414142
0.0337190192421
0.160557271806
0.0463576487347
0.100249128387
0.0601634240706
0.152393224352
0.0509814573742
0.0690695643197
0.110989389376
0.160764802038
0.141696810351
0.139725892768
0.175565213044
0.247033010231
0.0920435441212
0.0425662253962
0.0360362937793
0.0844302253187
0.203650546692
0.0811497585048
0.263342966271
0.102753726588
0.139835030101
0.140676828188
0.0510860030336
0.146503858657
0.0543937808257
0.0556526683188
0.0393372002463
0.0476845131282
0.136636928523
0.44026018416
0.81099274758
0.728734184593
0.963445871641
1.22101148386
1.2602697797
1.40755816249
1.52507954797
1.20483992477
1.52474081771
1.31749010776
1.17347356263
0.619091344702
0.993839095703
0.231900903222
0.157308626911
0.310361275049
0.277535428538
0.32162144227
0.797294716807
0.0675570789352
0.0565208816092
0.0547219165405
0.0329339338739
0.0602582917571
0.0529056616313
0.245010557046
0.491382115879
0.523490052374
0.53914439176
0.51062746938
0.487525835857
0.537480201979
0.686567495803
0.415943781844
0.76771403816
0.493126821522
0.865060053409
0.515900644957
0.859544392593
0.499406588125
1.03398369762
0.503491577946
0.983738361413
0.491824876007
1.07527155485
0.516377698901
1.12924811031
0.517242677648
1.19800434775
0.492693223576
1.1314897548
0.517359092245
1.19001497491
0.506039124486
1.18160708159
0.514521646467
1.381875191
0.490834064672
1.44215846082
1.05111832814
1.06704688971
1.42231300241
1.52280815707
2.10824074674
2.24230029449
2.50726659406
1.73288843071
2.59954552769
1.64424038427
1.55311999659
0.454549830858
1.67924191504
0.00898668400504
0.114782610642
0.0147168908473
0.123728488616
0.00375318877354
0.0414780582212
0.10256965833
0.237163443209
0.22266311036
0.154481160915
0.0175932003346
0.175282321176
0.0343122316637
0.0407993903149
0.0858866332534
0.164631516659
0.0883208233475
0.132778691559
0.329607818487
0.177342587151
0.231633011439
0.414189954496
0.270155818501
0.148907117219
0.32664643135
0.03586832312
0.132315610978
0.310891554707
0.361164043058
0.438474002659
0.721083614386
0.826251554987
0.789955423328
1.04796060442
0.77230854718
1.06494735998
0.453084160273
1.21987276922
0.457365467332
1.23220373121
0.390691170228
1.08550015807
0.259822108721
1.10013722275
0.480605185394
0.406278261309
0.274173181573
0.257146135907
0.346519396049
0.393351477392
0.257080219101
0.351050603655
0.294492165819
0.39224369849
0.298228525126
0.348227957772
0.272914602895
0.397955634565
0.281575802766
0.26969300947
0.411184560198
0.108045564557
0.0741967867129
0.474022471362
0.755268909838
0.444872681235
0.752329715574
0.389544798366
0.649692016564
0.478542299546
0.619423205096
0.384753764679
0.482379959852
0.534755384593
0.456371016955
0.413779233899
0.423395214465
0.388561745824
0.383230008838
0.325424868607
0.326836848722
0.340942371822
0.267674552734
0.490016582462
0.309056961197
0.225368289337
0.288828511942
0.351585445958
logs/alpha_1.9/PGSD_500steps_2.log 508.078810424 0.508078810424 0.354779270479 3.77360343409 0.0 -1
