Initial Policy Parameters:	0.0 0.0
Learning Rate:			1.9
Learning Steps:			900
Start Time:			1437193252.041707

-- LEARNING STOPPED --

Stop Time:			1437193376.55926
Duration:			124.51755285263062
Final Policy Parameters:	-1.08130882795 0.764589021786
