Initial Policy Parameters:	0.0 0.0
Learning Rate:			1.9
Learning Steps:			800
Start Time:			1437192548.6709564

-- LEARNING STOPPED --

Stop Time:			1437192663.5592997
Duration:			114.888343334198
Final Policy Parameters:	-4.02688790428 4.72282549813
