Policy Parameters:	-0.875731545461 0.306960670814
Control Steps:		1000
Start Time:		1438516361.442298

-- TESTING STOPPED --

Stop Time:		1438516449.8908846
Duration:		88.4485867023468
Cost Matrix:
0.198181952562
0.297026134544
0.284100932928
0.240304066999
0.269471782631
0.201377332565
0.0482486667339
0.052008518054
0.0416329947925
0.0270668470455
0.0399044126234
0.0706574915443
0.0748350055957
0.0568196034191
0.0942347054304
0.0834323120407
0.0377721010626
0.0536252100371
0.0830089084834
0.0656802735054
0.0413651053184
0.0537861377495
0.0528902418598
0.0499833957251
0.0361210147971
0.0467424113221
0.0480756176407
0.0738102074036
0.0866093845772
0.0613665282451
0.0412814737416
0.0686874742465
0.0718806544039
0.0525761551357
0.0204800662787
0.055493205958
0.0464086332699
0.0273805930566
0.0550995824304
0.0425083387303
0.0716954571255
0.0741890160575
0.0560502044449
0.0335197611644
0.0361722678716
0.0478748084333
0.0100368923552
0.0344701313497
0.057474653486
0.0607915210881
0.0451136686979
0.0755765048532
0.0767917719956
0.0530969602206
0.0410355696065
0.0394328561664
0.0556667411125
0.0492126799006
0.0214775726129
0.0672028369559
0.0780648938137
0.0876733082292
0.0730919190259
0.121493241616
0.129663912384
0.14753840583
0.157294717076
0.166612352173
0.200392531756
0.245223706376
0.275265070379
0.310495815042
0.362280231556
0.403584390333
0.449568037783
0.517379598123
0.609154665459
0.636845620471
0.630364981302
0.666552235059
0.686454367817
0.665870566248
0.755956549184
0.706475207996
0.692767621737
0.725638549984
0.622093640801
0.538313579919
0.532614361854
0.435858500345
0.285831920904
0.239623119189
0.168242669527
0.11851455889
0.11918830166
0.119015340903
0.107549233113
0.101137141785
0.0905189771392
0.0986132249757
0.0895507126483
0.111449451388
0.123098519373
0.100250011455
0.116403197514
0.147439266239
0.112255257026
0.0550803055043
0.0676710052612
0.0901675609307
0.0625303200062
0.0876368987386
0.102869334018
0.0580934026202
0.0875020886146
0.0834112625844
0.0455964641901
0.0511392582237
0.0842367157727
0.0509510605946
0.058245450616
0.0685597869283
0.05716456316
0.0402717867985
0.0383064914301
0.0584669378364
0.0837341257946
0.0853183483583
0.0499604524463
0.030430634019
0.0273743439802
0.0567956776827
0.0569357427955
0.0384429932962
0.194247205112
0.0402716352478
0.0346749227285
0.0724258141842
0.0713548296694
0.0641273083834
0.0302916293682
0.157292869101
0.0340601271571
0.0328640488363
0.053276414172
0.040561640147
0.0303937802168
0.0424575117477
0.0197883555468
0.0548359056051
0.0960502229447
0.01659795565
0.00850329291076
0.0490457276438
0.024697258687
0.0136039788776
0.0209963803012
0.104752564563
0.0406209637275
0.0676715339728
0.0495267486442
0.0698070305702
0.093666383764
0.116049901281
0.117786960294
0.19709583255
0.135528464481
0.148246849317
0.114318623935
0.133234950072
0.130510240703
0.149240409436
0.176170187165
0.172230021362
0.203653993982
0.207218565564
0.199119437349
0.210168771926
0.243055552597
0.237658148518
0.267317621423
0.233815696252
0.230164888799
0.216012505954
0.269225674219
0.248787762557
0.240908139677
0.21078201208
0.139201786171
0.155082216841
0.15972315209
0.158303295649
0.130841986237
0.123918643375
0.08816431827
0.0979557388374
0.100067821051
0.0498177468882
0.0183057765526
0.0158702614288
0.0208386355358
0.0233726976791
0.0630146043046
0.0646121447587
0.0330603731574
0.027707129255
0.0436870681749
0.0491475752449
0.0387618728471
0.0492759404088
0.0123385873644
0.0408411295853
0.0644634770469
0.0600703288119
0.0606614549264
0.0768616737532
0.0712978790937
0.0633829178568
0.0956918182228
0.101954755991
0.102704639648
0.110626771042
0.127151137981
0.141108597413
0.163670419646
0.186395715265
0.228349324152
0.314143622672
0.389246418183
0.454105418912
0.518599128622
0.596820973006
0.672187592397
0.761830358504
0.854681794039
0.794336963008
0.823657999016
0.899831170424
0.791545508649
0.694523264655
0.177691928412
0.199125506398
2.63647746538
3.11919029284
0.17911673664
0.213961084472
0.177158458446
0.172608838726
0.126900141513
0.0429312370931
0.0399758465976
0.00438362260508
0.0641916733691
0.0758486113821
0.0567736956286
0.0544766626281
0.0676759787167
0.0471722978401
0.0308568581697
0.0409852967322
0.0146081564309
0.0268610693282
0.0534804166873
0.041962057672
0.0199626980137
0.0763147707084
0.0871211746702
0.0935745867028
0.11396968503
0.0765935665027
0.0648649797777
0.0922588113489
0.101134049009
0.0927730037241
0.125750154335
0.138979827604
0.143779323497
0.146166650329
0.178395665996
0.220924018825
0.244785082816
0.283273078113
0.28696273876
0.295545008896
0.295023431649
0.289366420327
0.332314276549
0.342259595839
0.346265832324
0.368091354551
0.383957065407
0.382756254151
0.377558947414
0.358193953779
0.380615228418
0.348241000722
0.308088623273
0.257219238501
0.234057237616
0.208983547897
0.194958624268
0.182277315005
0.125000300851
0.0612881014506
0.0206432183168
0.0324940264219
0.0310497809239
0.0526949194814
0.0571510545746
0.0454455027459
0.0509308271747
0.0556062894868
0.0508501663573
0.0550012190895
0.0720285016592
0.0441681586868
0.0281740209111
0.0496141651443
0.0583867508188
0.0359217170913
0.0370840516821
0.0408417939715
0.0524886049217
0.0982411361888
0.0555869716145
0.00456698376591
0.0513180345228
0.0548758310852
0.0183742711968
0.0151352418091
0.0532572330643
0.0666312765161
0.038046898332
0.0349458754835
0.0545650790558
0.0480157784236
0.064760931402
0.000430941564375
0.0426021845777
0.0359829984164
0.0126190822359
0.0263617474682
0.0332913668417
0.00513619428994
0.00903416404839
0.0318939418763
0.00792807644466
0.025425442388
0.0249705898671
0.0398874983975
0.0215940057918
0.0256553101306
0.0265390917232
0.0448089358806
0.0667509777741
0.0674582782309
0.0764864376393
0.0678759876091
0.0754415480376
0.0687012191586
0.0390888262473
0.00515202263404
0.0173682761195
0.0856564918199
0.0721973015461
0.0964924610663
0.123201984201
0.0887954402691
0.0972163076573
0.095215690339
0.122266755715
0.156940585046
0.182623344929
0.241080331827
0.321100465036
0.452563215901
0.602039435404
0.714469761487
0.807190999022
0.878636418403
0.713515631401
0.611628483236
0.782953299774
1.02177828629
1.20083878538
1.10147697705
1.02731553421
1.31428842446
0.759955752886
0.790639073246
0.594554616247
0.176271678319
0.122285009459
0.0380692285766
0.0140968947654
0.018634170354
0.0258569226129
0.01768412074
0.0219164849297
0.010170405889
0.0176107463665
0.0208076299112
0.0450973577391
0.0186506787014
0.0259242683742
0.0289561684306
0.0344235793635
0.00614621051539
0.0300089510791
0.0261126452602
0.0217781312467
0.0258151784345
0.0137925933553
0.0183133473575
0.0621611723962
0.00440134401856
0.0195221751754
0.0519746891381
0.0751827155764
0.0736114191074
0.0583172249755
0.0425802853505
0.0274519757654
0.0284770191555
0.0680231179086
0.0757906361894
0.0666630910715
0.0317179314882
0.0862436542456
0.0994980816939
0.0984541949803
0.093216971866
0.109879891445
0.102453893396
0.113408529218
0.163253982074
0.22311162706
0.26618939443
0.283806963122
0.301620215638
0.325337798977
0.35002450674
0.381570626528
0.402078710776
0.417829037128
0.441947136178
0.441223944494
0.436891995047
0.449943887694
0.44502668569
0.464763091934
0.488191535347
0.449709744641
0.393582302168
0.362875137161
0.360653672058
0.282534732555
0.204701722853
0.145283708086
0.0835378913734
0.0485896351413
0.0300305238757
0.0705470405895
0.0653490210716
0.013208735181
0.0332141355319
0.0367821860755
0.041350410161
0.0369085207598
0.0503639166596
0.0817905788047
0.144709757613
0.124449051851
0.10146483544
0.0947422082012
0.097973934733
0.118419456383
0.118221094872
0.117689901929
0.118381745918
0.101269328319
0.107065582547
0.154689355057
0.17876610108
0.146044064297
0.155045625229
0.188124259545
0.157717577937
0.168716412945
0.16331724723
0.136505184605
0.143404333528
0.166701865042
0.163427404787
0.147048483113
0.144760949976
0.160759770264
0.153479182629
0.120222065498
0.0962882226898
0.089320931482
0.0728699435554
0.070891507578
0.0670962995324
0.0660607457163
0.0741077319635
0.0608540405988
0.0360531985885
0.0299453399709
0.0274513620347
0.0278239528866
0.032720901423
0.0289717065781
0.0133625869688
0.0204651942229
0.0204023671444
0.0444351872999
0.0599894111886
0.0391936683458
0.0310424112973
0.026568965421
0.0259083359141
0.0275766640417
0.0266667421239
0.0255176210703
0.0279984939754
0.0341692856428
0.0305375086377
0.0287846192666
0.0322600703574
0.031101007056
0.0313645345847
0.0171421238449
0.0243117048672
0.0256642256375
0.0287221828575
0.0293697929821
0.0207186107357
0.0282400763014
0.0219589159703
0.0418475890455
0.0291727547471
0.0392235475156
0.0561807268921
0.0351928520963
0.0200588862263
0.0397106523074
0.0288147126257
0.032514942792
0.0235956844571
0.0495996171639
0.038775997723
0.027882603214
0.0285295078255
0.0338460628005
0.0316983352796
0.0368683438404
0.0370556870509
0.030452911502
0.0542397667722
0.0202931941672
0.0559645658586
0.0427964556746
0.0546394618054
0.0579555589453
0.0234566141117
0.0615597789518
0.072258295819
0.0603581618151
0.0450049238992
0.0535359730052
0.0551439200831
0.0588791978136
0.0694149252054
0.0617040911269
0.0729721885885
0.0935328044439
0.0936981243951
0.0683645972348
0.0900849707341
0.0896070576422
0.0866890580807
0.0900984414269
0.0870629677334
0.0972804448157
0.0932642016324
0.0804951890326
0.0870242876254
0.0810805670324
0.101677665317
0.128133910732
0.123634706579
0.125211824639
0.11637466082
0.137386190665
0.13447557741
0.162348023901
0.164572130152
0.27350012538
0.378828494252
0.354148878503
0.305810075628
0.434940111225
0.141690954539
0.490893406405
0.922046829602
0.137266107162
0.113458024931
0.174493312086
0.00501670308244
0.0477360626378
0.12985275305
0.0831468973861
1000000.0
0.0
0.0
0.0
0.0
0.0
0.0
0.0
0.0
0.0
0.0
0.0
0.0
0.0
0.0
0.0
0.0
0.0
0.0
0.0
0.0
0.0
0.0
0.0
0.0
0.0
0.0
0.0
0.0
0.0
0.0
0.0
0.0
0.0
0.0
0.0
0.0
0.0
0.0
0.0
0.0
0.0
0.0
0.0
0.0
0.0
0.0
0.0
0.0
0.0
0.0
0.0
0.0
0.0
0.0
0.0
0.0
0.0
0.0
0.0
0.0
0.0
0.0
0.0
0.0
0.0
0.0
0.0
0.0
0.0
0.0
0.0
0.0
0.0
0.0
0.0
0.0
0.0
0.0
0.0
0.0
0.0
0.0
0.0
0.0
0.0
0.0
0.0
0.0
0.0
0.0
0.0
0.0
0.0
0.0
0.0
0.0
0.0
0.0
0.0
0.0
0.0
0.0
0.0
0.0
0.0
0.0
0.0
0.0
0.0
0.0
0.0
0.0
0.0
0.0
0.0
0.0
0.0
0.0
0.0
0.0
0.0
0.0
0.0
0.0
0.0
0.0
0.0
0.0
0.0
0.0
0.0
0.0
0.0
0.0
0.0
0.0
0.0
0.0
0.0
0.0
0.0
0.0
0.0
0.0
0.0
0.0
0.0
0.0
0.0
0.0
0.0
0.0
0.0
0.0
0.0
0.0
0.0
0.0
0.0
0.0
0.0
0.0
0.0
0.0
0.0
0.0
0.0
0.0
0.0
0.0
0.0
0.0
0.0
0.0
0.0
0.0
0.0
0.0
0.0
0.0
0.0
0.0
0.0
0.0
0.0
0.0
0.0
0.0
0.0
0.0
0.0
0.0
0.0
0.0
0.0
0.0
0.0
0.0
0.0
0.0
0.0
0.0
0.0
0.0
0.0
0.0
0.0
0.0
0.0
0.0
0.0
0.0
0.0
0.0
0.0
0.0
0.0
0.0
0.0
0.0
0.0
0.0
0.0
0.0
0.0
0.0
0.0
0.0
0.0
0.0
0.0
0.0
0.0
0.0
0.0
0.0
0.0
0.0
0.0
0.0
0.0
0.0
0.0
0.0
0.0
0.0
0.0
0.0
0.0
0.0
0.0
0.0
0.0
0.0
0.0
0.0
0.0
0.0
0.0
0.0
0.0
0.0
0.0
0.0
0.0
0.0
0.0
0.0
0.0
0.0
0.0
0.0
0.0
0.0
0.0
0.0
0.0
0.0
0.0
0.0
0.0
0.0
0.0
0.0
0.0
0.0
0.0
0.0
0.0
0.0
0.0
0.0
0.0
0.0
0.0
0.0
0.0
0.0
0.0
0.0
0.0
0.0
0.0
0.0
0.0
0.0
0.0
0.0
0.0
0.0
0.0
0.0
0.0
0.0
0.0
0.0
0.0
0.0
0.0
0.0
0.0
0.0
0.0
0.0
0.0
0.0
0.0
0.0
0.0
0.0
0.0
0.0
0.0
0.0
0.0
0.0
0.0
0.0
0.0
0.0
0.0
0.0
0.0
0.0
0.0
0.0
0.0
0.0
0.0
0.0
0.0
0.0
0.0
0.0
0.0
0.0
0.0
0.0
0.0
0.0
0.0
0.0
0.0
0.0
0.0
0.0
0.0
0.0
0.0
0.0
0.0
0.0
0.0
0.0
0.0
0.0
0.0
0.0
0.0
0.0
0.0
0.0
0.0
0.0
0.0
0.0
logs/alpha_1.9/PGSD_100steps_1.log 1000097.67807 1000.09767807 0.0331372543446 1000000.0 0.0 613
