Policy Parameters:	-1.62520306279 3.28742114418
Control Steps:		1000
Start Time:		1438521395.5865688

-- TESTING STOPPED --

Stop Time:		1438521561.5779946
Duration:		165.99142575263977
Cost Matrix:
0.121469218519
0.366917752633
0.120816108392
0.206227953674
0.0719170165994
0.0661769627838
0.156349975211
0.197205288854
0.344131374635
0.30684523513
0.354439706931
0.35988825018
0.418450251969
0.518016551222
0.606420171906
2.10786068061
0.261597348295
0.783935765337
0.502558206499
0.715113467382
0.52219089995
0.460642146675
0.466127461828
0.452723850593
0.333029640996
0.402476080136
0.250959761449
0.0722812260919
0.155089111018
0.27402844854
0.266615902272
0.241129648642
0.27235887516
0.305244269307
0.281428050572
0.297373711928
0.222439284703
0.26591837673
0.253028589608
0.235256958727
0.218877791626
0.194194521339
0.149486202064
0.144160420979
0.191598684665
0.104936819281
0.0313798895177
0.0569925862931
0.0220201965445
0.0162301306373
0.0515462653541
0.145874336889
0.189680858776
0.195215688842
0.166478753773
0.137041625991
0.0981793072509
0.186161923744
0.370566224511
0.334486612042
0.346533617207
0.116145430021
0.349326004474
0.251708380622
0.380836224035
0.382983686479
0.469657260808
0.563595573422
0.811482964018
0.995469002215
1.12741179875
1.23974172426
1.19623153469
1.3770340867
1.24073376991
1.07454571023
1.22512244757
0.591350221609
1.30613616649
0.500087851237
0.673044883281
0.440652165079
0.51034039832
0.244954757063
0.179711233504
0.124216078853
0.137459429834
0.263308314442
0.347616330457
0.130246951525
0.176638454188
0.102166384592
0.0624872741324
0.220213172732
0.241098332605
0.120033400531
0.102195805552
0.0610324104151
0.221555500126
0.127649081971
0.0332592980589
0.0146257368838
0.0536984103455
0.085148553613
0.130384085624
0.0266146344414
0.123066635942
0.165875461606
0.0512756882369
0.0874335020566
0.137717239793
0.220833244841
0.220245764947
0.153248141686
0.151387811033
0.166227782439
0.199336925019
0.23944855585
0.25641126787
0.283929464069
0.313093114495
0.31108486751
0.320624900943
0.304311712404
0.335630689785
0.375248146589
0.376637608334
0.376419901498
0.388972865563
0.3854443636
0.330864397129
0.381211089375
0.340273828174
0.322912480188
0.250159646205
0.255108352373
0.153550966081
0.151729114026
0.20221518573
0.179118914439
0.0271624943434
0.180470343693
0.142526183871
0.17020517019
0.280687592053
0.33881921915
0.333549425113
0.386856378632
0.51837469867
0.506293064825
1.01622685437
0.606271707665
0.995536513423
0.700703487433
1.09154585138
0.603969781777
0.739660593809
0.573566194144
1.20145451515
0.38838539917
0.392240081485
0.292688457475
0.379697471533
0.177355011851
0.108412925301
0.221787705271
0.21354916389
0.14158543956
0.278297113943
0.0085469226473
0.0561084474217
0.118842752036
0.139040991891
0.334686465083
0.301177084896
0.189057869166
0.237428864546
0.21957429108
0.366949130109
0.212416109314
0.0414487222085
0.07785304058
0.242959038541
0.137376633144
0.167219889237
0.0464418891225
0.0388018402305
0.0875328785992
0.176868557127
0.216584602459
0.289053212126
0.399506370332
0.470447178415
0.606882894848
0.932530157946
1.12250797823
1.25411017629
1.23140389736
1.24112468722
1.10816508694
1.32900581704
0.145401164076
0.216367897581
0.286932649292
0.387289508589
0.306798579305
0.308473078971
0.180838435275
0.224746914948
0.141146218512
0.176585480037
0.181546419096
0.165892647322
0.194411428568
0.174450350211
0.190477894352
0.197173907286
0.105196803393
0.136567258371
0.125711166387
0.132710822634
0.182919549659
0.0545053667229
0.0236330032775
0.144735117254
0.213542463369
0.350720408667
0.189171184707
0.299378984115
0.325861501333
0.196055653574
0.23726778401
0.250456804296
0.384298543606
0.448873664763
0.558650002701
0.635950996551
0.460233441153
0.517568725707
0.592217101954
0.52505662226
0.62950194666
0.411889458041
0.529566680098
0.904595754505
0.2160965401
0.274018712185
0.341417029841
0.358638209564
0.200697896085
0.119921500832
0.199271854499
0.172369307542
0.186807772834
0.203285037705
0.0485876267182
0.0250923706704
0.0402013148367
0.0581460658668
0.0203776926552
0.117806643799
0.216106367848
0.0827422908186
0.242039974039
0.260636694699
0.287327959358
0.377563748296
0.347221887487
0.192034735781
0.184872631877
0.305878493157
0.317223282553
0.422715352843
0.299960898268
0.28748117831
0.277963445397
0.254417095496
0.408621960686
0.296558520531
0.41218641753
0.373970328358
0.220000544722
0.305805802793
0.352145689898
0.346970271213
0.364807352785
0.165202721145
0.102621628661
0.168984363616
0.259936365384
0.376866646323
0.3777745744
0.39747980249
0.387804828391
0.395497408692
0.574603737848
1.12260094112
0.300884291255
0.485650003206
0.826115420488
0.282840726843
0.25644089447
0.150207624849
0.138167293781
0.135686299546
0.141251590864
0.152132361616
0.138141644411
0.145540212611
0.131506022988
0.140774954057
0.145512471621
0.144722200684
0.142147851754
0.158967279826
0.1580588046
0.0814222491927
0.115729710102
0.146609775165
0.154260827978
0.144030113476
0.151336459741
0.167947994424
0.172436841643
0.177342007557
0.173303195663
0.173983980912
0.171626793367
0.171559346717
0.161712800633
0.147031751844
0.0665621418894
0.0277735491038
0.152088178064
0.377823740823
0.480189529846
0.518064441684
0.504695674046
0.476388304154
0.626075081492
2.24836837679
0.00781080904995
0.17702158691
0.381898961156
0.247371358555
0.467186150528
0.29982109057
0.316006771434
0.154399322137
0.0704089006114
0.103235616185
0.183586127146
0.224489925869
0.146028793254
0.221004475937
0.322944844544
0.320390689313
0.320016360949
0.345748410345
0.367668771686
0.369963178406
0.367301523233
0.374796581283
0.413615835575
0.40945943862
0.423784197923
0.433450791793
0.424797711107
0.430013228258
0.447569004208
0.470703975555
0.459772080738
0.45438599169
0.4804107659
0.484270920479
0.484576158814
0.487444041539
0.492644963312
0.476459620236
0.483654302731
0.490372659801
0.510664149318
0.505427257521
0.494011989485
0.4993424767
0.501825730335
0.502706915981
0.510818034715
0.505434944674
0.514953058083
0.499956938715
0.481575987131
0.467696733445
0.483932122423
0.509523219146
0.485173976523
0.447330926641
0.48335776485
0.464832086798
0.474216448808
0.463256249372
0.434179660999
0.460574869227
0.431796993006
0.417880684535
0.431115873444
0.396053765293
0.408982598907
0.411390061126
0.391141801588
0.393214079572
0.373148698186
0.346544068002
0.354610009512
0.336062628115
0.323137010105
0.298647633147
0.27853995867
0.282156649862
0.278919070548
0.26031664669
0.26061365391
0.252064671774
0.246396324746
0.237436710513
0.218717291676
0.224545205848
0.227116693357
0.211661055304
0.218624579352
0.208428684792
0.182652459046
0.0163343424098
0.223716621343
0.474170760231
0.930370186461
1.20702398828
1.38101937178
1.43047956079
1.3158564529
1.3507760363
0.894127027778
1.20718108583
0.100618726083
0.368518460964
0.29045732658
0.255793427058
0.510500566891
1.12901193492
0.0743121204801
0.105779584259
0.375662533659
0.382284396039
0.517773508236
0.770106136769
0.162836283368
0.159756581959
0.307784738309
0.500213152844
0.576613636656
0.59440972925
0.539658221602
0.566018658445
0.589190975086
0.565523492238
0.569847982298
0.52841779064
0.531300149526
0.550924034601
0.529445273309
0.541636249827
0.526140447266
0.502280069107
0.49897253391
0.454543051608
0.435720974497
0.422169717764
0.435059757869
0.391532822639
0.364973151816
0.349112631596
0.36192567071
0.357185230303
0.32500663491
0.312798969546
0.319665922846
0.307646700873
0.314070327256
0.294846159357
0.295125839705
0.284205747777
0.275542542797
0.254527096393
0.27240539448
0.281608426217
0.292717799808
0.296166434799
0.286976928472
0.302851679951
0.290320927977
0.314885766733
0.325456589661
0.333833005168
0.351910815042
0.357658314194
0.378767218062
0.395513605677
0.436027534563
0.474708133874
0.466769702059
0.499724991621
0.542791360492
0.59022193411
0.644775821251
0.785794128437
0.628289577676
0.852862483573
0.782479200247
0.890803472964
0.913936852216
1.00097423656
1.11573129925
1.31624196927
1.27432904114
1.08722873063
1.28390025409
1.4694996261
1.20555285018
1.62003565579
1.33570882331
1.92407359319
1.23810555691
2.04041779463
1.15588548983
2.29531813219
1.01178619842
1.55381447598
1.02417546066
0.895183684907
1.34073256581
1.07283557398
1.10647467127
1.08783727789
1.2917489756
0.759778896802
1.00591830909
0.684978258609
0.839422240638
0.600196326416
0.618005707212
0.58005504607
0.5178607018
0.431764415035
0.441305438336
0.429596061039
0.392013320899
0.373406760085
0.348453543094
0.319521039616
0.290869630313
0.281020877595
0.238832869162
0.239496599826
0.223089131669
0.204691062422
0.196339218938
0.194994312346
0.155633373512
0.167849447166
0.186643255491
0.180309262979
0.138249635033
0.166984160269
0.173466925716
0.176137113844
0.16027314893
0.167180079446
0.156113195475
0.142728225661
0.133573891052
0.110731588396
0.103665321339
0.0836096610288
0.079853407176
0.0754239423167
0.0745195198021
0.0634522675914
0.0403401750005
0.131726914881
0.245308702615
0.200925815446
0.182070053124
0.199395960427
0.0697300460669
0.224462607863
0.111198806618
0.0552100542548
0.0909058708634
0.141167587268
0.184775462476
0.351447761268
0.328459835687
0.345045459725
0.422521642166
0.40653955729
0.512553469632
0.520674099345
0.652843053429
0.394310110163
0.445443454347
0.394971057815
0.486278355089
0.43111399659
0.335046880798
0.436026046779
0.495877091603
0.527345301848
0.331306511084
0.287918406191
0.444350672503
0.0617065682686
0.060556189211
0.0999850169013
0.08272557042
0.091568723051
0.147709045488
0.151263571979
0.150034849441
0.146878462144
0.147292644783
0.139907735149
0.140895904081
0.135630706106
0.11987055851
0.141809383633
0.143978744463
0.131340602177
0.11580147624
0.0550084573963
0.0716120608509
0.0616544142519
0.0630867975845
0.0920139731668
0.121428997996
0.126610058635
0.116275093939
0.123370028219
0.126768889502
0.112313435805
0.120384270794
0.123548803221
0.106059669225
0.104488822656
0.0975321638759
0.156006863446
0.178247829501
0.105310828856
0.112220219213
0.152742698692
0.157057385515
0.0653165530211
0.159946855406
0.00995801196527
0.0474773070907
0.0595379116349
0.0618829213995
0.167721478225
0.140304005792
0.410777450335
0.189258634962
0.186466768964
0.123421669126
0.112601208151
0.21349912127
0.0569650585047
0.0799363813866
0.0728966025314
0.0879958467742
0.0154866165032
0.0419406064514
0.0631417467502
0.0853130786134
0.118181049289
0.105894942062
0.0500510679872
0.0870696131549
0.113511409405
0.116209638245
0.118036570224
0.106915044514
0.0913438192975
0.104134183559
0.100160366256
0.107107206744
0.123431320588
0.123809083031
0.104709531452
0.0940598337558
0.0844959740076
0.156791193359
0.244984482449
0.313797104873
0.313628262049
0.329811152386
0.337832856343
0.377926777712
0.389802418128
0.405284199633
0.5128691735
0.553396587975
0.793342953802
0.617003463346
0.768674490547
0.690150589684
0.872530693926
0.551182659539
1.26908243948
0.589859558316
0.358143114587
0.263550040149
0.40661405499
0.413686350078
0.400436450557
0.227950609628
0.387063115642
0.323984772233
0.137723384821
0.117222645591
0.127184483002
0.0877838758306
0.173015756669
0.281837255872
0.307469982012
0.291230759115
0.233608539291
0.304455100462
0.282441401506
0.128699553004
0.233604709339
0.291155945172
0.29767795445
0.300790031898
0.30143924672
0.301703418431
0.295584353585
0.295643238926
0.298465052259
0.290817196359
0.297997967229
0.304312640942
0.302236264854
0.302706540431
0.305280656753
0.298955388712
0.27320346316
0.287408827556
0.296399171976
0.286168805493
0.260149058923
0.13806937411
0.225628183072
0.270534497204
0.28592228359
0.290101749236
0.282087535073
0.273477196879
0.276104838224
0.277122821587
0.264383266311
0.254576961281
0.259423806582
0.259879409657
0.26073096848
0.248420361457
0.243097214566
0.244671243473
0.240891053095
0.23784214547
0.237029445652
0.233397572044
0.233626578882
0.243285264133
0.226269251577
0.222126443235
0.215347837514
0.205754188773
0.202851830197
0.173495077765
0.182300734982
0.186230562727
0.18455403525
0.18282978581
0.182678122938
0.174224251995
0.156983919086
0.103245591738
0.112535875909
0.0349889368093
0.167313497223
0.151812153501
0.229398063319
0.311670166975
0.349318063587
0.190368860111
0.103156946719
0.194904705576
0.100285939173
0.13689829643
0.242841015795
0.224304906613
0.0981002807112
0.0442166337518
0.0378672604318
0.0474461305302
0.0612570210224
0.0895417530389
0.112563751884
0.134674723637
0.166579369831
0.192828994122
0.196780147513
0.184619382324
0.165038379514
0.110916669323
0.156645627066
0.159097117917
0.0853762327899
0.16210649134
0.160178305481
0.0556999367815
0.0821241144029
0.152558928011
0.160071747779
0.155811404946
0.154060013816
0.151678971078
0.155272575028
0.153623789341
0.146069184415
0.139866091362
0.131759974566
0.14124826789
0.159460879428
0.144875060422
0.139241840009
0.131485807815
0.122096371809
0.120162469645
0.138139741707
0.158146646477
0.141546638178
0.154486741445
0.133983701093
0.14636590166
0.127692090469
0.151287326136
0.125920113034
0.148445670968
0.0972296259683
0.0343878795074
0.0312359107142
0.186560249279
0.195289439559
0.0719998418393
0.0815094274173
0.0389565885855
0.122125943256
0.128244726171
0.141260106888
0.111587888263
0.199747131496
0.107913873471
0.113360131944
0.254026202099
0.0159157031911
0.155277208291
0.210614667731
0.136350958792
0.178957391407
0.187462755832
0.103038951033
0.194757010324
0.167934655322
0.0564649686991
0.0769220957015
0.0623671076548
0.0507353806228
0.205118791367
0.159017363327
0.00542126686102
0.0710469663751
0.147461611765
0.177326788978
0.129424398686
0.170448959939
0.112400615062
0.0546400791404
0.102278252998
0.105233296955
0.0222765187197
0.0609943171865
0.0570402001706
0.0789830734965
0.0737873190996
0.120536420732
0.133497386286
0.161852948419
0.118003285837
0.102192729627
0.0531173835735
0.0312075609557
0.0260586502269
0.051656698679
0.251794662734
0.33708978057
0.0257802153563
0.0766754511606
0.0213306203293
0.053378003922
0.157678256145
0.12183942622
0.0222029175859
0.0284317985233
0.131041659489
0.0725606001603
0.150028262836
0.153381870991
0.0661584031276
0.117023355629
0.120603179112
0.142814198075
0.174624293335
0.104733806143
0.109948081228
0.134679168005
0.168527108462
0.106971520786
0.111771077017
0.101252516762
0.147520682882
0.113233333205
0.369837738865
0.0371685092369
0.0384853408503
0.0556918368641
0.0564079390432
0.0956318840832
0.110726207578
0.112461599293
0.127262013963
0.121819105986
0.146684329114
0.115652107622
0.100336866248
0.109763619603
0.100818598812
0.0683972788578
0.0444877363479
0.0591731262173
0.0899600041605
0.0476312862042
0.0446609151362
0.0239980491308
0.0373643395383
0.0436666111275
0.0520621485048
0.138663995314
0.163488555946
0.167341603767
0.238940446962
0.120242214206
0.305832842765
0.360899034541
0.352549001994
0.405052477524
0.392250621655
0.458563557465
0.524884326183
0.741072652239
0.90904391942
0.903674974813
1.13915395373
0.949576141986
0.884525649765
0.792632177922
0.68624496851
0.809550518108
0.963709786077
0.630242020334
0.719004618604
0.529960549474
0.344978743885
0.343269807561
0.1383073947
0.078421768625
0.11714965932
0.221034928139
0.282601038521
0.295010777798
0.294438154855
logs/alpha_1.9/PGSD_300steps_3.log 320.851759181 0.320851759181 0.234441768804 2.29531813219 0.00542126686102 -1
