Initial Policy Parameters:	0.0 0.0
Learning Rate:			1.3
Learning Steps:			400
Start Time:			1448460832.88

-- LEARNING STOPPED --

Stop Time:			1448460970.09
Duration:			137.214286089
Final Policy Parameters:	-2.63339944271 1.66773019185
