Initial Policy Parameters:	0.0 0.0
Learning Rate:			1.3
Learning Steps:			400
Start Time:			1448462050.11

-- LEARNING STOPPED --

Stop Time:			1448462158.39
Duration:			108.273718834
Final Policy Parameters:	-10.7230017855 10.6152779115
