Policy Parameters:	-2.91575485216 3.95844965626
Control Steps:		1000
Start Time:		1448903020.85

-- TESTING STOPPED --

Stop Time:		1448903300.68
Duration:		279.827574968
Cost Matrix:
0.00773299536727
0.0471370042593
0.480438936159
0.103248070832
0.508005728542
0.682964115804
0.437752560029
0.922966332384
0.560531526958
0.316731005584
0.181426272883
0.444057089985
0.479684350017
0.523675330931
0.352175634494
0.378247629949
0.391743928858
0.44125929676
0.306897413591
0.455298324401
0.461443612856
0.796624214878
0.118437250589
0.245540902649
0.297303455817
0.347503402746
0.257509922051
0.153070971352
0.307733343497
0.247299313696
0.44996318283
0.277570333782
0.170798021386
0.090760106318
0.0983446114591
0.133394643311
0.346584629612
0.0729105748626
0.174496475048
0.0353372497753
0.193009570734
0.0276725227974
0.184744442121
0.251446652284
0.170570370313
0.199360187801
0.0619677782912
0.132498951599
0.237254752621
0.187399906236
0.151836226437
0.34927030445
0.29725222221
0.417630388847
0.610806227138
1.16136290461
1.05139878393
1.6573917549
0.481296669178
0.256391978199
1.40169393088
1.64855960141
0.112388183468
1.43901556335
0.0
0.135461249358
1.16188703063
1.81536221348
0.181352793738
1.43723874045
0.0429463483901
0.41892088987
1.04631794075
1.63390139613
1.60124449368
1.9056609928
0.321650582796
0.667804952862
0.16757644368
0.0958243918502
0.122140235258
0.289905490047
0.474895546235
0.661709674575
0.0429657738185
0.109563855979
0.525399121582
0.0385273041699
0.110442127826
0.0995306933289
0.253963187132
0.0977211534768
0.0744599430434
0.121535035003
0.0273323738801
0.00414748207535
0.0787402681479
0.297889483782
0.0
0.0534191127444
0.152023125508
0.00804908122244
0.0836928150361
0.241489552184
0.0234236237629
0.0735841139654
0.0437916694338
0.0995244743885
0.137521642669
0.159925187576
0.0365648530608
0.111753644335
0.0392661891916
0.0586008303571
0.0208227208107
0.053508969404
0.0768810570194
0.0812980248074
0.0169573047025
0.0541087047285
0.00872225997523
0.0254698920623
0.00804311565177
0.02813896909
0.0080914407293
0.00977164628509
0.0
0.0
0.0
0.0
0.0
0.0
0.0
0.0
0.0
2.4
0.00272656965795
0.0456715441821
0.481676996028
0.528713710883
0.385881392859
1.23342303224
2.37731961395
3.77117392197
0.0642435082259
0.260638212504
0.0
0.0
0.0
0.0
0.0
0.0
0.0
2.4
0.00273814552755
0.0307878884328
0.232584726314
0.641757316719
0.476796434583
0.534289916275
0.481887493564
0.222040438455
0.401292705184
0.202376273134
0.172437822842
0.544247541001
1.14336837624
1.04155347737
0.600400514971
0.978152290413
1.43590950657
0.0777110865981
0.230537118266
0.27322473994
0.423043635256
0.368250512855
0.380738648372
0.369074943354
0.500186921023
1.29433753341
0.286911957114
0.291526760051
0.362445524571
0.547009967607
1.05112504728
0.740777021473
0.367228599818
0.375181349442
0.964322450979
2.06811029957
2.72824260989
1.25094354432
1.49933925304
1.98981773482
2.00438395387
3.81671289717
3.77117392197
1.86484572994
3.77117426139
0.839845261538
3.77117392197
2.80176387676
3.77117426139
1.02330737391
3.77117392197
1.0683103618
3.77117426139
0.673930642041
3.47570079467
0.425309633536
0.333018107304
0.00740428375881
0.0263029928241
0.0
0.0
0.0
0.0
0.0
0.0
0.0
0.0
0.0
0.0
0.0
2.4
0.028408263201
0.143051039247
0.143824263119
0.443988939643
0.821951751052
0.449896903618
0.53389989463
1.09935816281
1.42063509873
1.32374794018
1.18090778939
1.06923762144
0.93623146436
0.498865733755
0.408312173378
0.608512916392
0.462205056443
0.631713710742
0.416318275309
0.996369303232
0.655426474953
0.517767939548
0.926884391326
0.589546522077
1.5205162788
0.203605696389
2.00097869174
1.91658053062
3.77117392197
0.241959116682
0.231405908685
0.308158097068
0.0813169596525
0.489422324249
2.87630117947
1.21389766273
3.77117426139
0.199171153511
1.1667178376
0.123114192583
0.493674852761
0.0810482447797
0.505835044032
2.4410065846
0.0189776135236
0.130589888338
0.17633022251
0.23414201162
0.140051291464
0.087810673232
0.124891093261
0.151984445549
0.0662115369364
0.10953784572
0.0143786354683
0.0621143763703
0.0392426711738
0.166477410388
0.185667715588
0.0820443721949
0.141811902284
0.0409556746744
0.11883855669
0.114193823191
0.0984265401446
0.142750310196
0.117627986061
0.0948738231987
0.0613830676339
0.207794659108
0.0714234148354
0.290076114411
0.0781456716641
0.193484352494
0.145621193637
0.257356010726
0.163251698001
0.18779071201
0.161427550595
0.152930221413
0.293650483334
0.182103103921
0.19977517181
0.219544635661
0.231147132357
0.228131159641
0.32818158171
0.935045637421
1.80420748178
1.78639264491
3.15113925091
3.95220489124
3.79075372947
2.68203208547
2.13273305161
2.57996778292
2.3180499085
1.16443034851
0.18576241311
0.22564461818
0.77473234588
0.727743189056
0.0977750022347
0.455026371685
0.322926507386
0.653337784981
3.40941187976
3.83284604567
2.79996014777
1.54451897011
1.81020476685
1.84902923927
1.17228700061
0.267968812613
0.376723535726
0.23643483924
0.331244479493
0.314054942021
0.281756695419
0.137798133032
0.215650585829
0.107778309146
0.251583345974
0.300440590132
0.354756315205
0.405592250339
0.323054585445
0.294991271797
0.435060740534
0.348198221222
0.436512279512
0.362321474063
0.441182985906
0.460954221436
0.662017964572
0.701910078517
0.714544326534
1.38663119004
1.56592286629
1.46932675898
1.48115860711
0.686290198604
1.38376241404
0.728466921285
3.31033813887
3.96243616637
3.8150957748
1.59457262867
0.186070862832
0.219742101141
0.311800101883
0.301594498348
0.399782392136
0.403925067465
0.392961659551
0.267828375834
0.440342535706
0.239780859097
0.122224975547
0.145494224421
0.159831265994
0.0881320682889
0.133590389007
0.130440764023
0.150417473408
0.217943184015
0.16003888044
0.103871192793
0.236602224393
0.491278961703
0.541592465694
0.575728382068
0.815349227598
0.938487234044
0.576783657017
0.479907380991
0.243158684115
0.570380416244
1.0767425782
0.772018344096
0.494995916253
0.808788792541
0.781705683347
0.99955695382
1.38899301906
0.900270172526
0.537686385772
0.532435911185
0.797015242942
0.675001023249
0.452641395879
1.05705857914
0.860235967022
1.07287155089
1.35259514592
1.27828683699
0.991804170554
1.23977887498
1.72422643936
0.752068006888
0.917604017241
1.23779000164
1.3187554285
1.15508541854
1.37240847686
0.689624980679
0.787476877195
1.01357368154
0.830614769302
1.18814064818
1.99940676395
4.28308466912
3.86519446335
2.848606171
3.77214038831
0.611691390395
0.607817895757
1.24110474698
0.453138355904
0.299709164584
0.234611619735
0.175540350459
0.15784518342
0.0193905987127
0.046491798265
0.211802361698
0.205511770473
0.289586091488
0.361691497683
0.334799120914
0.529192148846
0.322713417847
0.124064915398
0.163886133353
0.03618511567
0.0359888970798
0.186465761792
0.0959296971536
0.295922151804
0.140295529796
0.128293923377
0.132804207192
0.125167557353
0.287036254911
0.139381639133
0.376707008993
0.361400490418
0.243771822101
0.336611861694
0.227013324745
0.754622964012
3.67260238014
0.81982565322
0.464831526709
0.438591164248
0.853830520616
0.836412701332
0.942723229502
1.24348926586
1.63558689911
2.80039707482
2.41492282963
1.62002053182
0.443824945444
1.91311192048
1.79990350414
0.327547067175
0.895495553359
2.09873920644
0.423226911149
0.679463953424
0.636197024726
0.516273076949
0.684601309644
0.39740863729
0.123224345067
0.0773130028191
0.0343911027689
0.0344296107168
0.0138532848316
0.016499339328
0.0417385056219
0.00706559961881
0.0348828658409
0.0758627007841
0.042797034464
0.0333870740943
0.0314361510714
0.0370833140401
0.0866275721798
0.0602244908136
0.0823107685791
0.0878135647923
0.111610589902
0.153080233984
0.0439894427048
0.127002740356
0.235107465021
0.161353524511
0.111180963215
0.265681108516
0.042920582081
0.13393094649
0.100778877338
0.0176093250824
0.0530509926502
0.0217298021508
0.068042798112
0.030784468778
0.0944387267086
0.0
0.0151812190135
0.0253635356249
0.133737706382
0.867339466875
0.33573410148
0.46281332202
0.145571812531
0.503170390563
0.472795736824
0.943049455922
0.762193027615
1.14878133476
0.451673492739
1.44393195946
0.0832484546656
0.763368760653
1.22527726884
0.790776082717
0.681898569716
0.715985730391
0.562000350339
0.574802693206
0.477822860545
0.646614546327
0.470417516695
0.499447832695
0.508672650728
0.475722640288
0.40540464934
0.51158784189
0.541762957571
1.05109978877
1.37245294004
1.48912227511
2.56648657362
0.47209226112
0.389798950924
1.94771291358
3.00995522234
0.364992624792
0.545036996485
0.113236632258
0.45547013428
0.120790174823
0.0819279291966
0.0586570203036
0.0596858205344
0.00919686660086
0.00433641680593
0.0234990070648
0.00143316837266
0.0120066443021
0.0100097333932
0.052348043648
0.105556750871
0.0
0.0
0.0
0.0
0.0
0.0
0.0
0.0
0.0
0.0
0.0
0.0
0.0
0.0
0.0
2.4
0.0
0.0274922121638
0.248590593533
0.113725849674
0.44239184947
0.344206180559
0.0973338609831
0.202408248126
0.109018348218
0.167625474828
0.259577997542
0.191666243027
0.269931906994
0.175899771846
0.204754723514
0.178687228797
0.144310422367
0.0220862171089
0.052299756768
0.0474392145706
0.188183482369
0.0732586250165
0.0965486994028
0.0622080993648
0.144616648322
0.159652004602
0.146815848756
0.26376745251
0.207308164162
0.0992350605808
0.104386778498
0.292288180836
0.326949227751
0.454718548779
0.993925260627
1.00502320896
1.32222020493
1.54099901138
0.381420921096
0.0729319689997
0.43911781854
1.67640762604
0.248312794392
1.62931358112
0.3713664919
0.219224319118
0.119436799049
0.16944652055
0.48487902224
0.395588239141
0.128515411086
1.3938913633
1.14476349706
1.00370286523
0.248264447128
0.434028051203
1.83077500646
4.16481917798
3.91692376472
3.7723579759
3.39153717517
3.83333277068
3.77113721348
1.71571561389
2.48267461816
3.72193148315
3.19975196827
1.97655844042
1.8766046753
1.09469882055
0.430191829295
0.48926967181
0.440973479979
0.573702494159
1.08498199504
1.48206891235
2.36733394778
2.04745797365
0.658382554752
0.645211877338
0.493871855576
0.899260558269
0.512034266473
0.523140481268
0.828052270312
0.140994060517
1.05568576645
0.966095931181
1.25232533234
2.08804089571
1.7200403569
1.46254082113
1.41753164768
1.14237991344
0.965893493154
0.693577703923
0.789755209928
0.716574056019
0.503925062982
0.524987041799
0.171984379856
0.554023737935
0.803467669768
0.98654458575
0.489170014387
0.347414521897
0.763559619878
0.389040510035
0.362663148696
0.305945986921
0.217098606554
0.265583934204
0.231503713468
0.523730250152
0.3060435499
0.38156314249
2.40061327164
0.000171971132595
0.00935950658231
0.100653796544
0.0895318252286
0.243208843079
0.210805219535
0.155907360212
0.34908375865
0.123192724364
0.388422055265
0.588275366889
0.450927175226
0.409844472537
0.417351028804
0.320687312154
0.248471332292
0.143151977205
0.348970029582
0.28138522814
0.211444374552
0.266689206877
0.331398131865
0.234084683635
0.435899197063
1.03823693815
1.15608453887
1.53809558831
0.160599358259
0.505537411065
2.17744662505
0.339594623709
0.862838654442
0.748099280171
0.465662060347
0.757263449889
0.446844380633
0.915689453806
1.21261893685
1.00069938716
1.08686758336
1.12717321195
1.5956677369
1.56226202499
1.94664683213
2.02631713603
0.870621368369
0.830224227959
0.380003885148
0.551169402882
0.589727856338
0.00527205474165
0.0405320192894
0.121068721735
0.215550855065
0.226396903457
0.116387073037
0.175682766204
0.0981526623967
0.109015227579
0.184792758313
0.214324319562
0.146079465049
0.250151523467
0.147931641497
0.263800122867
0.204003523468
0.365555841385
0.266571143697
0.714165542624
1.18673314754
1.17990715503
1.30377019936
1.03648659478
0.529206724353
0.90427478325
0.872247859413
0.469747636179
0.491726138172
0.440131907509
0.318655198637
0.379339988961
0.369266924266
0.382722301536
0.202700015553
0.492643645732
0.289427026702
0.302572319681
0.300266555342
0.309856901097
0.539158923134
0.681316263441
1.02473663628
0.725245495845
0.685205719059
0.504617865207
0.739798058473
1.05992297984
1.37855035517
1.06292417843
0.551899274174
0.421221055615
0.465864765785
0.635882728608
0.844861652069
0.430945602627
0.371727918271
0.501834940882
0.785261559438
1.13278913193
0.61350028689
0.916708453733
0.729754267177
0.644539943167
1.06032579915
0.498508945166
0.65809499786
0.787692612608
2.40043978158
2.4
0.0
0.109336635752
1.04892475144
1.3445001691
0.966454825944
3.77485149015
0.719492186297
3.35055886019
2.41189763397
0.945959336436
0.750564803035
0.876865207817
0.992542567965
1.51728929636
2.40754061989
0.023382744121
0.0784937321706
0.109023205888
0.0671848566145
0.121789426977
0.0817555858594
0.132860881311
0.080785022825
0.063048353406
0.115825294851
0.175464185004
0.0446833998516
0.185232467487
0.0501604729266
0.21980619755
0.0653232536776
0.180292582023
0.0859202509415
0.159827068078
0.127491721238
0.127835613381
0.208303020592
0.230527673542
0.145370650441
0.214416816375
0.188086610132
0.255231507164
0.385234043826
0.284557603031
0.229596554111
0.458425885687
0.699033887545
0.608617686255
0.552300677755
0.296702431306
0.159000319318
0.377329731968
0.442189763813
0.286736174337
0.062052574815
0.232601991293
0.0375384368693
0.216826615376
0.0739098013954
0.253550451518
0.23506319826
0.247225250507
0.0824837808314
0.262413129073
0.0957262093302
0.49258103539
0.517402553538
1.16361899545
1.17375958355
1.20766530354
1.55076124146
1.10760851871
1.13204006066
1.23935653965
0.844449165555
0.6526407311
1.06949765969
1.02390421589
1.14317098366
0.5699480291
1.4841722604
0.289614629436
0.477641143624
1.08177220449
1.40476295457
1.03561515609
1.36830617654
1.91462314824
2.37560323182
2.41022724867
1.346185335
0.404303097852
2.3319242499
3.12021128252
0.40569297459
1.02394190765
0.864277046172
0.0627263081832
0.11999847614
0.0902859564102
0.151916308647
0.434226402818
0.186067891593
0.294951134356
0.0619370313747
0.0960596131275
0.145486424255
0.402859846274
0.602754284974
0.0990783239011
0.416258656836
0.0837737738069
0.329988819805
0.336767017634
0.99784857557
0.396633610575
1.82874001521
1.95537265336
1.81456856692
1.44678112907
2.52625308107
0.554053675673
1.39539047192
0.391291175056
1.00807316734
1.95925514133
0.28513886865
2.13185674059
0.855349285231
3.11310427068
0.452346828673
2.86575268286
0.368724127307
1.39665504296
0.454785049664
0.0606792466692
0.15914612792
0.0963245613729
0.0252643377227
0.0513156591647
0.0363327949104
0.0182069602464
0.0315250716903
0.0270896555309
0.0559754721645
0.412598751707
1.70634704581
0.151312890695
0.959839538135
0.03746715869
0.157332823045
0.000265772924185
0.00901014684802
0.0200720282687
0.0157592169382
0.000557138964215
0.0085389259914
logs/lernen/4-5_erfolge_in_simu/durchschnitt/2/PGSD_600steps_0.log 664.184105567 0.664184105567 0.368487320081 4.28308466912 0.0 -1
