Initial Policy Parameters:	0.0 0.0
Learning Rate:			0.9
Learning Steps:			600
Start Time:			1448373384.23

-- LEARNING STOPPED --

Stop Time:			1448373541.97
Duration:			157.733850002
Final Policy Parameters:	-1.306271001 1.72549268018
