Initial Policy Parameters:	0.0 0.0
Learning Rate:			0.9
Learning Steps:			600
Start Time:			1448374499.17

-- LEARNING STOPPED --

Stop Time:			1448374777.78
Duration:			278.606415987
Final Policy Parameters:	-2.90762523284 2.18561625767
