Policy Parameters:	-1.80192186519 1.55280917532
Control Steps:		1000
Start Time:		1438546891.8699117

-- TESTING STOPPED --

Stop Time:		1438547054.0164962
Duration:		162.14658451080322
Cost Matrix:
0.0586980665344
0.074591557834
0.00624086952827
0.0334968872068
0.0656512213982
0.120601181953
0.141751596797
0.0906002663967
0.08301268445
0.136328259142
0.170159175922
0.156494579872
0.171865840167
0.237226051586
0.164668447765
0.167506128069
0.145520925626
0.11997246793
0.12627272933
0.142540771172
0.12244276423
0.133131657417
0.0837154158571
0.074581182165
0.121453399266
0.173668532144
0.0902456635554
0.0559396746844
0.0951242563253
0.127698392759
0.162216911722
0.17811635115
0.122130156043
0.142451067819
0.156189965367
0.158357448067
0.170716330876
0.0489464331061
0.0119922983604
0.0255030976305
0.0567442787299
0.0836258339595
0.0283219175223
0.0380861251937
0.0335145715727
0.0522710858245
0.006846663876
0.0388424911702
0.0607711208975
0.00355030765564
0.0370599211215
0.055382098275
0.0362064831748
0.0354688179857
0.00412259418671
0.0138468069872
0.014134994504
0.0308692189802
0.0545481971988
0.0585767604145
0.0756351473644
0.000314893761905
0.0458344594379
0.0760160085271
0.0629371387974
0.11402490537
0.163310164832
0.121354029485
0.0919494906977
0.135331569716
0.122933871976
0.144895363166
0.174147234446
0.156080813092
0.19524790774
0.180413220232
0.187770067121
0.217671599723
0.215649552789
0.23473270537
0.194861455637
0.234818671082
0.293047864866
0.295564482949
0.404663365388
0.505654460162
0.631155211407
0.898337131523
0.94196196027
0.894479445336
1.0086174098
1.42196162792
0.845115179807
1.0678442369
1.07858353408
1.19003953862
0.844839744822
0.963408147883
0.780631873984
1.12060385333
0.567126661676
0.575980637281
0.424185851752
0.313777333312
0.0655065226057
0.0487628855647
0.0560497568047
0.0663993859559
0.10417734687
0.0651789792057
0.0938011830356
0.121198417865
0.0869958326216
0.080645301912
0.100164742737
0.111946981459
0.108553244143
0.0663528698483
0.0995081699983
0.139432384676
0.084145933519
0.0818150108848
0.134911316636
0.120284205761
0.167551477026
0.197335764847
0.232232833186
0.209462177361
0.156553687179
0.165648761561
0.191490733296
0.174310475804
0.206108745966
0.225762576184
0.223519176018
0.219788014059
0.23481386077
0.2571522467
0.281316817039
0.275988299397
0.270502017982
0.211970920325
0.204127062239
0.226514742859
0.272098677003
0.222838614067
0.208038137281
0.203517234885
0.180428748361
0.142630023737
0.170698023306
0.1825285179
0.118119614234
0.134920109123
0.135577123162
0.0256911551039
0.0666104459181
0.119546824725
0.101730205098
0.152463008793
0.184555499753
0.167782820444
0.160459136115
0.156102622765
0.181086521275
0.189653513996
0.273134105801
0.294999166502
0.323323201261
0.428184195914
0.491995951922
0.536680416828
0.59508191143
0.662111325078
0.654940192299
1.03631226571
0.774222605037
0.957507360154
0.903291659381
0.996051494586
0.633154892816
0.703811914529
0.52865901171
0.561809407101
0.362066994418
0.349274508016
0.262538977637
0.308945726145
0.0101485058298
0.0186049512174
0.0355261529015
0.0506548282699
0.0116479857276
0.0245103710406
0.0491801005671
0.0388901039637
0.0788749037977
0.0136735401047
0.019353119647
0.0414935756488
0.063497639451
0.0845309083372
0.020002326973
0.0260778369207
0.030303759259
0.00968931201933
0.0187813907209
0.0462627147267
0.0694575300318
0.031308621478
0.0377855328098
0.0618667263614
0.0482820249933
0.0806348954851
0.0820863517516
0.0479459527286
0.0863291552889
0.103290864025
0.116392258148
0.0793074579407
0.0973374682625
0.111287608427
0.120807660896
0.0959822988792
0.16812726016
0.147137535816
0.104268646084
0.0666429201679
0.107863720369
0.129650853386
0.155195017031
0.229274350606
0.308704781529
0.273236567944
0.323191824461
0.443354740943
0.604089279162
0.689810091277
0.65589736112
0.945831113024
0.937482987136
1.04996241843
1.05234789827
1.42921548727
0.626777248287
1.21013610125
0.720498011606
1.38432577409
0.870352495668
0.581869723312
0.698135617348
0.555050254031
0.450143567249
0.211989127592
0.0212677408948
0.0540102992004
0.062266956503
0.0635025273942
0.0324524781463
0.0567242706653
0.0430090833687
0.0787112409168
0.0264754777532
0.0424433114199
0.0464630381603
0.0815908818315
0.0658423393286
0.0331428637259
0.0341220879159
0.0549771466731
0.0536068240328
0.0454001501018
0.055081540417
0.0865882802913
0.0294327637281
0.0638024906382
0.0863336588788
0.133054437545
0.185054027383
0.072183870332
0.0529136110298
0.104456866912
0.126399044668
0.0649328969424
0.0782519601969
0.0636450547393
0.0654205986915
0.00927437220504
0.0180034154311
0.030923789153
0.0559048354747
0.0518946772677
0.020788139963
0.0596344819794
0.121429643201
0.128038409744
0.154187542351
0.166821352396
0.16194569717
0.159905239245
0.174200323308
0.201760837729
0.255052692757
0.369967790375
0.487025444362
0.64500743538
1.06255052683
0.995144762637
1.1668609564
1.22348273791
1.44624835313
1.13686259976
1.27146233067
1.66509056621
1.75082523388
0.854772747584
1.31482662482
0.548061217328
0.536218090651
0.388803413019
0.323336121895
0.187337845416
0.202568369696
0.228374747072
0.22413190912
0.271543543261
0.27695761023
0.293489734107
0.336041627319
0.402084681146
0.390304917769
0.423632020189
0.405438859506
0.419004021036
0.360209872581
0.361239347934
0.385332274732
0.322175945949
0.354447192348
0.364361375537
0.332117274301
0.323261659353
0.343862787541
0.207475591296
0.180659078484
0.316260509905
0.583735958703
0.0420118944772
0.0757554951658
0.157889091891
0.186490391572
0.194862723487
0.23723514216
0.240941403797
0.292143005487
0.326212307131
0.302334646862
0.357654964334
0.399825256283
0.371753589124
0.412965119082
0.394280246355
0.379026295045
0.40218088249
0.439310480567
0.402974068479
0.378314615129
0.313758370903
0.301520020307
0.31228310861
0.246383352296
0.241957220362
0.19608544348
0.0526996876454
0.0229256101174
0.0402699701174
0.0515020991312
0.0702650308134
0.0892046462497
0.0356625120745
0.0563539757132
0.0947434649168
0.0947705563463
0.148107042894
0.181032925678
0.151966368794
0.194128355017
0.198115627163
0.218613506313
0.19178931257
0.173461288846
0.179463903053
0.180662999097
0.219886514988
0.254208633762
0.259987285293
0.202903740689
0.294844326065
0.325390575781
0.311765986078
0.324624350975
0.342707874475
0.347433916654
0.361239097509
0.410000055949
0.448826546573
0.433245269955
0.429218038272
0.410458662281
0.412467533734
0.301691285857
0.263696253166
0.197242335095
0.165046899175
0.155584236654
0.187199512047
0.151802840911
0.109697510315
0.184781253897
0.23677389241
0.149542415197
0.0541395287075
0.061227611316
0.0369393273273
0.189257048883
0.359287116494
0.40225683557
0.447578691479
0.446787120203
0.539859127167
0.563851874815
0.556443684537
0.536625318286
0.593165771216
0.556424769302
0.735893567424
1.51180728479
0.2546327734
0.285798985552
0.278585800635
0.265507438391
0.264858736069
0.427190517519
0.0404470143965
0.107946432084
0.208537394094
0.237453553193
0.182164458287
0.207262003309
0.241962559747
0.224894242756
0.29271774362
0.244806767868
0.20228441002
0.224302247982
0.204379990141
0.183055123314
0.177738748621
0.143205404393
0.121795040093
0.150460860798
0.161628533133
0.149916616762
0.121922914993
0.0939896943088
0.131143433263
0.116707010257
0.0171083888759
0.00441406489986
0.00512859812154
0.0249563964217
0.0634465008009
0.0825577380985
0.0366565460229
0.0520185158439
0.0994033032656
0.104207025586
0.109948601832
0.122147781915
0.140528118261
0.18629124324
0.200818879511
0.21507450032
0.224200956266
0.212690823406
0.202926481369
0.243043360973
0.25485889702
0.271616303693
0.294551862181
0.325339658012
0.379674258231
0.460786799221
0.536471834418
0.55658669321
0.587428542171
0.607180246589
0.623347789199
0.745072811529
0.669395289617
0.556856158738
0.715403581453
0.501068723168
0.453077410231
0.320902706267
0.271693391908
0.23375133465
0.236849640225
0.243787199068
0.247087469962
0.258314482492
0.259584738904
0.25832147722
0.274354119159
0.28902145507
0.292588332353
0.288013364983
0.296474810206
0.314055105623
0.3224599606
0.360412207804
0.342896657126
0.355692315328
0.344825316661
0.351455213578
0.380110292676
0.377330814406
0.369275593205
0.384443049176
0.400774486869
0.387811053426
0.409293593744
0.425719808443
0.425409648942
0.427376992164
0.446399283446
0.457151085248
0.441215345933
0.472190195431
0.500475265609
0.480863629633
0.473003595124
0.544908699885
0.563179861466
0.552197590048
0.580849660186
0.564357846382
0.515453737499
0.496128898799
0.515027258936
0.546081335172
0.558693064823
0.517466025676
0.547949213428
0.611976620011
0.68664163667
0.591670354264
0.766758096402
0.572742287361
0.69249626459
0.602045174868
0.6924643024
0.599900814828
0.606681083257
0.643563721566
0.935761895706
0.494430442999
0.578562623321
0.556133650926
0.538633884463
0.51601406815
0.507378962989
0.466598173482
0.461726276935
0.412108071124
0.389530873964
0.342812704223
0.283301778481
0.169159414102
0.16641572161
0.395626843811
0.890727158045
1.73031001487
0.483639860652
0.527583052237
1.62272729906
3.29541495346
0.323256968206
0.586384222602
0.692518691945
0.55817741959
0.632266768611
0.549637611586
0.610545266788
0.691609717932
0.533857448672
0.568958742661
0.528704746651
0.547171179592
0.568344714313
0.538956512744
0.508613088171
0.462519823011
0.433865567412
0.418177849766
0.435158521513
0.405841859542
0.390743606149
0.360342035243
0.39972019023
0.394492398184
0.35647862724
0.350692552859
0.329312801753
0.309027543462
0.290105929967
0.276433374588
0.281474940881
0.281520175651
0.279796663821
0.285871899672
0.243862508371
0.241987851265
0.213726310523
0.194271891321
0.179695799418
0.212833235327
0.210127217972
0.16621295345
0.150202825448
0.170379834155
0.134808845191
0.167800957073
0.177994619475
0.112624531677
0.138564775933
0.130470385824
0.156469729687
0.154754964788
0.0981155041528
0.0781996342141
0.113541961706
0.17370508589
0.121604585797
0.0482871900641
0.047897854001
0.0664232879151
0.0739713337639
0.0751153627476
0.0860961959829
0.116034061384
0.162677391434
0.17118554047
0.189440844813
0.231493815647
0.287231324102
0.332863125144
0.421485142667
0.504351636323
0.572304766113
0.588673053125
0.58845927021
0.567623286152
0.624184654277
0.622151288271
0.634068515638
0.725176964112
0.503136582917
0.511773012125
0.518563842141
0.501024256452
0.398864047528
0.0440418199142
0.121793136
0.166892610338
0.187252769629
0.21458281679
0.16670707221
0.173624198357
0.183366762791
0.182903647147
0.160198886516
0.169412037531
0.182594762393
0.219760337496
0.159487934716
0.157920703649
0.206999111823
0.147057471155
0.156451564424
0.174781108647
0.159234807736
0.141377297318
0.172035175572
0.198683760372
0.156195530538
0.181351482307
0.153771291387
0.165215278734
0.173105650688
0.124415363284
0.125728145666
0.11691936598
0.0968824392593
0.12399076361
0.149106890953
0.131570431905
0.118712566491
0.140393658222
0.165683884934
0.168496504442
0.187783433673
0.181230328681
0.128156548414
0.110813361856
0.152738736211
0.170364522544
0.221980253212
0.263873401306
0.292973490785
0.36032471116
0.331327554463
0.379644981212
0.482855053024
0.590098006509
0.601952419087
0.674320801277
0.643234053974
0.698622008171
0.693595127173
0.725222247595
0.743715212804
0.915375330836
1.10077994319
0.524802109102
0.469165285829
0.186479803619
0.137005051612
0.0780630322587
0.0178755841099
0.0172033487436
0.0496565657357
0.0804025450576
0.11274050982
0.163601731888
0.133142110171
0.0688945198818
0.127210920498
0.19988173913
0.220591017585
0.204009611005
0.257987015196
0.302787938516
0.268907532488
0.256948790126
0.259328502142
0.255858824578
0.247964747707
0.25486874494
0.270414951234
0.253973195074
0.249107521477
0.233795849168
0.244652085572
0.234173395822
0.206781952546
0.189889565706
0.124691420508
0.165664934691
0.064768819011
0.045271970616
0.105519864872
0.138129366802
0.153905989257
0.159667527836
0.14957029392
0.141493620362
0.141552015468
0.166360217558
0.168333669118
0.145921067217
0.149429543291
0.171971481168
0.160350966078
0.171950899141
0.177615148059
0.182681054955
0.191256091273
0.200589885358
0.196027265132
0.205489504104
0.208959142616
0.219003309463
0.222352598001
0.222062749112
0.22691135301
0.235693139834
0.248763603712
0.259512960042
0.260308303759
0.265529320644
0.276302883621
0.282046842796
0.29290173851
0.29483407663
0.299236649287
0.299350287417
0.315360803668
0.338940401658
0.353001322331
0.356951959831
0.363048088658
0.374682788115
0.398887361123
0.402128634347
0.427629363737
0.444690824117
0.425442934129
0.46216100294
0.526988495443
0.494572480147
0.516944381138
0.567212371711
0.586340397177
0.615685672382
0.662060961427
0.564595889434
0.730956383652
0.602304589535
0.819272005668
0.646545255991
0.77845431372
0.67477502602
1.09918482867
0.626488675347
0.999167158688
1.22640459939
1.35405594105
0.679661033697
1.21813715146
0.820119986784
0.913048838334
0.758789809702
0.941310868704
0.657114589016
1.00415109676
0.65077940413
1.05801756431
0.689451361161
0.862446232154
0.672197090944
0.796301159946
0.634406455415
0.882201306267
0.561836007576
0.680211636127
0.555426592682
0.648890546327
0.532095832564
0.574956045048
0.540989099598
0.528665060246
0.503602286548
0.478582356245
0.450197680572
0.422694604217
0.406608283004
0.396968162871
0.371886868786
0.323798436232
0.307915528239
0.287892485847
0.281498023782
0.274938621493
0.276212995261
0.262677401246
0.242314189883
0.228670697977
0.218276465403
0.217400122809
0.198987332364
0.193944745473
0.211854359639
0.205275565549
0.176200913097
0.171658567363
0.15024400468
0.145876095581
0.139469492122
0.127772065797
0.136327423762
0.141424212476
0.104863034576
0.0916683140906
0.100210066437
0.101662359212
0.0947597207771
0.0741093164819
0.0824339408054
0.0798078393415
0.0437376626094
0.074348799851
0.0752939612375
0.0628069915053
0.0640053914832
0.0672391076218
0.0704582255307
0.0690296480577
0.0991951714377
0.0676960871763
0.0720186540811
0.0730720084103
0.0451603280036
0.0871780825249
0.0581302416984
0.0251756806825
0.0188120619864
0.0413568584701
0.0423843838395
0.0195402959731
0.0332322152796
0.0390777830368
0.0301269264692
0.0258005457581
0.0546087968166
0.0366304525129
0.0240186932898
0.0319376241012
0.0181856887615
0.038530656716
0.0714629129626
0.0972838958766
0.107931884207
0.13754136349
0.0541262714281
0.0857089874867
0.0796855811201
0.0404585923382
0.060968101662
0.00165742022961
0.0142872712641
0.02275908888
0.0361983747951
0.0579925886893
0.0561754971185
0.0269573502853
0.0296758156582
0.0105543419335
0.0824169457401
0.125872884098
0.0216227518416
0.029014246469
0.0100775668669
0.0328006837215
0.0621065263289
0.0689417683559
0.0720067525289
0.0596350480538
0.0375889921902
0.0410664738316
0.0802445259835
0.118732852204
0.0524848848846
0.0552407259731
0.102634518076
0.161737598344
0.126247238005
0.131330536063
0.125127821105
0.108554138724
0.137651354482
0.137808545641
0.184999234142
0.214064691984
0.234871330289
0.308316709495
0.373268952752
0.462041613133
0.711626448088
1.25852803701
1.12919424696
1.38042717301
1.44036568754
1.2105429581
1.33331027462
1.64776241496
0.337233892554
0.496531550452
0.456406564235
1000000.0
0.0
0.0
0.0
0.0
0.0
0.0
0.0
0.0
0.0
0.0
logs/alpha_2.0/PGSD_300steps_4.log 1000305.13046 1000.30513046 0.205799125035 1000000.0 0.0 989
