Policy Parameters:	-3.46929107667 0.848612901208
Control Steps:		1000
Start Time:		1438545117.0122855

-- TESTING STOPPED --

Stop Time:		1438545277.523551
Duration:		160.51126551628113
Cost Matrix:
0.0729897544936
0.30693561764
0.073352994147
0.178405272639
0.217851103541
0.118699809212
0.102338870901
0.0447897927212
0.17283793503
0.19914670032
0.272526774191
0.0818347291852
0.10085929708
0.0808172248236
0.211402887678
0.115564783394
0.184213995411
0.248102815966
0.145368360559
0.131484857745
0.150061147069
0.205652771474
0.170261678094
0.169611956055
0.140904286519
0.211129953686
0.277503041307
0.112801500089
0.209426088603
0.269849373911
0.172281224539
0.139742068252
0.240507241462
0.134883456814
0.215452199438
0.014330920349
0.0220224172377
0.0626070050158
0.198120198617
0.236854679401
0.125586971462
0.159830205396
0.308385393975
0.247804968207
0.148866854946
0.3343316908
0.431551444715
0.487397788421
0.490288931033
1.01045508229
0.525593693069
0.845646296335
0.493182363888
0.90448667986
0.472205969242
0.763737092772
0.475170394243
0.440232393794
0.462230858864
0.386938365224
0.293090145579
0.0302105127982
0.0708523772802
0.244999092164
0.0706783385534
0.00953099883943
0.0281942347957
0.101869644589
0.218046831705
0.0604403118173
0.191821540592
0.0678335714539
0.0253623749575
0.0251218578143
0.108455375283
0.0645706792251
0.0046265468342
0.041756504444
0.0766578426159
0.0432824910419
0.203894561684
0.212286033823
0.142007178382
0.311308410911
0.217221053841
0.0121133426878
0.0637324233072
0.0544937628214
0.177707967071
0.283982119162
0.245040297556
0.132708797663
0.217300524332
0.118405742669
0.282449519662
0.240921824633
0.300932011911
0.361562849123
0.316145821129
0.348920756005
0.389303497629
0.404456614656
0.702088052212
1.31964088118
0.34366128179
0.852658913397
0.491278919354
0.52536954596
0.508595262824
0.459059367487
0.364962303753
0.481243941214
0.488699151282
0.274719632647
0.238925964376
0.268062213483
0.222951570455
0.152059633186
0.21559048007
0.186497658411
0.236630165641
0.0471351895755
0.0258254037908
0.0388426001395
0.0852144260527
0.120563395481
0.149291873959
0.206189483944
0.0985423903998
0.247306236771
0.203087849325
0.12555464473
0.23076030906
0.0343735290113
0.0391924593084
0.266455869237
0.0690455747365
0.131628997475
0.136912381531
0.111771365896
0.0842428168492
0.0810542998364
0.108297346808
0.0843262416176
0.155928899711
0.175895750445
0.210157207483
0.230554266156
0.228025048538
0.238109516469
0.23871625393
0.227698433623
0.31150647952
0.327136476892
0.312855853989
0.346142674031
0.396572292392
0.37913434217
0.366166440077
0.382507197337
0.381856062339
0.359371866662
0.332036870195
0.287464785793
0.24842171996
0.279932844815
0.310407432617
0.252004344202
0.168612461023
0.138409510056
0.16415855335
0.120077962114
0.0369393356748
0.143489431161
0.222486667576
0.246476851365
0.196517896148
0.384137132859
0.483030761319
0.354934221017
0.602157389306
0.768804464804
1.01139696806
1.03096384174
1.097436381
1.12168316188
1.21080891241
1.11015435675
1.19594052272
0.716245978628
1.36566553166
0.481595297409
1.08505741069
0.475823781739
0.349941857481
0.179187683817
0.147192059786
0.0828444409343
0.022538003848
0.178317272098
0.0494471369976
0.0256649041741
0.136201243687
0.0856709404802
0.206628614486
0.333977182194
0.0862068377089
0.033946738939
0.0219801925566
0.0346735675176
0.213149979734
0.101658845287
0.0422484477158
0.104037448475
0.115860189327
0.00415508717564
0.0750739328813
0.0475004277437
0.0782887909577
0.120282834031
0.116485262955
0.0145822331535
0.0815538427886
0.230121825399
0.250924271798
0.478102635552
0.269918731143
0.170422875907
0.33186785453
0.441894303686
0.487342412329
0.729684819504
0.390404291064
0.50829010929
0.417421656653
0.403484892345
0.383992716897
0.674117139671
0.244982891021
0.511543750741
0.227331265409
0.993577632904
0.244144497565
0.256357692655
0.149291784823
0.233019789382
0.252275440375
0.128398903753
0.25463770994
0.0487090245079
0.232575523874
0.0792615957002
0.0181887470676
0.189284488084
0.517973344739
0.0036840848436
0.0823453666141
0.222346889844
0.0269561994483
0.0607959998988
0.286627787205
0.00505193033001
0.0211034652079
0.0778007556633
0.033557421731
0.0480628388318
0.0530257084207
0.0638420367074
0.0788172460751
0.144860714245
0.0790034018511
0.0694120072139
0.202886555812
0.0177570570931
0.0895427575797
0.167450261604
0.0176686902838
0.151007686491
0.0666481341982
0.123515417825
0.125962195355
0.218087872902
0.0322850049154
0.0395380898112
0.0579122101096
0.0556907786011
0.0729023897439
0.0453817923845
0.0874351592693
0.10538739155
0.101687967666
0.0611331044636
0.0877082552036
0.151070783899
0.174650490541
0.197444283324
0.223628292397
0.246814763189
0.318103334386
0.37650023967
0.406606605669
0.421497902946
0.439229887204
0.465222213749
0.481889035104
0.512625980782
0.501723236679
0.537357022323
0.579910314202
0.564589996783
0.612096529661
0.595573720871
0.569564074267
0.447043576192
0.223762440825
0.0898278401128
0.00998557875127
0.0350512620399
0.1631178657
0.175948859971
0.16762413908
0.0652393987909
0.0887286161143
0.164016674719
0.180584128055
0.333623260011
0.358412098259
0.377537897748
0.236942892656
0.383301117769
0.276989235479
0.238622320988
0.22958281225
0.286590697836
0.250276538392
0.28259396962
0.253034406536
0.309739404356
0.302398870057
0.179550818478
0.201809901881
0.0997533394181
0.0156527015261
0.175424377142
0.290517953158
0.0964619008553
0.0776001132755
0.117366341728
0.0460587207434
0.0529661427648
0.0534490148197
0.0491690941432
0.0725013424192
0.0386460091717
0.0419202327106
0.0208339898586
0.0799992785544
0.116320153823
0.0425319597972
0.0862670034021
0.104218078615
0.112184328064
0.072267866162
0.10182433716
0.122163364071
0.0883238641442
0.093273659442
0.0720386282066
0.134237978215
0.082153388669
0.0895168034445
0.090623274725
0.0827646563836
0.0862336085727
0.144543894953
0.200817365213
0.145360449169
0.137285026294
0.151762483755
0.127789384652
0.100697820534
0.103932317449
0.101741439786
0.182695153165
0.24896420802
0.364322754232
0.514629291291
0.616937301588
0.695582489258
0.66538428783
0.751509210337
0.729594531327
0.731725592559
0.680605673715
0.746617396523
0.934639277002
1.06295742617
1.11158016114
1.09901294836
1.05131400715
0.90303521646
0.693258443449
0.589804731037
0.300960235115
0.060655855746
0.0863508692909
0.233971416058
0.282792895175
0.263197198515
0.301467573416
0.326328510894
0.337013462133
0.340695087299
0.338561395882
0.344523539632
0.355231267398
0.390520287703
0.382818899586
0.37262908704
0.407053037664
0.407610381154
0.406480063165
0.451914468769
0.460517158801
0.459891098487
0.479262028309
0.47572666085
0.51600541778
0.543126322082
0.538500756167
0.54662189061
0.509633366439
0.576862038694
0.539400930159
0.624382740847
0.554285658785
0.651745591771
0.557153740449
0.768896312863
0.53611160605
0.801356974978
0.49473091458
0.866857320483
0.49659899179
0.893223238422
0.55279049248
0.845476669905
0.647703218502
0.646365317812
0.810230181906
0.677019313252
0.88497805277
0.91765145856
0.696152760206
0.910206965492
0.757551111704
1.03333664761
1.10994176393
1.1578190537
1.50322153152
1.33018104732
1.67887513798
1.75999124399
1.97981629151
2.35175970294
2.13193798169
1.90617813506
2.49382369252
3.03453599003
1.90614611902
1.89818687706
2.46820313524
2.22053216339
2.09508132584
1.87435973631
1.91906691776
2.18000708332
2.12417412167
2.90569758805
1.83386716035
1.34574145669
1.59282702386
1.21546077941
1.23528087792
1.03460364992
1.02871308226
0.849462398262
0.843487902332
0.79194750536
0.610946059024
0.550037114461
0.669570442448
0.482286765554
0.474445341686
0.412391352991
0.364343996492
0.273300909072
0.16053897684
0.191699286476
0.143576700845
0.12126796131
0.196805508204
0.289323671079
0.110689148662
0.125573050387
0.193674016258
0.136067775936
0.143588940228
0.170885000463
0.186516840586
0.0947776702868
0.0751518616125
0.108347711952
0.0979444010017
0.0958332992288
0.114750484982
0.111935687788
0.0350771979587
0.075693137068
0.147023769841
0.104214315429
0.0416998011988
0.0489531422165
0.129566128177
0.00214760742559
0.0429106733162
0.149215843628
0.0486674900554
0.104688829444
0.0570260236537
0.0766930990411
0.0459305719096
0.119257872515
0.0910305138683
0.145829856702
0.120380460202
0.05265942711
0.03766268517
0.00656069581816
0.108259394994
0.157337306297
0.00489495667978
0.0340317719982
0.0200075824105
0.0359621216787
0.0321560564129
0.00902571619126
0.043237448755
0.0203774878766
0.0261619848898
0.0252055015934
0.0255041848806
0.0212597168778
0.160336133102
0.0736615107242
0.0650226426272
0.0221492709577
0.0999777595021
0.0366257090528
0.0479343106076
0.0663203541439
0.122203252449
0.0848166654373
0.0670925171125
0.02589705565
0.035336538114
0.0637988451687
0.0950385391902
0.105477939129
0.104379611165
0.136978802082
0.0984704128435
0.0681008013438
0.0700621071677
0.0777775015133
0.0842442617813
0.0815393300835
0.076489788286
0.0950104467166
0.115110768275
0.133888685586
0.11847753246
0.0923426946296
0.128001644829
0.124872531357
0.0984343299416
0.116840611767
0.116875514651
0.157374997639
0.158121167945
0.131642751792
0.100487806325
0.110563184007
0.135817004302
0.0985626760477
0.0636733741063
0.037373482581
0.139601939729
0.0775658466564
0.084039805869
0.054344726273
0.0451359101443
0.0395895605012
0.0310513668423
0.0260982491367
0.0691096130662
0.0595506189876
0.0370878908686
0.0608655860941
0.0369978065014
0.0390879400201
0.106097170403
0.0302025003916
0.0193103908476
0.0561627817377
0.0218805167654
0.0311984253596
0.15887901317
0.00423992648982
0.0565175234635
0.0291780551529
0.000840048601936
0.0901890760818
0.0881287872525
0.0241716603424
0.0501389287437
0.0126981389045
0.05199142705
0.0414726822326
0.0352495019245
0.0159004119902
0.0238067430507
0.0554105971091
0.00730285847084
0.0716859905833
0.011467889978
0.0370401070387
0.0339915429717
0.143236202282
0.311525173766
0.216742992031
0.124875508057
0.146473851185
0.0523196844895
0.23687998053
0.258895475129
0.199673468387
0.124255735065
0.111501419087
0.36014819619
0.0245394977757
0.178070888487
0.223410879793
0.165271980187
0.0986942919865
0.10548622427
0.142655101497
0.188261753029
0.232776830138
0.102942962598
0.128755580867
0.0500296199241
0.037634686327
0.0480197484597
0.122387346031
0.0648910420132
0.060824003499
0.0802224589227
0.0823125629611
0.178500531653
0.17253636821
0.201840966698
0.30334350243
0.355365060602
0.386619259952
0.413295035359
0.440557195683
0.47863157024
0.478641456836
0.524139348803
0.550791096576
0.571754792521
0.626803389664
0.582314689515
0.598350192237
0.555161800269
0.519514276994
0.558337289803
0.553221273047
0.589333247592
0.479458516829
0.235209728835
0.066342250129
0.0609860169111
0.016845798509
0.161314799582
0.0552791353696
0.0490940577589
0.0134093226214
0.00876255216255
0.146624200636
0.1077481657
0.0711716796081
0.0625544653034
0.10549755644
0.0600496468816
0.0650448101372
0.0721706136742
0.0590000144613
0.0454121526435
0.0691274966429
0.101352577011
0.0755772943792
0.0644688176767
0.0320343868561
0.14939447987
0.046442848679
0.108016135294
0.0282329286103
0.133752069586
0.105224218825
0.137452332314
0.159604200123
0.163299304084
0.162482405858
0.146118588808
0.0489568196335
0.175307448586
0.129256671059
0.23714425321
0.325633815724
0.209282413734
0.151549626657
0.0469111084567
0.19212375557
0.132285834699
0.111705474952
0.105607726345
0.100076254764
0.0861315744614
0.0791544447131
0.178904525482
0.0696099826554
0.15961046424
0.133937170407
0.173518483884
0.167005507609
0.161754442611
0.180673926061
0.244874308904
0.100276208867
0.0826020659064
0.00951674166507
0.164288969059
0.0683610435388
0.0934606388954
0.0346123896918
0.0257383337556
0.0826451205273
0.159974447385
0.237491933537
0.0537309724077
0.00937897349334
0.0087907496396
0.0515434848027
0.131833847244
0.103127417916
0.117247465138
0.0833904173785
0.0796413893798
0.0606497942496
0.0628490251114
0.0857883121266
0.0910726735706
0.0881159685902
0.0632870906142
0.020267220055
0.0310003706144
0.0813185127509
0.0492652822896
0.0875090128158
0.0734274271283
0.059664924214
0.026391984648
0.029212911168
0.0778280155876
0.110518657743
0.114229325167
0.104771655435
0.132410304216
0.125326286039
0.100388138677
0.1025535058
0.120762720207
0.113847001355
0.0977432980926
0.118815377779
0.0979498890227
0.108825271943
0.118703759729
0.113391392245
0.105387212263
0.114942103761
0.125459701974
0.154779030741
0.138385446321
0.113789415975
0.115008769445
0.121238060194
0.104074189103
0.0580528386391
0.0347424139656
0.0800117911234
0.0421109079397
0.0123758867769
0.150800447976
0.116911111171
0.175697344472
0.116894237246
0.0897858300407
0.153448397377
0.111437085427
0.0829613882248
0.285190171201
0.0481927781848
0.192425516515
0.118764255308
0.0626323636698
0.169269573043
0.0561476709214
0.161516652023
0.184936264446
0.158032866625
0.237965529873
0.257709719089
0.350789965196
0.281125078222
0.397049935402
0.351188505418
0.330111381512
0.521642575164
0.616573066459
0.480551967671
0.436552052667
0.421276286938
0.499428371841
0.469571108163
0.420633025172
0.30795922414
0.376670659781
0.418558135988
0.325499257303
0.15983477032
0.279681870712
0.238507418009
0.110711313884
0.17889219724
0.199397038223
0.0569893502287
0.205415335893
0.21562144183
0.133826242952
0.252183634396
0.174160800924
0.103409180595
0.0775187530633
0.134282216432
0.111291526044
0.152286103797
0.0444443851514
0.0790023607802
0.0234232316416
0.0859937127725
0.0858305831365
0.150442303674
0.165059550706
0.165019837335
0.174423364941
0.216121010999
0.219981740323
0.212914210482
0.236194982853
0.246467853318
0.254152587714
0.252081843683
0.259835367431
0.266226581331
0.264850032149
0.27643141235
0.27049206057
0.274921854968
0.286768790323
0.296624669115
0.313003853258
0.294954127169
0.255088844216
0.217215887152
0.220094150104
0.170087979406
0.0756724405144
0.118990490075
0.115704493837
0.196720420336
0.165095825537
0.24431226803
0.206848551605
0.286881364887
0.243296538197
0.306686166291
0.20430420421
0.303953040243
0.258420309461
0.291132706941
0.344976497418
0.393556304571
0.558348103824
0.654288082838
0.744166371335
0.52372484723
0.547952262322
0.622897547504
0.630129470717
0.501924538821
0.678442204237
0.439744173697
0.469800018705
0.363581936946
0.265171158934
0.105741866071
0.0681368571224
0.147669982848
0.14009124332
0.196271209559
0.218005607763
0.133463678193
0.225113395024
0.202466892109
0.0114548059913
0.099158679715
0.046140325057
0.103833242859
0.0272803527106
0.0432834144236
0.0430860957146
0.0435660204259
0.176078971634
0.255311351524
0.183194963257
0.119652768016
0.016803800743
0.0369120251725
0.0123108087507
0.116943297801
0.0540849815934
0.2610855185
0.142962229177
0.189576853302
0.254108474693
0.048502997948
0.0881440502242
0.0515984901687
0.220922263797
0.201991460504
0.211582680773
0.236839112151
0.214275679433
0.200303539384
0.309102438681
0.242913705464
0.172448270514
0.285326509167
0.412623773873
0.245019540139
0.349610849328
0.217391825024
0.232002974245
0.304622539643
0.113891161104
0.144558779019
0.148003848959
0.105486697743
0.101334907441
0.148109529064
0.186723831762
0.28070687339
0.376620875191
0.426380539407
0.471901789018
0.516263238467
0.575656760788
0.613470550624
0.65387354643
0.710608096323
0.730955136512
0.941410549672
1.17801024598
0.768945887974
0.557710744056
0.480603689239
0.527677567111
logs/alpha_2.0/PGSD_200steps_3.log 281.906838504 0.281906838504 0.162118424234 3.03453599003 0.000840048601936 -1
