Policy Parameters:	-2.44091726708 4.0737474377
Control Steps:		1000
Start Time:		1438559071.481504

-- TESTING STOPPED --

Stop Time:		1438559245.4863784
Duration:		174.00487446784973
Cost Matrix:
0.100998135109
0.348982245529
0.275495626158
0.390269562018
0.634425100188
1.11020089753
1.15095440276
1.52478072122
1.82971699808
1.73999749156
1.92251113655
1.43826232135
1.74086228129
2.03831480579
1.60932905905
1.6645113916
1.42954717445
0.65786235905
0.299581168153
0.30753752322
0.407622020812
0.299069950472
0.332024095908
0.360366151594
0.284658249176
0.248467345727
0.351650293121
0.149617995011
0.321736599356
0.280062945255
0.0737988327515
0.188992616353
0.0757661113388
0.0
0.0301842418643
0.0499317807042
0.0927441745213
0.131419464114
0.0566883444057
0.0659476828103
0.0788442106096
0.0693211771929
0.0824502810512
0.0627159353584
0.0748571259086
0.142038336358
0.138526690189
0.279840268548
0.404643032629
0.470752592705
0.491079086189
0.528864320202
0.737879670123
0.527575381569
0.683938474557
0.531895454308
0.63569604206
0.790149372674
0.455625005756
0.434472734163
0.430627667831
0.355834123192
0.269458649868
0.169658145174
0.07405416506
0.0334575339055
0.107545738991
0.0128355947517
0.0608589856887
0.0968634979483
0.0385756936268
0.0236059173196
0.155120216392
0.192197922938
0.268627044348
0.107335046319
0.342050382761
0.141395854058
0.319136294439
0.411277254578
1.25841546442
0.0891523636853
0.309509229704
0.312437390617
0.169492628871
0.38395667072
0.358385275224
0.252661087514
0.340506592698
0.183660780665
0.242280202022
0.107066837672
0.149963643284
0.0458996535063
0.0989254052398
0.0974211486507
0.0522743490465
0.118300191001
0.0243850714558
0.119222346708
0.0658408927514
0.144011306754
0.0361880052621
0.235387515616
0.127226239889
0.0602845694995
0.122362306987
0.179716191281
0.318201625075
0.144100639303
0.376169682594
0.184237463854
0.229207323056
0.172532894562
0.185593817216
0.375460748289
0.153332924051
0.0776834275527
0.0458412738651
0.179884032691
0.311501794459
0.29870378465
0.311570044922
0.198487230127
0.273446973362
0.303769567551
0.493338227724
0.482634911952
0.605930620718
0.484613463285
1.12595298223
1.02180422175
1.22874928642
1.11097792008
1.23672136546
1.06296123277
0.933938103625
1.13353170678
1.19934907287
0.530785385398
1.00048125308
0.464125453017
0.366823702043
0.521743424712
0.117982651589
0.0249728408449
0.0537495754092
0.0471041987399
0.342856170711
0.398845455855
0.0489137961062
0.14255240025
0.202794650831
0.176378544049
0.256239223878
0.160753794765
0.19498313044
0.249199578488
0.085561965099
0.118160171313
0.162807719818
0.139601497639
0.395929407863
0.209387158198
0.126832012381
0.218263897507
0.283053831144
0.506686383556
2.95977082731
0.00922370852022
0.0823698397818
0.0518684456087
0.0248165447456
0.0696106055792
0.135455425124
0.282753486967
0.335096093502
0.327084997774
0.330081186477
0.183637133136
0.0488090968176
0.0544928433774
0.169846472315
0.286136260738
0.278681225823
0.193499427617
0.338614129044
0.262105992051
0.320540418065
0.521379922474
0.169415781707
0.252946759483
0.294715160038
0.0873978254305
0.0944709869086
0.204129768089
0.157532830142
0.213715656329
0.140811954637
0.120275112112
0.0624670756266
0.248693362114
0.0887007705388
0.26873028447
0.283306793203
0.11137631995
0.211239985157
0.152947729917
0.0112139746896
0.00752902621372
0.0855717711522
0.116190985682
0.403621818223
0.0326980317455
0.208855723408
0.297917208667
0.134966713722
0.44768916331
0.0381218916024
0.162667884653
0.259764555873
0.292814526762
0.311177196867
0.315124790671
0.318100294759
0.458042769764
0.823874649131
0.572529803792
1.10192178377
0.875773073657
0.899767683163
0.811328010168
1.17204238156
1.05772266015
0.492362733551
1.10445124001
0.482550277723
1.23745297241
0.325990208528
0.511804816365
0.485119252456
0.2606554148
0.130248189016
0.184575824183
0.0770367375023
0.111361314185
0.142259269429
0.160669607686
0.242196182991
0.270378264225
0.252969905865
0.205050298549
0.26418495308
0.249700087293
0.160396616452
0.152213173207
0.153542437507
0.141208548524
0.107528192468
0.174811948773
0.367836387056
0.412600852339
0.369816919583
0.376172642827
0.365595310325
0.369433081114
0.284557294324
0.307897960742
0.28184748445
0.345328210509
0.326518626084
0.277084937392
0.15921519402
0.0932108827911
0.0505877566672
0.157068118806
0.522931028875
0.474896471276
0.520604074902
1.01537794148
0.492046123706
0.80341323755
0.600241947662
0.824517870796
0.661121465645
2.59313101596
0.8153793825
0.14627543144
0.0987108389897
0.0648543158101
0.0210679894248
0.034479551055
0.0340180988763
0.0745963513084
0.0951875240946
0.0978523887144
0.108952855774
0.16434935526
0.0707874609022
0.100953065225
0.0988037523527
0.0715825570653
0.0974801947356
0.151421434817
0.169189101482
0.162747207697
0.104621705648
0.127706949787
0.209128050923
0.202463959139
0.1122229506
0.110759969526
0.15081519138
0.138322182012
0.145230473565
0.122070570718
0.139734092272
0.141294697236
0.200640100375
0.162175489244
0.244679645047
0.226836409933
0.188707333554
0.196943953497
0.234649935488
0.262834623384
0.289258044212
0.352772441128
0.388605274146
0.434393793449
0.528095768738
0.710029838377
0.727860002311
0.940504990018
0.888750974274
1.08910407451
0.952849117052
0.98148789388
0.870038578872
0.817578179472
1.02294442958
0.528366708236
0.752342935631
0.342712758598
0.459133036674
0.427666893844
0.178806008859
0.154027263742
0.161849742668
0.162295386441
0.182463890651
0.167944354672
0.172701066844
0.160268249003
0.209293546116
0.168751776581
0.160927617829
0.152345665538
0.148771999967
0.147434634075
0.16858252102
0.163117138761
0.15304562319
0.159376156386
0.150657236836
0.151190463998
0.181385777101
0.180405359349
0.185356491267
0.195743594985
0.188334079188
0.18952411668
0.20749067272
0.167849944471
0.164676741461
0.186114164978
0.240052276003
0.1684315281
0.154050506883
0.182374859652
0.217818756048
0.267753712345
0.241706634833
0.22204630298
0.199239805609
0.206297284577
0.181574837025
0.187072748496
0.14386402385
0.0620805952428
0.217938187345
0.548651331108
0.853161651754
0.603471220076
0.929934720898
0.687405393397
1.06305855094
0.697745902717
1.14265063101
0.85111774589
1.08634985176
0.868993434491
1.04260854827
0.921098784195
1.12906218532
0.98642848142
1.18167805509
1.07999677597
1.11872779467
1.19731789454
1.15981357735
1.17310262428
1.27184939273
1.24821361376
1.06558788913
1.07613501731
1.20192886431
1.18924556784
1.10870095969
1.49116917939
0.84855803429
1.3304015105
0.899436504029
1.16657589288
0.976995435811
1.27036275664
1.04634989339
1.22443507299
0.965119752896
1.57654214634
1.50556312743
1.76157491015
1.63846173156
1.6000645672
1.76087814099
1.84103436607
1.94772945847
1.85128724217
1.99014026075
2.08565307923
1.91229818364
2.08233627907
2.00142694856
1.92007150064
1.8191075809
2.04807684186
2.03152484375
1.64857311013
1.85680417847
1.55406016926
1.3318089615
1.43264546294
1.33204332631
1.48191811521
1.00337627541
1.1936779127
0.91243256035
1.01749971835
0.874623424124
0.891103366737
0.512113199652
0.612980197211
0.51368627373
0.486871706505
0.456141096738
0.394262997434
0.400815808784
0.363194469735
0.365115217763
0.250394864586
0.181261784685
0.232671819407
0.258607988005
0.197662789545
0.114456973977
0.0873748877789
0.213056026136
0.371163663185
0.425459117338
0.511600387956
0.504324283987
0.501844480341
0.508957487376
0.529850045905
0.520996300391
0.501912588891
0.373735635035
0.297741852305
0.208433594208
0.255069251099
0.270502743461
0.243702252523
0.116053650663
0.0473718150744
0.227731749832
0.306115572604
0.270365716276
0.257447799966
0.256260736819
0.26658787874
0.242854240724
0.220062002224
0.247586952153
0.19402998443
0.238973629108
0.216217697296
0.177024296805
0.134166882299
0.158614326329
0.219234218846
0.233587699758
0.1347822712
0.17791500417
0.106443350938
0.113057687816
0.0856937711202
0.0221170595428
0.0860836420919
0.0254724523701
0.0515850850729
0.0377570608948
0.0641526685094
0.093187092878
0.103156256591
0.12634045577
0.111216175697
0.0908485564573
0.0817666770132
0.0400347979627
0.171342344584
0.127651816243
0.207824673337
0.0181375396226
0.03468136876
0.0960062339995
0.144261052246
0.0705741343309
0.0139173822974
0.104943414832
0.0285983642501
0.0717242441426
0.0996961942336
0.0357683587545
0.0330065484874
0.00750411123678
0.0546956139902
0.127110594506
0.00291995165314
0.0162804203002
0.0238471685177
0.0379698704358
0.163381591374
0.0137223227018
0.0306424556175
0.0559354637013
0.106721158077
0.0846111095098
0.0727681554855
0.0700022189547
0.147112155965
0.0747498434346
0.154837854371
0.0910322159922
0.184961239244
0.0740670072322
0.00601104600806
0.0164989268748
0.0731639498512
0.0148419512271
0.0428843084684
0.055696937686
0.0471431670199
0.0238307767621
0.100446568891
0.0392074142883
0.0379499223615
0.0207920005099
0.0705021164528
0.114535008644
0.0569010946453
0.0449310333308
0.0383499553231
0.0418423948817
0.0236404832903
0.0441406323441
0.0267924957091
0.062961156928
0.131718691449
0.213591104626
0.184874403186
0.0815255553398
0.0990939357718
0.041477175747
0.0999221452375
0.0800439944544
0.0559213682367
0.101584972362
0.00032381107233
0.00247947219591
0.0391222356493
0.119479097522
0.0728352350352
0.17484274016
0.0633732822853
0.157455009562
0.1484612805
0.0883839425799
0.188784916656
0.119629292749
0.22181975685
0.217385082583
0.0483654673595
0.0870892471883
0.0956843969201
0.171301238385
0.033911049218
0.0658897495145
0.0399365910591
0.0277473012309
0.0808793007366
0.135248755173
0.132403334292
0.18063752415
0.117557823649
0.126374005516
0.066328145355
0.181438145022
0.225017209793
0.197421640412
0.321814024013
0.268991191784
0.314772632231
0.271015576514
0.360159266886
0.533069306894
0.669731968819
1.21350076131
0.968974660621
1.2749827692
1.30490249656
1.41528769467
1.52865161038
1.37885147542
0.756037645934
0.97957599149
1.34721864772
0.745224542531
0.878192259435
0.690286539341
0.219229210234
0.318601714594
0.310413351514
0.238678314165
0.0572958448777
0.036705398131
0.179322505809
0.187471702549
0.265010803049
0.283624277795
0.301230995451
0.302622022997
0.303342751991
0.310338314264
0.289759408631
0.283125967931
0.30772917232
0.319420469204
0.274857184858
0.257075657554
0.249785704024
0.263211951854
0.231307793447
0.249702070353
0.23708548003
0.2273185774
0.219703615187
0.249950357912
0.217721008681
0.241075340012
0.255957994757
0.234135988514
0.201199062336
0.202722924602
0.204743040369
0.259141093124
0.223612389279
0.207651706809
0.244445391595
0.183985827162
0.215010160644
0.238266337047
0.230410897759
0.229458052157
0.192017979031
0.181463190059
0.166637387217
0.174191989552
0.175423795852
0.154503111042
0.154924945206
0.197224794636
0.10577347537
0.196530605419
0.176888874056
0.226245222078
0.145711375286
0.15092356181
0.10967190539
0.140296764732
0.153535259832
0.148319039566
0.118172769989
0.145454895785
0.188138786157
0.110013140587
0.155065411591
0.0833031944008
0.0968969128161
0.106946195645
0.131757937369
0.307694822502
0.229132861033
0.297698363661
0.109239761259
0.296827419939
0.292870358937
0.255028267137
0.265630859937
0.205107063529
0.163003890403
0.293056533949
0.287917116463
0.373446402423
0.376523276722
0.351563839217
0.504872967882
0.44480462059
0.541566196372
1.10186501367
0.895551391237
1.28074459151
1.32180940064
0.879861424473
1.20717994648
1.17722745684
1.05419362948
0.859757287873
1.12303810406
0.535692926406
0.663039181718
0.238800075344
0.24803606912
0.0521043867103
0.116230908472
0.0599509477165
0.117982833712
0.0685367428448
0.0862144019657
0.171269896522
0.171754655543
0.183538608708
0.172068174303
0.0743381197606
0.0995903853896
0.226165811893
0.331101468671
0.225644185629
0.030549742862
0.070312705714
0.138535409227
0.131813668742
0.139005846926
0.0306834857509
0.071945718305
0.152544785993
0.175245659909
0.170376378176
0.0923984658498
0.0808515734161
0.0978546008209
0.0689111223926
0.118559874962
0.123855478942
0.131901767767
0.110744014652
0.138345366487
0.142305040577
0.12715211786
0.178931515
0.169949920353
0.210944063409
0.240679187425
0.26808204759
0.322827049955
0.329988732096
0.409102344066
0.436737566056
0.56910320421
1.0220675829
0.688350412727
1.04048038107
0.905503952275
1.17326648134
0.944880995196
1.35103492445
0.717939906256
1.047562515
0.685858479514
0.790381954607
0.620398658197
0.519822269847
0.523668137579
0.409435297899
0.210129459038
0.132763006194
0.105209419873
0.127257648495
0.127094250967
0.228653371642
0.202698546205
0.0877585452415
0.0811116825884
0.0834523176855
0.0314594775944
0.0492653741894
0.0251229035979
0.0322501069669
0.0327561249625
0.126367538636
0.271850591006
0.361086620567
0.249720346707
0.163184902181
0.264825714918
0.236207678026
0.347809705193
0.509103273177
0.382820141769
0.298600991441
0.333781745442
0.518801887736
0.480378547646
0.395489974113
0.268535228449
0.434696808255
0.437287711987
0.355239313823
0.208030961829
0.432547360005
0.311015139874
0.246664188888
0.176101072922
0.0162184655314
0.156549646122
0.112327633985
0.138066786721
0.0556405953326
0.100153341103
0.0960593240756
0.253464205403
0.120086334685
0.210681515245
0.168723635174
0.344491249272
0.278385599226
0.138731611937
0.334307652023
0.101844053722
0.225997748716
0.194344922146
0.457974644337
0.465995728302
0.418830441764
0.471423861049
0.483227044881
0.627289697958
0.812482948962
1.00477148534
1.05502799746
1.63221027113
1.62483679057
1.7930350377
1.80335531128
1.75990668711
1.83845946784
0.923625758282
1.85881792591
0.95026535429
0.246216368849
1.00455375318
0.241731676188
0.200629312961
0.228410020626
0.235702735983
0.0828955687918
0.0998800252882
0.0796613747638
0.0514723012235
0.0499721060366
0.125211922262
0.171687490519
0.0575978023431
0.0309929523704
0.0430382257169
0.115101887938
0.178138868903
0.260139444049
0.220642396513
0.162747217659
0.110262753341
0.0383935392021
0.0351320912936
0.0687304354836
0.152684443566
0.0399796981938
0.0103423213006
0.111965288819
0.184995895421
0.142071426648
0.080237980592
0.0830106309933
0.301272639988
0.159802424688
0.134396695939
0.458114765782
0.29393419356
0.148908356753
0.353213920225
0.0359696056461
0.200831258009
0.0476100181751
0.107972149819
0.218305006722
0.417553767137
0.398546812141
1.18113240198
2.63470815357
0.888182201361
1.88435991279
1.29667310039
1.6809521115
1.42102305109
1.39163372373
1.39381408519
1.13949405873
0.868808973958
0.777449449427
0.498999082451
1.46009616042
0.108358885407
0.351332304108
0.412369446883
0.14898180161
0.492728167473
0.28094364845
0.437541540002
0.256103079064
0.332192740089
0.294160504635
0.233990023028
0.294478817089
0.475252027104
0.428132475574
0.53034550531
0.56387849254
1.11435483625
1.00117427014
1.45154186891
1.3344585434
1.54362012776
1.59833538747
1.28869288599
1.78528437949
1.41220292872
0.88102046969
1.74318770977
0.419982254651
0.974008165272
0.511526675192
0.356287801988
0.336912730326
0.24348138757
0.204298946555
0.35895219037
0.20571108454
0.400681291137
0.337861051179
0.295243409414
0.172439597962
0.30442505983
0.0720012626347
0.0251725052249
0.106545336403
0.0608980689073
0.138629266473
0.237912245159
0.262700706471
0.211579194248
0.146118468555
0.0138768186606
logs/alpha_2.0/PGSD_800steps_0.log 409.02150264 0.40902150264 0.227077493667 2.95977082731 0.0 -1
