Policy Parameters:	-1.37449756165 2.20522911838
Control Steps:		1000
Start Time:		1438563018.5447814

-- TESTING STOPPED --

Stop Time:		1438563095.450805
Duration:		76.90602350234985
Cost Matrix:
0.0237903362954
0.12634587908
0.23687417559
0.326285775219
0.369758479889
0.435046581414
0.536545924363
0.680071724728
0.951971880284
0.75426122592
0.93017483287
0.88664652197
0.909109303658
0.881952577133
0.95682195133
0.795988247857
0.81445426478
0.832761873616
0.765533972102
0.336668316181
0.389581199084
0.0907400235146
0.0409566504254
0.0302953565551
0.0102990383392
0.0114231265114
0.0447708662554
0.0364807706143
0.0390498803233
0.0750566046759
0.0931145818369
0.0277016659748
0.0945516675951
0.0383010049294
0.0390354810866
0.0408244644592
0.0365881158773
0.0354743427775
0.0344203130055
0.0252933902611
0.0408224567121
0.0236421175945
0.0518121153632
0.0415688191529
0.044524911667
0.0362484949957
0.0533950004005
0.0479665119539
0.0810584059445
0.135286694632
0.142950024935
0.094847636491
0.0332884977857
0.0855289185836
0.0535607301458
0.0756711043132
0.0672556198549
0.0745373215641
0.0454959365021
0.0496796248099
0.00626369082396
0.0324422659649
0.0329895380812
0.0499049816456
0.0542642279832
0.0424709834472
0.0161922917384
0.0366475772966
0.0836138078182
0.100184070658
0.0668809587421
0.0898248599786
0.120212454744
0.197745528641
0.104438794494
0.153170635094
0.189500739499
0.227352148451
0.272913070991
0.295496666708
0.445452953146
0.531865858779
0.941375327302
0.969903064798
1.38887209801
1.44919835701
1.2374661613
1.54817477479
1.59727631789
1.06913054925
0.94311326754
1.53863585917
1.554792295
1.18339867406
1.18736562448
1.21071281941
0.793371237616
0.692900590592
0.195580087545
0.194216041495
0.291034465497
0.318716390188
0.352817295774
0.374608040751
0.39741353353
0.416559709984
0.415142225741
0.384500916585
0.374234118416
0.34838368831
0.309510189212
0.290594923005
0.291034783033
0.24078066573
0.204484115365
0.166650622428
0.125802673194
0.0449128902909
0.0921057570655
0.128420802356
0.108210929905
0.0925984191053
0.0689171027515
0.0328502328497
0.00542798222582
0.0381807046262
0.0224077812976
0.023867921183
0.0589052157789
0.0845634734337
0.0854656693843
0.164558779361
0.103683879911
0.0770005349261
0.115897835885
0.113748088296
0.196162386881
0.271272134054
0.211613229082
0.211633684227
0.209256454216
0.290218854464
0.359865833577
0.40444617761
0.441031962924
0.357432947218
0.430111294257
0.448703417924
0.403998745611
0.417840783898
0.507160351248
0.398089267867
0.401433053799
0.409774690962
0.332239897414
0.380670906502
0.196264542096
0.233959297482
0.212166123649
0.193605592244
0.143906250743
0.191773193417
0.154939138924
0.0798212346924
0.0873464333503
0.0424790026071
0.0878908629329
0.0592915245753
0.0100928243149
0.0269341966214
0.0270636364365
0.0735404799781
0.106278416398
0.120925516881
0.0606696307613
0.0299752171566
0.0907743752713
0.107052913442
0.0859381835694
0.0608629769757
0.00723661873215
0.0308268784624
0.0980351753655
0.220156718724
0.137239503922
0.264016642397
0.220553261821
0.125796591542
0.168012337309
0.239816488907
0.094980299879
0.183539024214
0.0996123026293
0.0841224228516
0.101049302723
0.157488653226
0.189378436287
0.171749528817
0.144867173038
0.171241333454
0.199166226602
0.210778831961
0.279355822362
0.282124671631
0.251269388258
0.356841139646
0.443329543616
0.371729201478
0.380501281351
0.411268473609
0.405875244309
0.408509714694
0.453439774645
0.416389256076
0.347339067558
0.314488320736
0.266865529106
0.324866366406
0.339265872862
0.289194563041
0.352286757697
0.181822499931
0.245757634119
0.0963428434235
0.143804287433
0.077299479696
0.048091517668
0.057263637219
0.079260639639
0.0846047736509
0.095751926332
0.0868429474261
0.112208390131
0.13203743101
0.101726454148
0.0344087306537
0.0390772397987
0.0966864087623
0.160896549648
0.148390964312
0.0986268250239
0.063314114677
0.0577578370993
0.0892791400069
0.127267639373
0.160130838196
0.152053605928
0.105263854183
0.0860158292058
0.0507239888061
0.00870262307939
0.043027135302
0.0401341253905
0.0876288071864
0.140784232084
0.178124746242
0.0979099432437
0.148348389769
0.0409772926724
0.139821424088
0.152905161449
0.0357009386676
0.0241359513156
0.0143873608222
0.066155891736
0.082285183044
0.0176917681496
0.0112320343268
0.0873781114463
0.156139398266
0.255749960638
0.1412739128
0.0573586703035
0.085279595147
0.123462336347
0.124220995207
0.082091238759
0.132451224052
0.111222828073
0.118258329986
0.132790645448
0.0238876591894
0.0541929699145
0.14186088574
0.0910245695595
0.0957635191868
0.0105368600245
0.00456333348133
0.0163018098636
0.0314968193802
0.048387212968
0.0657664372239
0.055460120868
0.0590570811116
0.0866680624099
0.112515863417
0.0426378694682
0.0481743889537
0.0878544517277
0.115795475488
0.139109405138
0.0918958347027
0.024255253023
0.0641333380962
0.094067982258
0.216630812139
0.100277566384
0.159816275338
0.114843243854
0.122963768957
0.153146748991
0.13124837639
0.0871257175799
0.118300776733
0.1826502308
0.243474039699
0.169760651904
0.229410792178
0.220496166625
0.306559321726
0.344502868834
0.48346727376
0.606637000512
1.15176733333
1.26323938234
1.24160911214
1.25921310042
1.37306344961
1.41810714224
1.3444832449
1.11449656615
1.37596883719
0.875857284761
1.07330832113
0.445101622939
0.0659117407633
0.026670728956
0.023932465538
0.0246482941084
0.0889935675171
0.128694754645
0.0518580934593
0.0500525938259
0.115490051294
0.0455922733918
0.0990573804249
0.204858228835
0.22154019346
0.170422328108
0.206834463994
0.277553589931
0.270886552179
0.266874035734
0.356560868721
0.33024882475
0.326845382861
0.26419083202
0.344019556554
0.318883995503
0.300330963474
0.289995066826
0.289831372999
0.283955451584
0.273927860771
0.266535460272
0.273704005978
0.227190522874
0.214224789101
0.188723481816
0.187411847411
0.180456154191
0.152475031333
0.142074993631
0.121329363687
0.116299047727
0.126252208655
0.136749665418
0.156197142744
0.166003410223
0.181521019234
0.195529153855
0.221337293625
0.240546973264
0.249688297425
0.278048694115
0.314608870576
0.351664062583
0.368672695639
0.401449370692
0.415193707543
0.413060804494
0.452046951171
0.505411675022
0.550841646168
0.596808723306
0.612644736672
0.828541250357
0.769987633512
0.997873377305
0.961453453338
1.11775668269
1.16146515349
1.37781782213
1.32971276303
1.58302245957
1.4137011612
1.83771734513
2.00818962692
1.66859971383
2.72975466043
0.277122543898
0.345107635555
0.415081969338
0.434498176058
0.433276426661
0.442297684665
0.412267836662
0.283711074294
0.0798356588479
0.299122008487
0.375686121811
0.397952783785
2.11067033525
0.087375957673
0.433706263759
0.105172965945
0.532177867719
0.0182372364175
0.121992580566
0.136303065012
0.0269479842224
0.175712573606
0.0643181210323
0.120580416168
0.054546333778
0.0769032368018
0.0696949742009
0.0708210533533
0.378024018251
0.214720956201
0.0105733333032
0.126049014892
0.143414643516
0.103074676002
0.183322894072
0.130848751046
0.498579769234
0.0471803835997
0.384469122661
0.193245716662
0.202057864668
0.110740019309
0.195346016022
0.378836534073
0.778415494038
0.277973172221
0.755995212576
0.384530249912
1.48806183954
0.169853444287
0.361780159495
0.171448871655
0.211373894788
0.260143262999
0.258216000809
0.0920712059991
0.179329091857
0.0225497089516
0.0353800969492
0.104331506146
0.145649023749
0.142038881914
0.358190704738
1000000.0
0.0
0.0
0.0
0.0
0.0
0.0
0.0
0.0
0.0
0.0
0.0
0.0
0.0
0.0
0.0
0.0
0.0
0.0
0.0
0.0
0.0
0.0
0.0
0.0
0.0
0.0
0.0
0.0
0.0
0.0
0.0
0.0
0.0
0.0
0.0
0.0
0.0
0.0
0.0
0.0
0.0
0.0
0.0
0.0
0.0
0.0
0.0
0.0
0.0
0.0
0.0
0.0
0.0
0.0
0.0
0.0
0.0
0.0
0.0
0.0
0.0
0.0
0.0
0.0
0.0
0.0
0.0
0.0
0.0
0.0
0.0
0.0
0.0
0.0
0.0
0.0
0.0
0.0
0.0
0.0
0.0
0.0
0.0
0.0
0.0
0.0
0.0
0.0
0.0
0.0
0.0
0.0
0.0
0.0
0.0
0.0
0.0
0.0
0.0
0.0
0.0
0.0
0.0
0.0
0.0
0.0
0.0
0.0
0.0
0.0
0.0
0.0
0.0
0.0
0.0
0.0
0.0
0.0
0.0
0.0
0.0
0.0
0.0
0.0
0.0
0.0
0.0
0.0
0.0
0.0
0.0
0.0
0.0
0.0
0.0
0.0
0.0
0.0
0.0
0.0
0.0
0.0
0.0
0.0
0.0
0.0
0.0
0.0
0.0
0.0
0.0
0.0
0.0
0.0
0.0
0.0
0.0
0.0
0.0
0.0
0.0
0.0
0.0
0.0
0.0
0.0
0.0
0.0
0.0
0.0
0.0
0.0
0.0
0.0
0.0
0.0
0.0
0.0
0.0
0.0
0.0
0.0
0.0
0.0
0.0
0.0
0.0
0.0
0.0
0.0
0.0
0.0
0.0
0.0
0.0
0.0
0.0
0.0
0.0
0.0
0.0
0.0
0.0
0.0
0.0
0.0
0.0
0.0
0.0
0.0
0.0
0.0
0.0
0.0
0.0
0.0
0.0
0.0
0.0
0.0
0.0
0.0
0.0
0.0
0.0
0.0
0.0
0.0
0.0
0.0
0.0
0.0
0.0
0.0
0.0
0.0
0.0
0.0
0.0
0.0
0.0
0.0
0.0
0.0
0.0
0.0
0.0
0.0
0.0
0.0
0.0
0.0
0.0
0.0
0.0
0.0
0.0
0.0
0.0
0.0
0.0
0.0
0.0
0.0
0.0
0.0
0.0
0.0
0.0
0.0
0.0
0.0
0.0
0.0
0.0
0.0
0.0
0.0
0.0
0.0
0.0
0.0
0.0
0.0
0.0
0.0
0.0
0.0
0.0
0.0
0.0
0.0
0.0
0.0
0.0
0.0
0.0
0.0
0.0
0.0
0.0
0.0
0.0
0.0
0.0
0.0
0.0
0.0
0.0
0.0
0.0
0.0
0.0
0.0
0.0
0.0
0.0
0.0
0.0
0.0
0.0
0.0
0.0
0.0
0.0
0.0
0.0
0.0
0.0
0.0
0.0
0.0
0.0
0.0
0.0
0.0
0.0
0.0
0.0
0.0
0.0
0.0
0.0
0.0
0.0
0.0
0.0
0.0
0.0
0.0
0.0
0.0
0.0
0.0
0.0
0.0
0.0
0.0
0.0
0.0
0.0
0.0
0.0
0.0
0.0
0.0
0.0
0.0
0.0
0.0
0.0
0.0
0.0
0.0
0.0
0.0
0.0
0.0
0.0
0.0
0.0
0.0
0.0
0.0
0.0
0.0
0.0
0.0
0.0
0.0
0.0
0.0
0.0
0.0
0.0
0.0
0.0
0.0
0.0
0.0
0.0
0.0
0.0
0.0
0.0
0.0
0.0
0.0
0.0
0.0
0.0
0.0
0.0
0.0
0.0
0.0
0.0
0.0
0.0
0.0
0.0
0.0
0.0
0.0
0.0
0.0
0.0
0.0
0.0
0.0
0.0
0.0
0.0
0.0
0.0
0.0
0.0
0.0
0.0
0.0
0.0
0.0
0.0
0.0
0.0
0.0
0.0
0.0
0.0
0.0
0.0
0.0
0.0
0.0
0.0
0.0
0.0
0.0
0.0
0.0
0.0
0.0
0.0
0.0
0.0
0.0
0.0
0.0
0.0
0.0
0.0
0.0
0.0
0.0
0.0
0.0
0.0
0.0
0.0
0.0
0.0
0.0
0.0
0.0
0.0
0.0
0.0
0.0
0.0
0.0
0.0
0.0
0.0
0.0
0.0
0.0
0.0
0.0
0.0
0.0
0.0
0.0
0.0
0.0
0.0
0.0
0.0
0.0
0.0
0.0
0.0
0.0
0.0
0.0
0.0
0.0
0.0
0.0
0.0
0.0
0.0
0.0
0.0
0.0
0.0
0.0
logs/alpha_2.0/PGSD_900steps_0.log 1000142.14574 1000.14214574 0.0 1000000.0 0.0 473
