Initial Policy Parameters:	0.0 0.0
Learning Rate:			2.0
Learning Steps:			300
Start Time:			1437194717.8607073

-- LEARNING STOPPED --

Stop Time:			1437194760.555744
Duration:			42.69503664970398
Final Policy Parameters:	-0.973559072209 1.05479245318
