Policy Parameters:	-5.48441725727 1.17712692482
Control Steps:		1000
Start Time:		1442328534.7193015

-- TESTING STOPPED --

Stop Time:		1442328618.9109108
Duration:		84.1916093826294
Cost Matrix:
0.233405677246
0.12090991935
0.0305268840955
0.0311150211106
0.0390636019958
0.0766254935006
0.0335284803706
0.228631191563
0.328518075088
0.0149008478411
0.229315092256
0.0
0.168212406188
0.480166249255
0.0852213027655
0.0525139122848
0.110556700857
0.294836931466
0.640022314526
0.337814831192
0.529565155869
0.570412845071
0.519984021387
0.851539145173
0.662547187681
0.490551508708
1.31262707072
0.510529076726
1.32004871097
1.31133542914
2.09246541127
1.73930235215
2.3469888497
1.4554374122
2.68515400597
2.5313006602
2.31126114653
1.771544277
1.52670368726
0.521760992489
2.40400267034
0.043957111796
0.020573757233
0.0264954667967
0.0423584356891
0.011444022171
0.119627721404
0.0425029169398
0.0842394189836
0.0
0.12141034973
0.264210773544
0.0947592564791
0.133903878759
0.0379159849467
0.0425162107584
0.0707950902595
0.109663584249
0.288102104093
0.537655345427
0.345523026349
0.196565041835
0.215641367739
0.898398926948
0.251707780734
0.328941690339
0.44559594903
0.326279228837
0.289539717129
0.458866675498
0.439614048065
0.463617153913
1.04483827231
0.424554096416
1.41474350262
0.550708504268
1.59799470418
1.2327524457
2.02145046503
2.04519572326
2.45337588777
2.60473404423
2.02490755821
2.27250546606
2.81325640741
3.77117426139
0.0499394530777
0.0269713849889
0.221842634362
0.248620627862
0.0668603811087
0.077282510877
0.160001317814
0.331802869572
0.363653916216
0.444176871513
0.326131272012
0.450031659856
0.477540801205
0.555821723737
1.23017804194
0.656957769007
0.764567583516
1.16235538301
1.06105940269
1.21516046879
1.10270316003
1.09604545685
1.41293531056
0.650266022253
0.560519867611
1.59643085945
0.145594556525
0.381955195415
0.318222835514
0.130740844435
0.460493442747
0.321345709809
0.647662827227
0.294303971999
0.731892909632
0.408858421908
0.487914153131
0.50408114836
0.520645394679
0.428873154731
0.263559671143
0.742237521877
0.360149074051
0.435133152916
0.380567762228
0.35877429598
0.769532861255
0.280111681307
0.254379791886
0.339629418716
0.320403241905
0.300615179594
0.256204017862
0.34436614756
0.245589544826
0.40324092847
0.361965993337
0.353551515289
0.394070942053
0.399275624095
0.392391146119
0.448611678662
0.455298679942
0.477082824046
0.565491652049
0.638052819038
0.784948329932
0.781020145994
1.05812219597
1.31501551553
1.7747596547
2.19888029852
2.14838293071
2.01233896845
1.65693001987
1.96788092897
2.61629442699
1.83323921638
1.93043068807
0.52249656614
0.879858989794
0.514124567809
0.824306352013
0.509893454965
0.811695102863
0.562465160475
0.972126305318
0.506084649719
0.914115271862
0.53834821816
0.83902358779
0.490294089523
0.738285733323
0.482685717178
0.849404145797
0.480218380046
0.665264606157
0.533300013112
0.838069940834
0.456103965931
0.689102518464
0.515521871292
0.683315299642
0.478143797953
0.70423301481
0.431745038281
0.520589389313
0.613931829654
0.433786323405
0.459388822931
0.423756547532
0.434538968047
0.271055631273
0.248050544977
0.229084652814
0.250496977733
0.404637616331
0.430163928427
0.259793673191
0.18901778031
0.398255140734
0.502761308069
0.493011731717
0.472530607174
0.406960817967
0.435136422084
0.212813675866
0.339428435045
0.328092023517
0.324533217167
0.438239752229
0.355102029266
0.690173269995
0.52919186148
1.28614705028
0.40508487353
1.14129422858
0.852951589665
0.901895399579
0.804482483864
0.542341794287
1.14698346708
0.794204577167
0.532082413503
0.873980058634
0.254802270927
0.493212580336
0.0928762024546
0.25945802146
0.304920999331
0.331262263167
0.0506472627587
0.00681950131883
0.144437685965
0.181566392574
0.130129682177
0.513414365951
0.417088018545
0.214987464867
0.50806425361
0.278771606804
0.47824684846
0.291020713868
0.600704995592
0.280801181078
0.336070860555
0.372962086935
0.351889220819
0.166392139516
0.189624014413
0.199630992893
0.212194794289
0.411367760926
0.419206705627
0.329017800939
0.451746617855
1.34760552036
0.381849493011
1.1390731898
3.77117426139
0.0647845236737
0.115673426679
0.282788044103
0.862893630414
1.03682085145
0.202231074572
0.269793664058
0.361407089421
0.381912675682
0.202100910097
0.231770588613
0.253895069722
0.370728345074
0.512566836529
0.450849381086
0.38683195348
0.139791500269
0.18268816114
0.17593450925
0.0966086363421
0.141218555627
0.296465309487
0.141828459065
0.162518693421
0.221705273079
0.214091217888
0.185869725749
0.153905487645
0.131663325632
0.0930806976813
0.0447188923006
0.0128837320321
0.122882303822
0.317537911652
0.408822814666
0.638471079923
0.981764605303
0.363208271413
0.38691240976
0.505598293358
0.837330703875
0.875103617055
0.784347392355
0.512459103673
1.01074777643
0.856392301661
0.861865117711
0.45975450941
1.12380192832
0.35809441977
0.733299085926
0.378648178138
0.894866131697
0.270452877403
0.0611468014032
0.0751519708074
0.0899016303226
0.117275414082
0.148541761414
0.0975566625483
0.100490298027
0.0755253427935
0.0592808604489
0.159543750551
0.391550653559
0.389514371434
0.327620328078
0.178814792105
0.111246677928
0.21008636357
0.370785212947
0.607092656948
0.215360269949
0.455543503329
0.43290315683
0.427956146333
0.297539531377
0.383038489337
0.433545546166
0.217811756682
0.319140521502
0.518047041733
0.603072296405
0.655958595642
0.642441016332
0.650784564227
0.656486870939
0.662802793242
0.625520254001
0.578633449747
0.647947566613
0.642761443708
0.553508729008
0.523020921177
0.418558881654
0.222678240679
0.170744961704
0.0459917633375
0.198475523631
0.268338794184
0.337253518449
0.159475885846
0.277513612061
0.325124535982
0.310116848136
0.165126055556
0.431774691833
0.0971492345705
0.174276557253
0.17351626159
0.0768527125135
0.498937111817
0.139900474927
0.362831937519
0.213444035158
0.477785839316
0.149391707726
0.190710282606
0.0239613305052
0.0549921578115
0.0664491879934
0.0344192157945
0.185584113134
0.00599128045708
0.0747442745674
0.164451893357
0.240578011197
0.143998805696
0.0655371720338
0.360039950569
0.097243958346
0.315919266848
0.424875570321
0.487197101906
0.385058643367
0.157660341552
0.0345785597802
0.103016629245
0.0309311473196
0.154316294232
0.116424010641
0.261009137517
0.149281564765
0.0305559130112
0.0792411026637
0.174305942728
0.376605816219
0.019508346965
0.104046715109
0.0305258067239
0.0472985065952
0.0808776519719
0.239839740382
0.150244021829
0.11751759451
0.101769157628
0.140106046471
0.222467793555
0.232371275676
0.237024852085
0.262689753458
0.299706380873
0.346703917043
0.408581115336
0.503697539863
0.621010024126
0.708898820966
0.851446852361
0.835359759926
1.00203169442
0.971498646095
0.846278821913
1.22026668394
0.835538368241
1.1383321451
1.22748431754
0.0403669019815
0.0481719923807
0.042776796573
0.0990178348598
0.0578915504113
0.122921187436
0.132029575622
1000000.0
0.0
0.0
0.0
0.0
0.0
0.0
0.0
0.0
0.0
0.0
0.0
0.0
0.0
0.0
0.0
0.0
0.0
0.0
0.0
0.0
0.0
0.0
0.0
0.0
0.0
0.0
0.0
0.0
0.0
0.0
0.0
0.0
0.0
0.0
0.0
0.0
0.0
0.0
0.0
0.0
0.0
0.0
0.0
0.0
0.0
0.0
0.0
0.0
0.0
0.0
0.0
0.0
0.0
0.0
0.0
0.0
0.0
0.0
0.0
0.0
0.0
0.0
0.0
0.0
0.0
0.0
0.0
0.0
0.0
0.0
0.0
0.0
0.0
0.0
0.0
0.0
0.0
0.0
0.0
0.0
0.0
0.0
0.0
0.0
0.0
0.0
0.0
0.0
0.0
0.0
0.0
0.0
0.0
0.0
0.0
0.0
0.0
0.0
0.0
0.0
0.0
0.0
0.0
0.0
0.0
0.0
0.0
0.0
0.0
0.0
0.0
0.0
0.0
0.0
0.0
0.0
0.0
0.0
0.0
0.0
0.0
0.0
0.0
0.0
0.0
0.0
0.0
0.0
0.0
0.0
0.0
0.0
0.0
0.0
0.0
0.0
0.0
0.0
0.0
0.0
0.0
0.0
0.0
0.0
0.0
0.0
0.0
0.0
0.0
0.0
0.0
0.0
0.0
0.0
0.0
0.0
0.0
0.0
0.0
0.0
0.0
0.0
0.0
0.0
0.0
0.0
0.0
0.0
0.0
0.0
0.0
0.0
0.0
0.0
0.0
0.0
0.0
0.0
0.0
0.0
0.0
0.0
0.0
0.0
0.0
0.0
0.0
0.0
0.0
0.0
0.0
0.0
0.0
0.0
0.0
0.0
0.0
0.0
0.0
0.0
0.0
0.0
0.0
0.0
0.0
0.0
0.0
0.0
0.0
0.0
0.0
0.0
0.0
0.0
0.0
0.0
0.0
0.0
0.0
0.0
0.0
0.0
0.0
0.0
0.0
0.0
0.0
0.0
0.0
0.0
0.0
0.0
0.0
0.0
0.0
0.0
0.0
0.0
0.0
0.0
0.0
0.0
0.0
0.0
0.0
0.0
0.0
0.0
0.0
0.0
0.0
0.0
0.0
0.0
0.0
0.0
0.0
0.0
0.0
0.0
0.0
0.0
0.0
0.0
0.0
0.0
0.0
0.0
0.0
0.0
0.0
0.0
0.0
0.0
0.0
0.0
0.0
0.0
0.0
0.0
0.0
0.0
0.0
0.0
0.0
0.0
0.0
0.0
0.0
0.0
0.0
0.0
0.0
0.0
0.0
0.0
0.0
0.0
0.0
0.0
0.0
0.0
0.0
0.0
0.0
0.0
0.0
0.0
0.0
0.0
0.0
0.0
0.0
0.0
0.0
0.0
0.0
0.0
0.0
0.0
0.0
0.0
0.0
0.0
0.0
0.0
0.0
0.0
0.0
0.0
0.0
0.0
0.0
0.0
0.0
0.0
0.0
0.0
0.0
0.0
0.0
0.0
0.0
0.0
0.0
0.0
0.0
0.0
0.0
0.0
0.0
0.0
0.0
0.0
0.0
0.0
0.0
0.0
0.0
0.0
0.0
0.0
0.0
0.0
0.0
0.0
0.0
0.0
0.0
0.0
0.0
0.0
0.0
0.0
0.0
0.0
0.0
0.0
0.0
0.0
0.0
0.0
0.0
0.0
0.0
0.0
0.0
0.0
0.0
0.0
0.0
0.0
0.0
0.0
0.0
0.0
0.0
0.0
0.0
0.0
0.0
0.0
0.0
0.0
0.0
0.0
0.0
0.0
0.0
0.0
0.0
0.0
0.0
0.0
0.0
0.0
0.0
0.0
0.0
0.0
0.0
0.0
0.0
0.0
0.0
0.0
0.0
0.0
0.0
0.0
0.0
0.0
0.0
0.0
0.0
0.0
0.0
0.0
0.0
0.0
0.0
0.0
0.0
0.0
0.0
0.0
0.0
0.0
0.0
0.0
0.0
0.0
0.0
0.0
0.0
0.0
0.0
0.0
0.0
0.0
0.0
0.0
0.0
0.0
0.0
0.0
0.0
0.0
0.0
0.0
0.0
0.0
0.0
0.0
0.0
0.0
0.0
0.0
0.0
0.0
0.0
0.0
0.0
0.0
0.0
0.0
0.0
0.0
0.0
0.0
0.0
0.0
0.0
0.0
0.0
0.0
0.0
0.0
0.0
0.0
0.0
0.0
0.0
0.0
0.0
0.0
0.0
0.0
0.0
0.0
0.0
0.0
0.0
0.0
0.0
0.0
0.0
0.0
0.0
0.0
0.0
0.0
0.0
0.0
0.0
0.0
0.0
0.0
0.0
0.0
0.0
0.0
0.0
0.0
0.0
0.0
0.0
0.0
0.0
0.0
0.0
0.0
0.0
0.0
0.0
0.0
0.0
0.0
0.0
0.0
logs/alpha_3.0/PGSD_600steps_4.log 1000236.26633 1000.23626633 0.0 1000000.0 0.0 449
