Policy Parameters:	-6.55270563078 3.65479629547
Control Steps:		1000
Start Time:		1442327400.9657807

-- TESTING STOPPED --

Stop Time:		1442327592.523564
Duration:		191.55778336524963
Cost Matrix:
0.978471623851
0.304416293684
1.31177344513
0.435929231812
1.91486542639
1.42879800302
2.55203005328
1.29475703736
2.69589268074
1.06415707331
2.59928913023
0.231220975677
2.42349580737
0.918559150196
0.908254516953
0.0
0.201150992967
0.3502525959
0.744860728241
0.69460385135
0.171962608476
0.223709853218
0.464752493622
0.255769212711
0.398120134444
0.445096543444
0.306706678675
0.762330766987
0.231287490769
0.365809563799
0.850985470652
0.688797837459
0.558220186938
0.544939915467
0.923292051898
0.491555681241
1.03515818002
0.328818151133
1.23760448152
0.28129327044
0.322056010655
0.528277092735
0.461159816078
0.420613671741
0.195995750226
0.273672972556
0.0645046360348
0.135787143977
0.439653902648
0.0839522602687
0.31872330777
0.635194581752
0.00247629172326
0.199722725301
0.522683890675
0.0903550001793
0.187756910803
0.697396401474
0.517947533603
0.244830300984
0.0682136529817
0.10571425017
0.369536142953
0.486906948388
0.411613060164
0.516331945698
0.863569615613
0.800543604277
1.13602116446
0.655855656874
1.14443707326
0.863044544616
0.892500632965
1.03547979672
0.594063865618
1.10941762376
0.595837673177
0.777146316694
0.40831883049
0.837870766177
0.210370769186
0.265145007059
0.404432745342
0.0443693634828
0.306352562232
0.384684135807
0.538162133627
0.423413819267
0.980606548596
0.334736789647
0.00884532833544
0.0385325825005
0.0814338293911
0.185460423907
0.188335272151
0.0
0.0663496011417
0.198974288845
0.0450883067027
0.274317430453
0.417367701631
0.152862904604
0.120544683233
0.0568198015672
0.264452245529
0.725298732826
0.384250391287
0.463487475176
0.694474418414
0.502298107092
0.782273401094
0.650161224976
0.782729400145
1.36264517061
0.946777033253
1.68565071252
1.38359788337
2.30171461332
2.0446638974
2.31185731574
2.28642886443
0.507015580966
3.08221731503
0.0216154509763
0.131507111432
0.545840656002
0.445988967332
0.197492523662
0.160905090743
0.0860231573119
0.0122958924729
0.0780821431947
0.18323179953
0.0448859830816
0.204939118257
0.436077575185
0.378690437412
0.353125999907
0.320318050132
0.388648984435
0.411206945415
0.41084690834
0.442572404139
0.441770035565
0.574942890967
0.820666970195
0.451141394919
0.983713315348
0.5394966043
0.862114025695
0.53140982335
0.761996860762
0.475160385621
0.745441321968
0.448014815191
0.47126446578
0.543120859612
0.334836444084
0.376480136065
0.393780710525
0.10305513553
0.220613697844
0.137092381698
0.139279376614
0.146597725648
0.160731672935
0.206158655664
0.133527329213
0.168067988106
0.211734251078
0.290346235912
0.29217576843
0.278783246043
0.313854912458
0.345759958554
0.116743317504
0.0488021051363
0.136429483173
0.332770703738
0.0254065657323
0.0845668828049
0.263753634191
0.264990350802
0.257507716775
0.238603391479
0.143779483663
0.296597661266
0.215827189141
0.337008570985
0.219538000897
0.386958474565
0.351664184198
0.36176680326
0.388937079058
0.442069342023
0.523553247253
1.32340101722
0.518635562386
1.23899184948
0.841984498434
1.05750606686
1.01512215208
1.12731949589
1.04876223175
1.13195725884
0.909206648293
0.973847777626
0.605174803198
0.511846763882
0.626084053478
0.425750678061
0.371462452909
0.177571190058
0.084273723405
0.297037383592
0.0944002375464
0.0533378937928
0.220038468658
0.0171661398299
0.0676275477941
0.133162687597
0.385263986572
0.309852360433
0.34576593265
0.232412317918
0.264327191596
0.367585396041
0.343182810195
0.192124130353
0.242090029846
0.199902439022
0.26350817762
0.228592961344
0.315589029689
0.282920316215
0.127198119436
0.13060797075
0.122041424731
1.38126724584
0.188307168256
0.480085374065
0.429085795508
0.924835176022
0.00896952500238
0.1722014865
0.244488960962
0.340677142556
0.210841446193
0.0974869994025
0.0311015387019
0.285630837501
0.0245890426706
0.212764365399
0.133350252639
0.227378331741
0.0913343640474
0.413495742432
0.406191415539
0.839080293361
0.411412111947
1.02188156834
0.628741856709
1.42625782511
1.70378228081
1.14638325273
1.97001932709
1.48370372746
3.06753324754
0.188527086464
0.508534498528
0.969755584329
0.51423583493
0.569584252054
0.631004702745
1.97904903776
0.136850657077
1.48401790136
0.519915005733
1.48857688085
0.0261003810358
0.0930384220898
0.294405284375
0.263664051721
0.354533910774
0.149217178329
0.0901900871529
0.14168558215
0.403973564649
0.278359107674
0.242205278105
0.235032553587
0.241350744551
0.187383924333
0.283804835976
0.191343887573
0.193086636305
0.214011728264
0.202804956524
0.248432960561
0.346473234378
0.417998774271
0.285268139574
0.271791886529
0.281905533976
0.188341675963
0.204693132332
0.314177851279
0.299526892191
0.293917452751
0.269740336439
0.227193887721
0.237081771645
0.247202924015
0.223174287871
0.168004928904
0.158753192059
0.121235276424
0.0977848134291
0.0984421044343
0.0860702655262
0.135835780081
0.192956881573
0.170179351698
0.18167428683
0.144707575234
0.147295922799
0.149614906802
0.142874854166
0.17048837601
0.226619813424
0.197856511935
0.218159294352
0.212587793077
0.190003973219
0.215732797854
0.232588764325
0.201456130357
0.239274722792
0.255261848011
0.249188885394
0.225292249217
0.248772790124
0.248210303172
0.238061548926
0.262995083686
0.25933642882
0.287469006912
0.295965453605
0.2855531946
0.295867305458
0.305467978033
0.297061361174
0.295074001454
0.332669759106
0.321543346414
0.334384330775
0.352874728273
0.341061449918
0.362106759429
0.363549804856
0.381889429637
0.395512979786
0.443801105122
0.466827286633
0.502328224482
0.501567659669
0.524994656509
0.476529049026
0.272471488818
3.05046758712
2.10089614754
2.00050208305
0.310232492765
3.12659972295
0.0064470482001
0.480199909106
3.3460476996
0.0680838337529
0.941700039798
1.0776726255
0.951504681142
1.11251564616
0.997028147274
1.25282567473
1.12535315266
1.07393470637
1.30815104679
1.11241953033
1.39619944592
1.03916422852
1.53347574409
1.15343289582
1.54074202534
1.13175468817
1.55739230115
1.12857980175
1.60593083558
1.14016944433
1.60025928341
1.10672862415
1.56318153793
1.03135740963
1.58852898173
1.01959986535
1.59057037543
1.07362279839
1.35755060703
1.16550719574
1.20172198044
1.16932823833
1.02657912301
1.12308906041
0.985408889469
1.13768353779
0.909399381747
1.08970793748
0.797778525811
0.944098977044
0.8429645143
0.789710993702
0.830095620293
0.762806526742
0.603702333565
0.822386045273
0.555543697988
0.900026594224
0.728009563501
0.674964630172
0.943283078739
0.704578243865
0.962048073634
0.681191954797
1.01820418668
0.827599393136
0.926843714455
1.0009376446
0.939725527108
1.07447514764
1.06981436299
0.888701678307
1.19409236068
1.06614837826
1.04858236646
1.27577137334
1.02175123224
1.29478161029
1.04692588603
1.29896765272
1.0621630775
1.27863877902
1.22029895894
1.62092017319
0.868098938742
0.646313457741
2.72947717946
0.564853427126
2.48804194511
1.75380326046
2.35335100558
3.77699572182
2.06807498906
1.00940882961
1.81144348714
1.16106575284
1.7107787847
1.27430473392
1.78099422127
1.38021986705
1.71113198507
1.5952369806
1.487930344
1.53442671139
1.42504091895
1.7083252551
1.42010203287
1.75021774301
1.07490530265
1.7941279708
1.26644662022
1.5089605408
1.11117807249
1.54658834987
0.904160012622
1.57803596437
0.84627910584
1.5239888543
0.503712588729
0.435244497291
1.4623986651
0.458193813171
1.25263166889
0.26732433628
1.35451598085
0.194910232119
0.824546463439
0.303494033363
0.530150000641
0.50418503109
0.399972598673
0.315045943482
0.3691668594
1.38891592549
0.164691841215
0.425966455928
0.155531690493
0.689957246619
0.35146598246
0.333685573899
0.238898524801
0.177679341276
0.109309502775
0.0250947449953
0.0601281834501
0.162421599819
0.380844279012
0.505834171379
0.602738493397
0.52475535073
0.774758763077
0.850559851023
2.10620938883
0.29925665657
1.30643962734
0.744187936486
1.021591196
0.54843913878
0.5273568095
0.453786560241
0.479466927571
0.406595925038
0.316209843638
0.253920128259
0.409462927357
0.267030511477
0.264626981464
0.378932070715
0.468753561101
0.228020180025
0.35789442513
0.119145960837
0.235874855843
0.934145371187
0.53554810455
1.35657893886
0.438615101091
1.03174822414
0.38537982422
1.01431099041
0.222279036225
0.539091645234
0.491987097417
0.406233962154
0.258871986246
0.46730246975
0.67666540106
0.259580858535
0.598773881206
0.472159746427
0.352635056266
0.216229261453
0.213034610521
0.352134897963
0.0847350690543
0.205585887093
0.388588216417
0.181695786874
0.402465725202
0.376099468215
0.283605988716
0.39148783278
0.249475909811
0.480659392343
0.454550303911
0.341675468529
1.13010518133
1.14030165888
1.62314179595
2.35067727382
3.16263635533
0.883612416183
3.35397705698
0.35412536443
3.30249349258
1.46791529527
1.39203431562
0.3429013843
0.172613667022
0.190183732643
0.63566139217
0.4194171535
0.347727255208
0.931851408959
0.382655594128
1.34563267109
0.414649878454
1.01141567487
1.08457057898
0.373470415436
0.374309816083
0.459644381004
0.18217470332
0.192952283345
0.613489455305
0.179961983611
0.217562211418
0.589071702593
0.179156650467
0.124981206495
0.149164949674
0.262554613371
0.0910094999779
0.169484177629
0.246608219821
0.131654750039
0.0471908679809
0.352762394279
0.00411735794753
0.0684112981372
0.153312479915
0.413060406757
0.08020773037
0.0248056171405
0.188339870917
0.492881807851
0.0599277302326
0.160538046011
0.115799231619
0.0110290694878
0.0601557682705
0.254905619299
0.20123685353
0.675601746553
0.253243782261
0.228147531384
0.222482677845
0.459245916202
0.332370050937
0.42755982453
0.805539557218
0.0987533835456
0.0594682670615
0.0233393479663
0.0628464013612
0.22971712856
0.134607482815
0.303191671932
0.197436735669
0.154186316096
0.350456343008
0.507646410767
0.484575998029
0.445680040581
0.550657876356
1.04404784619
0.51962425072
0.890115781933
0.719391398047
0.908258793755
0.727659438732
1.10593422446
0.725985166423
0.542041290896
1.22819617967
0.479293237644
0.472441583556
0.539834611807
0.304346412533
0.351969893041
0.394738429993
0.0731640987966
0.122158076545
0.21543352987
0.17942394565
0.000266596224345
0.183590706908
0.298993948302
0.187423064409
0.304035515333
0.460210542306
0.918003109871
0.417124704585
0.378688421146
0.507406859481
0.488619155067
0.379772783502
0.250715655607
0.375231554299
0.520503943764
0.491579574501
0.120621263708
0.265116988916
0.61640181912
0.37103749662
0.367210358668
0.345142362776
0.550210331326
1.46537856577
0.687799702211
2.19361647835
2.44800011773
2.40930942007
2.65314396063
2.44556469859
2.04713547555
2.45655433921
0.357180694074
0.122510536465
0.401955123741
1.01505014932
0.458562205851
0.858775632863
0.215704934664
0.41062605041
0.839764750207
0.282056787916
0.416609302624
0.223799068443
0.423228421759
0.0185675001972
0.157014696064
0.0280447523436
0.254255191276
0.159060419457
0.184389397331
0.0668150756124
0.120415615515
0.0205214695875
0.172422489759
0.173618606054
0.223063858042
0.511972788373
0.0280311258408
0.186880571662
0.0310763957611
0.244347189729
0.0173679234616
0.034709524528
0.090165679185
0.250647715387
0.283486849517
0.208923787514
0.0904825803975
0.261925095278
0.318271713454
0.115061773085
0.181121789466
0.114882650221
0.11615629563
0.217848425958
0.303370502969
0.247754468933
0.120351567502
0.251296184525
0.321491669894
0.267664794687
0.309477319663
0.457864192277
0.450040652348
0.990377031564
0.388709921522
0.550565882111
0.825438630779
0.340358304495
0.748399971449
0.467588721319
0.818157106219
0.485224380614
0.216238807397
0.452391356653
0.321004359709
0.210208861121
0.151566520712
0.171527171045
0.31687947563
0.263406922076
0.158575280462
0.0662322028048
0.140318724041
0.892962337727
0.376649113415
0.490453466577
0.865918222852
0.251098628223
0.395609411424
0.933322631608
0.336649937888
1.04214833742
0.235907508473
0.485841897138
0.573623240939
0.27992107784
0.182358683311
0.476950189962
0.11396598065
0.233221669418
0.031928748791
0.0942907128557
0.127899468068
0.288276763043
0.268853127381
0.155562571649
0.227289902737
0.280235811871
0.138927613509
0.320203269682
0.300013523566
0.222317988112
0.342683521683
0.342748441229
0.266985993334
0.201363497361
0.289003357562
0.0885473910475
0.0846951130047
0.258884248855
0.341506639436
0.296712930545
0.274295699622
0.40562208876
0.404031318555
0.416149126693
0.463011058669
0.545025670256
0.900980365428
0.677529993307
0.890380935892
0.943543762963
0.644578560173
0.773160462137
0.554811149411
0.83786446863
0.551699390635
0.792385150302
0.449242309869
0.422842955079
0.400263091232
0.208333127544
0.180842214955
0.00685588466082
0.14072295784
0.0805336370846
0.0256391740049
0.10800252681
0.169859816264
0.230917441681
0.194573385312
0.130263747058
0.147559138461
0.134925960348
0.147228144951
0.141904013968
0.145238385613
0.155860391393
0.163106912536
0.175203316328
0.148696640163
0.164850715535
0.138170420079
0.102670435466
0.130452746771
0.147399670199
0.156791585737
0.128618690209
0.141279136943
0.160267999462
0.135448105921
0.102388309201
0.116763699048
0.0187906291939
0.0172130608741
0.018537844656
0.188978753238
0.371110872366
0.4544502444
0.485008860361
0.733646607024
0.341138293748
0.780659642835
0.553547539264
1.71195697085
0.519725182712
2.32045035801
1.6615861257
1.96556551017
1.96260521417
1.58260391513
1.58143531199
1.15684678541
1.44409897126
0.444836534769
0.0678825902704
0.263772038439
0.340194479783
0.362581265782
0.374359436628
0.374917233094
0.382147448942
0.386848683124
0.378448345341
0.396624297869
0.398517942933
0.417062973894
0.435996728366
0.404636558963
0.437690213681
0.432764845658
0.429824336384
0.454034946502
0.441596421445
0.463067423045
0.457666774124
0.479576325561
0.482259577794
0.500457136551
0.48599954766
0.483017004262
0.358931334284
0.456834939725
0.506181567534
0.504033017747
0.521642679505
0.491756542928
0.501904882122
0.509830237083
0.512602743534
0.528900056086
0.500384765382
0.412018831672
0.53342329328
0.520594833662
0.528867553509
0.506018355869
0.508881769506
0.481715176654
0.487056375306
0.288483505915
0.378258762984
0.477212384534
0.477997078936
0.497670228563
0.462275221311
0.470658367929
0.46550330997
0.471587285396
0.45027531872
0.435126859068
0.430824533351
0.416644774854
0.427296327943
0.399034549585
0.404606699629
0.364014813784
0.355491255327
0.378851522103
0.32161238093
0.32270034695
0.343057430426
0.295914873207
0.822207798341
1.66616073436
0.0394422317984
0.0722160286528
0.157456999357
0.337331919306
0.378497722896
0.357585928409
0.316551422785
0.365908003714
0.343735552333
0.366609339383
0.28234872539
0.272956823192
0.27189887818
0.247705766449
0.263434987111
0.231026311005
0.228124463895
0.324594757751
0.202251262843
0.0436737388355
0.222541505565
0.327257920209
1.51035925261
3.77117426139
0.0796984730325
0.267204639551
0.491499736193
0.522118306766
0.491968625289
0.492070005248
0.49763094304
0.454014241201
0.46955715089
0.467605744307
0.437963084521
0.429442144935
0.428415253462
0.445191794894
0.42920322238
0.403620671531
logs/alpha_3.0/PGSD_600steps_2.log 570.219886134 0.570219886134 0.388618600426 3.77699572182 0.0 -1
