Policy Parameters:	-0.851293473718 3.46732191449
Control Steps:		1000
Start Time:		1442320051.1223388

-- TESTING STOPPED --

Stop Time:		1442320220.5236979
Duration:		169.4013590812683
Cost Matrix:
0.193772287673
0.648473699712
0.891541777015
0.20056609433
0.428125899502
0.818440529277
0.954192042081
0.95089754015
0.975374434726
0.953980614042
0.996904585294
1.11061190526
1.34907978096
1.24261582546
1.41362270742
0.997864001507
1.29261909703
0.749586786461
1.19226604621
0.346719373142
0.346591811174
0.280298268509
0.0575837181727
0.0832583312727
0.0457358558218
0.026269501744
0.139512850269
0.0617916448878
0.0597227552276
0.0798060835742
0.0197866174277
0.0455408988999
0.232323109478
0.0743434234064
0.130700801295
0.137117217496
0.216392573303
0.25498078513
0.264565376118
0.263442232435
0.266421689127
0.278866999516
0.283914542232
0.308310412295
0.340034929025
0.354992661493
0.362025670807
0.389596176544
0.4305657566
0.451289485781
0.481401851912
0.482916034825
0.41710758569
0.463535313837
0.500007591444
0.474499745402
0.86870895205
0.994701063272
0.349992694298
0.316768832725
0.24718601155
0.191220057607
0.147117900311
0.100647089375
0.0376428638153
0.232693376135
0.208539855674
0.406768852418
0.387915822676
0.325725036772
0.491994188594
0.829890901108
0.730864303238
0.793523687449
0.838334132265
0.765849853919
1.04774342032
0.550609884747
0.867717513996
0.595643855162
1.04666133974
0.323411965916
0.855983533474
0.662015423908
0.475831825802
0.401725004684
0.375726674246
0.257321833221
0.260580513097
0.0926667830917
0.0426692944403
0.0970297068809
0.0529469011558
0.320068831019
0.157075656808
0.357808735092
0.236265639832
0.121459296809
0.0542827387038
0.0761862527353
0.120454383025
0.0926020626135
0.0444354282468
0.0727267117783
0.0685546504682
0.15959948594
0.276396755795
0.124830158876
0.109424605851
0.269119367555
0.245076763857
0.38535123361
0.369182790041
0.339281946376
0.303884558728
0.44285943025
0.492303881186
0.499413958978
0.541460306289
0.805145806513
0.690243233412
1.03392016067
0.851152283155
1.0442886825
0.689985896695
1.001338561
0.645395742503
0.835120885189
1.14971480455
0.550803536788
0.676693713161
0.790218515038
0.390335609671
0.363501412106
0.429864845629
0.129893321989
0.0310686943395
0.0938295899209
0.0621551850396
0.154021710016
0.0872412269134
0.0973989755663
0.112628640259
0.0627229986449
0.0104155359459
0.0784034180726
0.126164860573
0.121952273058
0.119141788626
0.02767737336
0.0850491384105
0.0367006143575
0.145380813222
0.10626306689
0.0774793904613
0.187560827693
0.0139669447894
0.0360783529808
0.126071822913
0.0985232592284
0.108376515043
0.034588912278
0.158089921154
0.0086228904462
0.109076554817
0.0833202454453
0.0783156548554
0.340800613575
0.240303841198
0.267113268448
0.155452173356
0.237714330027
0.315728843376
0.3655192692
0.503355103263
0.407038482084
0.386171864379
0.289113867753
0.213174733335
0.293489774874
0.344580458008
0.338958787462
0.11232942684
0.265324404139
0.215284110328
0.157729646889
0.230582435714
0.159344218796
0.221934531593
0.164504588703
0.147717259701
0.0382564017446
0.0518448765802
0.0450793424153
0.0621533559879
0.296888769638
0.140083121795
0.0146103965244
0.0620540664102
0.152489473002
0.0444571215225
0.0327014237729
0.0961872959507
0.0251774464508
0.0297634554707
0.0210496834724
0.0875020410898
0.0622323273641
0.0732347494482
0.0731073552414
0.173441668052
0.145531893329
0.152681478949
0.036495320491
0.0619555483668
0.0630778268494
0.0560061333892
0.0443149383729
0.0136956852198
0.0689302844561
0.0508236719873
0.0955099757115
0.0648953230822
0.0534970074394
0.0655440184723
0.0252640483055
0.0944471512922
0.25415554419
0.0713427347349
0.0441931483818
0.240295309009
0.348128021195
0.0401146746029
0.0495932267225
0.0109208344841
0.225922957665
0.445554166591
0.290279080018
0.449382086493
0.357429441027
0.303796207386
0.499740033088
0.431975252193
0.461812806587
0.428938457907
0.376113711084
0.356525316659
0.370919220187
0.370124409407
0.359003893616
0.399168182795
0.32675533994
0.227501231047
0.365657714387
0.264051005493
0.104437881819
0.0995998998903
0.092285781931
0.0960139858087
0.0861532827487
0.111795654362
0.154094676891
0.163126019481
0.172794882549
0.155549400825
0.148829151211
0.138624355445
0.163238346821
0.160386084507
0.174966433765
0.181619503981
0.135367873254
0.180636704461
0.238222521595
0.241851866107
0.258300145239
0.27353694795
0.284915769964
0.300670091393
0.336383762604
0.342984275573
0.373908513521
0.396561185248
0.429589417358
0.463241661679
0.474831616211
0.495978308519
0.525272228608
0.68653284169
0.567948972604
0.940719105064
0.577977064939
1.11276015552
0.717648117062
1.04998314329
1.00430504408
1.24357488215
1.10994953895
1.34282977217
1.48676194553
1.43392841337
1.53488227042
1.63188701894
1.94800301995
1.69119059084
2.17372922358
1.88852984338
1.6498965222
2.59030823027
2.1125991903
2.95897685632
1.92277296151
1.00426788626
2.09504430851
2.12478024061
1.45816182943
2.50319558107
2.34512456227
1.77005713265
1.8646946783
2.05913221168
2.2249899757
1.52344643998
1.63998655278
0.640440940837
2.06632572989
0.952056717358
1.26422481111
0.779838500609
1.13519828894
0.634065554432
0.742828881097
0.500117677253
0.976944635152
0.460969456147
0.535252757951
0.981233293894
0.41977945171
0.529495089797
0.202902263063
0.369484181463
0.301632045087
0.216991395086
0.206378710433
0.273624795747
0.22272409623
0.189877175529
0.190852620745
0.194432963812
0.103589084903
0.112083686268
0.119542204679
0.138089034927
0.117233287347
0.0922186294104
0.0360073264939
0.0468634062518
0.101817011351
0.0586006378768
0.100538094783
0.0479319213457
0.0736711147864
0.0539169790429
0.0823010791939
0.060113029741
0.0988844668278
0.148880169622
0.144042988635
0.199560452149
0.122000888642
0.104655908599
0.148901943158
0.189031453951
0.23285209545
0.284803958773
0.280553738558
0.240686739891
0.239354628345
0.273193482718
0.255362022767
0.262890864935
0.251700058204
0.244443996557
0.259983697503
0.264476088081
0.288286563311
0.287828831069
0.286822324029
0.293542887126
0.282496226556
0.278287133268
0.272685650167
0.261423416816
0.263401018313
0.232009136923
0.229700053668
0.212991875129
0.204298510803
0.160448760059
0.0669318820312
0.0221111663232
0.110105616892
0.0768967199255
0.112228293893
0.18578395326
0.106007241122
0.077580033011
0.0765576179824
0.0373242623147
0.0750967745123
0.0528029327967
0.08678580166
0.104253420656
0.0963435806815
0.103509497048
0.0711315419861
0.165823059884
0.129799599438
0.0322826653848
0.0447989778387
0.10098505371
0.0591575162868
0.0747392375571
0.127716811629
0.107758810178
0.094073718368
0.05798389561
0.0480225177796
0.0708712191541
0.0666991609588
0.0631673803026
0.0522749948996
0.0695514493411
0.0696877041715
0.0823263060735
0.111526190914
0.164669403482
0.229907771874
0.268941033669
0.303636840653
0.352763455329
0.394182699587
0.625755162694
0.626187703878
0.539862186001
0.551740101975
0.638023791642
0.662742293366
0.591359265224
0.536094659856
0.546989318489
0.561537308253
0.469937561966
0.391264236309
0.553388398997
0.520347766497
0.567959637119
0.557698378786
0.433284832222
0.446305521844
0.482485566114
0.427338215691
0.63125183868
0.498496974722
0.0363682487862
0.0835801965382
0.222274812888
0.184173448258
0.204520093185
0.200234799753
0.236270593966
0.230736340199
0.186316815405
0.23288923656
0.219539232438
0.20332702326
0.219191860949
0.247708220608
0.243792609444
0.221741229725
0.250564085264
0.246966278135
0.262155313745
0.278413139124
0.252739899472
0.264382655436
0.289569211756
0.293891163671
0.295703558352
0.298466450543
0.292027621585
0.322921428781
0.319303253824
0.302415635076
0.302442929124
0.327259802648
0.334813542461
0.361160595873
0.354064113944
0.371607188512
0.368633309166
0.399600607958
0.399584225207
0.399958774819
0.412793092898
0.434660633244
0.414412877596
0.422971033009
0.414949256485
0.387218207202
0.341381760626
0.325744946201
0.326646350432
0.344082811078
0.399333423883
0.555438492247
0.623864943486
0.602938988483
0.595722389158
3.61390300875
0.742644584654
3.61186168209
0.58125711769
2.24083925021
1.77844244057
2.31205450444
1.09227420426
1.83708691517
1.51946330361
2.38283643089
0.687984777699
3.21972015534
0.178886892687
1.04103192049
0.0752056456468
0.118519387421
0.229634934259
0.257294179684
0.25508362069
0.179322057947
0.15225229324
0.181808430614
0.202719289846
0.223521101234
0.290594975724
0.201320168122
0.12073825111
0.145667975956
0.216408009498
0.0928362360895
0.198552599998
0.134506074467
0.179607618238
0.192805909055
0.126441944702
0.204218542205
0.0847170334599
0.211690332245
0.060669623119
0.0971745633982
0.16923742335
0.292881558295
0.149281953443
0.16203503638
0.136206869223
0.279973769499
0.267396743641
0.291394767018
0.846133107634
0.133773984725
0.288641783477
0.257959808247
0.296946844331
0.264923511354
0.272476223594
0.332198624139
0.249617861596
0.351488609018
0.403069025184
0.345733554368
0.407564992164
0.605182575603
0.665156044521
0.87482714375
1.28926791116
0.649008007309
1.3848701521
0.937425765724
1.31687550265
1.1933752636
1.09624704455
1.23152303944
0.89271426004
0.94538359357
0.900467536039
0.677843654462
0.83610800484
0.47101730732
0.722955025327
0.108277828444
0.143250956715
0.22167256482
0.331334780485
0.283379984272
0.302719246944
0.366139013276
0.231675432829
0.331324617818
0.202775874227
0.224078911138
0.234323155268
0.191446124276
0.313698384191
0.515435189367
0.365257731225
0.444744752366
0.337806254485
0.323711396017
0.265157335726
0.393293968835
0.35907777309
0.246150083675
0.344710309263
0.202598837128
0.406489401461
0.303095917827
0.238452565633
0.352467321422
0.23616053484
0.0828526967766
0.361805341579
0.115030973647
0.167871391002
0.204013458533
0.242830009126
0.280046654272
0.315315002453
0.328021937131
0.362444002161
0.392390278875
0.393350774783
0.411935448633
0.444265707826
0.455340146144
0.466743512395
0.488259728316
0.512480695398
0.509105828382
0.542914292701
0.582905843265
0.61596482056
0.612131924685
0.611274694885
0.588414269707
0.480925227363
0.363402999106
0.285376626212
0.18907797693
0.0880707656196
0.119163599139
0.239930923136
0.137361064796
0.215992124274
0.18212429079
0.167228759002
0.26722568054
0.233157577536
0.231800170571
0.354228542692
0.215000638845
0.0598968418043
0.0416722302495
0.135284644456
0.24392862898
0.196205242189
0.212558010426
0.16920245129
0.208116809836
0.0702156901253
0.108496140332
0.083033331211
0.0919440418314
0.112077832747
0.152439929361
0.170472446707
0.21298029707
0.247481134474
0.257738880527
0.413718811416
0.433813191272
0.417536720764
0.472403148073
0.539757459154
0.606869704456
0.661247373309
0.657137966667
0.76063120502
0.794814683919
0.63832412276
0.633045204577
0.689335800742
0.727335334169
0.7717056494
0.834858311984
0.861992720519
0.854349152968
0.760285615114
0.568082889452
0.441282138597
0.359944860562
0.252191189547
0.140438258554
0.0966587515575
0.0557671213156
0.0549681857527
0.0393580098332
0.113960012083
0.228594756111
0.0686430695478
0.0401717227718
0.192801526616
0.0638446042654
0.0170089475033
0.0689328438755
0.132177197052
0.165887365312
0.262515887939
0.102740763461
0.169359778987
0.136729523521
0.301245880488
0.245897185748
0.226416712666
0.17013058801
0.235832760173
0.320521583566
0.366536944939
0.160389606468
0.288111806268
0.32329939996
0.195469045059
0.310078999176
0.350891111682
0.262102112792
0.354269650362
0.243691235786
0.138025144049
0.0228122930912
0.149450294606
0.310289469329
0.304319632992
0.475273842036
0.798952737177
0.617700881019
1.85634145884
1.46809153102
2.36873931215
0.639040973549
2.57792432061
1.15465739428
2.41751043282
1.875174613
2.23347464423
1.89415466342
1.16598298275
2.01704360261
0.370431617576
0.924358851241
0.092403808835
0.319170133817
0.293326879973
0.0395639241452
0.0518141002738
0.100837044049
0.251995095744
0.169025441011
0.0782192195782
0.063659124799
0.11446560752
0.0262522890957
0.150641106046
0.0327271157711
0.0186271618958
0.087340721768
0.2506476957
0.247541496262
0.279586083507
0.0739020005933
0.123572800613
0.304615112872
0.24769608342
0.10818718385
0.0570116071268
0.111364133248
0.0355706279024
0.131348054053
0.135016371299
0.343844739615
0.288417256934
0.245035085916
0.189801546533
0.318244845532
0.342804210195
0.30353399865
0.196156627961
0.365968199538
0.392578679993
0.444663450248
0.410802542449
0.407566641916
0.461715668758
0.427435701679
0.650607722176
0.756592896658
0.835027031021
0.805886962351
0.797313678918
0.450624453118
1.07266451
0.483322051556
0.512106837241
0.906820222326
0.268357741203
0.356294213124
0.588282262401
0.287623437847
0.239718813064
0.24088594053
0.415393154494
0.0240011615192
0.04332672999
0.0506971438281
0.0358765604548
0.0136531742904
0.170173511389
0.0268357538552
0.238592230875
0.164367925732
0.1238182786
0.0926030944235
0.0567576268679
0.041253576242
0.110828904127
0.0566897822109
0.0755675571247
0.0581023926138
0.0318182634781
0.0209916446226
0.120027595541
0.158983433251
0.179806472221
0.23911227108
0.0584015602757
0.191317241054
0.105312893083
0.0954510943418
0.0688943503272
0.0843001806021
0.0630111994641
0.051139347656
0.11275907977
0.0129567925674
0.12930940613
0.330797815883
0.312211817961
0.145032741495
0.311982005825
0.139848195164
0.220296024047
0.281471366597
0.269947707169
0.188697920813
0.158629244974
0.111861485837
0.0947985330909
0.181454761756
0.275292565644
0.160604455877
0.365664617684
0.325459844435
0.241941789341
0.111942122059
0.110965390235
0.157119788904
0.129751109268
0.130571076999
0.114868097737
0.193473838476
0.224483932455
0.321596816041
0.319051696805
0.349416358688
0.365503135177
0.333264928089
0.340522775577
0.38298164805
0.357746642423
0.308451431676
0.290831865826
0.198357987022
0.0576749875981
0.0475408307861
0.0491604292386
0.233270566185
0.0747666593088
0.249050288926
0.0634500814852
0.0935969503415
0.132607020038
0.105013100505
0.0883709555534
0.0700750208238
0.0542417549833
0.0397819611937
0.0845030702393
0.00338429322463
0.15720275018
0.102175695823
0.0438550061302
0.174580618897
0.246455147453
0.283719555122
0.0966030750072
0.268394738197
0.145066967466
0.206866303463
0.380352641966
0.26209926095
0.156138677481
0.159075628244
0.159356374371
0.281047523506
0.113295855683
0.252684964981
0.171692290291
0.223600275922
0.172317743412
0.113955149031
0.140167383122
0.250979911963
0.261591375821
0.17972113557
0.0893951884594
0.113458451342
0.131581616871
0.0974337119864
0.0830283527376
0.0872072864371
0.142748907295
0.133390107306
0.128494356981
0.108119646119
0.0848875226876
0.0908071393301
0.134958110847
0.0798470425511
0.0306758181692
0.0274790225047
0.0444138052973
0.177863645142
0.152612673456
0.134857209591
0.00981099362945
0.0966009022978
0.062124641201
0.207485209379
0.0426577031844
0.0390009285787
0.00999497206275
0.0452015429838
0.0295528912234
0.0639313718936
0.136639923004
0.00708214663479
0.021108427053
0.106991033154
0.00891006956612
0.104562781471
0.0545622426862
0.0573682513465
0.0588830763403
0.0810221614075
0.0651946866884
0.0672743739864
0.0656694726752
0.0794057527558
0.0573588605041
0.0710674326478
0.112116019523
0.13289243114
0.11248863701
0.0945293505822
0.117997579037
0.157145575424
0.15027846846
0.144699823288
0.140507437702
0.158304946522
0.18324798206
0.195306587139
logs/alpha_3.0/PGSD_300steps_3.log 375.334300293 0.375334300293 0.24078634021 3.61390300875 0.00338429322463 -1
