Policy Parameters:	-1.50570649499 1.82442511128
Control Steps:		1000
Start Time:		1442335339.091532

-- TESTING STOPPED --

Stop Time:		1442335500.2657423
Duration:		161.1742103099823
Cost Matrix:
0.00701453406446
0.0531201814262
0.0788625715276
0.0470104511763
0.0568498479209
0.0393370546635
0.078660390351
0.047439552357
0.0235297832023
0.0342537240987
0.0319226629266
0.0736850534677
0.0985969938562
0.0504782310926
0.0380066225311
0.0355705004549
0.0484044404677
0.0682879729041
0.104554178471
0.0695919003624
0.0365722640899
0.0737366102427
0.119347152716
0.106254834092
0.118623713687
0.151763991912
0.048091839601
0.0517981088473
0.0876268229396
0.0516636840696
0.0478950255627
0.0595794842578
0.0239252628198
0.0154941548052
0.0384070458802
0.099513465376
0.137856123376
0.0784801297641
0.0347204219228
0.0420205763668
0.0779808657645
0.121907308483
0.0867414760382
0.0889829679311
0.154851796986
0.101889233577
0.136862348307
0.0603260482002
0.0818007877939
0.0384643035903
0.0513122150532
0.0559037091766
0.142931256979
0.181731191547
0.192598232227
0.169683629315
0.17761681223
0.138852781997
0.108347003044
0.0737641630791
0.0773281366609
0.0526075993645
0.0940400796603
0.147401688163
0.236393405878
0.330374943892
0.387937229293
0.459611805866
0.502395321763
0.52528336218
0.53965884786
0.545447365478
0.592148020008
0.601796492062
0.72224266584
1.15876233234
0.522995229992
0.689774281129
0.459484348253
0.478491925536
0.419986677072
0.272946031513
0.134011132345
0.252991109215
0.298661437203
0.310758058576
0.292450842201
0.282166878878
0.300556068657
0.247213207755
0.233287772503
0.176670401692
0.133342525096
0.165426637043
0.103488064953
0.173943385326
0.0144207559708
0.015911928456
0.00446455136693
0.0563774685793
0.102625716161
0.0936162875911
0.0451773010053
0.05370713345
0.0388590651373
0.0168483095592
0.0602596313477
0.0894579551748
0.0509070215877
0.0757443430327
0.0585155560147
0.0230771530854
0.0239021729413
0.0109247209065
0.0167773354049
0.0207895784358
0.0147686585153
0.0391115571818
0.0646958528794
0.0676762813073
0.0105384802754
0.0216548679897
0.0249977328862
0.0061632084164
0.0342450422218
0.0583017538633
0.0554956361506
0.027756335754
0.0342611696216
0.0524709527007
0.0234618815559
0.0484720911983
0.0219246325059
0.0327391641839
0.0301246654316
0.00782743721237
0.0316297877442
0.0437369190627
0.0236199564111
0.0379235957246
0.0681691179896
0.0210594782029
0.0555012965143
0.0704651793561
0.0747168444649
0.0823720286605
0.0620428741157
0.0905045323657
0.115597765745
0.108809395905
0.0501926958235
0.0985666871278
0.177626718416
0.186916977608
0.189685723242
0.130603317505
0.0663671009078
0.111367149059
0.130864040884
0.149100678811
0.0983086268246
0.161911166488
0.171605431805
0.0979544888957
0.0944854005276
0.116786168489
0.135249424253
0.215958511593
0.317892657844
0.29633954462
0.293543135242
0.320925299411
0.402794378696
0.501361059717
0.644373397706
1.00422994247
1.28194245787
1.46364532145
1.57972204248
0.970044446166
1.42357614461
0.931388883561
0.062130252005
0.166796267731
0.296194513805
0.145022279758
0.267747288477
0.145492548137
0.278073489988
0.189887018581
0.301666960875
0.223042653383
0.257106528192
0.304369526413
0.249593800181
0.200133146626
0.192982662429
0.264058128255
0.279207352222
0.183691936012
0.143217075222
0.13443038553
0.0760340572274
0.071523319347
0.110061585674
0.146349352584
0.138936616973
0.114332306388
0.111718510333
0.101792101249
0.101853856127
0.106142004958
0.156571219076
0.128936160822
0.0635245723425
0.0693841329535
0.0838700253084
0.0953123710143
0.132365443767
0.0615981461675
0.0935489656967
0.0917371443434
0.112434481759
0.0337782626969
0.0696040027411
0.153052456319
0.192162175889
0.195790817502
0.215302566201
0.166458702587
0.166706117929
0.160556160408
0.211070616725
0.270369961315
0.286190807331
0.32142616995
0.355978742332
0.490200348665
0.56867529057
0.620743839115
0.774889320583
0.702390753925
0.937729618364
0.899750595171
0.984121126418
0.654803110466
1.27221977328
0.601359279812
0.658328853765
0.790968096284
0.603389569094
0.775923824672
0.433502146916
0.409443125826
0.269590674867
0.202135444965
0.0
0.00696458322284
0.0580819531418
0.0795436482543
0.0239913047044
0.0425714769538
0.034915097519
0.124754430226
0.197674423258
0.1169264353
0.120631071238
0.136193232521
0.160562487172
0.205160070664
0.201992211224
0.159275209893
0.145298781969
0.147635004217
0.116248885953
0.104627747527
0.125124703288
0.175097122503
0.139363416044
0.195169690519
0.230501132374
0.227445500777
0.130156815307
0.118199777354
0.145312306502
0.0973181142257
0.164518581611
0.197137624026
0.122398730544
0.0617125438177
0.0635327492101
0.055359608555
0.0226843075374
0.0500731397727
0.1252500375
0.150785018666
0.125399362111
0.185171508353
0.146756949379
0.143440675964
0.138340658983
0.15229482888
0.15232371232
0.183508203824
0.107742730274
0.121137809408
0.174689604404
0.170320005524
0.16693065486
0.144148996278
0.119945784831
0.126806959891
0.122194018351
0.0666083295839
0.122967240922
0.121581127294
0.105778277263
0.106857913593
0.0670630409475
0.0559167618675
0.0557492004818
0.0559089008712
0.0573725222865
0.0477944401531
0.0469303954429
0.0601635068394
0.066672121804
0.0732936541492
0.0796174311396
0.0744404633693
0.0614192159621
0.0157421820597
0.0351418101209
0.061999089606
0.0815913138151
0.0651126497241
0.0210879279777
0.0459656286256
0.0602753906889
0.0732483004926
0.0686399377933
0.0851434388759
0.087079599644
0.0826989228951
0.0658998136308
0.0376683686417
0.0299425437323
0.0187681649998
0.0261705673626
0.0289167717793
0.041151759455
0.0566053239677
0.119589876829
0.202385171363
0.238616596792
0.251592885353
0.257224772563
0.284637498881
0.366424301704
0.42382656146
0.453954510814
0.514853336416
0.586723522258
0.609445053666
0.627207397144
0.672977354896
0.91631226017
0.567740507296
0.573936957673
0.5546723915
0.566759269369
0.501674805257
0.465946278874
0.395229682719
0.335953379998
0.300818364346
0.150860729442
0.143277375578
0.140826029551
0.151124153055
0.155553820461
0.158529788924
0.160240305569
0.16245928101
0.166072792648
0.16613482445
0.172779196415
0.176402321702
0.186815555712
0.194174684569
0.198984765884
0.216859992261
0.23416263585
0.238393712492
0.239082557119
0.237588664929
0.249969236635
0.26072868734
0.263934814646
0.263958198049
0.284056366379
0.300340101034
0.302961746548
0.316225766794
0.330971002119
0.349141711636
0.364076032605
0.38181670967
0.382896023696
0.408131802577
0.430804831647
0.460250413282
0.485839001349
0.506175009171
0.525506646254
0.532433390409
0.547383883152
0.624102227193
0.756035975649
0.898558023254
0.717530197586
1.18541107184
0.590068323054
0.79040588893
1.19725302614
0.997006997047
0.92413120782
0.971150056592
1.08906734292
2.08238570724
0.356978176681
0.621076316958
0.780693817546
0.846413117278
1.47433712002
1.1717983147
2.29230706146
0.788451863457
1.56245703061
1.49254012752
1.78753011294
1.04720241087
1.84099944141
2.5731521345
0.892953209538
0.812752836158
1.33946997763
1.0944240044
1.18293082397
0.731687759475
1.27992467087
0.872893419
1.04237645397
0.94315043756
0.648087586172
0.639601833107
0.70219545316
0.597317593217
0.596279135236
0.528940217072
0.487130435785
0.446066794975
0.451607054023
0.40196085703
0.373729233464
0.376777838697
0.365097161496
0.31211196704
0.290394783639
0.268443528055
0.266097921559
0.28203514352
0.283201861643
0.261466941608
0.238326940709
0.212581826796
0.201774762523
0.184953964509
0.185510032849
0.178380026086
0.168670912442
0.151887210247
0.150566398784
0.141118868868
0.147700130736
0.14054632516
0.0441378950164
0.0325414655952
0.0312173747936
0.0628058262251
0.0905052030572
0.115812899401
0.175952105385
0.107513878467
0.0975033502829
0.0808279160878
0.031960530101
0.0719462510532
0.0990986989953
0.108010344959
0.1252132606
0.0640421822515
0.0856674955322
0.102402876351
0.0512807904431
0.0689362585416
0.0472987697637
0.0115651304011
0.00958624925542
0.0557654188278
0.128479595432
0.116872243355
0.0750399025735
0.0253821986973
0.0350785978768
0.0669752273053
0.079475462523
0.0731077954879
0.0651605205053
0.0694928590591
0.094013636326
0.120317532846
0.117016133315
0.0943777609291
0.0933544381216
0.0949357927601
0.102703336568
0.125422030587
0.132062798527
0.165722477927
0.175845695593
0.186512438648
0.211895911738
0.274113058334
0.365077438842
0.388977960411
0.488458949609
0.640486849918
0.823354401539
0.702537111361
1.04371117887
0.833003834636
0.754897658135
1.30406909238
1.2085358229
1.40035499676
0.86381530318
1.0017092831
1.05656432788
0.373552149905
0.475319433758
0.300661203662
0.223740509848
0.0925580519113
0.0878326974224
0.0195465308487
0.0134677943659
0.0204111159827
0.0278876042222
0.034525294014
0.0133991276962
0.00290221382346
0.0309890625058
0.0351992682995
0.0130205607205
0.040650574135
0.0630992394641
0.0489278502099
0.0743124439054
0.0682914840758
0.0391057836879
0.0764055423102
0.132640294891
0.0815379625104
0.12785001019
0.118520854432
0.103321331237
0.0949348934783
0.026851736215
0.0142728179676
0.0132706595726
0.0214799769566
0.0335969082211
0.0564705163833
0.0799712935239
0.0413402178433
0.0579663483422
0.0408147800162
0.039046744873
0.049491244956
0.0927997827055
0.100979942389
0.0799959404597
0.0797963779418
0.0867728304695
0.120818519372
0.0877001039398
0.0640681171131
0.056726724887
0.0852592936262
0.0728784980523
0.0666754991447
0.0692406239262
0.0732506271017
0.075490222404
0.0787119200282
0.0772679421833
0.0707409836793
0.0724582469941
0.087931556387
0.0774066817957
0.0765990673549
0.0713758114457
0.0704644893906
0.057512518434
0.0585307563443
0.0853383420384
0.093582421208
0.101836298977
0.0908529213981
0.0734884228734
0.0827237351005
0.0904217164669
0.0939005937836
0.0963667883587
0.102099484677
0.0814332464825
0.0670776306799
0.058038991116
0.0689984783737
0.0546712915635
0.100125357131
0.110136139811
0.108115656891
0.108191168987
0.126478546388
0.124207508806
0.136338551583
0.117231040738
0.0595863226204
0.0363160542854
0.037235495223
0.027412346763
0.0545952744094
0.127712536682
0.179939856855
0.176177819295
0.22141165637
0.240884100225
0.34113786385
0.396116134039
0.482402790321
0.682156081278
1.22612308709
1.00184494596
1.10531540537
1.11598470291
1.16290550377
1.13910013085
0.967372119189
1.26494162825
1.19030110886
1.72490450261
0.548841844135
0.886263762666
2.02320544329
0.0339308206844
0.070797727338
0.123435678557
0.179680328296
0.216054047512
0.231169483898
0.241820106119
0.230124420157
0.243830641566
0.260169438682
0.264023278472
0.276167484424
0.28690855638
0.286444514432
0.300930298644
0.309694573275
0.322946511708
0.344621966476
0.327038867517
0.351631273385
0.378360446854
0.386321050548
0.40097742504
0.416732831772
0.443837437743
0.467631893078
0.477111993837
0.490558698395
0.497697532227
0.5266749119
0.596011123515
0.628866925463
0.639089578329
0.696237122061
0.675590456735
0.760445463257
0.649218396594
0.768409097065
0.597274693451
0.726114544616
0.99162731334
0.930698440539
0.541554724439
0.422846830873
0.511655698626
0.879684420315
1.66525265985
0.315318301769
0.824147263244
2.1897455861
3.19537307357
0.69285405293
1.20302938756
0.913872613701
0.660986793614
1.11033595696
0.511505748863
0.472835773363
1.01672099852
2.01013713913
0.433188722509
1.55850403472
3.02321129676
0.359359825974
0.602883929021
0.603861802397
0.591922277764
0.494855183155
0.508925736502
0.486116990331
0.476350333298
0.422773289479
0.432036843081
0.368305617406
0.367844189694
0.353120308994
0.320827955731
0.297533040566
0.265495446909
0.225458266468
0.251784404921
0.231607166386
0.225601050991
0.217014835378
0.187036569653
0.211090548365
0.182863252413
0.185056163421
0.206242118285
0.194500830376
0.141776594881
0.145140378092
0.16726044303
0.197486220957
0.163729059288
0.167811101742
0.118288150003
0.116099971571
0.143508478126
0.189111528531
0.0931125510661
0.0837777984588
0.0907448365048
0.107041306278
0.127339041429
0.153838469063
0.124442910526
0.116352081133
0.115338735729
0.0630899864504
0.0991445551283
0.109781750556
0.154507850045
0.162270865103
0.189422249297
0.189991524147
0.191655387037
0.175749707748
0.133446998426
0.179657200553
0.224733830554
0.239051777257
0.266564039695
0.331780575936
0.376536978032
0.430942044595
0.492066848143
0.54450434232
0.573994785425
0.605762042818
0.654720451788
0.696903202861
0.787200436402
0.676048568696
0.882618310121
0.657297793052
0.893716997134
0.547025203829
0.366201452029
0.225538121067
0.174686561699
0.0736559443387
0.0499575126568
0.0633190185439
0.100695361515
0.0679187664719
0.0778781457486
0.0297436255078
0.00869693397905
0.0132626998855
0.0368144497352
0.0710563683027
0.0807353037873
0.0646225691048
0.116960895979
0.140376571969
0.0575271603713
0.049361428487
0.032684548023
0.0298156211249
0.0389108944038
0.0827619700385
0.099763622029
0.0440948577517
0.0821043128623
0.112598627468
0.171890853091
0.0743083706842
0.0571936407239
0.0189181909182
0.0485727513837
0.0451984074266
0.0592580807663
0.0959215152505
0.192739485894
0.248056164063
0.206920016881
0.289968228643
0.371608059191
0.311951606102
0.319799673275
0.390837748281
0.50809958145
0.593327071802
0.702304866795
0.559450062733
0.654278212138
0.549825049166
0.60101131933
0.574323696308
0.548367924532
0.469556057041
0.413246757278
0.452204741981
0.463432325399
0.199642340392
0.26698922408
0.117189166267
0.178606217149
0.321742646315
0.378343858105
0.360520619293
0.359544095077
0.272671297752
0.302844639977
0.248849443639
0.22517172784
0.1447496014
0.0789688483842
0.0539410232463
0.0493386071749
0.102393086183
0.182887075611
0.128943826965
0.00885257663455
0.0262062510302
0.0423458347289
0.0811289127989
0.0261653322146
0.0375480555076
0.103433769262
0.133195238341
0.0600159460531
0.112084470651
0.104753375072
0.167097669459
0.126043610139
0.157736345122
0.102663938573
0.0970041263888
0.141758719629
0.185545973144
0.115091346525
0.17152221653
0.112699567115
0.114807324623
0.129235571236
0.0911809784254
0.0899960144324
0.139802531279
0.224591341347
0.213761844511
0.209303061588
0.218431729736
0.245625472826
0.277924747845
0.295994640901
0.305589314893
0.380800361379
0.360778846986
0.458051948518
0.521348771479
0.552947296732
0.555011724206
0.60816361341
0.686302129318
0.560909977156
0.623570787235
0.536107101281
0.58825457597
0.536186540211
0.49133715809
0.434388193556
0.473698080488
0.370953610651
0.31551796832
0.405573449282
0.158107871511
0.202545160223
0.0811848315323
0.0840120054313
0.131512357056
0.105751640728
0.106507719515
0.137778641439
0.20438896899
0.153006196736
0.123503959251
0.0613371428812
0.097826490971
0.0510196653371
0.0854056576809
0.13757414629
0.137898723819
0.11069821569
0.0992662117219
0.155575917981
0.101326548904
0.0763455128954
0.0184682682169
0.0375350470785
0.0925483866889
0.134126919782
0.161382335496
0.0861171647938
0.064467977623
0.0930502444506
0.116053728407
0.17165003104
0.222597625709
0.26093727078
0.28635220068
0.331207358169
0.403670312014
0.462004069522
0.523305226591
0.53888036301
0.535994706793
0.590165160392
0.673772931226
0.681794334196
0.66890612359
0.724461963725
0.763669363714
0.714311417117
0.695342036165
0.443577157384
0.567692325155
0.408259645732
0.291751817572
0.236847847841
0.232289742146
0.17347548951
0.108914288398
0.0421782376709
0.0836226301119
0.103650350508
0.0846861939844
0.0583815420701
0.0313376123334
0.036495724409
0.0286899102202
0.0427152537922
0.0548680269982
logs/alpha_3.0/PGSD_800steps_4.log 295.237080106 0.295237080106 0.154679823515 3.19537307357 0.0 -1
