Policy Parameters:	-1.76713835862 5.18301503314
Control Steps:		1000
Start Time:		1442330126.3655648

-- TESTING STOPPED --

Stop Time:		1442330158.6180542
Duration:		32.2524893283844
Cost Matrix:
0.789658563088
1.04980350858
1.20619749161
1.19468932699
0.589596702504
0.802397442372
0.120666719525
0.111712931544
0.358617049476
0.405925829318
0.195331464751
0.502469536467
0.259122888983
0.377826397273
0.0948484794762
0.499893919048
0.0922546200391
0.793384793986
0.0919312661017
0.150481294346
0.174953078973
0.17676851118
0.156260106159
0.200865893529
0.163583533346
0.184062195835
0.129673353669
0.134492156097
0.150823019895
0.189014739925
0.178589396784
0.246488325007
0.226942454999
0.235352104112
0.173602657433
0.170474881437
0.121723136971
0.152420720235
0.111885150294
0.114839872863
0.105038011056
0.0622879265762
0.0312210921815
0.0333167024118
0.0692803131459
0.038225339141
0.0545480815205
0.103963551018
0.110806958786
0.0192557303669
0.169818156276
0.497727552112
0.0867751260647
0.210270926709
0.160022807168
0.262280521352
0.219213415916
0.141916162648
0.442470641473
0.0718651470916
0.274812703501
0.239662178561
0.818556398961
0.453115917997
0.396812785051
1.03289380842
0.386095863254
0.427380700732
1.04911067051
0.528446097496
1.0744730039
0.493259957249
1.01348014926
0.549619246924
1.05888252185
0.561567643169
1.44366711713
0.209829652425
1.15517576375
0.377242583898
0.372036775546
0.314697105749
0.203378319455
0.248188346478
0.312683468891
0.13843695012
0.330875274317
0.00898799337825
0.197540887863
0.186504056249
0.185887591291
0.134116562463
0.614156102363
0.492124607827
0.227042335239
0.122755269543
0.638290260549
0.11358757686
0.380044988855
0.408355225269
0.322124309986
0.253994347773
0.451138340633
0.849202139205
0.316469086141
0.732423986183
0.277428838669
0.35408626517
0.474600261289
0.416831660093
0.511636405856
0.293791908864
0.26377706207
0.444625497822
0.172648045984
0.297809913287
0.120252014877
0.157514347163
0.189636210609
0.0169119829547
0.0991838877737
0.138534760176
0.0
0.0624739093463
0.120434606686
0.343457732566
0.121823465028
0.45831046403
0.199760036698
0.380968794462
0.12442344689
0.149971564922
0.135745141457
0.151889535757
0.350019294726
0.206668365459
0.151484121508
0.530054759519
0.239196672765
0.336040440614
0.151600731251
0.12172389489
0.174706197304
0.172112334402
0.154352339208
0.156739711158
0.220545989251
0.294834989739
0.455027818154
0.168655485688
0.25333724713
0.0493374164364
0.0397645090482
0.05687962403
0.0269865187444
0.34816316752
0.341212413281
0.27329083266
0.200898163265
0.0242850501017
0.148942787977
0.194292634741
0.262516514968
0.261294856522
0.13663381637
0.147281454376
0.222371560187
0.493582822286
0.306994367569
0.209518285965
0.264566764234
0.197328639216
0.230307226139
0.23520524725
0.3320872995
0.531974235331
1.30166522499
1.26616854504
1.53424353097
1.55400379998
1.44493314481
1.28818443237
1.15657070309
1.68358240749
0.0639582708168
0.091305133138
0.0972336529637
0.0949199160252
0.10307952378
0.149276438238
1000000.0
0.0
0.0
0.0
0.0
0.0
0.0
0.0
0.0
0.0
0.0
0.0
0.0
0.0
0.0
0.0
0.0
0.0
0.0
0.0
0.0
0.0
0.0
0.0
0.0
0.0
0.0
0.0
0.0
0.0
0.0
0.0
0.0
0.0
0.0
0.0
0.0
0.0
0.0
0.0
0.0
0.0
0.0
0.0
0.0
0.0
0.0
0.0
0.0
0.0
0.0
0.0
0.0
0.0
0.0
0.0
0.0
0.0
0.0
0.0
0.0
0.0
0.0
0.0
0.0
0.0
0.0
0.0
0.0
0.0
0.0
0.0
0.0
0.0
0.0
0.0
0.0
0.0
0.0
0.0
0.0
0.0
0.0
0.0
0.0
0.0
0.0
0.0
0.0
0.0
0.0
0.0
0.0
0.0
0.0
0.0
0.0
0.0
0.0
0.0
0.0
0.0
0.0
0.0
0.0
0.0
0.0
0.0
0.0
0.0
0.0
0.0
0.0
0.0
0.0
0.0
0.0
0.0
0.0
0.0
0.0
0.0
0.0
0.0
0.0
0.0
0.0
0.0
0.0
0.0
0.0
0.0
0.0
0.0
0.0
0.0
0.0
0.0
0.0
0.0
0.0
0.0
0.0
0.0
0.0
0.0
0.0
0.0
0.0
0.0
0.0
0.0
0.0
0.0
0.0
0.0
0.0
0.0
0.0
0.0
0.0
0.0
0.0
0.0
0.0
0.0
0.0
0.0
0.0
0.0
0.0
0.0
0.0
0.0
0.0
0.0
0.0
0.0
0.0
0.0
0.0
0.0
0.0
0.0
0.0
0.0
0.0
0.0
0.0
0.0
0.0
0.0
0.0
0.0
0.0
0.0
0.0
0.0
0.0
0.0
0.0
0.0
0.0
0.0
0.0
0.0
0.0
0.0
0.0
0.0
0.0
0.0
0.0
0.0
0.0
0.0
0.0
0.0
0.0
0.0
0.0
0.0
0.0
0.0
0.0
0.0
0.0
0.0
0.0
0.0
0.0
0.0
0.0
0.0
0.0
0.0
0.0
0.0
0.0
0.0
0.0
0.0
0.0
0.0
0.0
0.0
0.0
0.0
0.0
0.0
0.0
0.0
0.0
0.0
0.0
0.0
0.0
0.0
0.0
0.0
0.0
0.0
0.0
0.0
0.0
0.0
0.0
0.0
0.0
0.0
0.0
0.0
0.0
0.0
0.0
0.0
0.0
0.0
0.0
0.0
0.0
0.0
0.0
0.0
0.0
0.0
0.0
0.0
0.0
0.0
0.0
0.0
0.0
0.0
0.0
0.0
0.0
0.0
0.0
0.0
0.0
0.0
0.0
0.0
0.0
0.0
0.0
0.0
0.0
0.0
0.0
0.0
0.0
0.0
0.0
0.0
0.0
0.0
0.0
0.0
0.0
0.0
0.0
0.0
0.0
0.0
0.0
0.0
0.0
0.0
0.0
0.0
0.0
0.0
0.0
0.0
0.0
0.0
0.0
0.0
0.0
0.0
0.0
0.0
0.0
0.0
0.0
0.0
0.0
0.0
0.0
0.0
0.0
0.0
0.0
0.0
0.0
0.0
0.0
0.0
0.0
0.0
0.0
0.0
0.0
0.0
0.0
0.0
0.0
0.0
0.0
0.0
0.0
0.0
0.0
0.0
0.0
0.0
0.0
0.0
0.0
0.0
0.0
0.0
0.0
0.0
0.0
0.0
0.0
0.0
0.0
0.0
0.0
0.0
0.0
0.0
0.0
0.0
0.0
0.0
0.0
0.0
0.0
0.0
0.0
0.0
0.0
0.0
0.0
0.0
0.0
0.0
0.0
0.0
0.0
0.0
0.0
0.0
0.0
0.0
0.0
0.0
0.0
0.0
0.0
0.0
0.0
0.0
0.0
0.0
0.0
0.0
0.0
0.0
0.0
0.0
0.0
0.0
0.0
0.0
0.0
0.0
0.0
0.0
0.0
0.0
0.0
0.0
0.0
0.0
0.0
0.0
0.0
0.0
0.0
0.0
0.0
0.0
0.0
0.0
0.0
0.0
0.0
0.0
0.0
0.0
0.0
0.0
0.0
0.0
0.0
0.0
0.0
0.0
0.0
0.0
0.0
0.0
0.0
0.0
0.0
0.0
0.0
0.0
0.0
0.0
0.0
0.0
0.0
0.0
0.0
0.0
0.0
0.0
0.0
0.0
0.0
0.0
0.0
0.0
0.0
0.0
0.0
0.0
0.0
0.0
0.0
0.0
0.0
0.0
0.0
0.0
0.0
0.0
0.0
0.0
0.0
0.0
0.0
0.0
0.0
0.0
0.0
0.0
0.0
0.0
0.0
0.0
0.0
0.0
0.0
0.0
0.0
0.0
0.0
0.0
0.0
0.0
0.0
0.0
0.0
0.0
0.0
0.0
0.0
0.0
0.0
0.0
0.0
0.0
0.0
0.0
0.0
0.0
0.0
0.0
0.0
0.0
0.0
0.0
0.0
0.0
0.0
0.0
0.0
0.0
0.0
0.0
0.0
0.0
0.0
0.0
0.0
0.0
0.0
0.0
0.0
0.0
0.0
0.0
0.0
0.0
0.0
0.0
0.0
0.0
0.0
0.0
0.0
0.0
0.0
0.0
0.0
0.0
0.0
0.0
0.0
0.0
0.0
0.0
0.0
0.0
0.0
0.0
0.0
0.0
0.0
0.0
0.0
0.0
0.0
0.0
0.0
0.0
0.0
0.0
0.0
0.0
0.0
0.0
0.0
0.0
0.0
0.0
0.0
0.0
0.0
0.0
0.0
0.0
0.0
0.0
0.0
0.0
0.0
0.0
0.0
0.0
0.0
0.0
0.0
0.0
0.0
0.0
0.0
0.0
0.0
0.0
0.0
0.0
0.0
0.0
0.0
0.0
0.0
0.0
0.0
0.0
0.0
0.0
0.0
0.0
0.0
0.0
0.0
0.0
0.0
0.0
0.0
0.0
0.0
0.0
0.0
0.0
0.0
0.0
0.0
0.0
0.0
0.0
0.0
0.0
0.0
0.0
0.0
0.0
0.0
0.0
0.0
0.0
0.0
0.0
0.0
0.0
0.0
0.0
0.0
0.0
0.0
0.0
0.0
0.0
0.0
0.0
0.0
0.0
0.0
0.0
0.0
0.0
0.0
0.0
0.0
0.0
0.0
0.0
0.0
0.0
0.0
0.0
0.0
0.0
0.0
0.0
0.0
0.0
0.0
0.0
0.0
0.0
0.0
0.0
0.0
0.0
0.0
0.0
0.0
0.0
0.0
0.0
0.0
0.0
0.0
0.0
0.0
0.0
0.0
0.0
0.0
0.0
0.0
0.0
0.0
0.0
0.0
0.0
0.0
0.0
0.0
0.0
0.0
0.0
0.0
0.0
0.0
0.0
0.0
0.0
0.0
0.0
0.0
0.0
0.0
0.0
0.0
0.0
0.0
0.0
0.0
0.0
0.0
0.0
0.0
0.0
0.0
0.0
0.0
0.0
0.0
0.0
0.0
0.0
0.0
0.0
0.0
0.0
0.0
0.0
0.0
0.0
0.0
0.0
0.0
0.0
0.0
0.0
0.0
0.0
0.0
0.0
logs/alpha_3.0/PGSD_700steps_2.log 1000066.04953 1000.06604953 0.0 1000000.0 0.0 190
