Initial Policy Parameters:	0.0 0.0
Learning Rate:			3.0
Learning Steps:			600
Start Time:			1442250548.3064852

-- LEARNING STOPPED --

Stop Time:			1442250636.669389
Duration:			88.36290383338928
Final Policy Parameters:	-0.813871965057 3.3430336927
