Policy Parameters:	-3.65048300156 3.82343452157
Control Steps:		1000
Start Time:		1442339015.7548227

-- TESTING STOPPED --

Stop Time:		1442339193.836192
Duration:		178.08136916160583
Cost Matrix:
0.157577807787
0.138085548758
0.204299808643
0.275924663293
0.118453083568
0.195473678072
0.250843276103
0.143611563989
0.0933055416979
0.0637605802356
0.247215757617
0.212892922158
0.210743422753
0.315990306464
0.126464033396
0.095621147509
0.0384665119066
0.0160585191112
0.0236874634562
0.0632162043069
0.0929762503105
0.104711412097
0.124147771639
0.13524839715
0.0640056573137
0.149232954951
0.168449660461
0.150839352445
0.102347290405
0.188470175966
0.100878662235
0.236803684889
0.16576067734
0.10528866668
0.388021823188
0.137433283853
0.179765142274
0.324678797035
0.107603693413
0.0462175697563
0.17992748401
0.266858429584
0.213818615492
0.126970398008
0.0818227199073
0.0520799710541
0.11395001835
0.421878644758
0.263972583661
0.226365018976
0.179079469514
0.266461971089
0.13681640352
0.320572613637
0.280982711937
0.203002845583
0.292212366715
0.125689868657
0.196863365203
0.375008213032
0.668503641884
0.516153217103
0.730791731547
0.529469366472
0.964472548391
0.959391624119
1.1857098522
1.45973039835
1.39909423531
1.42596423233
1.50528719888
1.66766754883
1.60759724479
1.38127653492
1.36764726179
1.18054688695
1.16588508661
0.610108261134
0.339814939968
0.32522176102
0.142105301598
0.256027995091
0.0664799974748
0.251784923033
0.229468744157
0.295834589538
0.14998458618
0.103503003032
0.0620973244714
0.109641659776
0.0764356272884
0.0686058690175
0.198172013232
0.00957251846785
0.0434561244525
0.0295527814646
0.0626534317736
0.206857125413
0.299659262235
0.301872708248
0.329760887557
0.0199817836742
0.116194429616
0.308829007176
0.229409817895
0.349529671397
0.314896163684
0.316009699218
0.340547324209
0.388719325836
0.529088754842
0.509250410002
0.293598000725
0.426792520558
0.458043080658
0.460567457881
0.455150991904
0.428499232598
0.5204022196
0.408622449355
0.397651400689
0.422244183207
0.202457506047
0.237328539306
0.194947299686
0.183440562809
0.242181452991
0.228668056059
0.23608129455
0.0913787748867
0.0732332687455
0.0337221711136
0.0838515884542
0.0488736993599
0.200565161568
0.391777912903
0.0
0.00688530591737
0.0585269606016
0.166897545846
0.0546495298342
0.100735012355
0.175332677057
0.24504406429
0.346792737699
0.107924134569
0.0684536604745
0.0674117408216
0.11793017351
0.0722784702259
0.198156639403
0.327154245046
0.0465583968702
0.075790743143
0.0229950817459
0.106443945689
0.198631736518
0.294025689897
0.369776429053
0.414691446242
0.407767832903
0.461380127649
0.803270839325
0.885678931864
1.49153540644
1.93731742008
2.15264273009
2.03785851604
3.07796694917
0.563996666894
2.98433728778
0.0277967633881
0.135684311837
0.159269265445
0.479470688951
1.86178955192
0.700484901651
1.21905769517
0.320818973827
0.483430408398
0.37220872343
0.137171009602
0.512215761437
1.10330583255
0.712599174438
0.990269908801
0.644176826111
0.696312600088
0.937627011224
0.453208039393
1.11380062319
0.730684944396
0.518779744011
0.416133580923
0.457922122451
0.510664503033
0.120389857036
0.191225212046
0.290889473742
0.382119714934
0.106922286338
0.185799224664
0.320707664649
0.230620926226
0.161425207573
0.259548359632
0.261465122719
0.28583112823
0.470139899895
0.203244293795
0.0221837388561
0.131307989461
0.368524383515
0.29836946569
0.168245014254
0.197858851808
0.166529294141
0.193434985348
0.178311908966
0.112017606112
0.218658816085
0.244113956098
0.162442242325
0.00795839992606
0.0390371166816
0.0688705315398
0.254804408421
0.173473314596
0.101001107672
0.0195439674926
0.076523600809
0.12132257364
0.156531374126
0.00947666234556
0.0315615049074
0.11332161872
0.0460888112836
0.193905859053
0.266830047934
0.0178177241134
0.0408916413768
0.145825543114
0.117214192778
0.194554866433
0.213181873996
0.0924824447977
0.128051177826
0.17617812147
0.065325363177
0.0549518316641
0.0695970130201
0.201499885119
0.216656718166
0.0329560093094
0.0247835849709
0.0992642862325
0.203740714059
0.183411816645
0.104605885727
0.160868326643
0.160208743606
0.105524327177
0.0332892265323
0.125314692131
0.113094800455
0.223019537999
0.173203952411
0.0194002730344
0.0509758724073
0.0452795845737
0.0470107100725
0.0874988479783
0.0506391961256
0.0339791421465
0.193710181429
0.491710231217
0.26761720619
1.06033115932
0.558241851612
1.47830504266
1.18852350074
1.74713938167
1.46630198005
1.72634654035
1.7219820268
1.26780525057
2.0348308787
1.65868829618
1.69622225965
1.34202013249
1.53965908782
0.205593080526
0.197945817256
0.113460469776
0.030497361484
0.102647930271
0.0701659007213
0.224284506374
0.0136152715619
0.0622326199827
0.017537475172
0.0350102287523
0.0464085753401
0.0749560972678
0.158769534792
0.0740291977869
0.287538120649
0.333964240483
0.375465327149
0.484637907025
0.369433610423
0.359496607488
0.218283427817
0.257597942559
0.138898586438
0.191706831637
0.348842326181
0.249924167489
0.218698807459
0.263145168888
0.333915947571
0.113850229217
0.220444768676
0.337292145905
0.0448994435151
0.0234329079137
0.101445480408
0.0965750169899
0.0629618353289
0.0225503121627
0.0337894876241
0.132989346319
0.328614492724
0.0923950529448
0.181685458397
0.0525334036183
0.0349631585364
0.0892174279732
0.130648274764
0.0288319935702
0.116347399197
0.168733982072
0.100555281887
0.0664015780096
0.0603958702725
0.207058864263
0.261582115338
0.144417811611
0.208092043469
0.224378916657
0.355662179701
0.255815324432
0.530182169887
0.912279550238
0.89113307092
1.7075500695
2.01820217441
2.40650803081
1.91808378886
2.93664905967
1.74048825388
1.85820855458
1.04933477238
1.6320343915
1.28993769803
0.71234951829
1.01868201983
0.448881886952
0.0450970510447
0.201338832094
0.369899856496
0.493670915621
0.438482246193
0.384739993048
0.340773029324
0.256329188186
0.293345956989
0.411627774234
0.390884482697
0.429968317171
0.247430362185
0.160119682722
0.269939455129
0.16201825998
0.345172332628
0.051941430554
0.0865446104016
0.0833046318686
0.141162352432
0.142764686343
0.0465540131333
0.017709235794
0.0753742666315
0.187656304844
0.175079805233
0.0433297902275
0.107695308352
0.0679400577535
0.0749445460353
0.118885355254
0.229341708038
0.183471209767
0.275290058665
0.257667911237
0.245865233634
0.23449891885
0.284357586836
0.304992502464
0.29039517484
0.331367445073
0.379615560646
0.340473203159
0.664975506699
0.659460933579
0.527197288427
0.546887747813
0.886169708176
0.48877710047
0.840145167272
0.54127908392
0.908349141254
0.483946345254
0.755525673035
0.391503095204
0.386970075275
0.375642841625
0.324324386383
0.261497442354
0.500614660619
1.73049842431
0.0243715959748
0.112039930893
0.150695980268
0.0731214280229
0.177876242002
0.173301093306
0.174750852836
0.21290494298
0.230424962173
0.332507179382
0.272966822367
0.297346822318
0.417023019575
0.417035909734
0.319929200441
0.613025598466
0.487900751105
0.720344123387
0.544263931072
0.770337604417
0.5214528638
0.652389607124
0.507009433486
0.515046790461
0.494332873863
0.801777751225
0.393869466475
0.473592369688
0.397234308797
0.24785872253
0.237063513257
0.266742816778
0.277261000506
0.288930930292
0.253902370304
0.275740794893
0.271894974706
0.329778508301
0.326043187804
0.331515932276
0.336223354529
0.377611830382
0.374512755989
0.377628223428
0.398267202251
0.448568768559
0.454908928937
0.444718099881
0.460867765928
0.50668638294
0.529454934322
0.555256872948
0.631930503281
0.565991152668
0.751844277861
0.552240176208
0.910195744678
0.568994896618
0.900029780247
0.686995729778
0.947876513409
0.849384076564
0.962094963282
0.968409978601
0.980402181485
1.36510086856
0.858676466686
1.28840170425
1.04657660762
1.27519381096
1.01006734686
1.44384974271
2.10195430894
0.879784302011
1.60916734322
1.07193079092
1.60847383841
1.41554612072
1.38508750594
1.39316132357
1.43032623961
1.37312533388
1.37313907826
1.2365984753
1.31683159534
1.44901482513
1.1227311316
1.25317400086
1.03234703637
1.19364267741
0.985879747033
1.16888218919
1.13142897927
0.942294758814
1.05768334859
0.832386113526
0.984785786486
0.772840490057
0.900720491287
0.533186711846
1.02846330817
0.461984197455
0.548366067559
0.518801940003
0.512825988539
0.508290322515
0.460310167019
0.498946618787
0.394488730056
0.396456303935
0.291438480747
0.31734144535
0.238558494444
0.269013247608
0.227292602197
0.219499716936
0.243045510845
0.223421164791
0.191511118518
0.194199506583
0.314666942644
0.252973412437
0.160659672214
0.141411084509
0.215254913339
0.345283119295
0.118784203454
0.0127436494239
0.062109835176
0.0697940323713
0.101507140859
0.102553855321
0.224098475303
0.067728214345
0.109154251936
0.0636671257071
0.217326209331
0.0924602742269
0.0971369684684
0.0867382233841
0.185652702301
0.0681562983871
0.0892241947233
0.064882900426
0.071343426665
0.104980412071
0.156019303731
0.0311601913417
0.088344123559
0.0510367206843
0.0326833678072
0.103551515223
0.16014497402
0.267943580699
0.0194618045683
0.0857328062518
0.0541774588526
0.070596350818
0.202909624606
0.124783185405
0.0536350371775
0.0203146135754
0.0780980223988
0.074312019226
0.266896931656
0.13326281482
0.29609617989
0.127162326666
0.0902039982729
0.119685866112
0.193044266958
0.0365305237806
0.0561714414914
0.052789763189
0.0528089023962
0.146674521104
0.209692056023
0.209114851482
0.206246672307
0.509792454951
0.362608383172
0.226416392733
0.134481939332
0.358756659718
0.275212637899
0.379463292735
0.301717227143
0.519396128238
0.378419819616
0.193740357226
0.246233274883
0.354161219698
0.289992695179
0.225235478856
0.172845997349
0.300552149705
0.233009978296
0.187190066335
0.217521337912
0.0754868814877
0.108795801736
0.22550015497
0.152368327936
0.309068721286
0.346081623906
0.12677271371
0.216458474628
0.0834573491908
0.270416711423
0.15750836251
0.0884420783817
0.183244667501
0.183717312502
0.0653332163321
0.254050254739
0.0698328006664
0.115333194789
0.250335098687
0.0674944659947
0.0831639974193
0.111370886694
0.283567600124
0.239058701508
0.0884200679821
0.105800406598
0.122753846023
0.184461608361
0.155364196832
0.140718125511
0.0815558438368
0.119780850599
0.122069423212
0.293960131431
0.0484436482722
0.0753743491724
0.105232038482
0.0907900379753
0.35039488983
0.220008816308
0.173160324827
0.255083140726
0.220799904676
0.263596507506
0.281865677451
0.313105125439
0.230220708751
0.368025835811
0.304405903806
0.448367207634
0.441310787651
0.449682357837
0.480400701352
0.870061864874
0.341687995388
0.491200541336
0.413910073098
0.536341271861
0.546390964666
0.511860850927
0.497120349812
0.454234064275
0.466766109475
0.387119099782
0.341991657967
0.286957116909
0.168133606538
0.223423864713
0.196904539993
0.160238504069
0.0302797082877
0.0155012187252
0.0186726456588
0.0768263037296
0.19758039647
0.0981631202673
0.127067769095
0.184566790432
0.128079510267
0.118065349505
0.207933974175
0.121230744109
0.148002669105
0.281919250036
0.115626775829
0.156141454161
0.126924227895
0.180674170131
0.157475756164
0.15192521934
0.143332223537
0.149088534686
0.205175155916
0.13459114954
0.125403455066
0.171686560822
0.193332829551
0.195494304402
0.187453984936
0.173964680615
0.219776441423
0.196517832673
0.180797040339
0.191746411668
0.248631601069
0.216453615493
0.206920692298
0.215319875833
0.206680065636
0.12265138104
0.109594858297
0.422583717948
1.21075972025
1.14104128557
1.50486633428
2.31290155476
1.53246568788
1.85289339228
1.6103699979
1.70187766523
0.92732100295
1.82994319787
0.990097710788
1.26401969251
1.09322196645
0.639067604906
0.195387626276
0.214620348344
0.219355149885
0.215253036202
0.260448747581
0.23126892218
0.260025824854
0.248230251866
0.267936010703
0.267688405607
0.278128571947
0.292250486204
0.297991033252
0.294916626857
0.30770897823
0.321070133836
0.353106212274
0.347003330134
0.350477550658
0.356648651652
0.386109719457
0.418525909215
0.444381168786
0.491789988022
0.50066266366
0.543949106027
0.576785618926
0.539847126085
0.672846413007
0.560032305516
0.86412078257
0.551347942955
0.910672142918
0.759364033346
0.888361236558
0.866704485872
0.956048405111
0.874380525046
1.12283440374
0.921778106491
1.02872262829
0.918518505506
1.14277276939
1.21753988838
1.19104310688
1.05757569674
1.23123777059
1.18657475451
1.07238269175
1.24970967727
1.18570333204
1.24637725621
1.33694524733
0.94318175083
1.42499071766
1.35101588522
1.14318917659
1.0700910517
1.19690571916
1.57273059133
1.19885766855
1.41508531283
1.62187523507
1.0231614928
1.58971620308
1.36768691348
1.33157903989
1.47452426301
1.23560123528
1.19900075594
1.30967270627
1.20341751589
1.21215620205
1.04987626354
1.07479030406
0.890889462584
1.00962172977
0.766204540252
0.904758734347
0.648342861806
0.529135712659
0.918502561185
0.519882648226
0.755535074339
0.496557179053
0.592184848568
0.471646581896
0.502360311841
0.525375730804
0.631779594524
0.491258249785
0.641864046751
0.584662088481
0.685077096526
0.537146975
0.855399176672
0.568387181257
0.872792136784
0.620961889242
0.8337781813
0.885303895453
0.667458664108
0.96509729117
0.858698137966
0.841023622517
0.928813005136
0.841070952355
1.01549305447
0.918792196801
1.03654768507
0.923218055571
1.10079989655
0.998085829322
1.06541129055
1.09531755163
1.01586070303
1.09921773292
1.0529608011
1.10351499291
1.06888407716
1.10835072469
1.03168555085
1.07050655969
1.17418547773
0.989463399255
1.23301875228
0.95999415154
1.03239293024
1.30626128919
0.801697129723
1.12292803441
0.815367456399
0.970614885092
0.774957988421
0.882549548102
0.858141386928
0.662941407891
0.893067879618
0.59712909355
0.850156158012
0.581264717795
0.7020510506
0.539495783032
0.753971950198
0.436797535752
0.473640253546
0.497005844304
0.512725900125
0.448861036248
0.404424632419
0.354513740356
0.392084248509
0.376464725876
0.403141831763
0.227467413943
0.284733104889
0.339292269623
0.259346143043
0.299374561531
0.266955355199
0.282891250319
0.353020697707
0.175226090495
0.207409557177
0.180593414636
0.186356322374
0.202484745842
0.208244673704
0.18880696428
0.149867996562
0.152782943626
0.128746572399
0.176563628199
0.098699118868
0.0857005178163
0.166138062902
0.209785923588
0.152701118127
0.111196640619
0.0893745824651
0.0898320738647
0.0310197304517
0.0364364158907
0.0879316512674
0.166010281113
0.279048501547
0.323272735654
0.241444029141
0.107246367638
0.310161827751
0.301658600155
0.106178390481
0.176302530208
0.0663063692247
0.0669705228602
0.212720022404
0.018236787783
0.0692704437119
0.0459398063514
0.0396701051574
0.0682433731119
0.139980552844
0.249258788608
0.060509146944
0.0122976814204
0.0386232253242
0.119759445872
0.0881484578972
0.11781164733
0.192863068431
0.0279138851368
0.0999220108925
0.194697267192
0.0344283701942
0.0807983880748
0.130634563752
0.0444850899863
0.0496187021414
0.114691849275
0.213934465375
0.0304436307028
0.126744850666
0.0116140346376
0.04810345379
0.0617128190858
0.0175919129269
0.0823306453688
0.187867309912
0.0543541650521
0.200993931525
0.0536850044275
0.218393285117
0.178419324876
0.0698025279641
0.198787527745
0.0256365023201
0.0485889037246
0.0780119091968
0.219277472232
0.306758446034
0.0362473914641
0.171874528494
0.340158721213
0.434723850124
0.425970047422
logs/alpha_3.0/PGSD_900steps_4.log 443.520179421 0.443520179421 0.262363642113 3.07796694917 0.0 -1
