Policy Parameters:	-1.50570649499 1.82442511128
Control Steps:		1000
Start Time:		1442335082.0560546

-- TESTING STOPPED --

Stop Time:		1442335242.794151
Duration:		160.7380964756012
Cost Matrix:
0.0672634610505
0.0426363092338
0.0614258086899
0.124913947796
0.151662300247
0.143395133517
0.161474531097
0.167719695434
0.192362875136
0.167574019387
0.203988563991
0.232883434121
0.225123387174
0.172954084022
0.141632091905
0.11646784241
0.128223292343
0.127737738558
0.124533395506
0.140894024791
0.140660610988
0.0411202286451
0.0691202987184
0.0620646325681
0.027586360808
0.0394817923916
0.0748391292184
0.0192892058904
0.0184082145764
0.0273998845555
0.0585702576437
0.0639382047108
0.128516545736
0.106280103282
0.1143433251
0.171819332076
0.116535740478
0.103777769821
0.122563989595
0.182245538053
0.218832960249
0.205196393683
0.232042095208
0.233457153663
0.237533772643
0.251536351929
0.272944574927
0.251366932858
0.318265505451
0.350770425822
0.382066381274
0.423477729083
0.401355180133
0.40801180383
0.437924525795
0.369637246283
0.409913239985
0.431530529073
0.449302645413
0.426936944592
0.429747747657
0.45191579598
0.382464529511
0.231714897193
0.179414200758
0.107299587723
0.0477872808194
0.00927398336622
0.045562080996
0.0742738682353
0.0617680301101
0.0764434368843
0.0544881753713
0.0989771610652
0.131263581577
0.0918545086717
0.0685130955473
0.0932077726208
0.134009203894
0.101619262107
0.129088890167
0.186531542463
0.157747537813
0.192746524393
0.153765591254
0.134595795857
0.146026717615
0.159621451177
0.1917763452
0.207170472862
0.190188751416
0.179536203177
0.164057501145
0.187622692559
0.164532887545
0.151193583631
0.114421487732
0.114864612267
0.133840507462
0.111713041643
0.0581675792756
0.12374871654
0.142092161088
0.0918759394617
0.102824773101
0.0708553506028
0.0449139378108
0.049867518053
0.0839333909444
0.080508188188
0.0590311314751
0.0712360444816
0.0681485881963
0.0261286066195
0.0461677736022
0.0350501667438
0.0590916779152
0.093517768429
0.102551084723
0.080690787018
0.111613252354
0.0180857199291
0.0345287578826
0.0240415609142
0.0270012919645
0.039105186778
0.0426470598086
0.0753608672602
0.0777973223725
0.0657314085861
0.060331689714
0.0395448074046
0.0370788323465
0.0412756398854
0.0573955849697
0.0357064212187
0.034513268936
0.0478265964836
0.0924738903565
0.0768425807195
0.113718494612
0.116542680261
0.198648242088
0.21921443883
0.253191289199
0.227324980819
0.290349587333
0.327823550778
0.296638800667
0.361786328716
0.407413894869
0.42500106841
0.404865340722
0.450228731884
0.412662527148
0.372952746322
0.395291163007
0.451354522871
0.685634355203
0.230101144095
0.339661584126
0.319611528087
0.286467688887
0.226095410143
0.204857984332
0.0871875420553
0.0768538513657
0.0249237133045
0.0232986375227
0.0329059804244
0.0736638360122
0.0657960916157
0.020541534955
0.0325581493921
0.1194911467
0.190018346405
0.0894268767013
0.0425304124581
0.0313245998736
0.0575486500521
0.0673864774679
0.097005271402
0.040233539959
0.0279182818043
0.0322871252103
0.0576160776504
0.0656500986479
0.0335233364981
0.0439450275269
0.00772894925482
0.0299556854617
0.0487246774986
0.010682089154
0.010718605593
0.0279194572218
0.0304180239488
0.0218868230297
0.00887215780977
0.0721972642594
0.108342523756
0.0368425208072
0.071767142693
0.0263336468815
0.0743481232897
0.094382408203
0.0418676616267
0.0900791499971
0.107737744384
0.10282764159
0.0977619531623
0.135426037735
0.141470569558
0.188101646988
0.239003704929
0.192508307398
0.236189457357
0.336822322163
0.348681560513
0.407139414627
0.448484371044
0.543536472907
0.597307612469
0.763873238204
0.620730452055
0.898192220367
0.640209104932
0.942818875283
0.612293647551
0.859436544763
0.629127380826
0.821451638453
0.537595246783
0.561966512101
0.513852835469
0.461151730147
0.407709996086
0.24758780471
0.172916867596
0.127272638954
0.115799219133
0.0564297279267
0.117914635486
0.244274952444
0.33278910036
0.327623629735
0.359416508824
0.344282883136
0.397878236671
0.36786606381
0.392472474756
0.402199610704
0.392604237231
0.407005296029
0.454245495773
0.449338246562
0.4613630825
0.38809837491
0.378317263416
0.320211722144
0.246034945631
0.209153239623
0.158656394385
0.151971151152
0.1744166687
0.181957680295
0.167615853882
0.025685368314
0.0105389415637
0.00405895413502
0.0475642540419
0.0964031256463
0.0693573281601
0.0243800190402
0.0462790534853
0.0666146378994
0.0278168564218
0.0315128541799
0.0578598577559
0.0529230411927
0.0358619679828
0.0224564893017
0.00852829734476
0.0163577989288
0.0425196221602
0.0747298957971
0.0617647180044
0.054654190472
0.0831612093307
0.0309315638652
0.0299824627257
0.0301700174978
0.0374334352257
0.0354003633021
0.0103921485385
0.0239575544771
0.0220204643374
0.0330588380457
0.0613361301088
0.0475269138472
0.0900372519182
0.111957565636
0.107834320698
0.0821871064451
0.0394007931533
0.0171496296561
0.0376115256356
0.0729705745094
0.060005032837
0.0704876991591
0.0356084700769
0.0410984448369
0.0234860832462
0.0524611872516
0.0422572087017
0.0793538784005
0.0719303260145
0.0810536602609
0.0687561971885
0.0281660038549
0.0540145369359
0.0658351719233
0.0386806484001
0.082371103976
0.129065876048
0.143811202721
0.129816204428
0.122179493509
0.195880815223
0.253071190689
0.191839382311
0.236430577585
0.32180972646
0.342673276771
0.387933990725
0.51199232358
0.615564387524
0.738353034405
0.709770975516
0.876410999926
0.876606585605
0.963011592165
1.03711046985
1.01575580377
1.07684969243
0.775675065647
0.790733710873
0.800656256228
0.581092506636
0.744685056687
0.448459384289
0.495537794038
0.326130887749
0.223777206316
0.0386711430288
0.0807259736348
0.0738537983328
0.0828360510401
0.114117219992
0.0640392752985
0.0955214773598
0.0571438805882
0.0690721406568
0.0603222673829
0.0834377897516
0.107148117625
0.114432015733
0.0888724835839
0.109581127845
0.0766426275968
0.091539872144
0.142195627159
0.167119599721
0.170286753771
0.206299171492
0.22259921255
0.281915419207
0.365818708825
0.436494779405
0.50065554582
0.565377823011
0.618133032409
0.658926516797
0.737675980794
0.838733296201
0.760104105776
0.944032937584
0.854116382876
0.752218380306
0.49088444601
0.606579269138
0.554631194523
0.48864118123
0.524449566862
0.431802938495
0.448134356875
0.268356042061
0.281612563336
0.127706130178
0.0819498421336
0.0843718917534
0.113085531532
0.112406601965
0.00889918637014
0.0309956486317
0.0534771592504
0.0844373006817
0.114315991889
0.116354286925
0.0975098027172
0.043747797251
0.0927727913092
0.122839858292
0.17966685549
0.208838705602
0.130393974223
0.132018395195
0.199884567594
0.27641534801
0.231853723401
0.247777463881
0.251823138937
0.334388895664
0.39813116326
0.528362209574
0.627787724756
0.93207051469
1.13805376179
0.976659520669
1.47539723333
1.52299327764
1.37315292289
0.992366063804
1.47362588947
1.73999229573
1.87113409866
0.376291032033
1.0192384722
0.205951011866
0.0506145714458
0.112140872225
0.0652705407764
0.0641848988073
0.0436348681485
0.0616979447545
0.175825366169
0.292425243642
0.362490629226
0.415735094092
0.428499158983
0.401320462474
0.398938971489
0.0799410917379
0.106285727804
0.141328850307
0.179761883878
0.218045903678
0.260442662536
0.307141591695
0.264442930105
0.273719387672
0.276398879536
0.272100998193
0.266838486067
0.235397176479
0.270647588824
0.270375557929
0.258758362743
0.220986414063
0.22517557338
0.221792338429
0.22181850369
0.193001909853
0.196371199144
0.149072557206
0.114769763581
0.0773531005323
0.0650015919256
0.153041029462
0.176040547261
0.125067325239
0.202216781827
0.25132894998
0.251674439008
0.210765404708
0.206010382948
0.191195041311
0.116593135907
0.116847826787
0.136948813299
0.186618209202
0.124024962015
0.182462056288
0.189288224261
0.0967706435937
0.141519581917
0.142553101759
0.148033550613
0.130153761504
0.127040211905
0.0850511270361
0.0723323324176
0.0686876513332
0.0909653649489
0.0802586688783
0.0835302590002
0.0763007986921
0.0629320699608
0.0742139295864
0.0796243565252
0.0907596640983
0.0899474322524
0.065504821186
0.0765104290978
0.104126127271
0.0972681696012
0.0978955403212
0.0969480754602
0.0998344131857
0.109363790594
0.107482394585
0.0991882335527
0.0971354444869
0.102538886936
0.093618689847
0.101035062268
0.115323419765
0.109996125504
0.10946190265
0.105782227628
0.118336512319
0.118706321799
0.115731484667
0.126174481656
0.126523620129
0.1315391576
0.130004512401
0.133877219172
0.139819551278
0.127099135966
0.13811889339
0.140293766822
0.136292220895
0.140914642784
0.138260479119
0.14570210026
0.160306729206
0.15851538376
0.15280728722
0.167517982819
0.173250954985
0.162283290345
0.156724713621
0.172339145524
0.169035009769
0.173424794783
0.181659505145
0.179009889048
0.194162366098
0.196645224812
0.192443832421
0.197372958972
0.198057330857
0.203846564523
0.214881878958
0.218182244972
0.223024089096
0.22379409679
0.237177115851
0.242604019214
0.243223315162
0.246149603597
0.252152499847
0.271509221733
0.261014435181
0.266751138162
0.291153261901
0.289837362828
0.306965693526
0.3167920648
0.320164563448
0.333388061754
0.334410437181
0.344513135307
0.3287031398
0.349158014704
0.362766066232
0.397167305827
0.442971017396
0.400250050393
0.411298472417
0.422747036848
0.432996567221
0.451850004834
0.461672505462
0.488104955915
0.508528191917
0.502339806143
0.534962924188
0.533066041114
0.542060807258
0.558768828862
0.593495674898
0.69521425729
0.602478891706
0.721047497893
0.599332963999
0.811286484979
0.602784539154
0.81623106217
0.729838489043
0.832350922625
0.866732583878
0.780332693773
0.842580808246
0.898647105996
0.819401433926
0.929601194439
0.897959127868
1.07452058167
0.718113413599
0.950978906789
0.740391709579
0.944467689437
0.892646060975
0.904903199659
0.861578299516
0.911969512298
0.798329066101
0.791627609992
0.849245534439
0.848782283365
0.636905459776
0.874446522509
0.602230602181
0.743856914838
0.609759857459
0.851465448156
0.542576484963
0.681109027585
0.559753879727
0.628166995692
0.557653746962
0.530270311965
0.545570733362
0.429477857024
0.363490326555
0.422482526825
0.358923370239
0.360233142358
0.368835863246
0.386584689693
0.364425721852
0.305978946209
0.30345375366
0.281643922823
0.284943947969
0.267236633088
0.277213781692
0.272403005042
0.274657636119
0.246670239335
0.237109853673
0.241804514173
0.241013189006
0.222225812299
0.212546037634
0.221445440355
0.2150059119
0.208583385088
0.13844238016
0.0903403316319
0.117650309674
0.0575278953957
0.116520779221
0.0990213440307
0.142460917163
0.170379977855
0.134349100987
0.131420482382
0.13648887027
0.125830753612
0.133422146394
0.122153333909
0.122824145998
0.0990719931843
0.0630872294094
0.0769057476555
0.0425579207431
0.0414815014326
0.0892180005027
0.142137163623
0.159395375752
0.178911837202
0.170240683827
0.214094654551
0.25448317958
0.29143930242
0.306644610426
0.363835099832
0.384852000897
0.417312028544
0.425439522192
0.425000926659
0.649100794852
1.21978549032
0.359103443932
0.458347035253
0.450062821604
0.405180548352
0.33229294448
0.328481765116
0.291380881297
0.255861982546
0.238206122547
0.227066242685
0.534342712169
1.09303874588
0.11725876261
0.119963760999
0.0306924877682
0.0799695727353
0.162645652509
0.181783868796
0.172304121931
0.171663253368
0.175985915421
0.185094659912
0.155000905304
0.167583326587
0.172152628306
0.174391439656
0.185404805623
0.17140053193
0.162469410052
0.175042312071
0.162001549513
0.183322876682
0.141054634457
0.158313500184
0.176774498582
0.168914660525
0.169433717429
0.168002019833
0.18017028918
0.187094303729
0.191036010226
0.141761763345
0.184954852915
0.1954521986
0.188300182689
0.203868645846
0.212164559561
0.220697902724
0.237617028975
0.224545241295
0.22860258344
0.239755962727
0.225101024042
0.254947167753
0.276024380509
0.279421882387
0.284522868601
0.300543877229
0.303139321175
0.311250391599
0.320020862967
0.336662569069
0.334722580699
0.351009009563
0.373652836099
0.380954078534
0.391869002895
0.405599548785
0.430325898304
0.451831600838
0.473068901577
0.494375112116
0.504068094211
0.54292284798
0.59184835607
0.72157954206
0.538146420879
0.691250364921
0.65733015545
0.854875531964
0.763401100538
1.08641720996
0.953357450536
0.920244753235
1.70894244849
2.20335612282
3.77322997104
0.416170630036
0.90678814971
0.929581133336
0.704288099796
0.678347919388
1.03164006305
0.887197054415
0.759886258055
0.890549208512
1.10238515333
0.719509721307
0.563892357703
0.672224915448
1.41113496021
0.643075686622
1.10313579695
0.802567175205
1.10636207943
0.608711386923
0.971064847757
0.964516283884
0.776500318306
0.798192408898
0.76210366497
0.792857279217
0.77648826928
0.743266251925
0.605451396544
0.937972521429
0.589255073104
0.773395351541
0.571843034883
0.749811136306
0.4790377579
0.504438276801
0.50472774671
0.457724337004
0.457899015036
0.480434701651
0.458940213749
0.351255277932
0.35892318371
0.337743172624
0.320451752027
0.291113824245
0.262823325221
0.266478807116
0.229897949697
0.242194003247
0.201355591506
0.200227894093
0.200167679739
0.199053353752
0.19496230098
0.210986602173
0.193424525163
0.141866124959
0.15912099797
0.14845542775
0.132262594744
0.154590579161
0.159645786257
0.137873800369
0.169091758638
0.131104792156
0.161736850017
0.169003734899
0.196385122264
0.170407349371
0.156972926478
0.0813241201247
0.131318264352
0.148953777592
0.0650362830572
0.0762910188193
0.0387229451135
0.0717840213895
0.0630845565866
0.0404276561299
0.0489820029335
0.0873488382705
0.0710242001404
0.0584969702539
0.0989421057675
0.0798461759869
0.0660747790707
0.0960327174923
0.0901068723855
0.0737251345614
0.0104321818897
0.0128826770409
0.0193778446536
0.0253005297513
0.0154291521984
0.0294709408617
0.0905467459646
0.163704141293
0.138602354144
0.112195871911
0.071618026721
0.111024467164
0.106885080705
0.0427206557106
0.022209020211
0.0243851328575
0.0666120026431
0.0199947975313
0.0519052143337
0.100213742151
0.0963022589096
0.152987167512
0.105090747975
0.11007747849
0.0995751501933
0.0651097843715
0.0659185951565
0.0823366613533
0.0952878639195
0.129047396437
0.113375747311
0.111520707553
0.103469607904
0.0973053345859
0.1364069992
0.104535897844
0.11370762825
0.189166075223
0.260753279764
0.264448647342
0.276821975338
0.304546517421
0.339352823704
0.368004085643
0.436152350459
0.498680823422
0.545039868762
0.618787207729
0.595472696909
0.522399323234
0.491175575568
0.542816200954
0.466593841245
0.362680613389
0.430854170106
0.388080937807
0.481520920105
0.421662557559
0.248302355569
0.206924308533
0.36075103513
0.47580181746
0.390546043187
0.314411323915
0.117946397282
0.0416918276886
0.0193446767599
0.0401021788043
0.0467511554341
0.0244872513967
0.0489632720758
0.0672960869302
0.0886818408388
0.0683180961986
0.055442431359
0.0625663366686
0.0825145954945
0.108892639267
0.0553194921964
0.0647271311532
0.0690031032628
0.129900706876
0.0535561459802
0.0587436526041
0.0860714832648
0.1523911958
0.0485589088376
0.00870362379444
0.0184391505904
0.0443461140089
0.0472775134495
0.0318124827701
0.0548735882937
0.0360235993004
0.0518286193158
0.104242738524
0.0302815570718
0.0205608676653
0.021482675795
0.0539262855405
0.070627128477
0.0677891369375
0.115157826225
0.0652122834187
0.0685308402251
0.0970933962461
0.0840441145706
0.0812000128151
0.0864182384034
0.0821342661565
0.0816578690078
0.108599712173
0.161323465555
0.115003430977
0.163791381006
0.10832087385
0.165169874947
0.118856755018
0.120666763389
logs/alpha_3.0/PGSD_800steps_4.log 278.249044913 0.278249044913 0.172321633727 3.77322997104 0.00405895413502 -1
