Initial Policy Parameters:	0.0 0.0
Learning Rate:			3.0
Learning Steps:			500
Start Time:			1442250393.5701869

-- LEARNING STOPPED --

Stop Time:			1442250468.0759284
Duration:			74.50574159622192
Final Policy Parameters:	-0.944232295881 1.00971757027
