Policy Parameters:	-1.20383517333 1.96997656387
Control Steps:		1000
Start Time:		1442338491.679681

-- TESTING STOPPED --

Stop Time:		1442338527.9996567
Duration:		36.31997561454773
Cost Matrix:
0.0671512990289
0.131867530753
0.18860995454
0.229807690821
0.14844968419
0.148489781694
0.17891423772
0.184797945878
0.283614579621
0.247550435603
0.257917710883
0.261789942434
0.313762382382
0.586630061452
1.42242362334
0.46321808597
0.798060466477
0.68966180157
0.736419179347
0.873285997301
1.11148447039
0.972404924819
0.764972701436
1.24540638681
0.665231399679
1.29587482384
0.973410058621
0.519186237169
0.521209721911
0.46098355062
0.860788653505
0.137196169356
0.153351821107
0.147390820027
0.110961949388
0.0980330772493
0.166459816801
0.174851489235
0.202036931387
0.142424077443
0.134975249016
0.0473451188824
0.0814361490917
0.0331819797413
0.0607709994037
0.0417097747277
0.101500704052
0.122299857074
0.134178151269
0.140484164614
0.214845816389
0.323030629261
0.391670912567
0.410430154574
0.431060028054
0.433231369603
0.433222868052
0.46572741133
0.461772405004
0.485929034118
0.523750767715
0.505872769962
0.454623153931
0.462710174068
0.42117172372
0.348383155463
0.241494491016
0.187171354606
0.175788526427
0.110097495084
0.102360660405
0.241108446507
0.209158275535
0.144785168404
0.0965118554218
0.11932340667
0.0986861744388
0.109770528933
0.0946982766513
0.0950142932916
0.0828491393958
0.121240005255
0.210190078933
0.251344632256
0.157379340059
0.164966999339
0.195364782479
0.126365849746
0.0570587873002
0.0757186336724
0.0934017948517
0.0773323371556
0.10295554591
0.189462136493
0.146508055538
0.117572592381
0.146816686766
0.112564584768
0.118616344731
0.0634111459226
0.0330014418831
0.045635069468
0.0695466160181
0.0857696883528
0.031685667022
0.0343730185094
0.026562929568
0.0668628306958
0.1091546323
0.126786399006
0.0736074415579
0.1784526787
0.251111143785
0.0819303513982
0.056784491109
0.0616166570097
0.0298487836222
0.0459593977236
0.0879825177445
0.0617911036342
0.0295857645927
0.050232042494
0.0496118915889
0.0394589698018
0.0656001445581
0.0449555176756
0.0788915339609
0.0812169424245
0.0762568583383
0.0586582199132
0.0845159058122
0.0180196646684
0.0414750330421
0.0221878421688
0.0277636223772
0.0637072648286
0.0362315526935
0.0315310449927
0.0784766747629
0.125549649258
0.00780991477754
0.0273193703463
0.0476120543529
0.0497880818858
0.059632565191
0.0346335829694
0.00742173028916
0.0280738215702
0.0535643068145
0.0729082273642
0.0407620692992
0.0169474623443
0.0591215644662
0.084983467378
0.0448655714766
0.0421548050732
0.0580249637198
0.0882460335222
0.0238313977069
0.0512046188013
0.065827658367
0.0818797546533
0.104558070375
0.170304722485
0.250134104456
0.328435820079
0.473050145246
0.604854367938
0.671664639234
0.767785019854
0.720271938638
0.814560840358
0.803595974417
1.19659067773
1.02387446444
1.01628043025
0.928556073148
1.44741231746
1.29401094993
1.34735497222
0.814554780619
1.11211655906
0.328552799402
0.385391807939
0.299130680384
0.183777024668
0.0341368722688
0.0446646929696
0.028739339772
0.0145902249409
0.0463047070312
0.062742695557
0.0462360912573
0.0196397103779
0.0564274026394
0.0298129819009
0.026365189896
0.0243665186627
0.0284614367929
0.0416107081131
0.0725654437454
0.0814414606937
0.0457837329866
0.0266672546974
0.0298420763222
0.0344723195974
0.0990769556429
0.0234290808877
0.0511941236684
0.0346361077264
0.0286678945813
0.0796181617064
0.0985022193674
0.0947846092509
0.0997282402417
0.100567258148
0.0761088969974
0.0404060978554
0.0873288920842
0.0388851954563
0.105610818518
0.148484296115
0.171895574607
0.289114033589
0.6763044659
0.795773883333
0.197583026362
0.190373211487
0.130273555062
0.0562066838421
0.0254005244624
0.0487598272692
0.132167419044
0.0768695114163
1000000.0
0.0
0.0
0.0
0.0
0.0
0.0
0.0
0.0
0.0
0.0
0.0
0.0
0.0
0.0
0.0
0.0
0.0
0.0
0.0
0.0
0.0
0.0
0.0
0.0
0.0
0.0
0.0
0.0
0.0
0.0
0.0
0.0
0.0
0.0
0.0
0.0
0.0
0.0
0.0
0.0
0.0
0.0
0.0
0.0
0.0
0.0
0.0
0.0
0.0
0.0
0.0
0.0
0.0
0.0
0.0
0.0
0.0
0.0
0.0
0.0
0.0
0.0
0.0
0.0
0.0
0.0
0.0
0.0
0.0
0.0
0.0
0.0
0.0
0.0
0.0
0.0
0.0
0.0
0.0
0.0
0.0
0.0
0.0
0.0
0.0
0.0
0.0
0.0
0.0
0.0
0.0
0.0
0.0
0.0
0.0
0.0
0.0
0.0
0.0
0.0
0.0
0.0
0.0
0.0
0.0
0.0
0.0
0.0
0.0
0.0
0.0
0.0
0.0
0.0
0.0
0.0
0.0
0.0
0.0
0.0
0.0
0.0
0.0
0.0
0.0
0.0
0.0
0.0
0.0
0.0
0.0
0.0
0.0
0.0
0.0
0.0
0.0
0.0
0.0
0.0
0.0
0.0
0.0
0.0
0.0
0.0
0.0
0.0
0.0
0.0
0.0
0.0
0.0
0.0
0.0
0.0
0.0
0.0
0.0
0.0
0.0
0.0
0.0
0.0
0.0
0.0
0.0
0.0
0.0
0.0
0.0
0.0
0.0
0.0
0.0
0.0
0.0
0.0
0.0
0.0
0.0
0.0
0.0
0.0
0.0
0.0
0.0
0.0
0.0
0.0
0.0
0.0
0.0
0.0
0.0
0.0
0.0
0.0
0.0
0.0
0.0
0.0
0.0
0.0
0.0
0.0
0.0
0.0
0.0
0.0
0.0
0.0
0.0
0.0
0.0
0.0
0.0
0.0
0.0
0.0
0.0
0.0
0.0
0.0
0.0
0.0
0.0
0.0
0.0
0.0
0.0
0.0
0.0
0.0
0.0
0.0
0.0
0.0
0.0
0.0
0.0
0.0
0.0
0.0
0.0
0.0
0.0
0.0
0.0
0.0
0.0
0.0
0.0
0.0
0.0
0.0
0.0
0.0
0.0
0.0
0.0
0.0
0.0
0.0
0.0
0.0
0.0
0.0
0.0
0.0
0.0
0.0
0.0
0.0
0.0
0.0
0.0
0.0
0.0
0.0
0.0
0.0
0.0
0.0
0.0
0.0
0.0
0.0
0.0
0.0
0.0
0.0
0.0
0.0
0.0
0.0
0.0
0.0
0.0
0.0
0.0
0.0
0.0
0.0
0.0
0.0
0.0
0.0
0.0
0.0
0.0
0.0
0.0
0.0
0.0
0.0
0.0
0.0
0.0
0.0
0.0
0.0
0.0
0.0
0.0
0.0
0.0
0.0
0.0
0.0
0.0
0.0
0.0
0.0
0.0
0.0
0.0
0.0
0.0
0.0
0.0
0.0
0.0
0.0
0.0
0.0
0.0
0.0
0.0
0.0
0.0
0.0
0.0
0.0
0.0
0.0
0.0
0.0
0.0
0.0
0.0
0.0
0.0
0.0
0.0
0.0
0.0
0.0
0.0
0.0
0.0
0.0
0.0
0.0
0.0
0.0
0.0
0.0
0.0
0.0
0.0
0.0
0.0
0.0
0.0
0.0
0.0
0.0
0.0
0.0
0.0
0.0
0.0
0.0
0.0
0.0
0.0
0.0
0.0
0.0
0.0
0.0
0.0
0.0
0.0
0.0
0.0
0.0
0.0
0.0
0.0
0.0
0.0
0.0
0.0
0.0
0.0
0.0
0.0
0.0
0.0
0.0
0.0
0.0
0.0
0.0
0.0
0.0
0.0
0.0
0.0
0.0
0.0
0.0
0.0
0.0
0.0
0.0
0.0
0.0
0.0
0.0
0.0
0.0
0.0
0.0
0.0
0.0
0.0
0.0
0.0
0.0
0.0
0.0
0.0
0.0
0.0
0.0
0.0
0.0
0.0
0.0
0.0
0.0
0.0
0.0
0.0
0.0
0.0
0.0
0.0
0.0
0.0
0.0
0.0
0.0
0.0
0.0
0.0
0.0
0.0
0.0
0.0
0.0
0.0
0.0
0.0
0.0
0.0
0.0
0.0
0.0
0.0
0.0
0.0
0.0
0.0
0.0
0.0
0.0
0.0
0.0
0.0
0.0
0.0
0.0
0.0
0.0
0.0
0.0
0.0
0.0
0.0
0.0
0.0
0.0
0.0
0.0
0.0
0.0
0.0
0.0
0.0
0.0
0.0
0.0
0.0
0.0
0.0
0.0
0.0
0.0
0.0
0.0
0.0
0.0
0.0
0.0
0.0
0.0
0.0
0.0
0.0
0.0
0.0
0.0
0.0
0.0
0.0
0.0
0.0
0.0
0.0
0.0
0.0
0.0
0.0
0.0
0.0
0.0
0.0
0.0
0.0
0.0
0.0
0.0
0.0
0.0
0.0
0.0
0.0
0.0
0.0
0.0
0.0
0.0
0.0
0.0
0.0
0.0
0.0
0.0
0.0
0.0
0.0
0.0
0.0
0.0
0.0
0.0
0.0
0.0
0.0
0.0
0.0
0.0
0.0
0.0
0.0
0.0
0.0
0.0
0.0
0.0
0.0
0.0
0.0
0.0
0.0
0.0
0.0
0.0
0.0
0.0
0.0
0.0
0.0
0.0
0.0
0.0
0.0
0.0
0.0
0.0
0.0
0.0
0.0
0.0
0.0
0.0
0.0
0.0
0.0
0.0
0.0
0.0
0.0
0.0
0.0
0.0
0.0
0.0
0.0
0.0
0.0
0.0
0.0
0.0
0.0
0.0
0.0
0.0
0.0
0.0
0.0
0.0
0.0
0.0
0.0
0.0
0.0
0.0
0.0
0.0
0.0
0.0
0.0
0.0
0.0
0.0
0.0
0.0
0.0
0.0
0.0
0.0
0.0
0.0
0.0
0.0
0.0
0.0
0.0
0.0
0.0
0.0
0.0
0.0
0.0
0.0
0.0
0.0
0.0
0.0
0.0
0.0
0.0
0.0
0.0
0.0
0.0
0.0
0.0
0.0
0.0
0.0
0.0
0.0
0.0
0.0
0.0
0.0
0.0
0.0
0.0
0.0
0.0
0.0
0.0
0.0
0.0
0.0
0.0
0.0
0.0
0.0
0.0
0.0
0.0
0.0
0.0
0.0
0.0
0.0
0.0
0.0
0.0
0.0
0.0
0.0
0.0
0.0
0.0
0.0
0.0
0.0
0.0
0.0
0.0
0.0
0.0
0.0
0.0
0.0
0.0
0.0
0.0
0.0
0.0
0.0
0.0
0.0
0.0
0.0
0.0
logs/alpha_3.0/PGSD_900steps_3.log 1000056.82693 1000.05682693 0.0 1000000.0 0.0 234
