Policy Parameters:	-0.428516401377 0.589537719592
Control Steps:		1000
Start Time:		1442321734.6363828

-- TESTING STOPPED --

Stop Time:		1442321767.988052
Duration:		33.35166907310486
Cost Matrix:
0.126886621858
0.186615511889
0.165503026231
0.082573431259
0.0357674003098
0.0437755271117
0.0305480101456
0.0515143470295
0.0282577142773
0.00140800734352
0.0159542473308
0.0310288455781
0.0357580712706
0.0264821430168
0.0537588518867
0.0254596498999
0.0226475856309
0.0351694158478
0.0461785828156
0.0220993460107
0.0222354877192
0.00688664545448
0.0497267265607
0.0218602848295
0.0175049974116
0.0248081322819
0.014832198971
0.00447247717247
0.0214365024997
0.031002514878
0.0536468608064
0.0671926355135
0.0370539770835
0.0383028437238
0.0843099629337
0.0954066661971
0.0530584506886
0.064089790421
0.0972722759548
0.0619512192381
0.0978627479371
0.127042459669
0.111096976724
0.14885309414
0.204526114235
0.222283671544
0.237821856057
0.263309461676
0.314657700041
0.325685081681
0.319808980774
0.387699484239
0.395378917089
0.401118626762
0.412178131847
0.418593460888
0.43528466725
0.453353360772
0.477227548463
0.499018564052
0.470901683178
0.500548689352
0.521236012273
0.524339789549
0.519386145214
0.571967528713
0.502142411462
0.486573862268
0.412298914114
0.311354877213
0.305768983942
0.166836159892
0.0344446512457
0.0151534393648
0.0203668434445
0.0149524582505
0.0319129616255
0.0265937991926
0.0251309370635
0.0093780690009
0.0183374974316
0.0214450764761
0.00753466462786
0.0267464223056
0.0313944820351
0.0384023870388
0.0176324271438
0.0536679439701
0.0399887086731
0.0608693002422
0.0455907829925
0.0477851210427
0.0438641875797
0.027683859237
0.0363933451911
0.0151115061924
0.0404636720426
0.0863831753136
0.0582394501419
0.0633270026831
0.0878250807483
0.0940760742222
0.101787056782
0.0737703951514
0.10192774049
0.107837446891
0.0988019531569
0.0641496621597
0.110272701185
0.179135743542
0.147356104554
0.0911271509034
0.101463341459
0.0876335300583
0.115502680198
0.149178607733
0.136107797027
0.129388716849
0.137015313382
0.0894543392563
0.153227515007
0.151059261998
0.151803796602
0.192874806524
0.153636898495
0.161814639144
0.143024755024
0.162893047279
0.141630617855
0.134701040968
0.121881719261
0.135371830975
0.116880619367
0.0460183799783
0.073907668445
0.0973805183222
0.0555538064351
0.0869411884284
0.0426768007014
0.0652654828424
0.0941355639912
0.0417171791926
0.0155948254229
0.048168231382
0.021007828026
0.0442929464594
0.0241856550261
0.0122281905537
0.0258824019154
0.0153157247724
0.0289898711223
0.0125902817123
0.0309376295593
0.037701830219
0.0133276006477
0.0907254475171
0.0815636336652
0.0336259247841
0.0143381138592
0.0116340940033
0.061036911558
0.100711919052
0.114480292995
0.047374431413
0.0177251657904
0.00900898199071
0.0729868217787
0.0314789133145
0.0912066930531
0.0339029290244
0.0235549168437
0.0351114537565
0.0924086247683
0.0607372022261
0.0214294316883
0.0344639538128
0.0223041544733
0.00755583568698
0.0390927966788
0.0143018078909
0.0124124619421
0.0231634968964
0.0132752507076
0.0728417789392
0.0346901409073
0.00747342285935
0.0121422975263
0.0142880102672
0.00209763144167
0.00921304157711
0.0149661370482
0.0122534857183
0.0260996882169
0.0585676869661
0.0451797283594
0.0156264393563
0.0220832930604
0.0180477724421
0.0089536952296
0.0450287779839
0.0475452242092
0.0133375213746
0.0277944621142
0.0492990434514
0.0454418593649
0.0295594442235
0.0380351453725
0.0271720921092
0.0185318083847
0.0597535286924
0.0610873764309
0.0398916757162
0.0763685291504
0.0527685993851
0.0780982592362
0.0672969390511
0.057581353731
0.00410324702941
0.0701172714067
0.104183157883
0.131012520629
0.145798123001
0.158598165349
0.211905711745
0.25858051618
0.311183937306
0.380434988993
0.483409212552
0.594551704725
0.674582668813
0.754009788434
0.71104767452
0.733453520852
0.873641166688
0.395900912539
0.720629801125
0.780657838425
0.538567770565
0.490076217227
1000000.0
0.0
0.0
0.0
0.0
0.0
0.0
0.0
0.0
0.0
0.0
0.0
0.0
0.0
0.0
0.0
0.0
0.0
0.0
0.0
0.0
0.0
0.0
0.0
0.0
0.0
0.0
0.0
0.0
0.0
0.0
0.0
0.0
0.0
0.0
0.0
0.0
0.0
0.0
0.0
0.0
0.0
0.0
0.0
0.0
0.0
0.0
0.0
0.0
0.0
0.0
0.0
0.0
0.0
0.0
0.0
0.0
0.0
0.0
0.0
0.0
0.0
0.0
0.0
0.0
0.0
0.0
0.0
0.0
0.0
0.0
0.0
0.0
0.0
0.0
0.0
0.0
0.0
0.0
0.0
0.0
0.0
0.0
0.0
0.0
0.0
0.0
0.0
0.0
0.0
0.0
0.0
0.0
0.0
0.0
0.0
0.0
0.0
0.0
0.0
0.0
0.0
0.0
0.0
0.0
0.0
0.0
0.0
0.0
0.0
0.0
0.0
0.0
0.0
0.0
0.0
0.0
0.0
0.0
0.0
0.0
0.0
0.0
0.0
0.0
0.0
0.0
0.0
0.0
0.0
0.0
0.0
0.0
0.0
0.0
0.0
0.0
0.0
0.0
0.0
0.0
0.0
0.0
0.0
0.0
0.0
0.0
0.0
0.0
0.0
0.0
0.0
0.0
0.0
0.0
0.0
0.0
0.0
0.0
0.0
0.0
0.0
0.0
0.0
0.0
0.0
0.0
0.0
0.0
0.0
0.0
0.0
0.0
0.0
0.0
0.0
0.0
0.0
0.0
0.0
0.0
0.0
0.0
0.0
0.0
0.0
0.0
0.0
0.0
0.0
0.0
0.0
0.0
0.0
0.0
0.0
0.0
0.0
0.0
0.0
0.0
0.0
0.0
0.0
0.0
0.0
0.0
0.0
0.0
0.0
0.0
0.0
0.0
0.0
0.0
0.0
0.0
0.0
0.0
0.0
0.0
0.0
0.0
0.0
0.0
0.0
0.0
0.0
0.0
0.0
0.0
0.0
0.0
0.0
0.0
0.0
0.0
0.0
0.0
0.0
0.0
0.0
0.0
0.0
0.0
0.0
0.0
0.0
0.0
0.0
0.0
0.0
0.0
0.0
0.0
0.0
0.0
0.0
0.0
0.0
0.0
0.0
0.0
0.0
0.0
0.0
0.0
0.0
0.0
0.0
0.0
0.0
0.0
0.0
0.0
0.0
0.0
0.0
0.0
0.0
0.0
0.0
0.0
0.0
0.0
0.0
0.0
0.0
0.0
0.0
0.0
0.0
0.0
0.0
0.0
0.0
0.0
0.0
0.0
0.0
0.0
0.0
0.0
0.0
0.0
0.0
0.0
0.0
0.0
0.0
0.0
0.0
0.0
0.0
0.0
0.0
0.0
0.0
0.0
0.0
0.0
0.0
0.0
0.0
0.0
0.0
0.0
0.0
0.0
0.0
0.0
0.0
0.0
0.0
0.0
0.0
0.0
0.0
0.0
0.0
0.0
0.0
0.0
0.0
0.0
0.0
0.0
0.0
0.0
0.0
0.0
0.0
0.0
0.0
0.0
0.0
0.0
0.0
0.0
0.0
0.0
0.0
0.0
0.0
0.0
0.0
0.0
0.0
0.0
0.0
0.0
0.0
0.0
0.0
0.0
0.0
0.0
0.0
0.0
0.0
0.0
0.0
0.0
0.0
0.0
0.0
0.0
0.0
0.0
0.0
0.0
0.0
0.0
0.0
0.0
0.0
0.0
0.0
0.0
0.0
0.0
0.0
0.0
0.0
0.0
0.0
0.0
0.0
0.0
0.0
0.0
0.0
0.0
0.0
0.0
0.0
0.0
0.0
0.0
0.0
0.0
0.0
0.0
0.0
0.0
0.0
0.0
0.0
0.0
0.0
0.0
0.0
0.0
0.0
0.0
0.0
0.0
0.0
0.0
0.0
0.0
0.0
0.0
0.0
0.0
0.0
0.0
0.0
0.0
0.0
0.0
0.0
0.0
0.0
0.0
0.0
0.0
0.0
0.0
0.0
0.0
0.0
0.0
0.0
0.0
0.0
0.0
0.0
0.0
0.0
0.0
0.0
0.0
0.0
0.0
0.0
0.0
0.0
0.0
0.0
0.0
0.0
0.0
0.0
0.0
0.0
0.0
0.0
0.0
0.0
0.0
0.0
0.0
0.0
0.0
0.0
0.0
0.0
0.0
0.0
0.0
0.0
0.0
0.0
0.0
0.0
0.0
0.0
0.0
0.0
0.0
0.0
0.0
0.0
0.0
0.0
0.0
0.0
0.0
0.0
0.0
0.0
0.0
0.0
0.0
0.0
0.0
0.0
0.0
0.0
0.0
0.0
0.0
0.0
0.0
0.0
0.0
0.0
0.0
0.0
0.0
0.0
0.0
0.0
0.0
0.0
0.0
0.0
0.0
0.0
0.0
0.0
0.0
0.0
0.0
0.0
0.0
0.0
0.0
0.0
0.0
0.0
0.0
0.0
0.0
0.0
0.0
0.0
0.0
0.0
0.0
0.0
0.0
0.0
0.0
0.0
0.0
0.0
0.0
0.0
0.0
0.0
0.0
0.0
0.0
0.0
0.0
0.0
0.0
0.0
0.0
0.0
0.0
0.0
0.0
0.0
0.0
0.0
0.0
0.0
0.0
0.0
0.0
0.0
0.0
0.0
0.0
0.0
0.0
0.0
0.0
0.0
0.0
0.0
0.0
0.0
0.0
0.0
0.0
0.0
0.0
0.0
0.0
0.0
0.0
0.0
0.0
0.0
0.0
0.0
0.0
0.0
0.0
0.0
0.0
0.0
0.0
0.0
0.0
0.0
0.0
0.0
0.0
0.0
0.0
0.0
0.0
0.0
0.0
0.0
0.0
0.0
0.0
0.0
0.0
0.0
0.0
0.0
0.0
0.0
0.0
0.0
0.0
0.0
0.0
0.0
0.0
0.0
0.0
0.0
0.0
0.0
0.0
0.0
0.0
0.0
0.0
0.0
0.0
0.0
0.0
0.0
0.0
0.0
0.0
0.0
0.0
0.0
0.0
0.0
0.0
0.0
0.0
0.0
0.0
0.0
0.0
0.0
0.0
0.0
0.0
0.0
0.0
0.0
0.0
0.0
0.0
0.0
0.0
0.0
0.0
0.0
0.0
0.0
0.0
0.0
0.0
0.0
0.0
0.0
0.0
0.0
0.0
0.0
0.0
0.0
0.0
0.0
0.0
0.0
0.0
0.0
0.0
0.0
0.0
0.0
0.0
0.0
0.0
0.0
0.0
0.0
0.0
0.0
0.0
0.0
0.0
0.0
0.0
0.0
0.0
0.0
0.0
0.0
0.0
0.0
0.0
0.0
0.0
0.0
0.0
logs/alpha_3.0/PGSD_400steps_1.log 1000031.44499 1000.03144499 0.0 1000000.0 0.0 239
