Policy Parameters:	-0.253662132684 0.231782923085
Control Steps:		1000
Start Time:		1438196864.0592222

-- TESTING STOPPED --

Stop Time:		1438196887.6170192
Duration:		23.557796955108643
Cost Matrix:
0.397732133204
0.406031738703
0.439119390995
0.422815003218
0.38603162603
0.430102528616
0.378711020827
0.358716125946
0.374171537757
0.308471837851
0.254386223049
0.25361502193
0.302542622355
0.22973957429
0.120118460236
0.14203259706
0.0337286843039
0.0566424663525
0.0796228435379
0.0846086452511
0.0880141854665
0.0952340422195
0.0901064175259
0.106560846605
0.0725766863177
0.0860881021288
0.0814085687644
0.0959659004086
0.116005478414
0.129906227101
0.0961744189302
0.0764412371073
0.0510907840631
0.0873389457682
0.0928039150889
0.0487390064193
0.0744114080397
0.0964079000671
0.0892761493488
0.0797181624411
0.100947378498
0.108185224493
0.10076611397
0.0768121267907
0.0776586912825
0.106164161017
0.108729558181
0.101465777367
0.0966251413933
0.144880199342
0.129520703333
0.0409187263499
0.0824366754209
0.0747522684545
0.0362053261015
0.0253266705862
0.0290312028577
0.00877739948362
0.0152407149125
0.0510408333497
0.020522661188
0.0594359152617
0.0807034267792
0.0571266996201
0.072006131063
0.0954833391247
0.114014007567
0.136362576133
0.125360956162
0.132491755092
0.118258012185
0.150358614876
0.134037462546
0.141835619704
0.183459224078
0.156672148885
0.144473158941
0.176113407794
0.111802051061
0.14244527833
0.129461337967
0.170504087531
0.146166588257
0.172388170034
0.165179317138
0.201217249268
0.173330726243
0.177866699682
0.17972866608
0.147988863289
0.143543444776
0.140433149015
0.138623529216
0.127854819236
0.127337150243
0.104671945352
0.104604918429
0.0920078933329
0.0210731262899
0.0724404100296
0.0242372268246
0.0317167715296
0.0117435964332
0.0108538143878
0.0270253834431
0.0356360973775
0.0706645324476
0.0202198700382
0.0528509894598
0.0176756644479
0.0301074026406
0.00913048711003
0.0577657224994
0.0260655951367
0.00554195779277
0.010806744421
0.0386966281428
0.0332810590797
0.0254253935317
0.0260067131478
0.00759497570219
0.0375566036995
0.0239116365316
0.0119980170466
0.00371735756789
0.0102698431188
0.0179210373187
0.00439078556465
0.00824089085808
0.019442223309
0.0148367056836
0.00457162747037
0.0493224368597
0.0651046113099
0.0371474669448
0.0262938508284
0.0233773767935
0.0504508995669
0.0365707078325
0.0743605529166
0.0592567998564
0.0713647512758
0.0652473230631
0.0839048182976
0.0823783284867
0.122479446093
0.11094279953
0.104611785906
0.137594526346
0.249810827743
0.245970964758
0.258598345198
0.2604255821
0.311469936258
0.349056566704
0.405902686566
0.416166343651
0.469466405789
0.437285710376
0.587605669009
0.614173824587
0.518559570234
0.789955101609
0.713631900913
0.962835244826
0.220077322486
0.0256403917896
0.29586921381
0.336013875256
0.264073047245
0.1974865804
0.0954497833534
0.0964576911733
1000000.0
0.0
0.0
0.0
0.0
0.0
0.0
0.0
0.0
0.0
0.0
0.0
0.0
0.0
0.0
0.0
0.0
0.0
0.0
0.0
0.0
0.0
0.0
0.0
0.0
0.0
0.0
0.0
0.0
0.0
0.0
0.0
0.0
0.0
0.0
0.0
0.0
0.0
0.0
0.0
0.0
0.0
0.0
0.0
0.0
0.0
0.0
0.0
0.0
0.0
0.0
0.0
0.0
0.0
0.0
0.0
0.0
0.0
0.0
0.0
0.0
0.0
0.0
0.0
0.0
0.0
0.0
0.0
0.0
0.0
0.0
0.0
0.0
0.0
0.0
0.0
0.0
0.0
0.0
0.0
0.0
0.0
0.0
0.0
0.0
0.0
0.0
0.0
0.0
0.0
0.0
0.0
0.0
0.0
0.0
0.0
0.0
0.0
0.0
0.0
0.0
0.0
0.0
0.0
0.0
0.0
0.0
0.0
0.0
0.0
0.0
0.0
0.0
0.0
0.0
0.0
0.0
0.0
0.0
0.0
0.0
0.0
0.0
0.0
0.0
0.0
0.0
0.0
0.0
0.0
0.0
0.0
0.0
0.0
0.0
0.0
0.0
0.0
0.0
0.0
0.0
0.0
0.0
0.0
0.0
0.0
0.0
0.0
0.0
0.0
0.0
0.0
0.0
0.0
0.0
0.0
0.0
0.0
0.0
0.0
0.0
0.0
0.0
0.0
0.0
0.0
0.0
0.0
0.0
0.0
0.0
0.0
0.0
0.0
0.0
0.0
0.0
0.0
0.0
0.0
0.0
0.0
0.0
0.0
0.0
0.0
0.0
0.0
0.0
0.0
0.0
0.0
0.0
0.0
0.0
0.0
0.0
0.0
0.0
0.0
0.0
0.0
0.0
0.0
0.0
0.0
0.0
0.0
0.0
0.0
0.0
0.0
0.0
0.0
0.0
0.0
0.0
0.0
0.0
0.0
0.0
0.0
0.0
0.0
0.0
0.0
0.0
0.0
0.0
0.0
0.0
0.0
0.0
0.0
0.0
0.0
0.0
0.0
0.0
0.0
0.0
0.0
0.0
0.0
0.0
0.0
0.0
0.0
0.0
0.0
0.0
0.0
0.0
0.0
0.0
0.0
0.0
0.0
0.0
0.0
0.0
0.0
0.0
0.0
0.0
0.0
0.0
0.0
0.0
0.0
0.0
0.0
0.0
0.0
0.0
0.0
0.0
0.0
0.0
0.0
0.0
0.0
0.0
0.0
0.0
0.0
0.0
0.0
0.0
0.0
0.0
0.0
0.0
0.0
0.0
0.0
0.0
0.0
0.0
0.0
0.0
0.0
0.0
0.0
0.0
0.0
0.0
0.0
0.0
0.0
0.0
0.0
0.0
0.0
0.0
0.0
0.0
0.0
0.0
0.0
0.0
0.0
0.0
0.0
0.0
0.0
0.0
0.0
0.0
0.0
0.0
0.0
0.0
0.0
0.0
0.0
0.0
0.0
0.0
0.0
0.0
0.0
0.0
0.0
0.0
0.0
0.0
0.0
0.0
0.0
0.0
0.0
0.0
0.0
0.0
0.0
0.0
0.0
0.0
0.0
0.0
0.0
0.0
0.0
0.0
0.0
0.0
0.0
0.0
0.0
0.0
0.0
0.0
0.0
0.0
0.0
0.0
0.0
0.0
0.0
0.0
0.0
0.0
0.0
0.0
0.0
0.0
0.0
0.0
0.0
0.0
0.0
0.0
0.0
0.0
0.0
0.0
0.0
0.0
0.0
0.0
0.0
0.0
0.0
0.0
0.0
0.0
0.0
0.0
0.0
0.0
0.0
0.0
0.0
0.0
0.0
0.0
0.0
0.0
0.0
0.0
0.0
0.0
0.0
0.0
0.0
0.0
0.0
0.0
0.0
0.0
0.0
0.0
0.0
0.0
0.0
0.0
0.0
0.0
0.0
0.0
0.0
0.0
0.0
0.0
0.0
0.0
0.0
0.0
0.0
0.0
0.0
0.0
0.0
0.0
0.0
0.0
0.0
0.0
0.0
0.0
0.0
0.0
0.0
0.0
0.0
0.0
0.0
0.0
0.0
0.0
0.0
0.0
0.0
0.0
0.0
0.0
0.0
0.0
0.0
0.0
0.0
0.0
0.0
0.0
0.0
0.0
0.0
0.0
0.0
0.0
0.0
0.0
0.0
0.0
0.0
0.0
0.0
0.0
0.0
0.0
0.0
0.0
0.0
0.0
0.0
0.0
0.0
0.0
0.0
0.0
0.0
0.0
0.0
0.0
0.0
0.0
0.0
0.0
0.0
0.0
0.0
0.0
0.0
0.0
0.0
0.0
0.0
0.0
0.0
0.0
0.0
0.0
0.0
0.0
0.0
0.0
0.0
0.0
0.0
0.0
0.0
0.0
0.0
0.0
0.0
0.0
0.0
0.0
0.0
0.0
0.0
0.0
0.0
0.0
0.0
0.0
0.0
0.0
0.0
0.0
0.0
0.0
0.0
0.0
0.0
0.0
0.0
0.0
0.0
0.0
0.0
0.0
0.0
0.0
0.0
0.0
0.0
0.0
0.0
0.0
0.0
0.0
0.0
0.0
0.0
0.0
0.0
0.0
0.0
0.0
0.0
0.0
0.0
0.0
0.0
0.0
0.0
0.0
0.0
0.0
0.0
0.0
0.0
0.0
0.0
0.0
0.0
0.0
0.0
0.0
0.0
0.0
0.0
0.0
0.0
0.0
0.0
0.0
0.0
0.0
0.0
0.0
0.0
0.0
0.0
0.0
0.0
0.0
0.0
0.0
0.0
0.0
0.0
0.0
0.0
0.0
0.0
0.0
0.0
0.0
0.0
0.0
0.0
0.0
0.0
0.0
0.0
0.0
0.0
0.0
0.0
0.0
0.0
0.0
0.0
0.0
0.0
0.0
0.0
0.0
0.0
0.0
0.0
0.0
0.0
0.0
0.0
0.0
0.0
0.0
0.0
0.0
0.0
0.0
0.0
0.0
0.0
0.0
0.0
0.0
0.0
0.0
0.0
0.0
0.0
0.0
0.0
0.0
0.0
0.0
0.0
0.0
0.0
0.0
0.0
0.0
0.0
0.0
0.0
0.0
0.0
0.0
0.0
0.0
0.0
0.0
0.0
0.0
0.0
0.0
0.0
0.0
0.0
0.0
0.0
0.0
0.0
0.0
0.0
0.0
0.0
0.0
0.0
0.0
0.0
0.0
0.0
0.0
0.0
0.0
0.0
0.0
0.0
0.0
0.0
0.0
0.0
0.0
0.0
0.0
0.0
0.0
0.0
0.0
0.0
0.0
0.0
0.0
0.0
0.0
0.0
0.0
0.0
0.0
0.0
0.0
0.0
0.0
0.0
0.0
0.0
0.0
0.0
0.0
0.0
0.0
0.0
0.0
0.0
0.0
0.0
0.0
0.0
0.0
0.0
0.0
0.0
0.0
0.0
0.0
0.0
0.0
0.0
0.0
0.0
0.0
0.0
0.0
0.0
0.0
0.0
0.0
0.0
0.0
0.0
0.0
0.0
0.0
0.0
0.0
0.0
0.0
0.0
0.0
0.0
0.0
0.0
0.0
0.0
0.0
0.0
0.0
0.0
0.0
0.0
0.0
0.0
0.0
0.0
0.0
0.0
0.0
0.0
0.0
0.0
0.0
logs/alpha_0.3/PGSD_800steps_0.log 1000024.87037 1000.02487037 0.0 1000000.0 0.0 173
