Policy Parameters:	-0.784151172325 0.638522809323
Control Steps:		1000
Start Time:		1438190697.4595861

-- TESTING STOPPED --

Stop Time:		1438190758.7731752
Duration:		61.313589096069336
Cost Matrix:
0.112826419645
0.164695309819
0.184052452184
0.187597791157
0.187222975124
0.204946567516
0.212836806586
0.218229336886
0.198794738838
0.170736823926
0.16487143411
0.152057463284
0.169964931805
0.176236959233
0.203625116398
0.18321514955
0.172208858707
0.195333056075
0.182090785036
0.163174492411
0.151584973322
0.142515929147
0.161257357841
0.131248751276
0.0798404889296
0.0426225946276
0.0331415836104
0.0524533255645
0.0548711133258
0.0490082139125
0.0689787161453
0.0802142337825
0.116072391658
0.133401581278
0.134014939047
0.170671616624
0.199372494108
0.225023965566
0.221846609137
0.226713051891
0.267184910284
0.270895768041
0.296510209188
0.318881691441
0.339341604564
0.352548282594
0.370088017331
0.373504395835
0.430777302956
0.476163497436
0.487551143965
0.487612125527
0.503728326795
0.570417196211
0.543074668032
0.562732634546
0.530135363468
0.459807528885
0.459060363605
0.347394231705
0.259679495706
0.265778869962
0.201458998471
0.165201564566
0.101630265724
0.0359295456528
0.0374052108692
0.0357901544991
0.0135846767361
0.00484889432899
0.00849076044271
0.0115531266539
0.060566667316
0.0443441479275
0.0204760920435
0.015187365469
0.011404553056
0.045707799874
0.0408132653951
0.0129716338426
0.0309221581558
0.0265224946337
0.0269240715759
0.0379002382808
0.0445120862221
0.0611442141579
0.0543095084055
0.0553459359646
0.03337930068
0.0226855335742
0.0184558673254
0.00357473626958
0.036872669999
0.0303004409938
0.0208934264828
0.0339495249186
0.0483984742498
0.0606113655601
0.079653370118
0.111436557145
0.0945408587029
0.115385307269
0.143616321921
0.15729610767
0.235941737821
0.332251847668
0.42863766182
0.450448755274
0.500562730163
0.555208612681
0.595345604333
0.638618308546
0.711461807699
0.751438200023
0.71341995692
0.718448552622
0.694249506644
0.751693691579
0.802696840871
0.838293196103
0.848245870205
0.878126707927
0.831143439053
0.910709712209
0.824769563087
0.811270071319
0.525619502101
0.210816512171
0.135284731825
0.12406054784
0.0802914850903
0.0483571252028
0.036981795756
0.0342092010414
0.0364732975502
0.063012436797
0.0358831177831
0.0361548812916
0.0352394357949
0.049048253851
0.0472809872988
0.0239621112096
0.0165008202123
0.0105705337276
0.0207684992612
0.0231963715339
0.0238186158842
0.0181500277882
0.0126749245595
0.0118896577461
0.0381817656913
0.025423530439
0.0104778378613
0.0141930221709
0.0170613152736
0.0209996497466
0.0420355226489
0.026854046918
0.0050224724428
0.0379490240939
0.0328487427804
0.0133768988653
0.0146584183837
0.0397636771859
0.0380639073172
0.0219534346615
0.010614374599
0.0304150450229
0.022031718111
0.0360709105292
0.0382293271914
0.0205933558726
0.0508655093449
0.0362191012175
0.0193970472603
0.0265584829753
0.0109988060305
0.000288661490757
0.0451054919856
0.0694383122074
0.0452935019983
0.0375350345393
0.0487693203416
0.0603758221781
0.0352546039884
0.00142452641259
0.00801130067889
0.0171285191609
0.0255987322944
0.0189483323217
0.0138063468257
0.00371786816658
0.00811708123751
0.0186035347535
0.0224516689131
0.01380121914
0.0241651667642
0.0422643472127
0.0378809861581
0.0413985423446
0.0263673712662
0.0175149262211
0.026420902265
0.0154830849624
0.0405598082119
0.0656905863514
0.0602701230759
0.0509368963606
0.0540030667958
0.0440915435601
0.0857424891894
0.0658968086863
0.0882998903201
0.085488878008
0.147712789188
0.149170045512
0.136431225816
0.128606580603
0.140720795261
0.174205910586
0.200056468608
0.226431594651
0.248830120637
0.303750571009
0.333109822966
0.403952160406
0.458728065343
0.500800003071
0.54055208416
0.558903663837
0.595171442127
0.619940929336
0.653951685524
0.641292088427
0.615431938028
0.752025029681
0.745926906318
0.597043446977
0.630335863539
0.807818215159
0.760095013015
0.751706565433
0.638571266305
0.453306238724
0.227183255864
0.0840627051368
0.0790634723328
0.065264349731
0.0532393410448
0.0611287204607
0.053211794561
0.0498156773348
0.0626524449164
0.0670407139558
0.0694423522776
0.0572776382943
0.0449690916345
0.0435998018845
0.0214546048571
0.00829433665937
0.0144251712579
0.0175834763454
0.0295190387737
0.0340214793028
0.0251992696257
0.0451695928393
0.0427662629114
0.0238836613117
0.0768344972591
0.134778689796
0.16889615836
0.172628234701
0.160392785921
0.168161490303
0.184803560833
0.204288405683
0.221522684471
0.245480118031
0.253269533043
0.268834740291
0.256899958414
0.245980474151
0.26114949777
0.265326034118
0.261890818774
0.281621543495
0.290602719105
0.27633378065
0.27264294712
0.288298573624
0.301465535361
0.306078026327
0.295873693618
0.266363226258
0.222247216459
0.17825992596
0.131147909398
0.0680705695668
0.0106786903379
0.0483155671971
0.0418614367831
0.0109511488962
0.0194594665985
0.0228244512189
0.0122509970454
0.0119309052786
0.0171532430593
0.0487018162117
0.0425441425127
0.0257498810361
0.0253821587986
0.0240907115818
0.0285577577197
0.0549743495116
0.0835509131497
0.089947485248
0.0767385748958
0.112872328545
0.117699191075
0.101591922807
0.0782301775058
0.109846824269
0.123131525229
0.111905512259
0.0938061158288
0.154164465964
0.190411489323
0.224355358125
0.228116911301
0.220890686136
0.234102580155
0.26750171343
0.264819234474
0.279269829414
0.292971779697
0.299466997157
0.288711305102
0.280989657745
0.304761750068
0.299831631203
0.297377526291
0.287952666661
0.293249368338
0.292245560021
0.283440157165
0.312454223004
0.284926330605
0.274718207986
0.250543735751
0.22736867033
0.194060195388
0.134693938833
0.109402795027
0.0965004132475
0.0471785061621
0.0279573092831
0.0149394752995
0.0146902755082
0.0319527375456
0.0199358648689
0.0238012908995
0.02552101014
0.00969873371574
0.0285077453338
0.0254921019505
0.0511235438692
0.0399849395571
0.015814782027
0.00825457936396
0.00240616554531
0.00704734953118
0.0181046772368
0.02365004325
0.0129142116485
0.0162354706983
0.0311691662985
0.0290937731218
0.0462980082485
0.0279544499447
0.0147424864517
0.0240357432935
0.0322549968737
0.0172408131853
0.0314110213262
0.023176580845
0.00507075559095
0.0146175720366
0.0434987084423
0.0361243469275
0.0495983434648
0.0710748457436
0.0481265726872
0.0423126508547
0.0494721903885
0.0372121876227
0.106963216779
0.136956813908
0.112129806002
0.123283516507
0.114895842842
0.117152408482
0.163517993483
0.195796014988
0.210060881949
0.220170513437
0.275903444291
0.333850197135
0.412263161981
0.513273043179
0.628331067825
0.749572164266
0.795351541961
0.703958884822
0.814257940422
0.654914280271
0.799535226948
0.856729537863
0.269930865476
0.113584671259
0.200700575589
0.263089614325
0.288073086168
1000000.0
0.0
0.0
0.0
0.0
0.0
0.0
0.0
0.0
0.0
0.0
0.0
0.0
0.0
0.0
0.0
0.0
0.0
0.0
0.0
0.0
0.0
0.0
0.0
0.0
0.0
0.0
0.0
0.0
0.0
0.0
0.0
0.0
0.0
0.0
0.0
0.0
0.0
0.0
0.0
0.0
0.0
0.0
0.0
0.0
0.0
0.0
0.0
0.0
0.0
0.0
0.0
0.0
0.0
0.0
0.0
0.0
0.0
0.0
0.0
0.0
0.0
0.0
0.0
0.0
0.0
0.0
0.0
0.0
0.0
0.0
0.0
0.0
0.0
0.0
0.0
0.0
0.0
0.0
0.0
0.0
0.0
0.0
0.0
0.0
0.0
0.0
0.0
0.0
0.0
0.0
0.0
0.0
0.0
0.0
0.0
0.0
0.0
0.0
0.0
0.0
0.0
0.0
0.0
0.0
0.0
0.0
0.0
0.0
0.0
0.0
0.0
0.0
0.0
0.0
0.0
0.0
0.0
0.0
0.0
0.0
0.0
0.0
0.0
0.0
0.0
0.0
0.0
0.0
0.0
0.0
0.0
0.0
0.0
0.0
0.0
0.0
0.0
0.0
0.0
0.0
0.0
0.0
0.0
0.0
0.0
0.0
0.0
0.0
0.0
0.0
0.0
0.0
0.0
0.0
0.0
0.0
0.0
0.0
0.0
0.0
0.0
0.0
0.0
0.0
0.0
0.0
0.0
0.0
0.0
0.0
0.0
0.0
0.0
0.0
0.0
0.0
0.0
0.0
0.0
0.0
0.0
0.0
0.0
0.0
0.0
0.0
0.0
0.0
0.0
0.0
0.0
0.0
0.0
0.0
0.0
0.0
0.0
0.0
0.0
0.0
0.0
0.0
0.0
0.0
0.0
0.0
0.0
0.0
0.0
0.0
0.0
0.0
0.0
0.0
0.0
0.0
0.0
0.0
0.0
0.0
0.0
0.0
0.0
0.0
0.0
0.0
0.0
0.0
0.0
0.0
0.0
0.0
0.0
0.0
0.0
0.0
0.0
0.0
0.0
0.0
0.0
0.0
0.0
0.0
0.0
0.0
0.0
0.0
0.0
0.0
0.0
0.0
0.0
0.0
0.0
0.0
0.0
0.0
0.0
0.0
0.0
0.0
0.0
0.0
0.0
0.0
0.0
0.0
0.0
0.0
0.0
0.0
0.0
0.0
0.0
0.0
0.0
0.0
0.0
0.0
0.0
0.0
0.0
0.0
0.0
0.0
0.0
0.0
0.0
0.0
0.0
0.0
0.0
0.0
0.0
0.0
0.0
0.0
0.0
0.0
0.0
0.0
0.0
0.0
0.0
0.0
0.0
0.0
0.0
0.0
0.0
0.0
0.0
0.0
0.0
0.0
0.0
0.0
0.0
0.0
0.0
0.0
0.0
0.0
0.0
0.0
0.0
0.0
0.0
0.0
0.0
0.0
0.0
0.0
0.0
0.0
0.0
0.0
0.0
0.0
0.0
0.0
0.0
0.0
0.0
0.0
0.0
0.0
0.0
0.0
0.0
0.0
0.0
0.0
0.0
0.0
0.0
0.0
0.0
0.0
0.0
0.0
0.0
0.0
0.0
0.0
0.0
0.0
0.0
0.0
0.0
0.0
0.0
0.0
0.0
0.0
0.0
0.0
0.0
0.0
0.0
0.0
0.0
0.0
0.0
0.0
0.0
0.0
0.0
0.0
0.0
0.0
0.0
0.0
0.0
0.0
0.0
0.0
0.0
0.0
0.0
0.0
0.0
0.0
0.0
0.0
0.0
0.0
0.0
0.0
0.0
0.0
0.0
0.0
0.0
0.0
0.0
0.0
0.0
0.0
0.0
0.0
0.0
0.0
0.0
0.0
0.0
0.0
0.0
0.0
0.0
0.0
0.0
0.0
0.0
0.0
0.0
0.0
0.0
0.0
0.0
0.0
0.0
0.0
0.0
0.0
0.0
0.0
0.0
0.0
0.0
0.0
0.0
0.0
0.0
0.0
0.0
0.0
0.0
0.0
0.0
0.0
0.0
0.0
0.0
0.0
0.0
0.0
0.0
0.0
0.0
0.0
0.0
0.0
0.0
0.0
0.0
0.0
0.0
0.0
0.0
0.0
0.0
0.0
0.0
0.0
0.0
0.0
0.0
0.0
0.0
0.0
0.0
0.0
0.0
0.0
0.0
0.0
0.0
0.0
0.0
0.0
0.0
0.0
0.0
0.0
0.0
0.0
0.0
0.0
0.0
0.0
0.0
0.0
0.0
0.0
0.0
0.0
0.0
0.0
0.0
0.0
0.0
0.0
0.0
0.0
0.0
0.0
0.0
0.0
0.0
0.0
0.0
0.0
0.0
0.0
0.0
0.0
0.0
0.0
0.0
0.0
0.0
0.0
0.0
0.0
0.0
0.0
0.0
0.0
0.0
0.0
0.0
0.0
0.0
0.0
0.0
0.0
0.0
0.0
0.0
0.0
0.0
0.0
0.0
0.0
0.0
0.0
0.0
0.0
0.0
0.0
0.0
0.0
0.0
0.0
0.0
logs/alpha_0.3/PGSD_300steps_0.log 1000077.77164 1000.07777164 0.0 1000000.0 0.0 422
