Policy Parameters:	-1.65752240498 0.756294673334
Control Steps:		1000
Start Time:		1438196647.4114661

-- TESTING STOPPED --

Stop Time:		1438196686.486184
Duration:		39.07471776008606
Cost Matrix:
0.531414115388
1.39571173567
1.36007502788
1.45800478502
1.10479466775
0.834750338167
0.743069342315
1.08576427422
0.314341188161
0.353935488898
0.0942459611764
0.0757261308012
0.073578461952
0.102011348691
0.126295216373
0.109717765181
0.157479082071
0.0891194747938
0.130747280906
0.208399139024
0.163800891284
0.15872790809
0.149869889877
0.136290616599
0.143342050051
0.158217778562
0.182327398459
0.231191754288
0.279550380028
0.258060547634
0.321392682828
0.321423512929
0.281249558093
0.287608445522
0.351968042956
0.316805359564
0.298902143392
0.280473062304
0.256969933144
0.257404654875
0.220434551256
0.233484388074
0.231271084923
0.212267765967
0.204747771319
0.163513868386
0.177207520523
0.212417041693
0.0870180578241
0.095867587116
0.0754400074855
0.0901719415565
0.114539215652
0.0232303020708
0.00416728460111
0.0339463965095
0.0105886062826
0.0470296206071
0.0575041447955
0.0674912882934
0.0484044145325
0.0197152980526
0.0333112280149
0.0411286683647
0.0545330549381
0.0501373558321
0.107070522496
0.116410575404
0.104471106267
0.148945934123
0.177165741943
0.250756465789
0.221414554517
0.187506554173
0.189137979858
0.200856925929
0.204345188514
0.237173226039
0.224631154902
0.173384769879
0.165672889628
0.237517134872
0.227695722298
0.208120449034
0.217246846271
0.221581619878
0.245378037704
0.233491851765
0.222211636771
0.232008289007
0.190743695603
0.154406970067
0.14377646567
0.133919911037
0.151155407811
0.151571801322
0.136595448808
0.144487930901
0.10153172149
0.0576118831143
0.0928888071166
0.0736156499376
0.0568101230844
0.0640353155088
0.051320033096
0.0294361578222
0.0461699751976
0.00470601067594
0.054127012362
0.0774924841374
0.0800657482698
0.0826510244784
0.0498433764215
0.00841573098352
0.0257131197451
0.0276073153814
0.0349066707381
0.0403772143211
0.0704345642553
0.0638761018339
0.050133509673
0.0935247036787
0.0788398939198
0.131497246739
0.194630535765
0.120173285418
0.132565747806
0.105774618918
0.142435182319
0.150513081805
0.168594030197
0.259421553116
0.32077382141
0.441819122969
0.616701088832
1.04459031645
1.04337402485
1.15966228211
1.20448246059
1.57310778875
1.1004725827
1.27611593815
1.84144086016
1.92916380427
0.136675457149
0.311183798729
0.255676616316
0.33108737584
0.167588073047
0.0647337525049
0.0450444513532
0.0945712126107
0.0399967634717
0.0491506423093
0.117346235282
0.185550034602
0.293506597414
0.257633149472
0.145576572181
0.0556191684547
0.0715686846708
0.0652907560695
0.0771074925059
0.0733750678007
0.0315925041047
0.0410647331318
0.0240012623206
0.0694253564252
0.196925192668
0.0421830058337
0.0657560349079
0.179045518294
0.11455485718
0.0198497911638
0.0390531817805
0.0961608815555
0.0133346209812
0.0611782424299
0.114617517164
0.0735752081111
0.0708329549993
0.080731907659
0.141207166163
0.152035440093
0.14678078293
0.0896100194965
0.0804700691683
0.11519354394
0.141948879021
0.129470846584
0.194693404079
0.125739805143
0.127736522605
0.121071516604
0.0735268083757
0.106463105394
0.129992376238
0.152985334455
0.16743527405
0.0880728542284
0.134108170366
0.146784909238
0.148323229062
0.187785426433
0.13552472257
0.0763613044176
0.0226121741601
0.0271836030141
0.0400819705487
0.0261506416202
0.0643268765927
0.0536668132923
0.0584385795783
0.0897883027203
0.0172926151023
0.0200399765146
0.00738793341609
0.0228852224415
0.0623007295719
0.0557136795717
0.038516529676
0.0428904714223
0.0693433671593
0.0525500477496
0.0414749960932
0.0265961774107
0.0571356251891
0.0290231425434
0.0627627834173
0.0515939733143
0.0379021796099
0.0230859516942
0.0406442087002
0.01957116515
0.0835872892758
0.111346146984
0.0982359164798
0.110734826237
0.129722190568
0.136654676994
0.158775078629
0.182132334007
0.233055745037
0.278754621241
0.316056381827
0.403537416987
0.522088754797
0.531440712481
0.509683034257
0.428472221962
0.103527271731
1.40216305932
2.04038005217
1.93439613887
1.65444680929
1000000.0
0.0
0.0
0.0
0.0
0.0
0.0
0.0
0.0
0.0
0.0
0.0
0.0
0.0
0.0
0.0
0.0
0.0
0.0
0.0
0.0
0.0
0.0
0.0
0.0
0.0
0.0
0.0
0.0
0.0
0.0
0.0
0.0
0.0
0.0
0.0
0.0
0.0
0.0
0.0
0.0
0.0
0.0
0.0
0.0
0.0
0.0
0.0
0.0
0.0
0.0
0.0
0.0
0.0
0.0
0.0
0.0
0.0
0.0
0.0
0.0
0.0
0.0
0.0
0.0
0.0
0.0
0.0
0.0
0.0
0.0
0.0
0.0
0.0
0.0
0.0
0.0
0.0
0.0
0.0
0.0
0.0
0.0
0.0
0.0
0.0
0.0
0.0
0.0
0.0
0.0
0.0
0.0
0.0
0.0
0.0
0.0
0.0
0.0
0.0
0.0
0.0
0.0
0.0
0.0
0.0
0.0
0.0
0.0
0.0
0.0
0.0
0.0
0.0
0.0
0.0
0.0
0.0
0.0
0.0
0.0
0.0
0.0
0.0
0.0
0.0
0.0
0.0
0.0
0.0
0.0
0.0
0.0
0.0
0.0
0.0
0.0
0.0
0.0
0.0
0.0
0.0
0.0
0.0
0.0
0.0
0.0
0.0
0.0
0.0
0.0
0.0
0.0
0.0
0.0
0.0
0.0
0.0
0.0
0.0
0.0
0.0
0.0
0.0
0.0
0.0
0.0
0.0
0.0
0.0
0.0
0.0
0.0
0.0
0.0
0.0
0.0
0.0
0.0
0.0
0.0
0.0
0.0
0.0
0.0
0.0
0.0
0.0
0.0
0.0
0.0
0.0
0.0
0.0
0.0
0.0
0.0
0.0
0.0
0.0
0.0
0.0
0.0
0.0
0.0
0.0
0.0
0.0
0.0
0.0
0.0
0.0
0.0
0.0
0.0
0.0
0.0
0.0
0.0
0.0
0.0
0.0
0.0
0.0
0.0
0.0
0.0
0.0
0.0
0.0
0.0
0.0
0.0
0.0
0.0
0.0
0.0
0.0
0.0
0.0
0.0
0.0
0.0
0.0
0.0
0.0
0.0
0.0
0.0
0.0
0.0
0.0
0.0
0.0
0.0
0.0
0.0
0.0
0.0
0.0
0.0
0.0
0.0
0.0
0.0
0.0
0.0
0.0
0.0
0.0
0.0
0.0
0.0
0.0
0.0
0.0
0.0
0.0
0.0
0.0
0.0
0.0
0.0
0.0
0.0
0.0
0.0
0.0
0.0
0.0
0.0
0.0
0.0
0.0
0.0
0.0
0.0
0.0
0.0
0.0
0.0
0.0
0.0
0.0
0.0
0.0
0.0
0.0
0.0
0.0
0.0
0.0
0.0
0.0
0.0
0.0
0.0
0.0
0.0
0.0
0.0
0.0
0.0
0.0
0.0
0.0
0.0
0.0
0.0
0.0
0.0
0.0
0.0
0.0
0.0
0.0
0.0
0.0
0.0
0.0
0.0
0.0
0.0
0.0
0.0
0.0
0.0
0.0
0.0
0.0
0.0
0.0
0.0
0.0
0.0
0.0
0.0
0.0
0.0
0.0
0.0
0.0
0.0
0.0
0.0
0.0
0.0
0.0
0.0
0.0
0.0
0.0
0.0
0.0
0.0
0.0
0.0
0.0
0.0
0.0
0.0
0.0
0.0
0.0
0.0
0.0
0.0
0.0
0.0
0.0
0.0
0.0
0.0
0.0
0.0
0.0
0.0
0.0
0.0
0.0
0.0
0.0
0.0
0.0
0.0
0.0
0.0
0.0
0.0
0.0
0.0
0.0
0.0
0.0
0.0
0.0
0.0
0.0
0.0
0.0
0.0
0.0
0.0
0.0
0.0
0.0
0.0
0.0
0.0
0.0
0.0
0.0
0.0
0.0
0.0
0.0
0.0
0.0
0.0
0.0
0.0
0.0
0.0
0.0
0.0
0.0
0.0
0.0
0.0
0.0
0.0
0.0
0.0
0.0
0.0
0.0
0.0
0.0
0.0
0.0
0.0
0.0
0.0
0.0
0.0
0.0
0.0
0.0
0.0
0.0
0.0
0.0
0.0
0.0
0.0
0.0
0.0
0.0
0.0
0.0
0.0
0.0
0.0
0.0
0.0
0.0
0.0
0.0
0.0
0.0
0.0
0.0
0.0
0.0
0.0
0.0
0.0
0.0
0.0
0.0
0.0
0.0
0.0
0.0
0.0
0.0
0.0
0.0
0.0
0.0
0.0
0.0
0.0
0.0
0.0
0.0
0.0
0.0
0.0
0.0
0.0
0.0
0.0
0.0
0.0
0.0
0.0
0.0
0.0
0.0
0.0
0.0
0.0
0.0
0.0
0.0
0.0
0.0
0.0
0.0
0.0
0.0
0.0
0.0
0.0
0.0
0.0
0.0
0.0
0.0
0.0
0.0
0.0
0.0
0.0
0.0
0.0
0.0
0.0
0.0
0.0
0.0
0.0
0.0
0.0
0.0
0.0
0.0
0.0
0.0
0.0
0.0
0.0
0.0
0.0
0.0
0.0
0.0
0.0
0.0
0.0
0.0
0.0
0.0
0.0
0.0
0.0
0.0
0.0
0.0
0.0
0.0
0.0
0.0
0.0
0.0
0.0
0.0
0.0
0.0
0.0
0.0
0.0
0.0
0.0
0.0
0.0
0.0
0.0
0.0
0.0
0.0
0.0
0.0
0.0
0.0
0.0
0.0
0.0
0.0
0.0
0.0
0.0
0.0
0.0
0.0
0.0
0.0
0.0
0.0
0.0
0.0
0.0
0.0
0.0
0.0
0.0
0.0
0.0
0.0
0.0
0.0
0.0
0.0
0.0
0.0
0.0
0.0
0.0
0.0
0.0
0.0
0.0
0.0
0.0
0.0
0.0
0.0
0.0
0.0
0.0
0.0
0.0
0.0
0.0
0.0
0.0
0.0
0.0
0.0
0.0
0.0
0.0
0.0
0.0
0.0
0.0
0.0
0.0
0.0
0.0
0.0
0.0
0.0
0.0
0.0
0.0
0.0
0.0
0.0
0.0
0.0
0.0
0.0
0.0
0.0
0.0
0.0
0.0
0.0
0.0
0.0
0.0
0.0
0.0
0.0
0.0
0.0
0.0
0.0
0.0
0.0
0.0
0.0
0.0
0.0
0.0
0.0
0.0
0.0
0.0
0.0
0.0
0.0
0.0
0.0
0.0
0.0
0.0
0.0
0.0
0.0
0.0
0.0
0.0
0.0
0.0
0.0
0.0
0.0
0.0
0.0
0.0
0.0
0.0
logs/alpha_0.3/PGSD_700steps_4.log 1000059.94426 1000.05994426 0.0 1000000.0 0.0 255
