Policy Parameters:	-0.65671485309 0.499537745746
Control Steps:		1000
Start Time:		1438190313.2009525

-- TESTING STOPPED --

Stop Time:		1438190361.9999366
Duration:		48.79898405075073
Cost Matrix:
0.0405713549155
0.0199663689712
0.043066951581
0.0309114503474
0.0127915876119
0.0581841861702
0.0833095588978
0.0765490502552
0.0398650960465
0.0635413119293
0.0627403071804
0.0883975233737
0.146552573947
0.15332977798
0.13061257311
0.192364947683
0.252985668613
0.259772774883
0.284919735874
0.296364882477
0.299114193635
0.342293541458
0.373433952327
0.420160190227
0.475934463778
0.441786348902
0.511425354609
0.517540476357
0.514825612357
0.587922950827
0.552645538479
0.623635356081
0.807334949037
0.568039611488
0.212807671086
0.00914549303331
0.0202663187879
0.0374405006993
0.142478268802
0.138462432283
0.117224241589
0.11021665143
0.0497778806192
0.00816764432344
0.0735502440454
0.125489569405
0.136785991213
0.123003250221
0.0978254837534
0.123718972716
0.119708456597
0.100881724706
0.123306454646
0.149789886908
0.127634218417
0.0863477524094
0.115327662136
0.100594187966
0.0933161708129
0.0767716491131
0.0805634509294
0.108125679362
0.077533374245
0.0545540925512
0.0510503509634
0.0509841688449
0.0446004454821
0.0299718075077
0.0175373938956
0.0180576656747
0.0147391300968
0.0122982334681
0.0468139556436
0.0704760881774
0.0757000740315
0.0481371671134
0.0801854646938
0.143647738075
0.138540176624
0.11938598704
0.123605255036
0.1116289554
0.128481315992
0.133944425038
0.195539787738
0.137655264736
0.106539097796
0.0626812812272
0.113139102352
0.076818951716
0.0481883070194
0.0206886327395
0.00313135531166
0.0325797097461
0.0356088957612
0.0214099222361
0.0244099263344
0.0433853040007
0.0517218473612
0.0318119866205
0.0353015269656
0.0353584108522
0.0185822575405
0.0144397801227
0.0321709815364
0.0320135657603
0.0331786351706
0.037828559461
0.038898268153
0.0641950719986
0.0393620890435
0.0316553123928
0.047808196231
0.0279413525157
0.0431370218143
0.0411126883234
0.0579008361978
0.0705491944386
0.0443068678068
0.0263841507495
0.0609020172971
0.0641350472761
0.0604722572577
0.0372619443658
0.0436655481821
0.100569877941
0.0865698978175
0.103006992821
0.091401321055
0.118638989628
0.14613714333
0.15172655054
0.162140222551
0.131884178515
0.14385351063
0.158848876157
0.129830878949
0.145626780452
0.148644415266
0.168628996143
0.171127446067
0.13998315118
0.154627710769
0.174579636533
0.183181307381
0.194139097633
0.215815978901
0.208882601995
0.126566354621
0.143624118976
0.152756722611
0.0988385546057
0.047272247796
0.0868753822587
0.0576297370558
0.0690848296765
0.0733451557163
0.0314534260319
0.0630661989299
0.0545044258338
0.0308286117031
0.0324774867112
0.0214924655835
0.0224680613237
0.0113689986735
0.0181847929762
0.036524125003
0.0298612986797
0.0180518996566
0.0122377276446
0.0258939917725
0.0656622463673
0.070533029384
0.0674891132184
0.0463833261016
0.0379571151813
0.0618372415896
0.0582462431739
0.0908539349744
0.0807436646772
0.0868100226506
0.0936255274602
0.101181577281
0.12939511397
0.133548380046
0.0940212350719
0.119088300608
0.106807474293
0.129193159459
0.115086961476
0.111702462667
0.100746686543
0.119885386293
0.11786182245
0.11928535136
0.13788197967
0.129916284098
0.130289038862
0.125878232576
0.135757096704
0.142661588964
0.13091936714
0.152627020907
0.144825396101
0.117431655164
0.0964933003377
0.0861557086061
0.0739587270661
0.0985128284012
0.0901907014598
0.0767083040184
0.0640258734575
0.0631894101241
0.0367205442135
0.015917909213
0.0435596756832
0.030463665393
0.0222400943103
0.00935435447811
0.0413209458015
0.0301174224113
0.015056016827
0.0430627193009
0.0331163356035
0.0588398500261
0.0439509091767
0.0129692857042
0.0129929031279
0.0367018819153
0.0606857856689
0.0401586599501
0.0465161131755
0.0285976770445
0.0274173691401
0.0311965846692
0.0329121058211
0.0252534101656
0.00989426211073
0.0664648356091
0.0313296886788
0.0100509447709
0.0189196065708
0.0658053276598
0.116078556491
0.200421797374
0.128554212326
0.129810829248
0.126734737343
0.111464724997
0.0917843727967
0.106213100555
0.152432506883
0.144898872461
0.152998040868
0.157058445573
0.173616862295
0.189068061439
0.160115354108
0.159640071729
0.163877069959
0.18592361413
0.214759415743
0.172858510169
0.154417628166
0.132919528514
0.0953804724461
0.0590823101872
0.0863385101979
0.0790322299621
0.0317092419294
0.0126584584687
0.0401685542297
0.0309040169937
0.0483409327217
0.0647568439034
0.0298363126573
0.0290979274599
0.0320261729868
0.01447939028
0.00567424654609
0.00757454886495
0.013323957975
0.0362275330223
0.0209455100492
0.00557316006007
0.0427565064957
0.0419989790047
0.0270118224558
0.0101965343402
0.0107856779715
0.0264624698084
0.0203118168982
0.0276115498542
0.0318789873803
0.0285408253209
0.0132019141193
0.00925807424485
0.0122174564827
0.00144343822578
0.0387454814413
0.0512805092074
0.0295783349565
0.0214857029927
0.0442898363456
0.0704878525502
0.0477450972019
0.0415786866755
0.0342888798527
0.0438966586406
0.0266624118951
0.0283309681146
0.0571569479337
0.0360181755936
0.0175794445864
0.0215363692851
0.0158961783529
0.0296233068953
0.0150860342887
0.00699078292467
0.000597966554348
0.0130108504938
0.0320151284899
0.0348159684684
0.0132954030764
0.0029578082349
0.0533198753009
0.0294174185816
0.0103170854935
0.0323957308024
0.0511675724921
0.0791591241566
0.0540223104674
0.0648537414725
0.0517215025766
0.0474480566097
0.0666161990001
0.0608587720266
0.0852549588929
0.0971341945565
0.109745343072
0.100178123066
0.17431192534
0.28012468309
0.415499003833
0.528778915011
0.506511509253
0.307251718802
0.649659303564
1.04537976243
0.67791565362
0.436173414216
0.474495060982
0.254232666721
1000000.0
0.0
0.0
0.0
0.0
0.0
0.0
0.0
0.0
0.0
0.0
0.0
0.0
0.0
0.0
0.0
0.0
0.0
0.0
0.0
0.0
0.0
0.0
0.0
0.0
0.0
0.0
0.0
0.0
0.0
0.0
0.0
0.0
0.0
0.0
0.0
0.0
0.0
0.0
0.0
0.0
0.0
0.0
0.0
0.0
0.0
0.0
0.0
0.0
0.0
0.0
0.0
0.0
0.0
0.0
0.0
0.0
0.0
0.0
0.0
0.0
0.0
0.0
0.0
0.0
0.0
0.0
0.0
0.0
0.0
0.0
0.0
0.0
0.0
0.0
0.0
0.0
0.0
0.0
0.0
0.0
0.0
0.0
0.0
0.0
0.0
0.0
0.0
0.0
0.0
0.0
0.0
0.0
0.0
0.0
0.0
0.0
0.0
0.0
0.0
0.0
0.0
0.0
0.0
0.0
0.0
0.0
0.0
0.0
0.0
0.0
0.0
0.0
0.0
0.0
0.0
0.0
0.0
0.0
0.0
0.0
0.0
0.0
0.0
0.0
0.0
0.0
0.0
0.0
0.0
0.0
0.0
0.0
0.0
0.0
0.0
0.0
0.0
0.0
0.0
0.0
0.0
0.0
0.0
0.0
0.0
0.0
0.0
0.0
0.0
0.0
0.0
0.0
0.0
0.0
0.0
0.0
0.0
0.0
0.0
0.0
0.0
0.0
0.0
0.0
0.0
0.0
0.0
0.0
0.0
0.0
0.0
0.0
0.0
0.0
0.0
0.0
0.0
0.0
0.0
0.0
0.0
0.0
0.0
0.0
0.0
0.0
0.0
0.0
0.0
0.0
0.0
0.0
0.0
0.0
0.0
0.0
0.0
0.0
0.0
0.0
0.0
0.0
0.0
0.0
0.0
0.0
0.0
0.0
0.0
0.0
0.0
0.0
0.0
0.0
0.0
0.0
0.0
0.0
0.0
0.0
0.0
0.0
0.0
0.0
0.0
0.0
0.0
0.0
0.0
0.0
0.0
0.0
0.0
0.0
0.0
0.0
0.0
0.0
0.0
0.0
0.0
0.0
0.0
0.0
0.0
0.0
0.0
0.0
0.0
0.0
0.0
0.0
0.0
0.0
0.0
0.0
0.0
0.0
0.0
0.0
0.0
0.0
0.0
0.0
0.0
0.0
0.0
0.0
0.0
0.0
0.0
0.0
0.0
0.0
0.0
0.0
0.0
0.0
0.0
0.0
0.0
0.0
0.0
0.0
0.0
0.0
0.0
0.0
0.0
0.0
0.0
0.0
0.0
0.0
0.0
0.0
0.0
0.0
0.0
0.0
0.0
0.0
0.0
0.0
0.0
0.0
0.0
0.0
0.0
0.0
0.0
0.0
0.0
0.0
0.0
0.0
0.0
0.0
0.0
0.0
0.0
0.0
0.0
0.0
0.0
0.0
0.0
0.0
0.0
0.0
0.0
0.0
0.0
0.0
0.0
0.0
0.0
0.0
0.0
0.0
0.0
0.0
0.0
0.0
0.0
0.0
0.0
0.0
0.0
0.0
0.0
0.0
0.0
0.0
0.0
0.0
0.0
0.0
0.0
0.0
0.0
0.0
0.0
0.0
0.0
0.0
0.0
0.0
0.0
0.0
0.0
0.0
0.0
0.0
0.0
0.0
0.0
0.0
0.0
0.0
0.0
0.0
0.0
0.0
0.0
0.0
0.0
0.0
0.0
0.0
0.0
0.0
0.0
0.0
0.0
0.0
0.0
0.0
0.0
0.0
0.0
0.0
0.0
0.0
0.0
0.0
0.0
0.0
0.0
0.0
0.0
0.0
0.0
0.0
0.0
0.0
0.0
0.0
0.0
0.0
0.0
0.0
0.0
0.0
0.0
0.0
0.0
0.0
0.0
0.0
0.0
0.0
0.0
0.0
0.0
0.0
0.0
0.0
0.0
0.0
0.0
0.0
0.0
0.0
0.0
0.0
0.0
0.0
0.0
0.0
0.0
0.0
0.0
0.0
0.0
0.0
0.0
0.0
0.0
0.0
0.0
0.0
0.0
0.0
0.0
0.0
0.0
0.0
0.0
0.0
0.0
0.0
0.0
0.0
0.0
0.0
0.0
0.0
0.0
0.0
0.0
0.0
0.0
0.0
0.0
0.0
0.0
0.0
0.0
0.0
0.0
0.0
0.0
0.0
0.0
0.0
0.0
0.0
0.0
0.0
0.0
0.0
0.0
0.0
0.0
0.0
0.0
0.0
0.0
0.0
0.0
0.0
0.0
0.0
0.0
0.0
0.0
0.0
0.0
0.0
0.0
0.0
0.0
0.0
0.0
0.0
0.0
0.0
0.0
0.0
0.0
0.0
0.0
0.0
0.0
0.0
0.0
0.0
0.0
0.0
0.0
0.0
0.0
0.0
0.0
0.0
0.0
0.0
0.0
0.0
0.0
0.0
0.0
0.0
0.0
0.0
0.0
0.0
0.0
0.0
0.0
0.0
0.0
0.0
0.0
0.0
0.0
0.0
0.0
0.0
0.0
0.0
0.0
0.0
0.0
0.0
0.0
0.0
0.0
0.0
0.0
0.0
0.0
0.0
0.0
0.0
0.0
0.0
0.0
0.0
0.0
0.0
0.0
0.0
0.0
0.0
0.0
0.0
0.0
0.0
0.0
0.0
0.0
0.0
0.0
0.0
0.0
0.0
0.0
0.0
0.0
0.0
0.0
0.0
0.0
0.0
0.0
0.0
0.0
0.0
0.0
0.0
0.0
0.0
0.0
0.0
0.0
0.0
0.0
0.0
0.0
0.0
0.0
0.0
0.0
0.0
0.0
0.0
0.0
0.0
0.0
0.0
0.0
0.0
0.0
0.0
logs/alpha_0.3/PGSD_200steps_3.log 1000037.63992 1000.03763992 0.0 1000000.0 0.0 353
