Policy Parameters:	-0.682486714256 0.420790405174
Control Steps:		1000
Start Time:		1438215176.3394923

-- TESTING STOPPED --

Stop Time:		1438215269.2947094
Duration:		92.95521712303162
Cost Matrix:
0.0161428546691
0.0271453772466
0.0297362350832
0.0247184846285
0.0255442721207
0.0150485503277
0.0326162036325
0.040461183138
0.0088794520992
0.0507479147909
0.0199016601344
0.0102721586523
0.0641371224518
0.0572554445951
0.025356355702
0.00993701772041
0.00938204778056
0.0528120476835
0.0425109103066
0.0565419270844
0.0458752447841
0.0500706317871
0.0438682176058
0.0763640337127
0.060695654468
0.0245135081209
0.00848767610978
0.0531007496599
0.0260687965663
0.0318152497223
0.0367514905833
0.041327214341
0.0392485342361
0.0151156387816
0.0282550648845
0.043382487327
0.0386452670233
0.0563516926031
0.0200506667702
0.0250805808685
0.034836503172
0.0295249445872
0.0392111227374
0.0583839167706
0.0624909625976
0.061005190799
0.072385831299
0.0561009454551
0.0936232156221
0.124010342867
0.141216603239
0.171487271182
0.214539547855
0.465306492182
0.34891752244
0.309926250615
0.325001767029
0.354665738124
0.386072270846
0.412185004967
0.442172725818
0.497783139253
0.473479927039
0.633428747914
0.706582799036
0.669206928964
0.665158610673
0.780260200929
0.697043262032
0.700454081005
0.348141086705
0.190491524087
0.257372295753
0.240313395615
0.199138636791
0.0832968005968
0.0623978089946
0.0611925706831
0.0660662742412
0.0372915464548
0.0290373751308
0.0589112222027
0.0652406559071
0.0424921054748
0.0751624429344
0.0805197725785
0.0785580340378
0.0517114170268
0.0402375949224
0.060343594979
0.0381862879751
0.0484451383611
0.0450109810642
0.0320270523241
0.0407396602507
0.0421195857558
0.0623513387344
0.0673907746349
0.0955292460833
0.118426462226
0.109257065476
0.138803888824
0.256450504336
0.220293162687
0.176117029391
0.246835895811
0.288698863495
0.29488242937
0.307087771243
0.338273354224
0.350102969566
0.378918299423
0.429253856229
0.45890535101
0.503266334027
0.471625120137
0.575382841383
0.60457047451
0.566775014984
0.567146990595
0.493910882459
0.487341467513
0.516921582802
0.59674741153
0.584518298927
0.572272409364
0.507985925007
0.383924434558
0.414667362047
0.335171756063
0.157436812185
0.0383743781315
0.104662708027
0.0900281377593
0.0945378622526
0.107365680634
0.111276834393
0.084534443393
0.0904844656289
0.0721161526542
0.0955534515451
0.0799093902682
0.0852166328518
0.0843839612475
0.117798026384
0.0746681261656
0.101965073838
0.131587054186
0.120917349478
0.133247249747
0.147705378371
0.159603631374
0.176498256855
0.162405711868
0.157807691948
0.158161924184
0.135196224748
0.12978506623
0.125614143322
0.136279660657
0.10879981509
0.114420503338
0.106285819631
0.111105853975
0.14602017508
0.113690900947
0.106336561201
0.0726366139493
0.0575740250451
0.0562546791902
0.0195762741283
0.0226487390025
0.0377062958867
0.0513793781632
0.0464268990021
0.106336957093
0.0747909417628
0.0578840700971
0.0665681693331
0.0546276341912
0.0451378349609
0.0273583405405
0.0848434489922
0.137900924892
0.101670162562
0.0689145339612
0.0921824162659
0.0795150875168
0.108366910308
0.109898183536
0.11337679898
0.125850148258
0.125820618184
0.128107313754
0.142926712715
0.16827405823
0.181213084266
0.173805121692
0.198276219837
0.191648718722
0.198503317811
0.17799694276
0.171153509284
0.209511146773
0.194534566712
0.207909336656
0.207632366339
0.197093401728
0.170395436259
0.178441426935
0.155680477228
0.161899833192
0.1741437497
0.148143727725
0.155175898155
0.155965285064
0.126296127175
0.116617855737
0.126690433887
0.105907276228
0.107903133218
0.0661504200152
0.0075619116867
0.0138441478241
0.0491288561516
0.0481321773967
0.0289297499413
0.0241556959567
0.0389563654567
0.028340937828
0.0212458342392
0.0262406735111
0.0236747128252
0.0114435209898
0.00650474344217
0.0319736163887
0.0140523680311
0.043039878573
0.0169012932864
0.0115586995708
0.00342314893734
0.010341750641
0.0110993500932
0.00357247735856
0.0222247355065
0.0400414669607
0.0392315791704
0.00754342102467
0.0121545985565
0.0199162545257
0.0616207234281
0.046426425472
0.013131469319
0.035300963305
0.041830708048
0.0260083175715
0.0197522076941
0.0301100494647
0.0330654756144
0.00487726829018
0.0204435098305
0.0276204194219
0.0021186319864
0.016724321153
0.00452722898062
0.0216768727802
0.0613782665236
0.0870742114276
0.0886935017226
0.0530507355958
0.0354439439389
0.0217313060694
0.0230680857357
0.0150286170091
0.0156461486218
0.0503500582382
0.00810011651521
0.0318797026902
0.0299599791189
0.0616659121507
0.0292644070603
0.0870012810858
0.0739567870025
0.0526461489446
0.070326253133
0.0582336684601
0.130909048816
0.114317003328
0.138500873349
0.108888376434
0.141306215205
0.158040679869
0.145603215568
0.170884417739
0.196297288693
0.165665172229
0.117892320284
0.15752096109
0.176739518319
0.183516901111
0.193215233247
0.182919928748
0.152560478636
0.189111636344
0.190427388801
0.201039612783
0.22748901858
0.192102271272
0.235703744342
0.153657294613
0.153043022786
0.0893087874174
0.0540591510097
0.0828260951884
0.0892547602299
0.0751611097485
0.0834401343641
0.082867829412
0.046860660183
0.0243144015509
0.0231488833314
0.0130461171741
0.0166632554517
0.0160834452467
0.0188017269707
0.0260163174226
0.0138043601192
0.0432875205689
0.0305049668839
0.0321526128144
0.0473710782947
0.010979276319
0.0378414561323
0.0141888451564
0.0125264401781
0.0554584007498
0.0528745566928
0.0257240014747
0.0562477395829
0.0435049607012
0.0294269129216
0.0360852615974
0.0316604058367
0.0615567210842
0.0749069590894
0.032531638581
0.0629294941553
0.0820994577825
0.0753785755581
0.0959808375882
0.106132684716
0.0957075962111
0.0804756331204
0.0782999590436
0.0964162519379
0.0722099431994
0.0754704233028
0.0766394483817
0.0923197013017
0.0693825595531
0.0642128687569
0.063691826173
0.0583072017542
0.0421969265125
0.0145420965633
0.020627100054
0.128014350969
0.084691285871
0.028507235065
0.0500547748078
0.0506991546819
0.0353800014649
0.00550626348313
0.0185966038583
0.0461072281488
0.00737763685655
0.00914173534261
0.0160619948477
0.0302074349206
0.0589534722265
0.0326307694864
0.0345314228861
0.0821774820359
0.0898317176336
0.0631665805622
0.133843990559
0.0444727216219
0.0329765346406
0.0462923537338
0.0671259041283
0.135122781792
0.131645590108
0.118037657277
0.108869850246
0.0967161583589
0.117431978115
0.0867378640562
0.0919201280103
0.120310471945
0.103513704885
0.130719300981
0.196802506579
0.191736064123
0.19648401657
0.211657273809
0.188476339639
0.200577797691
0.191879062754
0.243140978161
0.260429324498
0.292965756938
0.290612703141
0.271736618761
0.312715352987
0.337957849243
0.342044738766
0.34206560081
0.358386976155
0.385208902168
0.335806417017
0.292258345689
0.291612418741
0.284416942095
0.264747543645
0.235906367221
0.237664419736
0.22267641054
0.179506626718
0.106966628034
0.0528358056677
0.0584048810075
0.0461025736864
0.0642761587931
0.0349670792829
0.0581069128346
0.038334237096
0.0475101367238
0.0146590133095
0.0464254035432
0.0606588314107
0.0969821303013
0.0744175252766
0.0548167727711
0.0889686686067
0.0618270264858
0.0408684930519
0.06415282366
0.0492697173235
0.0253920841589
0.0323991891118
0.0259423097288
0.0368255044831
0.0452431363278
0.0183521798947
0.0109860672217
0.0170804237121
0.0280145544416
0.0260792990988
0.0823635934486
0.0800044512842
0.063845701136
0.0596987220889
0.0795852246082
0.0988722467898
0.0850924612542
0.0624214225872
0.0630239512264
0.0516618870864
0.0376886602599
0.0490299365792
0.0691657959544
0.113139213091
0.119990239781
0.119048101428
0.144664428809
0.190029037782
0.167611036181
0.112238738124
0.109784766367
0.137039295968
0.132207086103
0.127403730694
0.113316167076
0.100829308299
0.0916149546115
0.102677028286
0.137018776294
0.0905758938729
0.190601219395
0.182013061367
0.16062529948
0.134759673007
0.114060996644
0.104836001688
0.0752166959767
0.0597648119363
0.0727029733798
0.0863696843218
0.0850063857276
0.0915555222261
0.0737620302022
0.0604251444854
0.0389855931485
0.0267117615095
0.0349655017705
0.0246184534243
0.0446908669971
0.0424829308889
0.0314511411416
0.0191689008757
0.00674372830821
0.012902550331
0.00834129842056
0.0153487255669
0.0421480501967
0.0356220764725
0.0262479757598
0.00796315273828
0.021610658173
0.0226374208978
0.0270195819543
0.0330675384784
0.0363672330432
0.0142978092202
0.023420095998
0.0177650829129
0.0303040533225
0.0220625677603
0.0563739943537
0.0125882503247
0.0425885036366
0.0553149102997
0.022353844936
0.0510453928369
0.0748677078033
0.0401089578332
0.0418923666534
0.037382380476
0.0484786165558
0.0497563416484
0.0382153507976
0.0965466553694
0.120069119626
0.0861821375635
0.0500313506289
0.0620144662523
0.103160461891
0.09853979447
0.0512480398109
0.0959142147484
0.0533327798368
0.081672929632
0.110546332638
0.0962425591212
0.127558341132
0.104175626975
0.0728926163541
0.0521170939213
0.0239660528075
0.0282725776763
0.023991339226
0.0251963841839
0.041916711096
0.0123182434659
0.0211009121033
0.0294897399474
0.0382499188498
0.0400047548645
0.0276788482207
0.0269096624209
0.0340315349368
0.0399707480642
0.0386740301259
0.0437742400141
0.0422488093882
0.029514889066
0.0391946474507
0.0488589624562
0.0343280755909
0.0375649811628
0.0607636043084
0.0660917130054
0.0639680116252
0.0487840689115
0.042608085273
0.0451002523614
0.049352135308
0.0527973920165
0.0557596136817
0.0446503578458
0.0440147262377
0.0523161715555
0.0543967711941
0.0694526617795
0.0746566831896
0.0675672445365
0.0590294423559
0.0726821065446
0.0798843345578
0.077717490259
0.0714302228266
0.0718456851585
0.0746755344165
0.0754752592429
0.0864155815796
0.0852679771479
0.0874177999818
0.0927967133096
0.0952716325491
0.103302768807
0.102996959356
0.109073673398
0.111608130876
0.112177035639
0.109606445468
0.113735450811
0.116266564687
0.12745967213
0.141764866403
0.148028081927
0.15129998271
0.149487241307
0.150997896458
0.165758820889
0.167114555867
0.171831387311
0.176454263865
0.18514149575
0.203199109083
0.222425843687
0.241518743338
0.259066140021
0.268474350185
0.273827438978
0.282876910609
0.295546717288
0.311620181877
0.343857471351
0.366530989033
0.393746877946
0.427303810926
0.455506066063
0.487639107202
0.5511960933
0.623802335504
0.722309085
0.889898491265
1.34500167315
1.37588634526
0.431573850967
0.226139436181
0.226006102076
0.20870290815
0.197311551561
0.213845234312
0.18828334536
0.205281122259
0.151717514726
0.1723380448
0.204361593819
0.265581667028
0.12745822394
0.30837815982
0.1189465359
0.119584265693
0.0280370097275
0.0171781984565
1000000.0
0.0
0.0
0.0
0.0
0.0
0.0
0.0
0.0
0.0
0.0
0.0
0.0
0.0
0.0
0.0
0.0
0.0
0.0
0.0
0.0
0.0
0.0
0.0
0.0
0.0
0.0
0.0
0.0
0.0
0.0
0.0
0.0
0.0
0.0
0.0
0.0
0.0
0.0
0.0
0.0
0.0
0.0
0.0
0.0
0.0
0.0
0.0
0.0
0.0
0.0
0.0
0.0
0.0
0.0
0.0
0.0
0.0
0.0
0.0
0.0
0.0
0.0
0.0
0.0
0.0
0.0
0.0
0.0
0.0
0.0
0.0
0.0
0.0
0.0
0.0
0.0
0.0
0.0
0.0
0.0
0.0
0.0
0.0
0.0
0.0
0.0
0.0
0.0
0.0
0.0
0.0
0.0
0.0
0.0
0.0
0.0
0.0
0.0
0.0
0.0
0.0
0.0
0.0
0.0
0.0
0.0
0.0
0.0
0.0
0.0
0.0
0.0
0.0
0.0
0.0
0.0
0.0
0.0
0.0
0.0
0.0
0.0
0.0
0.0
0.0
0.0
0.0
0.0
0.0
0.0
0.0
0.0
0.0
0.0
0.0
0.0
0.0
0.0
0.0
0.0
0.0
0.0
0.0
0.0
0.0
0.0
0.0
0.0
0.0
0.0
0.0
0.0
0.0
0.0
0.0
0.0
0.0
0.0
0.0
0.0
0.0
0.0
0.0
0.0
0.0
0.0
0.0
0.0
0.0
0.0
0.0
0.0
0.0
0.0
0.0
0.0
0.0
0.0
0.0
0.0
0.0
0.0
0.0
0.0
0.0
0.0
0.0
0.0
0.0
0.0
0.0
0.0
0.0
0.0
0.0
0.0
0.0
0.0
0.0
0.0
0.0
0.0
0.0
0.0
0.0
0.0
0.0
0.0
0.0
0.0
0.0
0.0
0.0
0.0
0.0
0.0
0.0
0.0
0.0
0.0
0.0
0.0
0.0
0.0
0.0
0.0
0.0
0.0
0.0
0.0
0.0
0.0
0.0
0.0
0.0
0.0
0.0
0.0
0.0
0.0
0.0
0.0
0.0
0.0
0.0
0.0
0.0
0.0
0.0
0.0
0.0
0.0
0.0
0.0
0.0
0.0
0.0
0.0
0.0
0.0
0.0
0.0
0.0
0.0
0.0
0.0
0.0
0.0
0.0
0.0
0.0
0.0
0.0
0.0
0.0
0.0
0.0
0.0
0.0
0.0
0.0
0.0
0.0
0.0
0.0
0.0
0.0
0.0
0.0
0.0
0.0
0.0
0.0
0.0
0.0
0.0
0.0
0.0
0.0
0.0
0.0
0.0
0.0
0.0
0.0
0.0
0.0
0.0
0.0
0.0
0.0
0.0
0.0
0.0
0.0
0.0
0.0
0.0
0.0
0.0
0.0
0.0
0.0
0.0
0.0
0.0
0.0
0.0
0.0
0.0
0.0
0.0
logs/alpha_0.5/PGSD_200steps_4.log 1000083.5025 1000.0835025 0.0390901202996 1000000.0 0.0 667
