Policy Parameters:	-0.682486714256 0.420790405174
Control Steps:		1000
Start Time:		1438215369.7827768

-- TESTING STOPPED --

Stop Time:		1438215422.9863985
Duration:		53.20362162590027
Cost Matrix:
0.121967892716
0.145217880984
0.139567071937
0.135276693292
0.143043632574
0.154337506358
0.194269690941
0.20667858942
0.261580264015
0.316806450408
0.377243340084
0.447059202182
0.537201380684
0.593168558259
0.64140936463
0.578880512381
1.03966625888
1.08562168655
0.826782363561
0.562136771265
0.309403383568
0.253751683422
0.248908100305
0.249988431322
0.214974994396
0.167959156648
0.120509169054
0.0750583944495
0.0273567970234
0.0338593052928
0.0339384053058
0.0459935333973
0.0320000272955
0.0240281587547
0.0407108315263
0.0104050891762
0.0497853917975
0.029830585993
0.0217625492211
0.0309262873353
0.0232237712553
0.0104171722149
0.00583270717763
0.00564948358898
0.0214005405663
0.0347330611828
0.0310834986974
0.0262444836741
0.0288374489221
0.0604218498585
0.0487520642003
0.0767179060443
0.118539070755
0.0845870147428
0.0563683201111
0.0889080065324
0.080256161506
0.0455599691163
0.0537740926778
0.0701376286947
0.0840388232065
0.072938513358
0.09961219849
0.125704900738
0.0927822422896
0.111611028546
0.135059807006
0.157734860727
0.166868015963
0.186192363466
0.25229966589
0.33097795834
0.273069099752
0.234651759889
0.274607928763
0.265039510344
0.28935050263
0.326244734357
0.311756794021
0.296173500509
0.347513653329
0.335489378124
0.317079704702
0.336441719381
0.335130976161
0.343903675115
0.331368733111
0.316200192143
0.311738106151
0.210253817918
0.191677909949
0.193941301708
0.174336998448
0.130094405079
0.0980232804399
0.0673287193492
0.0634637873173
0.0718564806197
0.0649688396783
0.0463960638047
0.0402769391517
0.0353105609995
0.0328869568381
0.0405647814266
0.0275400623127
0.0400725498584
0.0491183165679
0.0615388016949
0.0552734309017
0.0618544403723
0.0501016956309
0.0903569592251
0.0782209041953
0.0858326124058
0.0816419334797
0.104136536979
0.147768604963
0.136862319084
0.119106509324
0.156441562079
0.188050177985
0.186738389938
0.228838419482
0.311325646086
0.308887178319
0.304910938013
0.312164966041
0.335350526338
0.349358045738
0.33306339988
0.375670940551
0.437982311592
0.478125596584
0.475477580925
0.50582485152
0.529343009539
0.542140229027
0.533880952864
0.422549202518
0.366374963401
0.400230714965
0.396729590432
0.347884919458
0.261593322893
0.21121879153
0.281168379788
0.203024296609
0.0691768652516
0.0180528307184
0.0154599488852
0.0169723017153
0.0602459441907
0.073295833562
0.0530437389941
0.00939138795036
0.017175458815
0.0720430379326
0.0883871217206
0.110871077492
0.102590869083
0.0840314937359
0.114294524525
0.11498005536
0.107010586971
0.0842319757579
0.0599810730613
0.112037102584
0.152067034202
0.191702216977
0.172437086371
0.182382358672
0.205441233271
0.182512244214
0.185935071166
0.142012649406
0.183570157589
0.179169022639
0.214423600244
0.228817686175
0.228621757209
0.213516408561
0.152097534672
0.179303498195
0.192798715887
0.19060757678
0.178470593139
0.113166735916
0.125855449976
0.0870883022535
0.089227593456
0.0502029531336
0.029675253813
0.0339961007562
0.0346718735673
0.0212417272147
0.0290834389174
0.0325911774105
0.0322564301676
0.0318908727643
0.0379665130511
0.0214087352023
0.0124499222849
0.0230537793215
0.0221029129947
0.0210341385103
0.0435140624123
0.0185162094376
0.0250177275393
0.0245100599973
0.0296824921718
0.0367996465097
0.0231748021547
0.000620875560939
0.0442889045578
0.0348174651406
0.0187686508967
0.0158964166573
0.0161037820621
0.0518244680534
0.0520695037775
0.0846243672077
0.0331671319076
0.043583078581
0.0338562926545
0.014732893708
0.0325871590983
0.0136432051414
0.0107174763511
0.0114179817107
0.206096570689
0.144201210814
0.0114607836778
0.0244406043579
0.0116834541491
0.0316702608225
0.0431516555851
0.0791092930703
0.0995627673829
0.0572888576379
0.0493559565198
0.0419301545099
0.051833813965
0.0500496881091
0.0268803963206
0.0391802323737
0.0658327179591
0.0472798570613
0.0533614039239
0.0174886142616
0.0324775672156
0.0616354876602
0.0774648377458
0.0544846876877
0.0444228630328
0.0347211583203
0.0238815967598
0.0212207647206
0.0335814448642
0.0714478218993
0.114349069882
0.0960619557366
0.0940579780909
0.108609482531
0.107002822277
0.0927763670541
0.0881941520417
0.0692706309435
0.0930391371182
0.115641352536
0.164659571778
0.202616086747
0.204126726267
0.203026981425
0.20374074318
0.242000444051
0.264897357802
0.268930115869
0.256530816209
0.257663957761
0.265526664438
0.275703407834
0.284073451931
0.248004745189
0.269016293705
0.295788125814
0.319628564119
0.287455655471
0.227820514757
0.23812245166
0.25123697578
0.183503847633
0.158736881636
0.103841628787
0.0835046498291
0.0793460889837
0.0392831529021
0.0348426826039
0.0471198227753
0.0986519349407
0.0679561542131
0.0609689732396
0.0860824735214
0.0724105919381
0.0752903919387
0.0632457781136
0.121851751588
0.119426611966
0.0687887989925
0.0727654788253
0.0537717967925
0.0884976308196
0.0364900486901
0.0645357509672
0.0567022118285
0.0208911811956
0.0647339142399
0.0485861614763
0.0351498668463
0.0314788962711
0.0155360822973
0.0633232001354
0.0666365975075
0.0733727082597
0.0485344372444
0.0386550227622
0.0396879956813
0.0259994540512
0.0941747519693
0.0648187436993
0.0287107015603
0.0918311893
0.118563342884
0.0746461754719
0.0223387457177
0.0120635146155
0.0245350994446
0.0179477364676
0.0109961945198
0.050678689094
0.0359208334907
0.0500242158978
0.0337364608266
0.0410893989355
0.0175161816178
0.0129463348036
0.0159243539359
0.0711134479396
0.0921760539946
0.0527049171631
0.0251071215057
0.0197759095005
0.0121622237692
0.0707613663939
0.113155769538
0.0825645215468
0.0621627300958
0.0936587554335
0.108211470758
0.120340408242
0.154843879898
0.237763044525
0.362800718803
0.459493419549
0.735402941347
0.682507113727
0.746753276771
0.751696617835
0.673370684616
0.640866080959
0.651755527434
0.673391912179
0.814227246071
0.583717734742
1000000.0
0.0
0.0
0.0
0.0
0.0
0.0
0.0
0.0
0.0
0.0
0.0
0.0
0.0
0.0
0.0
0.0
0.0
0.0
0.0
0.0
0.0
0.0
0.0
0.0
0.0
0.0
0.0
0.0
0.0
0.0
0.0
0.0
0.0
0.0
0.0
0.0
0.0
0.0
0.0
0.0
0.0
0.0
0.0
0.0
0.0
0.0
0.0
0.0
0.0
0.0
0.0
0.0
0.0
0.0
0.0
0.0
0.0
0.0
0.0
0.0
0.0
0.0
0.0
0.0
0.0
0.0
0.0
0.0
0.0
0.0
0.0
0.0
0.0
0.0
0.0
0.0
0.0
0.0
0.0
0.0
0.0
0.0
0.0
0.0
0.0
0.0
0.0
0.0
0.0
0.0
0.0
0.0
0.0
0.0
0.0
0.0
0.0
0.0
0.0
0.0
0.0
0.0
0.0
0.0
0.0
0.0
0.0
0.0
0.0
0.0
0.0
0.0
0.0
0.0
0.0
0.0
0.0
0.0
0.0
0.0
0.0
0.0
0.0
0.0
0.0
0.0
0.0
0.0
0.0
0.0
0.0
0.0
0.0
0.0
0.0
0.0
0.0
0.0
0.0
0.0
0.0
0.0
0.0
0.0
0.0
0.0
0.0
0.0
0.0
0.0
0.0
0.0
0.0
0.0
0.0
0.0
0.0
0.0
0.0
0.0
0.0
0.0
0.0
0.0
0.0
0.0
0.0
0.0
0.0
0.0
0.0
0.0
0.0
0.0
0.0
0.0
0.0
0.0
0.0
0.0
0.0
0.0
0.0
0.0
0.0
0.0
0.0
0.0
0.0
0.0
0.0
0.0
0.0
0.0
0.0
0.0
0.0
0.0
0.0
0.0
0.0
0.0
0.0
0.0
0.0
0.0
0.0
0.0
0.0
0.0
0.0
0.0
0.0
0.0
0.0
0.0
0.0
0.0
0.0
0.0
0.0
0.0
0.0
0.0
0.0
0.0
0.0
0.0
0.0
0.0
0.0
0.0
0.0
0.0
0.0
0.0
0.0
0.0
0.0
0.0
0.0
0.0
0.0
0.0
0.0
0.0
0.0
0.0
0.0
0.0
0.0
0.0
0.0
0.0
0.0
0.0
0.0
0.0
0.0
0.0
0.0
0.0
0.0
0.0
0.0
0.0
0.0
0.0
0.0
0.0
0.0
0.0
0.0
0.0
0.0
0.0
0.0
0.0
0.0
0.0
0.0
0.0
0.0
0.0
0.0
0.0
0.0
0.0
0.0
0.0
0.0
0.0
0.0
0.0
0.0
0.0
0.0
0.0
0.0
0.0
0.0
0.0
0.0
0.0
0.0
0.0
0.0
0.0
0.0
0.0
0.0
0.0
0.0
0.0
0.0
0.0
0.0
0.0
0.0
0.0
0.0
0.0
0.0
0.0
0.0
0.0
0.0
0.0
0.0
0.0
0.0
0.0
0.0
0.0
0.0
0.0
0.0
0.0
0.0
0.0
0.0
0.0
0.0
0.0
0.0
0.0
0.0
0.0
0.0
0.0
0.0
0.0
0.0
0.0
0.0
0.0
0.0
0.0
0.0
0.0
0.0
0.0
0.0
0.0
0.0
0.0
0.0
0.0
0.0
0.0
0.0
0.0
0.0
0.0
0.0
0.0
0.0
0.0
0.0
0.0
0.0
0.0
0.0
0.0
0.0
0.0
0.0
0.0
0.0
0.0
0.0
0.0
0.0
0.0
0.0
0.0
0.0
0.0
0.0
0.0
0.0
0.0
0.0
0.0
0.0
0.0
0.0
0.0
0.0
0.0
0.0
0.0
0.0
0.0
0.0
0.0
0.0
0.0
0.0
0.0
0.0
0.0
0.0
0.0
0.0
0.0
0.0
0.0
0.0
0.0
0.0
0.0
0.0
0.0
0.0
0.0
0.0
0.0
0.0
0.0
0.0
0.0
0.0
0.0
0.0
0.0
0.0
0.0
0.0
0.0
0.0
0.0
0.0
0.0
0.0
0.0
0.0
0.0
0.0
0.0
0.0
0.0
0.0
0.0
0.0
0.0
0.0
0.0
0.0
0.0
0.0
0.0
0.0
0.0
0.0
0.0
0.0
0.0
0.0
0.0
0.0
0.0
0.0
0.0
0.0
0.0
0.0
0.0
0.0
0.0
0.0
0.0
0.0
0.0
0.0
0.0
0.0
0.0
0.0
0.0
0.0
0.0
0.0
0.0
0.0
0.0
0.0
0.0
0.0
0.0
0.0
0.0
0.0
0.0
0.0
0.0
0.0
0.0
0.0
0.0
0.0
0.0
0.0
0.0
0.0
0.0
0.0
0.0
0.0
0.0
0.0
0.0
0.0
0.0
0.0
0.0
0.0
0.0
0.0
0.0
0.0
0.0
0.0
0.0
0.0
0.0
0.0
0.0
0.0
0.0
0.0
0.0
0.0
0.0
0.0
0.0
0.0
0.0
0.0
0.0
0.0
0.0
0.0
0.0
0.0
0.0
0.0
0.0
0.0
0.0
0.0
0.0
0.0
0.0
0.0
0.0
0.0
0.0
0.0
0.0
0.0
0.0
0.0
0.0
0.0
0.0
0.0
0.0
0.0
0.0
0.0
0.0
0.0
0.0
0.0
0.0
0.0
0.0
0.0
0.0
0.0
0.0
0.0
0.0
0.0
0.0
0.0
0.0
0.0
0.0
0.0
0.0
0.0
0.0
0.0
0.0
0.0
0.0
0.0
0.0
0.0
0.0
0.0
0.0
0.0
0.0
logs/alpha_0.5/PGSD_200steps_4.log 1000057.73722 1000.05773722 0.0 1000000.0 0.0 373
