Initial Policy Parameters:	0.0 0.0
Learning Rate:			0.5
Learning Steps:			200
Start Time:			1436819890.4567811

-- LEARNING STOPPED --

Stop Time:			1436819918.4891858
Duration:			28.03240466117859
Final Policy Parameters:	-0.682486714256 0.420790405174
