Policy Parameters:	-1.52173301967 0.754128079062
Control Steps:		1000
Start Time:		1438215851.3279643

-- TESTING STOPPED --

Stop Time:		1438216006.3291838
Duration:		155.0012195110321
Cost Matrix:
0.0342033697551
0.0927345118896
0.132113200301
0.151271685821
0.121311176313
0.16790548555
0.142486674569
0.173486691865
0.215490812111
0.198487639667
0.25571240409
0.274698034783
0.27287014413
0.256480662194
0.255717494781
0.279661117925
0.275722678192
0.288072261554
0.268428442931
0.300356701058
0.284348500011
0.282906519347
0.258553760254
0.231553885736
0.179982845492
0.131384651142
0.140272837149
0.187292996738
0.163541644299
0.119836083718
0.0266228202989
0.0377355485179
0.028177432513
0.0161906911854
0.055384227411
0.0571139111875
0.0968565226665
0.0975485098041
0.111167026287
0.0759829511142
0.0654474953231
0.0516724616166
0.106024783296
0.133858646789
0.151687364233
0.16369303159
0.172100521707
0.214333788106
0.223287057431
0.246696567746
0.281152066006
0.251577485813
0.259230212545
0.268751693504
0.245965931037
0.239350057509
0.246637837646
0.274127830885
0.251964854658
0.254610128866
0.235389305959
0.260976162893
0.25856122851
0.239718974238
0.272258880075
0.261335657864
0.245448947074
0.218700591134
0.182720602934
0.132544448398
0.0736163242972
0.0302977732462
0.0699411525949
0.10698404354
0.0114329561696
0.026968232471
0.0302528719545
0.0320136765478
0.0177220653578
0.0351481178003
0.0311263090139
0.0530649109398
0.0197730775036
0.0659719259333
0.087730089402
0.0545485966869
0.0511865638379
0.0847832170066
0.131754993267
0.125477803267
0.111606847775
0.185320611168
0.146522669871
0.114588898824
0.107970623029
0.133109779789
0.142472565858
0.072413167893
0.0690522129169
0.0726209829867
0.0853739799837
0.17381308502
0.235712843057
0.226509137633
0.244349484281
0.260411921435
0.267076874764
0.2673990768
0.275679265617
0.277109164201
0.295403144679
0.315489714024
0.282635573928
0.211900231013
0.237369853373
0.251537403308
0.199234767795
0.210474748752
0.215123348347
0.214381951962
0.0881644198364
0.0833924522067
0.10954163409
0.110112427232
0.121398630687
0.0695287894831
0.0250353959839
0.0202346149745
0.060174595852
0.0902789461558
0.0813747935864
0.082092061773
0.072725403128
0.0635474485512
0.0586265096896
0.0360258257742
0.0335377851846
0.0173950040163
0.0662259688744
0.119925259136
0.115284968477
0.0838389204678
0.131495691253
0.106217969386
0.0337021567469
0.0347180276458
0.0656473117774
0.0917008769316
0.0712543290268
0.065829885702
0.0798069331892
0.122438986568
0.166865837312
0.0751759753023
0.123417878577
0.075612712624
0.0667986124681
0.104834758162
0.138120045246
0.165375756342
0.144422805389
0.121388735504
0.154201892353
0.159085871143
0.179932989934
0.245204620439
0.230838984306
0.257527800003
0.31356728271
0.400649371923
0.546385499127
0.68925785772
0.99103842865
0.752299294831
0.994706088136
0.82907892856
0.964711274732
0.957445607035
0.803246103341
1.3221847211
0.923977806139
1.05881533758
0.676441647197
0.506993283781
0.293013215534
0.114093031939
0.0296769586974
0.0326377437238
0.079352846183
0.0855723516807
0.0946771782629
0.0906031516636
0.0750406461014
0.0788619828834
0.0709306490715
0.0623301094777
0.0384474476725
0.00830719589597
0.0359699647577
0.0893771817027
0.108196530208
0.142416297154
0.129589048897
0.114272724272
0.0179962183795
0.00311667372588
0.0146285132584
0.0219206754492
0.012003000606
0.0347788788456
0.0538459785968
0.0623956092968
0.112449397101
0.120448905855
0.0569283189807
0.0510897629118
0.0957116505486
0.112553193784
0.125175534574
0.0980591579917
0.0675859621599
0.0638943812574
0.036369602777
0.0308533359425
0.0249048677473
0.0251443937727
0.0339325587539
0.0500936084905
0.0598020114373
0.0637122129063
0.0825562248037
0.0943050513436
0.134564841086
0.0825685185821
0.102989048413
0.10118083375
0.0920336600735
0.104718491784
0.155834009784
0.16165990642
0.170302275674
0.208879777472
0.250923233854
0.256819942303
0.311903321822
0.392106346951
0.460945481694
0.527576710002
0.620301147973
0.740826913166
0.761185872177
0.782530593599
0.769468390695
0.766810596689
0.808977302286
0.727856187702
0.638117277991
0.788160916258
0.71399297948
0.559430146081
0.500379512674
0.324869701843
0.169560577435
0.100959860684
0.119709275285
0.132027537591
0.07272164217
0.06240144284
0.107844290762
0.104059771045
0.0371603977681
0.0341247797853
0.0387087180049
0.0290445650784
0.0308772299485
0.0585571069566
0.0497149489283
0.0472399096309
0.0219863952235
0.0253115912257
0.0184042650491
0.0213865727742
0.0371947578191
0.0448422899321
0.0217601471907
0.0387040496884
0.0851836350971
0.0824804291869
0.0589231814786
0.110306295059
0.115825143014
0.118972489421
0.0844505041967
0.100838489829
0.126839226371
0.13803731292
0.126849836871
0.112194736496
0.125957576151
0.156239093523
0.157618100417
0.158586139181
0.181283577846
0.164433519637
0.177940206408
0.210815922574
0.223598545732
0.24595822309
0.284964957988
0.307212143323
0.345408887221
0.313758752335
0.206048359798
0.225291142113
0.274678128751
0.257735685571
0.251020497815
0.253453479708
0.266526615488
0.246918214665
0.184355372011
0.227083851571
0.253705734125
0.216484709799
0.169043502511
0.155982388178
0.158237625053
0.121862829466
0.0919928254482
0.0350892286972
0.0613350298357
0.109193121481
0.0771115459301
0.073325726526
0.0719407853503
0.108882632775
0.109732719918
0.103888320133
0.0681061484857
0.0526508215304
0.0916744147281
0.0955722373011
0.112427931845
0.0768917693694
0.0885704455978
0.140267257335
0.150244481449
0.199672012849
0.215963612272
0.233437878939
0.235845093748
0.214172809955
0.240249976313
0.264829661501
0.229822116818
0.196206466356
0.200858262892
0.238712660296
0.247985801529
0.237977496031
0.248666585071
0.245518900451
0.25770238255
0.154791026797
0.143738443019
0.142575128668
0.149524325087
0.0844394818973
0.0314763735808
0.0515086875442
0.0726760567628
0.124858020984
0.116641019492
0.0789012056804
0.0808508024596
0.0458020477881
0.0503895516327
0.038946889724
0.0268204142162
0.0595991795914
0.106526169149
0.110060747286
0.00301886940056
0.034115252601
0.0101081440013
0.00353488742721
0.0116185797273
0.040784344037
0.0311659612716
0.0646686333929
0.082547710436
0.00869240237442
0.0313213479603
0.00742217979208
0.0180038322057
0.0111620616728
0.041146262916
0.0228352561481
0.0401813070128
0.0563069637767
0.0584673153361
0.0412527949921
0.0469174430696
0.0443308386216
0.0225812278368
0.088201014708
0.0611361947959
0.0641128734899
0.0585109081685
0.0942290183955
0.126049664064
0.11677103321
0.152940430777
0.143506760174
0.13926425305
0.158653541574
0.209268404063
0.250088218163
0.27542055017
0.300908151777
0.328122145141
0.362348516122
0.395958476031
0.423033957374
0.463680985543
0.497220049047
0.519510543174
0.508871084167
0.501357678641
0.536861993613
0.549939353271
0.544833379619
0.529477537984
0.44051118886
0.452029867582
0.49974967538
0.493415697773
0.469318706577
0.322229826635
0.244303786744
0.165946132718
0.0349476515279
0.0303822624694
0.0542996440604
0.0829715937803
0.109992398924
0.0590670809909
0.106682631149
0.195953890457
0.193514684576
0.170482320356
0.204535000868
0.188499104154
0.180989648723
0.207109671186
0.212359879775
0.238310136026
0.260173954481
0.294914504657
0.350989244995
0.397242157546
0.416140068681
0.396951902894
0.374936058111
0.398292025495
0.433472294524
0.417069962454
0.378314715855
0.371056596154
0.341750813242
0.339879195916
0.378232940091
0.352114479662
0.310003876567
0.285422664747
0.384066749117
0.492888675473
0.234115676929
0.216582391184
0.207267534805
0.232294880698
0.25928622955
0.266536440047
0.259997846137
0.266540958177
0.282817984771
0.289714131627
0.300623120066
0.312232038293
0.312222172538
0.333592839243
0.379558298917
0.393601506133
0.404966091323
0.420275649857
0.455924191318
0.50218541237
0.520387543882
0.548444502944
0.561803575331
0.612889078681
0.64427888906
0.62554373617
0.702154461087
0.859941325741
0.673732315976
0.986021919304
0.859109453348
0.940644318672
0.91217530655
1.8134933646
1.06810686444
2.23933807092
0.214191986343
0.517460056343
1.46963715902
2.81916321083
0.350114107527
0.988961040645
1.61014113571
0.405892824755
1.22068763523
1.69306169602
0.204123682953
0.458455853286
0.752459515475
1.70454495099
0.652407162206
1.27595614277
1.09934043965
1.0261865611
0.955118327251
1.34436857841
1.19473308422
0.667842802452
0.941493929416
0.864144009494
0.979187219606
0.845498171179
0.765783203919
0.597436144221
0.504931821133
0.620879657695
0.607893537521
0.577270547256
0.538322730227
0.511218117969
0.479540255956
0.457224827217
0.395355550414
0.361973391027
0.29845977836
0.291827262917
0.264623224636
0.276750763867
0.286850531875
0.252313168188
0.278585353705
0.212429078842
0.245119157818
0.253395594154
0.22268602039
0.226889641223
0.128296878515
0.124538702299
0.133556272461
0.14539430537
0.123895170947
0.126754553997
0.141809172423
0.162127024659
0.0931668394366
0.134493490019
0.227263682625
0.229919700082
0.191822268121
0.13075650928
0.148050301013
0.168398117296
0.1678927842
0.146811954823
0.128405166622
0.143747616047
0.102445718119
0.0543583021371
0.0834686077704
0.136334993505
0.120194174692
0.0930013126937
0.13331031798
0.0586810471459
0.105482381621
0.168771370546
0.154511889506
0.168703134432
0.184787611402
0.176107508539
0.131741957978
0.205818653291
0.233948418767
0.237737952608
0.24170433567
0.276055566018
0.336780298739
0.438662576767
0.537397289658
0.527095895239
0.562222507213
0.602254554841
0.628263718986
0.678136116446
0.631182349406
0.736086158908
0.640280243754
0.742414844639
0.545006523086
0.569015741356
0.364952097501
0.126215298617
0.0719447952071
0.0771563706681
0.07559325416
0.0825101844584
0.0787235336305
0.0708144582664
0.0821351086744
0.0747837717581
0.0569503254687
0.0610188020715
0.0896385098735
0.0585352743975
0.0330841412225
0.0386933963196
0.0401287628365
0.0680036793793
0.0762318134382
0.0666785100413
0.0865987616018
0.0841384208893
0.0544099418958
0.0628354123575
0.0716634517404
0.0341710448825
0.0415213550159
0.0544225718102
0.0548238982029
0.0580664937829
0.0523140919316
0.0499272917383
0.0554301659386
0.0452219731124
0.0582436244802
0.0904849756728
0.156771869966
0.246439257069
0.477663317512
0.42550359386
0.31070663296
0.29451638917
0.32434578574
0.31733279994
0.306303298788
0.312293631742
0.35991164231
0.355636344749
0.356028454833
0.39445627176
0.441998448036
0.457838183392
0.418625387851
0.375846802033
0.297978159641
0.164561987369
0.0640909600495
0.102180351122
0.144613956517
0.153265379943
0.152877209995
0.15279192344
0.160833422866
0.161488515919
0.167090339826
0.170856535186
0.173853204566
0.185365460055
0.188287057069
0.183847658203
0.17405747516
0.173502283035
0.188140381862
0.200506317857
0.21124715271
0.20697570545
0.209246766963
0.212823742704
0.217040479268
0.22661972128
0.234070150349
0.23049280096
0.231754900078
0.23290665752
0.248215979362
0.251161874146
0.253001451215
0.258952334905
0.265757934714
0.273464403773
0.291556065388
0.28980261158
0.295319867233
0.308635412584
0.331462823794
0.334549332208
0.344350485674
0.31766159588
0.335990870229
0.350877052272
0.364465055375
0.369613131586
0.401769040324
0.407130582361
0.390777012978
0.396252585762
0.418530195246
0.423638093649
0.422641017112
0.436295337468
0.459480158112
0.467048753273
0.454287157826
0.474670289362
0.5023706437
0.513768360805
0.522569282258
0.539864773739
0.552783281219
0.555634830914
0.558971333772
0.588884665284
0.605742641065
0.568985148996
0.570458797786
0.619509698834
0.635339995504
0.639715017522
0.700289023105
0.622028154239
0.631662252585
0.648450707071
0.661449599589
0.59290240641
0.617895793198
0.604783404277
0.599221955079
0.599304585386
0.598387784738
0.574567981575
0.531059583816
0.530548700025
0.527343865255
0.563896327001
0.567384715885
0.504134291311
0.490750420873
0.444857516083
0.426439008913
0.4035183621
0.408727204246
0.38464027664
0.359679003421
0.340743337754
0.333380021262
0.33523254828
0.327951216681
0.321709264134
0.294532869802
0.276482160881
0.26651659662
0.244641167428
0.241581235737
0.246037495538
0.236153088889
0.231823543052
0.21912948135
0.212915836068
0.216645044988
0.19452047502
0.171400418397
0.203739873099
0.18863926402
0.200084871214
0.185529862647
0.186379985379
0.163807417155
0.161026987289
0.170487276889
0.156200307879
0.130826003368
0.144358748525
0.114642595707
0.113674819949
0.123057810896
0.149605727179
0.131020307909
0.0808177119983
0.0640816010463
0.0740246826421
0.0783089465393
0.0912442085273
0.0810821681491
0.0454617387242
0.0659871206355
0.082295325591
0.0990119910576
0.0531568966208
0.0602424947724
0.0320037650191
0.0568437540327
0.0294560525916
0.0349190588679
0.0567217300641
0.0831729628289
0.0584152423889
0.0295470021186
0.0681067359926
0.0776414235118
0.0243786543906
0.0727574426258
0.0257289762779
0.0684915263473
0.0769530035759
0.0685652131213
0.0820239521228
0.107439360996
0.100421532033
0.148425079278
0.178472241271
0.218740537432
0.253569266386
0.277104747362
0.283516149093
0.297312916375
0.317504228018
0.342915963212
0.357245614654
0.385780225831
0.378963611757
0.326326098112
0.352204498626
0.344873648246
0.301189039072
0.308512466113
0.396757507848
0.419731230212
0.417819237744
0.384794104581
0.409297816006
0.416382885482
0.37579796554
0.386268971671
0.438035999262
0.278590040481
0.053360027843
0.0822852576942
0.0784868850475
0.0752037787302
0.0823384256134
0.0784252592966
0.0728651993002
0.0698659526499
0.0712020303549
0.0758392789149
0.0783757151582
0.0790043842671
0.0623842380878
0.0561923205544
0.051134048086
0.0823499982349
0.101022141338
0.0640218909107
0.0684666661701
0.0659152885218
0.0551422074796
0.0303934719978
0.0398975449086
0.0417974250986
0.0746904285331
0.0922315677851
0.0579534600544
0.0724464713613
0.0471829108608
0.0526925583541
0.0472299801909
0.0286781484335
0.0404709398568
0.0443201068469
0.0476717051461
0.0692414440525
0.0879589064299
0.0542470284079
0.0443898282196
0.0383462550845
0.0344248622953
0.00165510526337
0.0266568147678
0.0402004133043
0.0111922804122
0.0244389513016
0.0502039362762
0.0598290395371
0.0333165966467
0.00964481631066
0.0255583322608
0.0412488721477
0.0220894875884
0.0173703882249
0.0458545266066
0.0594842543674
0.0526782313571
0.02486060472
0.0490414212182
0.0668672678919
0.0438897287481
0.0366126252157
0.0161741282419
0.027236819393
0.0248288717361
0.0515350827905
0.0416523757136
0.00856706685713
0.0230699359864
0.0199687310267
0.032628706808
0.015684180278
0.00750884898624
0.0382201961023
0.031230628329
0.00833526888983
0.0315464716073
0.0381985488456
0.0205218036234
0.057312506329
0.0404742515211
0.0176968239673
0.0265260821896
0.0147684469271
0.0354954243558
0.0222881987731
0.0345086394878
0.0630182149674
0.0540200558349
0.0568064808102
0.107332970508
0.127751272853
0.120261953891
0.0935314604306
0.0718031197997
0.132756498055
0.124352163755
0.133061162127
0.154701687486
0.170527447321
0.200060008936
0.221355428038
0.251702342036
0.270142498566
0.279604586728
0.295895087471
0.321737509548
0.316951502883
0.333040936619
0.346944012967
0.395278096063
0.386357408906
0.350841828753
0.383764740707
0.383495742326
0.378260519273
0.328264236511
0.31165478189
0.361270363962
0.36905125204
0.495244375354
0.428480385426
0.32372379982
0.255595017835
0.207037821312
0.143799723125
0.0606610350293
0.0220117566994
0.0582041802327
0.0926161215619
0.0314392571507
0.0356439144485
0.072037196923
0.0957044945966
0.033195204848
0.0387212273217
0.0415002771004
0.0402313992084
logs/alpha_0.5/PGSD_300steps_2.log 242.618489055 0.242618489055 0.164497753503 2.81916321083 0.00165510526337 -1
