Policy Parameters:	-0.726122018406 1.24006202187
Control Steps:		1000
Start Time:		1438323095.5446346

-- TESTING STOPPED --

Stop Time:		1438323190.1466117
Duration:		94.60197710990906
Cost Matrix:
0.0150606205611
0.0234111492791
0.0162182921265
0.016248733197
0.0639851286164
0.0881071920435
0.0573617436121
0.0369369569505
0.0224945738991
0.0532687134136
0.0899476423184
0.127056107424
0.132590807645
0.0681543894017
0.0720242658248
0.0547116748415
0.0587532584977
0.0717662584187
0.0292228970305
0.0523069601816
0.0515965606915
0.0345591937803
0.0496561524426
0.0158215068048
0.0463776348465
0.063510056784
0.0223867990182
0.0179760173589
0.0667643815853
0.0872325278444
0.0575735555392
0.0160136710289
0.0606564062296
0.10866369065
0.0924788194243
0.0626906846756
0.0775524171184
0.0590945648491
0.0386913974675
0.0773231479348
0.0858746195139
0.0616828241423
0.0775385896759
0.0519181000543
0.030584210323
0.0330688245522
0.0134940986471
0.0128790240178
0.0180815113006
0.00349133516628
0.0228397274986
0.0360368302676
0.0196808309206
0.037304034587
0.0285142595319
0.0321988988706
0.0448544889798
0.0360858567536
0.0280163398318
0.0615227478885
0.075701166451
0.0454357484379
0.0158424894022
0.008895519956
0.0364079189798
0.0165283079493
0.0246617160012
0.0350385960709
0.0747801789737
0.108237711099
0.0841886679581
0.081255615716
0.0747954004752
0.132231322671
0.15843821959
0.161078297359
0.15759113905
0.168917156735
0.188502179333
0.231973881801
0.267541186653
0.281969932432
0.293147986463
0.308602527577
0.335366681553
0.358157785248
0.376802983441
0.398211659925
0.405416852962
0.445681628614
0.484242284177
0.501210393248
0.541977130137
0.586335500646
0.521105936872
0.404995553749
0.354335027016
0.379567916963
0.38366577552
0.383925763113
0.378197767388
0.337112750525
0.307999385261
0.24246485332
0.211282518641
0.245378900288
0.241526699404
0.229314984129
0.231715637458
0.221528786467
0.197299763763
0.221620383707
0.23507872548
0.237543382514
0.228197483203
0.222016375377
0.224692292323
0.232590538648
0.235099846835
0.207470570997
0.15376840303
0.0839670541147
0.0646446519346
0.0500571616122
0.0352846356295
0.13592881836
0.188221187457
0.174360478249
0.15945281601
0.178448059726
0.190737580254
0.199172084741
0.162271954948
0.161077407082
0.178468923861
0.213137287754
0.227062045974
0.243740363648
0.265581922256
0.230386731581
0.199644929383
0.178039090193
0.126109746925
0.0952976317827
0.0519246481255
0.0491891331465
0.0648014537672
0.0559056948177
0.0701956259788
0.0719216969194
0.0620987500626
0.0824063081018
0.088628280422
0.119667355057
0.118667222671
0.115472127515
0.1133010409
0.0996555873931
0.111654410459
0.102572794424
0.0921707329852
0.0972716470343
0.085421236224
0.0626786023496
0.0513097637685
0.0529038434919
0.0811766539527
0.0625956606572
0.0403879090381
0.0200612420835
0.0329931639484
0.0478234489486
0.0425686233477
0.0345366796685
0.033292168265
0.0655344949593
0.0530825978653
0.0772004711419
0.0438427398192
0.0260451712765
0.00809190863285
0.0168368015468
0.028360666372
0.0185839880999
0.00648797091749
0.0112041364805
0.023210343116
0.0546504247094
0.0652799831061
0.0524290665177
0.0420874152487
0.041666374622
0.0388396700152
0.0490773700995
0.0410731874209
0.017513841819
0.0514310951111
0.094225286628
0.0841510079814
0.0842390514415
0.10493608264
0.0484775801424
0.0607333759759
0.115570459122
0.109990921623
0.127056119285
0.162291720573
0.14964128033
0.143103971624
0.152511818952
0.1493921804
0.227938118909
0.293681977879
0.274628012486
0.25516271871
0.288127346241
0.250983744346
0.293557667327
0.36547369503
0.35162156422
0.333811416083
0.333814239987
0.276824712696
0.322226650958
0.343629684562
0.31385642452
0.300685704615
0.298776803166
0.339382217569
0.363963939103
0.265839979552
0.161370099085
0.181686379554
0.201473535457
0.121434043472
0.127779740465
0.0452822832681
0.0352400089424
0.0120691800652
0.00215565914702
0.0296092364015
0.0560333669103
0.052282188085
0.0222569220535
0.0241971013411
0.0252290907891
0.0328410873538
0.0449428313403
0.117592730341
0.128234440033
0.10426916324
0.0990636329964
0.129023012951
0.16624802535
0.22605026108
0.240738981436
0.23791281048
0.253989830302
0.234066984023
0.23009738605
0.23306771483
0.251463194011
0.244497655708
0.203921259868
0.246510369403
0.285838887076
0.278645615234
0.277735423668
0.210877099734
0.197042533665
0.257847275744
0.261820347148
0.215256714085
0.203226118172
0.20702673086
0.191106410635
0.185166098425
0.160682976537
0.326905477468
0.39772679887
0.0208127361006
0.0146911181363
0.0142647381325
0.0393364357232
0.0841174937171
0.0894335707037
0.0619254470742
0.0712247872268
0.0399647455458
0.00467095999796
0.0292298646179
0.0228899143735
0.028759405441
0.0342595696212
0.0276531226617
0.0690185976739
0.0990759509487
0.0911987267937
0.0708179668904
0.018691356407
0.050112427483
0.0699651034087
0.0715388865953
0.100668633204
0.134051113754
0.1130248121
0.100702048881
0.131455399488
0.129643973975
0.0844722825641
0.0743663488102
0.146344757712
0.190941311769
0.230264191092
3.73412809874
3.77162078663
0.406036824371
0.702022571888
0.898158778983
0.766214086536
0.930503399926
0.672984723659
0.909456348847
0.653262191735
0.673255779786
0.660387407881
0.532129273123
0.279256878352
0.111259853455
0.0456264481011
0.0594283964662
0.0852079461967
0.0610558463082
0.0289399926861
0.176613873866
0.183485808519
0.108636822783
0.0463760121182
0.0568758667366
0.0367374136161
0.0342957128205
0.0233482885535
0.0364819751442
0.0380829687121
0.036367221211
0.0329903551199
0.0591170344771
0.0411635721214
0.0432379046609
0.0367148924384
0.0794973990205
0.0721786764267
0.056679738962
0.0857804926915
0.065735319589
0.0379460518013
0.0070885892347
0.0423549925745
0.0801829700269
0.0831164737695
0.0795792730426
0.110927950334
0.109678705232
0.119520309543
0.165956663594
0.153353227369
0.148747723705
0.135511897913
0.158771283659
0.208429821239
0.210767036937
0.226812082666
0.256413650393
0.231435533394
0.221446746197
0.26046386675
0.25559423306
0.259466959075
0.267119741107
0.254966108636
0.235629096965
0.240487655365
0.231368481466
0.227017936842
0.284223996981
0.244894004352
0.203020425208
0.138342071739
0.0698726969843
0.0746468165334
0.0904863908028
0.316977687172
0.266411142405
0.103003735542
0.0478366320617
0.0572432717732
0.0590137982482
0.0417343204996
0.0832111472709
0.0532831954131
0.0921548529646
0.081129349691
0.0346314679334
0.0250233037391
0.051976395459
0.0283416026651
0.0383529633712
0.0145567742758
0.00888750328483
0.0374327772131
0.026275061023
0.0435203970397
0.00717667559663
0.0799666345408
0.181966038433
0.156859681474
0.0858255527859
0.062932544854
0.0467061445991
0.130143601681
0.0803852893914
0.0256853119034
0.0378960048298
0.0708264501281
0.103404302771
0.139029928525
0.0913529783268
0.0204320758542
0.0339729638926
0.0528041785591
0.0318196113193
0.0449071218451
0.0555073125367
0.0735609613781
0.0843949363336
0.06878042732
0.104371386745
0.113523767408
0.0722346541748
0.0450207302892
0.0269310865636
0.0301795646775
0.11021004161
0.097079161038
0.247162916915
0.185085632382
0.061318516657
0.0308070881703
0.107571923685
0.136142139176
0.143633073284
0.0728199666668
0.139125628774
0.146476153804
0.196218410499
0.288528461685
0.337454564969
0.432985811141
0.565929401074
0.704818313867
0.927359354293
0.988768719935
1.25597405308
1.21572739763
1.06001244616
0.907164848351
0.130404350525
0.206814771054
0.118729324817
0.179328394766
0.22895959248
0.333111916999
0.376676230212
0.526168384257
0.588660017207
0.386439430344
0.272209152712
0.3294194418
0.350038707474
0.250133792188
0.155292072673
0.123949732903
0.120575623376
0.0469570223082
0.0628378677059
0.496063102653
0.874738284226
0.0540866535046
0.113966770104
0.113409907895
0.0583916679275
0.0733915142842
0.039607174736
0.0625187536553
0.0855953884344
0.059803102092
0.0592325059056
0.0559830828216
0.025138198517
0.0546687233719
0.0550155699663
0.0351172313961
0.0107784563134
0.0
0.00195100354101
0.0163788176381
0.0307916728259
0.00988421770786
0.0447726527878
0.0410465057684
0.0842106712207
0.0499334750722
0.0988162717169
0.144443224118
0.115050179125
0.131359949676
0.103795554623
0.0647229767721
0.0460813288248
0.0447453414764
0.0598097930102
0.0261087311918
0.00702724240205
0.00989870144322
0.0440659488228
0.0554988663934
0.0920383856817
0.0495145653408
0.0328606401572
0.0667789524395
0.121896320728
0.158671636902
0.111452227351
0.0762627172439
0.0574243453135
0.0732392784958
0.116539890894
0.107781334802
0.0763493603396
0.0897316882552
0.11715539628
0.109343699647
0.131045755055
0.153170364594
0.0813123559919
0.0910200787091
0.138034875547
0.120252445102
0.138616200916
0.131027593222
0.145940586889
0.145973907196
0.157171820133
0.171094774946
0.164647970756
0.153959235668
0.148423802749
0.139677682586
0.110122737271
0.110977349057
0.115809488868
0.103960817425
0.0897650647931
0.107630763999
0.0864334160936
0.0552624088032
0.0467732668513
0.0311220255013
0.0121437096844
0.0295004190525
0.0317538293586
0.0367448065049
0.0497451550915
0.0495429476876
0.0426125478309
0.0301155393361
0.0374639160225
0.0468247600751
0.0419729215714
0.0392763677422
0.0531603298302
0.0555596267213
0.0575481924233
0.0633356054451
0.0581042623551
0.0657994611515
0.0739116885849
0.061870687226
0.0614709942752
0.0706714236292
0.0681105557352
0.0709051634387
0.0629634685816
0.0603899687575
0.0595651658454
0.0677700880142
0.0757315086736
0.0821392547645
0.102613857299
0.091379669973
0.0795147892088
0.0808365781962
0.0792352814925
0.0906576080614
0.100537507258
0.105842484649
0.120767133366
0.132326758015
0.144741330925
0.153222402905
0.162179493598
0.165657371429
0.163210407297
0.173240229737
0.175929159139
0.186835898715
0.19501512705
0.197660972905
0.202370725057
0.221376337085
0.246321828312
0.267999770508
0.276316962794
0.315422947416
0.354747984018
0.404108088345
0.434973108449
0.452922402574
0.482640276985
0.490170528204
0.516446063542
0.568965683448
0.614050303811
0.588364447352
0.41182029034
0.210834442082
0.354418770418
0.750586636192
0.162804123932
0.067760731601
0.145090537128
0.164583105296
0.799329053598
0.757543716403
1.65014556125
1.70899231895
1000000.0
0.0
0.0
0.0
0.0
0.0
0.0
0.0
0.0
0.0
0.0
0.0
0.0
0.0
0.0
0.0
0.0
0.0
0.0
0.0
0.0
0.0
0.0
0.0
0.0
0.0
0.0
0.0
0.0
0.0
0.0
0.0
0.0
0.0
0.0
0.0
0.0
0.0
0.0
0.0
0.0
0.0
0.0
0.0
0.0
0.0
0.0
0.0
0.0
0.0
0.0
0.0
0.0
0.0
0.0
0.0
0.0
0.0
0.0
0.0
0.0
0.0
0.0
0.0
0.0
0.0
0.0
0.0
0.0
0.0
0.0
0.0
0.0
0.0
0.0
0.0
0.0
0.0
0.0
0.0
0.0
0.0
0.0
0.0
0.0
0.0
0.0
0.0
0.0
0.0
0.0
0.0
0.0
0.0
0.0
0.0
0.0
0.0
0.0
0.0
0.0
0.0
0.0
0.0
0.0
0.0
0.0
0.0
0.0
0.0
0.0
0.0
0.0
0.0
0.0
0.0
0.0
0.0
0.0
0.0
0.0
0.0
0.0
0.0
0.0
0.0
0.0
0.0
0.0
0.0
0.0
0.0
0.0
0.0
0.0
0.0
0.0
0.0
0.0
0.0
0.0
0.0
0.0
0.0
0.0
0.0
0.0
0.0
0.0
0.0
0.0
0.0
0.0
0.0
0.0
0.0
0.0
0.0
0.0
0.0
0.0
0.0
0.0
0.0
0.0
0.0
0.0
0.0
0.0
0.0
0.0
0.0
0.0
0.0
0.0
0.0
0.0
0.0
0.0
0.0
0.0
0.0
0.0
0.0
0.0
0.0
0.0
0.0
0.0
0.0
0.0
0.0
0.0
0.0
0.0
0.0
0.0
0.0
0.0
0.0
0.0
0.0
0.0
0.0
0.0
0.0
0.0
0.0
0.0
0.0
0.0
0.0
0.0
0.0
0.0
0.0
0.0
0.0
0.0
0.0
0.0
0.0
0.0
0.0
0.0
0.0
0.0
0.0
0.0
0.0
0.0
0.0
0.0
0.0
0.0
0.0
0.0
0.0
0.0
0.0
0.0
0.0
0.0
0.0
0.0
0.0
0.0
0.0
0.0
0.0
0.0
0.0
0.0
0.0
0.0
0.0
0.0
0.0
0.0
0.0
0.0
0.0
0.0
0.0
0.0
0.0
0.0
0.0
0.0
0.0
0.0
0.0
0.0
0.0
0.0
0.0
0.0
0.0
0.0
0.0
0.0
0.0
0.0
0.0
0.0
0.0
0.0
0.0
0.0
0.0
0.0
0.0
0.0
0.0
0.0
0.0
0.0
0.0
0.0
0.0
0.0
0.0
0.0
0.0
0.0
0.0
0.0
0.0
0.0
0.0
0.0
0.0
0.0
0.0
0.0
0.0
0.0
0.0
0.0
0.0
0.0
0.0
0.0
0.0
0.0
0.0
0.0
0.0
0.0
0.0
0.0
0.0
0.0
0.0
0.0
0.0
0.0
0.0
0.0
0.0
0.0
0.0
0.0
0.0
0.0
0.0
0.0
0.0
0.0
0.0
0.0
0.0
0.0
0.0
logs/alpha_1.1/PGSD_300steps_0.log 1000111.42991 1000.11142991 0.0468908911916 1000000.0 0.0 646
