Policy Parameters:	-0.243299415148 -0.0922779527268
Control Steps:		1000
Start Time:		1438321737.628568

-- TESTING STOPPED --

Stop Time:		1438321794.5669093
Duration:		56.93834137916565
Cost Matrix:
0.218605739981
0.254755256252
0.255725103235
0.286079783729
0.311746136512
0.2455105128
0.274890046616
0.221292442065
0.243750112418
0.170913234279
0.211630722346
0.137970108976
0.0565089529499
0.015392827194
0.0397051073602
0.0149783153778
0.0250076172176
0.0508358805954
0.0158616976484
0.00435074497134
0.0156895631443
0.0182648724891
0.048440272845
0.031410604377
0.0101660909406
0.0848124028626
0.0354524908632
0.0160633081933
0.0516886786266
0.0302523922298
0.0163874684494
0.0190856483397
0.0314785830223
0.0597355284296
0.0180797502639
0.0438665586406
0.0325531080899
0.0626379442662
0.0384314233975
0.0152009517435
0.0576589044156
0.0167323861665
0.0547022397051
0.0436127553917
0.0672191125601
0.0230371977864
0.0440034698613
0.0161704078002
0.0552274454631
0.041180886318
0.0369148836017
0.083273825803
0.0220283437436
0.0954213787567
0.0735229936389
0.0423287114998
0.0880202181852
0.104923534668
0.119436946586
0.076359952983
0.127061667394
0.111566551479
0.166149104379
0.111895924279
0.145851403674
0.138618149883
0.166651840321
0.14985614937
0.128436505218
0.114784244754
0.132473937503
0.118669154179
0.123516732694
0.177850921854
0.144465964729
0.120729879817
0.147914669008
0.132283094124
0.110017919248
0.085654324067
0.0874520189857
0.0964141817472
0.0851850012564
0.0551379065478
0.0612502709969
0.108100268287
0.0803274744648
0.0817392599181
0.0612973261537
0.0936809545951
0.0987420743878
0.0608475362123
0.144882772199
0.122520193119
0.148237886304
0.13821899168
0.145641311327
0.124196636607
0.113568624401
0.0955774746872
0.148167043323
0.143531852543
0.141439115426
0.0996876431298
0.102945665346
0.0464756611125
0.0567258066475
0.0805692362957
0.0491771895949
0.0325407490099
0.0236364027962
0.0347054693987
0.0137419144181
0.0112670645262
0.0449367401678
0.0497354814658
0.0445107316387
0.00565100194037
0.0621311325127
0.00656226221028
0.0206965052583
0.0195323432275
0.00679819660436
0.017736526104
0.0441978442421
0.0096692522318
0.00588011908132
0.00194484606398
0.0738128743728
0.00695888069916
0.0289469305274
0.0298735117768
0.0241101577265
0.00904849649294
0.00797112590415
0.00322239648789
0.0154747281287
0.0194091710974
0.0263561481233
0.012622906696
0.0473914054129
0.033037987488
0.0260801085384
0.0124615540848
0.0629178624924
0.0171467612492
0.0134940838103
0.0241989235862
0.0302330645383
0.0348062239296
0.0238488184737
0.0216158866492
0.0566465212183
0.0306198877794
0.0335824660433
0.0490149921979
0.0550458125275
0.0185674539362
0.0616871138039
0.0536590807975
0.0487717373094
0.0388293970087
0.11540428759
0.102311563936
0.0742410536772
0.126186893868
0.16157727915
0.180381294246
0.194537593513
0.213848271913
0.22586502055
0.322338576237
0.339215892631
0.337090652271
0.362768317692
0.343557852288
0.391608166726
0.414393801977
0.435327493725
0.431371772803
0.473414318743
0.514684635656
0.464643183417
0.559996234004
0.648165168588
0.648865591858
0.636576356975
0.527075895974
0.547842940994
0.596791533456
0.654620498778
0.633895915178
0.696635874556
0.510005856915
0.306056950996
0.0715286797515
0.0390564721086
0.0368774390192
0.098684059898
0.0353578358936
0.10194064028
0.0307141861428
0.0581115538633
0.0692528334193
0.12976250262
0.107369652301
0.110316689661
0.0840135237111
0.0971408935849
0.0545467744306
0.128933654045
0.133021568735
0.139086607351
0.0877045926805
0.144891460903
0.133184899719
0.171676097964
0.133402876625
0.13106221955
0.143798730843
0.114015512703
0.113067371159
0.122058575363
0.135583857528
0.136110002812
0.138944498824
0.0995453077466
0.0817974910102
0.0954045202941
0.0686268732151
0.164673230936
0.0678619448432
0.0919368631917
0.0891738149414
0.0433833002782
0.0623286985452
0.0852187830662
0.0346653997327
0.0579080410536
0.107900438491
0.102946390985
0.0677298964294
0.125742877663
0.126464487507
0.141578643588
0.144191728112
0.139672808579
0.179056440633
0.194309572493
0.204073285036
0.205399360366
0.191864091569
0.188386653549
0.18958246537
0.200727316832
0.196966761848
0.213217946036
0.203599456188
0.211485356808
0.225003231573
0.217601749437
0.226567198902
0.200368328392
0.196578758492
0.223056880502
0.229560838743
0.238837545908
0.203017083711
0.187188098235
0.173651635293
0.0955753625343
0.124035648075
0.0464242950881
0.0247039519385
0.0472011655951
0.0468371139429
0.0384635721136
0.0911297066986
0.0367092431305
0.0485658856326
0.0643029744216
0.0568442744421
0.0742130518251
0.062810604627
0.0588316261539
0.102048561493
0.0794460000211
0.0520786416502
0.0749994876673
0.127275847508
0.103475613553
0.118004098383
0.0715980156464
0.154396864393
0.145143563829
0.139670010412
0.179709727834
0.106831886119
0.133567188588
0.178895341094
0.136242264142
0.131079027832
0.141580467233
0.171640519309
0.140115296642
0.104700109097
0.148014599648
0.151844892458
0.144336671303
0.108715465304
0.110925034345
0.101486120595
0.0493697681138
0.0397577593789
0.0149661497868
0.009719648279
0.0368377852495
0.0320306260709
0.0207052659665
0.0143715130996
0.0610196026122
0.0122181733344
0.00841507718226
0.00787821453203
0.0218687666021
0.0160964258494
0.0275657043332
0.0414377413589
0.0180448688113
0.0195516475599
0.0220502973844
0.0506180663932
0.0634486967624
0.0701610791901
0.0639599031333
0.054144046126
0.0617070989314
0.0647938383026
0.0628876790042
0.0959469851176
0.0675166321755
0.0816297057564
0.0989930841258
0.0911902348963
0.130521694663
0.169241308339
0.19065637683
0.134234468513
0.153549917453
0.174503570011
0.164721259469
0.194964838773
0.227546685713
0.216766838545
0.208575024301
0.216216877935
0.22353104849
0.230177813038
0.232362639993
0.188601449283
0.24924594515
0.234113439398
0.242403164534
0.194208022571
0.210369991458
0.273688081221
0.167132862372
0.165031398612
0.140543038896
0.0991145770888
0.028253363892
0.0265434241468
0.0157655804037
0.005573019801
0.0272127777898
0.0224850644579
0.0474698123508
0.0404901067655
0.0131446885324
0.0233542564265
0.0201254908848
0.015022213069
0.0376754922628
0.033147544638
0.038320379894
0.0339587359656
0.0083410619323
0.0341135095085
0.0690521465503
0.082991177204
0.055949568013
0.0182521968217
0.0991392300215
0.0186730460539
0.0640646785251
0.0710391038023
0.0857274390996
0.114754631351
0.129551568284
0.184481624485
0.195094817846
0.235858921117
0.348413780585
0.318412212182
0.360763875554
0.431726263585
0.368397394952
0.522876912876
0.385307979977
0.558102394749
0.625366399521
0.5139886196
0.499715642533
0.707479354784
0.749784127072
0.881462755283
0.696705155528
0.594557242877
0.688149082453
1000000.0
0.0
0.0
0.0
0.0
0.0
0.0
0.0
0.0
0.0
0.0
0.0
0.0
0.0
0.0
0.0
0.0
0.0
0.0
0.0
0.0
0.0
0.0
0.0
0.0
0.0
0.0
0.0
0.0
0.0
0.0
0.0
0.0
0.0
0.0
0.0
0.0
0.0
0.0
0.0
0.0
0.0
0.0
0.0
0.0
0.0
0.0
0.0
0.0
0.0
0.0
0.0
0.0
0.0
0.0
0.0
0.0
0.0
0.0
0.0
0.0
0.0
0.0
0.0
0.0
0.0
0.0
0.0
0.0
0.0
0.0
0.0
0.0
0.0
0.0
0.0
0.0
0.0
0.0
0.0
0.0
0.0
0.0
0.0
0.0
0.0
0.0
0.0
0.0
0.0
0.0
0.0
0.0
0.0
0.0
0.0
0.0
0.0
0.0
0.0
0.0
0.0
0.0
0.0
0.0
0.0
0.0
0.0
0.0
0.0
0.0
0.0
0.0
0.0
0.0
0.0
0.0
0.0
0.0
0.0
0.0
0.0
0.0
0.0
0.0
0.0
0.0
0.0
0.0
0.0
0.0
0.0
0.0
0.0
0.0
0.0
0.0
0.0
0.0
0.0
0.0
0.0
0.0
0.0
0.0
0.0
0.0
0.0
0.0
0.0
0.0
0.0
0.0
0.0
0.0
0.0
0.0
0.0
0.0
0.0
0.0
0.0
0.0
0.0
0.0
0.0
0.0
0.0
0.0
0.0
0.0
0.0
0.0
0.0
0.0
0.0
0.0
0.0
0.0
0.0
0.0
0.0
0.0
0.0
0.0
0.0
0.0
0.0
0.0
0.0
0.0
0.0
0.0
0.0
0.0
0.0
0.0
0.0
0.0
0.0
0.0
0.0
0.0
0.0
0.0
0.0
0.0
0.0
0.0
0.0
0.0
0.0
0.0
0.0
0.0
0.0
0.0
0.0
0.0
0.0
0.0
0.0
0.0
0.0
0.0
0.0
0.0
0.0
0.0
0.0
0.0
0.0
0.0
0.0
0.0
0.0
0.0
0.0
0.0
0.0
0.0
0.0
0.0
0.0
0.0
0.0
0.0
0.0
0.0
0.0
0.0
0.0
0.0
0.0
0.0
0.0
0.0
0.0
0.0
0.0
0.0
0.0
0.0
0.0
0.0
0.0
0.0
0.0
0.0
0.0
0.0
0.0
0.0
0.0
0.0
0.0
0.0
0.0
0.0
0.0
0.0
0.0
0.0
0.0
0.0
0.0
0.0
0.0
0.0
0.0
0.0
0.0
0.0
0.0
0.0
0.0
0.0
0.0
0.0
0.0
0.0
0.0
0.0
0.0
0.0
0.0
0.0
0.0
0.0
0.0
0.0
0.0
0.0
0.0
0.0
0.0
0.0
0.0
0.0
0.0
0.0
0.0
0.0
0.0
0.0
0.0
0.0
0.0
0.0
0.0
0.0
0.0
0.0
0.0
0.0
0.0
0.0
0.0
0.0
0.0
0.0
0.0
0.0
0.0
0.0
0.0
0.0
0.0
0.0
0.0
0.0
0.0
0.0
0.0
0.0
0.0
0.0
0.0
0.0
0.0
0.0
0.0
0.0
0.0
0.0
0.0
0.0
0.0
0.0
0.0
0.0
0.0
0.0
0.0
0.0
0.0
0.0
0.0
0.0
0.0
0.0
0.0
0.0
0.0
0.0
0.0
0.0
0.0
0.0
0.0
0.0
0.0
0.0
0.0
0.0
0.0
0.0
0.0
0.0
0.0
0.0
0.0
0.0
0.0
0.0
0.0
0.0
0.0
0.0
0.0
0.0
0.0
0.0
0.0
0.0
0.0
0.0
0.0
0.0
0.0
0.0
0.0
0.0
0.0
0.0
0.0
0.0
0.0
0.0
0.0
0.0
0.0
0.0
0.0
0.0
0.0
0.0
0.0
0.0
0.0
0.0
0.0
0.0
0.0
0.0
0.0
0.0
0.0
0.0
0.0
0.0
0.0
0.0
0.0
0.0
0.0
0.0
0.0
0.0
0.0
0.0
0.0
0.0
0.0
0.0
0.0
0.0
0.0
0.0
0.0
0.0
0.0
0.0
0.0
0.0
0.0
0.0
0.0
0.0
0.0
0.0
0.0
0.0
0.0
0.0
0.0
0.0
0.0
0.0
0.0
0.0
0.0
0.0
0.0
0.0
0.0
0.0
0.0
0.0
0.0
0.0
0.0
0.0
0.0
0.0
0.0
0.0
0.0
0.0
0.0
0.0
0.0
0.0
0.0
0.0
0.0
0.0
0.0
0.0
0.0
0.0
0.0
0.0
0.0
0.0
0.0
0.0
0.0
0.0
0.0
0.0
0.0
0.0
0.0
0.0
0.0
0.0
0.0
0.0
0.0
0.0
0.0
0.0
0.0
0.0
0.0
0.0
0.0
0.0
0.0
0.0
0.0
0.0
0.0
0.0
0.0
0.0
0.0
0.0
0.0
0.0
0.0
0.0
0.0
0.0
0.0
0.0
0.0
0.0
0.0
0.0
0.0
0.0
0.0
0.0
0.0
0.0
0.0
0.0
0.0
0.0
logs/alpha_1.1/PGSD_100steps_2.log 1000056.9061 1000.0569061 0.0 1000000.0 0.0 419
