Initial Policy Parameters:	0.0 0.0
Learning Rate:			1.1
Learning Steps:			500
Start Time:			1437156217.1944644

-- LEARNING STOPPED --

Stop Time:			1437156285.6926053
Duration:			68.49814081192017
Final Policy Parameters:	-1.09450890531 1.10407168219
