Policy Parameters:	-1.09450890531 1.10407168219
Control Steps:		1000
Start Time:		1438326791.4922667

-- TESTING STOPPED --

Stop Time:		1438326837.232021
Duration:		45.73975443840027
Cost Matrix:
0.265190870119
0.481379446563
0.691393784996
0.840663738519
0.82336779333
1.03721700458
0.582624653127
0.420041864942
0.362582468186
0.267205459781
0.159389700846
0.0767139143924
0.0505842625708
0.0426252791543
0.0826795482609
0.0960130423543
0.0584387989658
0.103378529648
0.15124769007
0.190744686226
0.212229661867
0.221108302927
0.190216557475
0.133680327184
0.184578733223
0.193902794805
0.15764380479
0.142478543561
0.151066876761
0.177994912782
0.118856054932
0.124198404066
0.154730408398
0.166188623814
0.18154020421
0.208135182869
0.201568774473
0.13657841337
0.132401852293
0.0974717277567
0.039509143758
0.0638076054682
0.0848514666052
0.0838203126627
0.112145879268
0.113011926344
0.112198266408
0.176753650122
0.223365035212
0.229503878473
0.236938365968
0.239324749432
0.20714942536
0.191642862723
0.162878164425
0.162789005865
0.175708153131
0.165328649915
0.142714440551
0.208612127114
0.226398042838
0.160753434609
0.0997808381837
0.0294016007535
0.00393584931683
0.014640572738
0.0365219018636
0.0431871065705
0.0592805560171
0.0614773337771
0.0202293994835
0.0955191616287
0.114658588162
0.0696436676375
0.055940477725
0.0521297080661
0.0611729960663
0.0729927168738
0.0630281433684
0.0110900838331
0.0172195741719
0.0781928160776
0.084653929859
0.0623138743391
0.0856091740157
0.0808801520594
0.0906911439012
0.104742123999
0.111178435614
0.128435867653
0.152977079924
0.159402860989
0.174172722293
0.176636057203
0.160044769386
0.155405813686
0.149760392596
0.152088624739
0.187819624336
0.203743398701
0.210664832542
0.21006354317
0.208082293554
0.217612017512
0.19481273611
0.188320674308
0.178098439102
0.139388584825
0.154315508409
0.185087474799
0.171840270147
0.172576634958
0.163451174541
0.12030206628
0.0977043085457
0.0668905173234
0.0707225225534
0.0595635991375
0.0355998325281
0.112340406774
0.124741529438
0.132170900871
0.156339092663
0.116667289274
0.14013404036
0.158799090545
0.151520523618
0.154354802831
0.165878807415
0.161214925409
0.172465071157
0.187499149724
0.151413895298
0.104637693698
0.0860368392675
0.0853625840333
0.138467092427
0.15676433401
0.115781269522
0.11079841173
0.0856492624922
0.0266175763901
0.0206135369729
0.0241218473744
0.0442282168959
0.0608209967482
0.0709701411509
0.105174284509
0.123833245457
0.120143002336
0.130452510618
0.167613084439
0.175660583756
0.134435270148
0.13199271188
0.151434881643
0.132539699211
0.12589241622
0.131082623827
0.148804708033
0.160681013016
0.131206739447
0.127887479385
0.120554038748
0.0992792678861
0.0989026681076
0.113974196645
0.126907512219
0.110393077621
0.102432557835
0.108456280374
0.125371755492
0.131391353689
0.114487876601
0.121137949155
0.14134289924
0.138432179773
0.0856583451827
0.0497921097585
0.0523265077627
0.0268102272319
0.0407293327203
0.0373992676579
0.0638124458492
0.0759024712116
0.0376603566287
0.0421579837438
0.0405593610731
0.0310221517182
0.0525999968097
0.044990528384
0.010890425772
0.0332746043802
0.0460183418477
0.0668466227574
0.0747570640259
0.0387819398734
0.0349908779624
0.0396664682798
0.0408670889357
0.0845750917699
0.0923012026197
0.126068158482
0.126694394878
0.037870651575
0.0428259521032
0.0114747307825
0.0119884599129
0.0291948912694
0.0436472327602
0.0325495482909
0.00989141430826
0.0267470783881
0.034573433829
0.0305853745615
0.0929649695311
0.115288197297
0.0755011347528
0.0699944102465
0.0650126295925
0.101160502003
0.140433380501
0.148441029605
0.134429463644
0.13741488254
0.167703052321
0.193017453442
0.234075216666
0.290703331502
0.521879730923
0.575430549107
0.403021972961
0.412206001072
0.445583446485
0.435044671593
0.439521368034
0.452049998281
0.441968712597
0.448753703091
0.468008088901
0.491375851307
0.483622429247
0.425089410887
0.366095077828
0.308726132463
0.136519344282
0.112469469848
0.0967227521795
0.0630099983497
0.0881857548737
0.104274039676
0.112194068087
0.104326833853
0.0897818653051
0.0672517960944
0.0235484138634
0.0251093795866
0.0135961151079
0.0176181863136
0.0339384061661
0.0432456765613
0.0301503093128
0.0526345072131
0.0869266961278
0.089615700027
0.0670404219723
0.041342468726
0.0303234176463
0.0471100604627
0.0525198930406
0.052499707481
0.058107586505
0.0324776789195
0.0425181366045
0.069176475329
0.0718083660916
0.0528779117663
0.0646916856961
0.092336146716
0.128809488079
0.129538968883
0.0807130901661
0.0104045592393
0.0230035047508
0.0264226029537
0.0264571701997
0.0348924835421
0.0929131377612
0.0993007477344
0.0501773349506
0.05347388763
0.0194473642296
0.103530732857
0.18210962903
0.24607103019
0.279746189825
0.305475762789
0.425783320728
0.661368723363
0.944574345211
1.05764309693
0.981436730034
0.939856510501
1.06396716621
1.22592589491
1.70509401178
1.63708758104
0.794019276985
1.24114075877
1000000.0
0.0
0.0
0.0
0.0
0.0
0.0
0.0
0.0
0.0
0.0
0.0
0.0
0.0
0.0
0.0
0.0
0.0
0.0
0.0
0.0
0.0
0.0
0.0
0.0
0.0
0.0
0.0
0.0
0.0
0.0
0.0
0.0
0.0
0.0
0.0
0.0
0.0
0.0
0.0
0.0
0.0
0.0
0.0
0.0
0.0
0.0
0.0
0.0
0.0
0.0
0.0
0.0
0.0
0.0
0.0
0.0
0.0
0.0
0.0
0.0
0.0
0.0
0.0
0.0
0.0
0.0
0.0
0.0
0.0
0.0
0.0
0.0
0.0
0.0
0.0
0.0
0.0
0.0
0.0
0.0
0.0
0.0
0.0
0.0
0.0
0.0
0.0
0.0
0.0
0.0
0.0
0.0
0.0
0.0
0.0
0.0
0.0
0.0
0.0
0.0
0.0
0.0
0.0
0.0
0.0
0.0
0.0
0.0
0.0
0.0
0.0
0.0
0.0
0.0
0.0
0.0
0.0
0.0
0.0
0.0
0.0
0.0
0.0
0.0
0.0
0.0
0.0
0.0
0.0
0.0
0.0
0.0
0.0
0.0
0.0
0.0
0.0
0.0
0.0
0.0
0.0
0.0
0.0
0.0
0.0
0.0
0.0
0.0
0.0
0.0
0.0
0.0
0.0
0.0
0.0
0.0
0.0
0.0
0.0
0.0
0.0
0.0
0.0
0.0
0.0
0.0
0.0
0.0
0.0
0.0
0.0
0.0
0.0
0.0
0.0
0.0
0.0
0.0
0.0
0.0
0.0
0.0
0.0
0.0
0.0
0.0
0.0
0.0
0.0
0.0
0.0
0.0
0.0
0.0
0.0
0.0
0.0
0.0
0.0
0.0
0.0
0.0
0.0
0.0
0.0
0.0
0.0
0.0
0.0
0.0
0.0
0.0
0.0
0.0
0.0
0.0
0.0
0.0
0.0
0.0
0.0
0.0
0.0
0.0
0.0
0.0
0.0
0.0
0.0
0.0
0.0
0.0
0.0
0.0
0.0
0.0
0.0
0.0
0.0
0.0
0.0
0.0
0.0
0.0
0.0
0.0
0.0
0.0
0.0
0.0
0.0
0.0
0.0
0.0
0.0
0.0
0.0
0.0
0.0
0.0
0.0
0.0
0.0
0.0
0.0
0.0
0.0
0.0
0.0
0.0
0.0
0.0
0.0
0.0
0.0
0.0
0.0
0.0
0.0
0.0
0.0
0.0
0.0
0.0
0.0
0.0
0.0
0.0
0.0
0.0
0.0
0.0
0.0
0.0
0.0
0.0
0.0
0.0
0.0
0.0
0.0
0.0
0.0
0.0
0.0
0.0
0.0
0.0
0.0
0.0
0.0
0.0
0.0
0.0
0.0
0.0
0.0
0.0
0.0
0.0
0.0
0.0
0.0
0.0
0.0
0.0
0.0
0.0
0.0
0.0
0.0
0.0
0.0
0.0
0.0
0.0
0.0
0.0
0.0
0.0
0.0
0.0
0.0
0.0
0.0
0.0
0.0
0.0
0.0
0.0
0.0
0.0
0.0
0.0
0.0
0.0
0.0
0.0
0.0
0.0
0.0
0.0
0.0
0.0
0.0
0.0
0.0
0.0
0.0
0.0
0.0
0.0
0.0
0.0
0.0
0.0
0.0
0.0
0.0
0.0
0.0
0.0
0.0
0.0
0.0
0.0
0.0
0.0
0.0
0.0
0.0
0.0
0.0
0.0
0.0
0.0
0.0
0.0
0.0
0.0
0.0
0.0
0.0
0.0
0.0
0.0
0.0
0.0
0.0
0.0
0.0
0.0
0.0
0.0
0.0
0.0
0.0
0.0
0.0
0.0
0.0
0.0
0.0
0.0
0.0
0.0
0.0
0.0
0.0
0.0
0.0
0.0
0.0
0.0
0.0
0.0
0.0
0.0
0.0
0.0
0.0
0.0
0.0
0.0
0.0
0.0
0.0
0.0
0.0
0.0
0.0
0.0
0.0
0.0
0.0
0.0
0.0
0.0
0.0
0.0
0.0
0.0
0.0
0.0
0.0
0.0
0.0
0.0
0.0
0.0
0.0
0.0
0.0
0.0
0.0
0.0
0.0
0.0
0.0
0.0
0.0
0.0
0.0
0.0
0.0
0.0
0.0
0.0
0.0
0.0
0.0
0.0
0.0
0.0
0.0
0.0
0.0
0.0
0.0
0.0
0.0
0.0
0.0
0.0
0.0
0.0
0.0
0.0
0.0
0.0
0.0
0.0
0.0
0.0
0.0
0.0
0.0
0.0
0.0
0.0
0.0
0.0
0.0
0.0
0.0
0.0
0.0
0.0
0.0
0.0
0.0
0.0
0.0
0.0
0.0
0.0
0.0
0.0
0.0
0.0
0.0
0.0
0.0
0.0
0.0
0.0
0.0
0.0
0.0
0.0
0.0
0.0
0.0
0.0
0.0
0.0
0.0
0.0
0.0
0.0
0.0
0.0
0.0
0.0
0.0
0.0
0.0
0.0
0.0
0.0
0.0
0.0
0.0
0.0
0.0
0.0
0.0
0.0
0.0
0.0
0.0
0.0
0.0
0.0
0.0
0.0
0.0
0.0
0.0
0.0
0.0
0.0
0.0
0.0
0.0
0.0
0.0
0.0
0.0
0.0
0.0
0.0
0.0
0.0
0.0
0.0
0.0
0.0
0.0
0.0
0.0
0.0
0.0
0.0
0.0
0.0
0.0
0.0
0.0
0.0
0.0
0.0
0.0
0.0
0.0
0.0
0.0
0.0
0.0
0.0
0.0
0.0
0.0
0.0
0.0
0.0
0.0
0.0
0.0
0.0
0.0
0.0
0.0
0.0
0.0
0.0
0.0
0.0
0.0
0.0
0.0
0.0
0.0
0.0
0.0
0.0
0.0
0.0
0.0
0.0
0.0
0.0
0.0
0.0
0.0
0.0
0.0
0.0
0.0
0.0
0.0
0.0
0.0
0.0
0.0
0.0
0.0
0.0
0.0
0.0
0.0
0.0
0.0
0.0
0.0
0.0
0.0
0.0
0.0
0.0
logs/alpha_1.1/PGSD_500steps_1.log 1000054.61261 1000.05461261 0.0 1000000.0 0.0 309
