Policy Parameters:	-1.09450890531 1.10407168219
Control Steps:		1000
Start Time:		1438326839.2075648

-- TESTING STOPPED --

Stop Time:		1438326952.073364
Duration:		112.86579918861389
Cost Matrix:
0.0443651077536
0.112739577141
0.173256059404
0.207430552479
0.237326731447
0.221725612382
0.182211686956
0.142564874565
0.164852876435
0.193640322075
0.150583723932
0.155407282963
0.143506607963
0.127287743868
0.138332518564
0.134937594046
0.114043586571
0.102006154315
0.091291384227
0.0313311665065
0.0357873283136
0.0226940940863
0.0797801351416
0.0845280046296
0.0164700472771
0.0510265780911
0.0661324402855
0.0473342150486
0.0359584556871
0.0715768560372
0.0776697906354
0.0351022364118
0.0963619576874
0.137351589872
0.110701480478
0.0892818739632
0.136074618972
0.142281947108
0.10580752349
0.0904663146095
0.132039920794
0.165257811335
0.136537685798
0.133567629674
0.127848091376
0.117113174958
0.123511141554
0.124865389663
0.140759247726
0.125768842554
0.131528853654
0.156710225837
0.14267996619
0.135611909965
0.134787186178
0.108808622069
0.110403725642
0.109536185433
0.134223934536
0.176609884611
0.143987950428
0.0891523284116
0.0967746530182
0.0576033712414
0.00779867109066
0.0113573698867
0.0205884291151
0.0609091534518
0.110337512494
0.139255485838
0.117377675755
0.071532712423
0.116129707502
0.150244486
0.143026495354
0.158086828594
0.169467404409
0.206182449218
0.243814376556
0.257156584377
0.296538812478
0.311526732459
0.325625653723
0.353383619084
0.378897991116
0.382029675459
0.356784998247
0.385473366074
0.428192739113
0.404104670656
0.387561518567
0.405112111985
0.360134426734
0.282966646916
0.236486852845
0.207345763777
0.133621366579
0.0548159714774
0.103046894511
0.149644983756
0.133026115224
0.125027856823
0.151733427434
0.146303984674
0.137803797415
0.15028219591
0.15017702228
0.154851257484
0.157648869272
0.141918096396
0.117194745141
0.123891309258
0.126733185382
0.0884591783114
0.0721488806549
0.0741998761775
0.0825636836662
0.0691643693579
0.0811674822791
0.0789085342638
0.0524750324174
0.0547622576765
0.00992327624927
0.00980926669739
0.0166986719383
0.0211400598507
0.0569939786513
0.0637183021727
0.00250487258271
0.0251261445921
0.0420351319745
0.040600337904
0.0412064430327
0.0387112349985
0.0096350019799
0.0168960181476
0.0184252650364
0.0620776924755
0.0790094386511
0.055206331782
0.0497251159188
0.0908056309326
0.124323917509
0.0914986731237
0.0518149002508
0.0717756070598
0.0818592001036
0.0964042230645
0.0822021452505
0.0711147985731
0.0723418237445
0.0648240740513
0.0599864714029
0.0947687400651
0.117915468707
0.119129856349
0.152905440049
0.205138028687
0.222022960922
0.221049127169
0.23977883835
0.2503870957
0.229059431753
0.203798630796
0.22282642652
0.250989775835
0.257706182565
0.255307578288
0.263308743092
0.301345398082
0.300647763147
0.24464365401
0.236125666234
0.209234186251
0.186776626173
0.144275676752
0.0603541938997
0.0171900082937
0.00678758882481
0.0273137704627
0.0420689923646
0.0388587347736
0.0787648322346
0.0959715323568
0.0895352557852
0.100878104025
0.085964343753
0.0788494571732
0.0613718683572
0.0186223295135
0.0154216282871
0.0187851959537
0.0166583720143
0.0413125367995
0.0911575141794
0.145260275045
0.163076854735
0.133200219965
0.131223012173
0.158788482764
0.125914192327
0.102625161368
0.118959523074
0.0902574696439
0.0907761017336
0.110933513479
0.13170501179
0.150430293982
0.121119594008
0.118458260682
0.156427087665
0.131453026094
0.127329953981
0.136332208154
0.068196069098
0.0441160463634
0.0664959650753
0.0541339234883
0.0480219114334
0.0490654943681
0.0146394557358
0.0110482105503
0.0305684763956
0.0598444811219
0.0817628863992
0.0904897868151
0.0891963032385
0.072281466045
0.0401372376757
0.0342404028472
0.0781791460765
0.0877001279113
0.0332696906905
0.0116807573797
0.0211502885324
0.0689230209515
0.104474803691
0.088797102828
0.0578674224903
0.0780321622366
0.0897628956206
0.0999834560148
0.0823901288145
0.0337572580435
0.0458122983447
0.0750049254387
0.0920004235593
0.0897095007015
0.0591464779391
0.0266263593406
0.0237125157304
0.00282775896193
0.0923602528314
0.116795430006
0.0810552783811
0.103815754552
0.146162469284
0.157125701742
0.154348386816
0.176790206137
0.186259303804
0.210866232996
0.274906318683
0.287156236565
0.309444142581
0.43222653821
0.495938557166
0.523583467864
0.570751552219
0.606531719215
0.653828327647
0.653149899522
0.684087417076
0.778014102554
0.718898595763
0.747809155368
0.621526498328
0.609506180844
0.483130239225
0.382064646149
0.11052966479
0.0627862386247
0.0366548523136
0.0621679501173
0.0592437496589
0.0384038537391
0.0721862312485
0.0909339491565
0.0716840574044
0.0363678168222
0.107872616558
0.161855981836
0.137218242451
0.136013484507
0.145689523345
0.102488355621
0.139952046174
0.165381440051
0.145482486142
0.109233570677
0.0805712010581
0.0690714858467
0.0659660530991
0.0463057545088
0.0258547535854
0.0315676731038
0.0153923492837
0.0396106319999
0.0504846216166
0.0344521149724
0.0492193002564
0.0531941840301
0.0309588355553
0.0235821924447
0.0423526405259
0.0437184057316
0.289299824289
0.31806083418
0.0612535081755
0.0891939737922
0.0636464101276
0.0196243687852
0.0634466740754
0.068674410562
0.01982161094
0.014891478753
0.0544136160041
0.0687183920349
0.065986365935
0.0764523647202
0.0510382114499
0.0538625192639
0.0761963261671
0.0653829672324
0.0411023991607
0.00621856903587
0.0345186130275
0.0514019300374
0.0866660328773
0.136548723444
0.161629154842
0.126325193819
0.0292049904778
0.0143018085061
0.0250091174181
0.0333890357849
0.067065131232
0.082224752591
0.071883460953
0.0715213056562
0.0618599289209
0.108208971673
0.14529903827
0.105929259697
0.0572082111506
0.0580652564829
0.0367722949939
0.0483157667983
0.0697758493061
0.120173891182
0.119586382016
0.101512038826
0.108363148176
0.0635368292906
0.0287576024403
0.0347205401517
0.0761649139645
0.125301420231
0.155339656094
0.195887024912
0.184719497626
0.124612578657
0.0950280253262
0.076418816619
0.0811850084748
0.0713399165252
0.0739452164414
0.0617484969306
0.10011059972
0.100642797518
0.0763679948174
0.0609488384044
0.044036236972
0.071887562579
0.116156229407
0.148476135046
0.160109865208
0.187013670788
0.201126842812
0.210883215188
0.218942267174
0.214169031904
0.200236189334
0.184405252858
0.175456038949
0.140090900423
0.174327211347
0.201531568804
0.166729561353
0.161902647006
0.186835157409
0.199324225918
0.1576582939
0.114075926727
0.113718096766
0.387756774704
0.41480986415
0.0139171855218
0.0232356932874
0.0251521406742
0.0275780821313
0.0336608474389
0.0171492177962
0.0654135141185
0.0795923960909
0.0591184701255
0.0766858883191
0.0853576001753
0.0897086857197
0.0749428950633
0.0672000616961
0.0719330588703
0.0425759764305
0.0440443757449
0.0441066656904
0.0536855448463
0.0814545710294
0.0722227242804
0.0393647154069
0.0653589327986
0.0792157488643
0.0748143478427
0.0794248535034
0.0981891440894
0.13005384613
0.157724923822
0.166935171854
0.167751415665
0.181096535291
0.199837621356
0.228283027325
0.262205031013
0.292651020861
0.362935022079
0.434625633209
0.469982387397
0.498190909143
0.520281955293
0.55904258185
0.594005414031
0.556960528537
0.544140792619
0.606533703799
0.64232411442
0.677837056811
0.599353262608
0.457724187296
0.33631308792
0.188497065252
0.0281620173271
0.0528321135654
0.0770551403422
0.0882261947167
0.150663359629
0.19714473056
0.17805679462
0.164286804298
0.200444530385
0.214231309507
0.251302604442
0.292430235797
0.289393629752
0.270790311127
0.263865123707
0.287793842214
0.307475185822
0.312378423451
0.300902097291
0.296494575599
0.295845239252
0.284197800889
0.263715815034
0.261308993122
0.262333987524
0.301818166904
0.289860343279
0.195756176837
0.144532321118
0.133347504015
0.143663123422
0.062530794627
0.0406227118744
0.0298799633645
0.0204181294748
0.0298652331285
0.0473770565054
0.0789366203901
0.0782719996345
0.0919419686524
0.102694999943
0.0434908898081
0.0494108680363
0.0328744238673
0.0327565477925
0.0717678335704
0.0806757040495
0.0261938147256
0.0365521258413
0.0345825380544
0.010923741639
0.0151179625733
0.0307066661361
0.0312248692216
0.0134374214881
0.00698475045266
0.0667508201379
0.0772005784992
0.0563973127245
0.0575816749551
0.0172446264189
0.0161996890611
0.0157880775954
0.0133294046214
0.0119815076302
0.0109154105833
0.00446217549823
0.0665647725684
0.0775639677244
0.0388431832674
0.0362217789993
0.0163551615071
0.0127568096967
0.0162251876293
0.0184891346259
0.0206513581677
0.0179229964518
0.00264055837641
0.021303789176
0.044542354346
0.0599528618224
0.056280641271
0.0592529505164
0.0641012520467
0.0894868797983
0.108878948177
0.0780875294798
0.100787690336
0.104092837793
0.077409402373
0.0931683082421
0.103059350543
0.1339479802
0.145260617909
0.155103832614
0.144976690652
0.152159014541
0.192219317789
0.200387142991
0.213831196583
0.249328556386
0.287965047467
0.351869344047
0.430851870016
0.512427018835
0.575465514233
0.61989956417
0.606054599299
0.605717909588
0.715783854641
0.811346496934
0.746887391868
0.780289505346
0.892217384038
0.551348802147
0.558534143591
0.43487921741
0.207893409072
0.064711881769
0.0209649353963
0.0689047327421
0.0873825024565
0.0786558398419
0.102886893607
0.125121394591
0.146746580403
0.154608512432
0.166719953496
0.201702038208
0.195138331192
0.177859179716
0.182015385567
0.208061063324
0.204808484877
0.160026309357
0.206520375371
0.241940563717
0.211559167994
0.207617080261
0.216708585789
0.164899205732
0.18370195717
0.223462371242
0.191114375597
0.158425249766
0.162156328225
0.156824740384
0.13023057047
0.124965827692
0.135722880879
0.147001297735
0.101516577731
0.0407369072331
0.0091699084439
0.0304386516536
0.0502742935931
0.0568395530671
0.0601843067329
0.0776877647032
0.0946159586852
0.0896841623802
0.0703273198854
0.0665162770335
0.0663845201385
0.0660996555406
0.0756690588487
0.0724161148208
0.0555660821584
0.0463638190697
0.0563661821488
0.0692190817078
0.0800806429973
0.085979109643
0.0932920327767
0.0994016126245
0.103511943113
0.0913658839191
0.0776956215415
0.0886939321474
0.10148622907
0.109839993887
0.107875885592
0.114706800666
0.114657766644
0.106572158643
0.117902217833
0.119570641029
0.117090710882
0.122480263391
0.117994442254
0.115240049025
0.115181068002
0.115703855237
0.119849713445
0.120915556855
0.109016366994
0.0940830088818
0.0859097693686
0.0854470326591
0.0915556028878
0.0922773343681
0.0870119325609
0.0930591795439
0.093775679646
0.0934791817827
0.0993313790734
0.103791406536
0.102479222845
0.097301358025
0.0982924178219
0.103104895609
0.0981283330175
0.0969488530395
0.0885554175294
0.0686521306926
0.0591403787431
0.0608721410923
0.0748646945374
0.0753813440213
0.0512293292458
0.0264373052392
0.0103410439609
0.0191842035343
0.0225890486795
0.0171846750856
0.0295687465997
0.0529899412357
0.0978628249186
0.12652737015
0.144455955576
0.212940883615
0.276651250871
0.32218438649
0.355749491301
0.381315898705
0.423418663346
0.487281741537
0.583560879324
0.705219256994
0.863067476688
0.903438486722
1.03626956939
1.12008405533
1.38094492794
0.763754888676
1.09519266549
1.26708167825
2.03339283646
2.70420421808
0.0293964624643
0.0385937998959
0.0615915457139
0.0637786463164
0.0159126384832
0.118278089882
0.176243500227
0.136489608074
0.0322305439735
0.0600503909205
0.194311979666
0.254201741591
0.351998384596
0.363158475704
0.218821165428
0.408647574201
0.395624601335
0.0875870787717
0.0947421339131
0.0391626920513
0.0398573133066
0.0385724712624
0.0467196071207
0.0486356577856
0.0643664226838
0.0483902861918
0.0395259173486
0.028103055503
0.0204723427551
0.0604431722475
0.0683677924647
0.052525278469
0.0536486437175
0.0218247857064
0.0218492179596
0.0244132336399
0.0616374835836
0.0989463288684
0.0918794119568
0.0425039609643
0.024250411559
0.0222908728324
0.0243027308199
0.0307201019934
0.0504060743213
0.105135227651
0.120215462685
0.258256039956
0.282896083144
0.266878668549
0.367267017053
0.276174306759
0.135437459764
0.149812130087
0.135132610527
0.171369592471
0.215641638535
0.238370722344
0.243879260962
0.149130720908
0.0590794905787
0.0377894908975
0.0392175541744
0.0704654215092
1000000.0
0.0
0.0
0.0
0.0
0.0
0.0
0.0
0.0
0.0
0.0
0.0
0.0
0.0
0.0
0.0
0.0
0.0
0.0
0.0
0.0
0.0
0.0
0.0
0.0
0.0
0.0
0.0
0.0
0.0
0.0
0.0
0.0
0.0
0.0
0.0
0.0
0.0
0.0
0.0
0.0
0.0
0.0
0.0
0.0
0.0
0.0
0.0
0.0
0.0
0.0
0.0
0.0
0.0
0.0
0.0
0.0
0.0
0.0
0.0
0.0
0.0
0.0
0.0
0.0
0.0
0.0
0.0
0.0
0.0
0.0
0.0
0.0
0.0
0.0
0.0
0.0
0.0
0.0
0.0
0.0
0.0
0.0
0.0
0.0
0.0
0.0
0.0
0.0
0.0
0.0
0.0
0.0
0.0
0.0
0.0
0.0
0.0
0.0
0.0
0.0
0.0
0.0
0.0
0.0
0.0
0.0
0.0
0.0
0.0
0.0
0.0
0.0
0.0
0.0
0.0
0.0
0.0
0.0
0.0
0.0
0.0
0.0
0.0
0.0
0.0
0.0
0.0
0.0
0.0
0.0
0.0
0.0
0.0
0.0
0.0
0.0
0.0
0.0
0.0
0.0
0.0
0.0
0.0
0.0
0.0
0.0
0.0
0.0
0.0
0.0
0.0
0.0
0.0
0.0
0.0
0.0
0.0
0.0
0.0
0.0
0.0
0.0
0.0
0.0
0.0
0.0
0.0
0.0
0.0
0.0
0.0
0.0
0.0
0.0
0.0
0.0
0.0
0.0
0.0
0.0
0.0
0.0
0.0
0.0
0.0
0.0
0.0
0.0
0.0
0.0
0.0
0.0
0.0
0.0
0.0
0.0
0.0
0.0
0.0
0.0
0.0
0.0
0.0
0.0
0.0
0.0
0.0
0.0
0.0
0.0
0.0
0.0
0.0
0.0
0.0
0.0
0.0
0.0
0.0
0.0
0.0
0.0
0.0
0.0
0.0
0.0
0.0
logs/alpha_1.1/PGSD_500steps_1.log 1000122.6333 1000.1226333 0.0740725463094 1000000.0 0.0 772
