Policy Parameters:	-1.10631151215 1.55479136162
Control Steps:		1000
Start Time:		1438464622.2170227

-- TESTING STOPPED --

Stop Time:		1438464675.7099104
Duration:		53.49288773536682
Cost Matrix:
0.0535233656999
0.104455188507
0.178366140244
0.202070093252
0.206389080765
0.163810337686
0.104418298638
0.0414289579882
0.0361324379887
0.0710037745392
0.0206005089797
0.0476143884789
0.00748276182153
0.011525090068
0.0447365495734
0.0566099249673
0.043759347365
0.0247737224453
0.0139665945549
0.0138703585536
0.0347355062142
0.0325327423507
0.0340291354199
0.053548060892
0.0632278553872
0.0659244394555
0.06620313284
0.0125825090457
0.00683405949736
0.00892401930634
0.050483484822
0.051543881206
0.0291800469124
0.0239577290824
0.0160822890493
0.0334207711499
0.0897805691718
0.0794319811847
0.0764376396576
0.0760699020719
0.0937051156347
0.118848671234
0.152044459245
0.114916537396
0.120109203854
0.175565877004
0.18725052014
0.273987607007
0.320393525962
0.383036391944
0.493333914679
0.550340206587
0.575562042887
0.6370025472
0.833467654359
0.698141270855
0.978264449369
0.678627552855
0.664721097531
0.949912737283
0.629045002391
0.893060464471
0.503804160525
0.54659610201
0.599347351445
0.581870622672
0.350243326946
0.261126655302
0.0630983909686
0.0718000937762
0.0853735634894
0.0404265061591
0.023498650062
0.0563036715696
0.0652509753724
0.0580548104181
0.0475853870344
0.0160920570873
0.0101395523427
0.00360019145253
0.0455309613357
0.0445419929631
0.0289110543506
0.0390403561396
0.0699133953491
0.0490984357586
0.0394254698456
0.0248602744018
0.0346412433004
0.0312804311045
0.0824629949157
0.0833711964224
0.0157356030596
0.010337260975
0.0199535886808
0.0507729292647
0.0779726530764
0.109494371019
0.112937433003
0.128938829988
0.129693568134
0.15440832577
0.113769759317
0.152323286563
0.202736685779
0.217162268097
0.205897391046
0.211621653371
0.168282043268
0.184317656202
0.188316064132
0.198598415601
0.226736175725
0.239826796062
0.246301684171
0.247845192592
0.24525723326
0.249350048838
0.242010928234
0.277493924972
0.340107224597
0.28572614854
0.289600930699
0.272780504041
0.258619691111
0.265527132006
0.23141582631
0.232041432729
0.238437631925
0.192114556519
0.210053386718
0.1927803995
0.191770155149
0.114495828695
0.0828719565005
0.0277528072657
0.0355284707214
0.0414290667182
0.0849558568628
0.115372892173
0.127141058829
0.140810990169
0.151363316319
0.161970059852
0.150214216218
0.128933786795
0.12326901236
0.128535655008
0.144446936161
0.158291854466
0.146097418951
0.161518725251
0.162620385953
0.164165132852
0.147711009675
0.128770133362
0.135095166227
0.12791831061
0.130930854638
0.142879992724
0.148434446866
0.125980556962
0.0830988594274
0.0745937487955
0.0750642131474
0.0487678523574
0.0500686237145
0.0445484930332
0.00355287852954
0.023779064447
0.0411347343492
0.0758311913044
0.0847143259846
0.135032707656
0.0459749019688
0.0352402692504
0.0292849040385
0.0257663226087
0.0710869652419
0.08514415454
0.0621453607753
0.0984470341517
0.106375640381
0.134866853804
0.104543955796
0.151694352514
0.132410323334
0.113059826654
0.135873238976
0.161956410566
0.133434068975
0.136566255858
0.195198600007
0.190890389715
0.176385789875
0.18243259756
0.192485763093
0.19306231885
0.251540708715
0.314580042706
0.25956266055
0.287661075497
0.353028990725
0.350196341413
0.347947175757
0.356518550563
0.389464348084
0.390226717133
0.332183568017
0.380697707002
0.403351097523
0.42180372454
0.339363064857
0.332840950828
0.222258704716
0.190606716668
0.178437558764
0.157319143938
0.1400095097
0.0776152520735
0.0292032706246
0.0588020704625
0.0749303042713
0.0817643741609
0.0929404244761
0.0955683147927
0.0356699822696
0.0386092814706
0.0301022241803
0.0178233573145
0.0859282524615
0.157422703973
0.0875023510493
0.0471358225172
0.0519454382631
0.0814856316881
0.0811165550884
0.0425328031101
0.0481971271403
0.0295323555925
0.0593547262059
0.108344808667
0.169497410394
0.18479419518
0.147228914364
0.127398349806
0.192498269766
0.197263513321
0.215385402341
0.243717325054
0.279842536711
0.293612826586
0.293722433679
0.315072383718
0.302003341681
0.285562494787
0.248754626564
0.288951762769
0.286550985291
0.257903726428
0.273018116634
0.305195480204
0.199356058555
0.180315857687
0.204039712302
0.212386202291
0.146499652813
0.0691381071007
0.0382671008062
0.0384134771127
0.0234320465075
0.0441253974948
0.032565548367
0.0877650997348
0.0158151112604
0.0450316492064
0.0270639518263
0.0830904968488
0.10968480976
0.105425580775
0.125698132441
0.103427657852
0.0689196034584
0.0858227544656
0.0799644705211
0.0605671826728
0.0717793718156
0.0743697234308
0.0727642170155
0.0440420050101
0.0479593428666
0.0362679826125
0.0693550606197
0.100568145357
0.0993613274195
0.0834054390476
0.0754827024307
0.085315916949
0.0570129007572
0.0359994155256
0.0542019178589
0.111767243414
0.146435051341
0.0373936625747
0.0567925132521
0.0603591161061
0.101250183973
0.0395996382292
0.07406324135
0.0281854242366
0.042212651455
0.0956844520796
0.12362323369
0.0909899901702
0.0786892267782
0.0897580746673
0.0758502104516
0.120420462274
0.110336764868
0.122966327754
0.161695430615
0.104972550302
0.0973971124614
0.0897930060261
0.0554940255259
0.0406237293531
0.061172824255
0.104247462623
0.061943207244
0.0224611440117
0.0283838055558
0.00868929191448
0.0243485832597
0.0487626981638
0.0307258193351
0.0487737496831
0.0391341724052
0.0468936114657
0.0499926074282
0.0944175561229
0.117124689434
0.107483330821
0.140431369231
0.164377998153
0.194729546538
0.258225576456
0.321514082694
0.411073183129
0.600247534458
0.828943680358
1.176180755
1.13731838014
1.19261249324
1.50821519699
0.516733201922
0.391227746808
0.4110625019
0.461680852559
0.4995639828
1000000.0
0.0
0.0
0.0
0.0
0.0
0.0
0.0
0.0
0.0
0.0
0.0
0.0
0.0
0.0
0.0
0.0
0.0
0.0
0.0
0.0
0.0
0.0
0.0
0.0
0.0
0.0
0.0
0.0
0.0
0.0
0.0
0.0
0.0
0.0
0.0
0.0
0.0
0.0
0.0
0.0
0.0
0.0
0.0
0.0
0.0
0.0
0.0
0.0
0.0
0.0
0.0
0.0
0.0
0.0
0.0
0.0
0.0
0.0
0.0
0.0
0.0
0.0
0.0
0.0
0.0
0.0
0.0
0.0
0.0
0.0
0.0
0.0
0.0
0.0
0.0
0.0
0.0
0.0
0.0
0.0
0.0
0.0
0.0
0.0
0.0
0.0
0.0
0.0
0.0
0.0
0.0
0.0
0.0
0.0
0.0
0.0
0.0
0.0
0.0
0.0
0.0
0.0
0.0
0.0
0.0
0.0
0.0
0.0
0.0
0.0
0.0
0.0
0.0
0.0
0.0
0.0
0.0
0.0
0.0
0.0
0.0
0.0
0.0
0.0
0.0
0.0
0.0
0.0
0.0
0.0
0.0
0.0
0.0
0.0
0.0
0.0
0.0
0.0
0.0
0.0
0.0
0.0
0.0
0.0
0.0
0.0
0.0
0.0
0.0
0.0
0.0
0.0
0.0
0.0
0.0
0.0
0.0
0.0
0.0
0.0
0.0
0.0
0.0
0.0
0.0
0.0
0.0
0.0
0.0
0.0
0.0
0.0
0.0
0.0
0.0
0.0
0.0
0.0
0.0
0.0
0.0
0.0
0.0
0.0
0.0
0.0
0.0
0.0
0.0
0.0
0.0
0.0
0.0
0.0
0.0
0.0
0.0
0.0
0.0
0.0
0.0
0.0
0.0
0.0
0.0
0.0
0.0
0.0
0.0
0.0
0.0
0.0
0.0
0.0
0.0
0.0
0.0
0.0
0.0
0.0
0.0
0.0
0.0
0.0
0.0
0.0
0.0
0.0
0.0
0.0
0.0
0.0
0.0
0.0
0.0
0.0
0.0
0.0
0.0
0.0
0.0
0.0
0.0
0.0
0.0
0.0
0.0
0.0
0.0
0.0
0.0
0.0
0.0
0.0
0.0
0.0
0.0
0.0
0.0
0.0
0.0
0.0
0.0
0.0
0.0
0.0
0.0
0.0
0.0
0.0
0.0
0.0
0.0
0.0
0.0
0.0
0.0
0.0
0.0
0.0
0.0
0.0
0.0
0.0
0.0
0.0
0.0
0.0
0.0
0.0
0.0
0.0
0.0
0.0
0.0
0.0
0.0
0.0
0.0
0.0
0.0
0.0
0.0
0.0
0.0
0.0
0.0
0.0
0.0
0.0
0.0
0.0
0.0
0.0
0.0
0.0
0.0
0.0
0.0
0.0
0.0
0.0
0.0
0.0
0.0
0.0
0.0
0.0
0.0
0.0
0.0
0.0
0.0
0.0
0.0
0.0
0.0
0.0
0.0
0.0
0.0
0.0
0.0
0.0
0.0
0.0
0.0
0.0
0.0
0.0
0.0
0.0
0.0
0.0
0.0
0.0
0.0
0.0
0.0
0.0
0.0
0.0
0.0
0.0
0.0
0.0
0.0
0.0
0.0
0.0
0.0
0.0
0.0
0.0
0.0
0.0
0.0
0.0
0.0
0.0
0.0
0.0
0.0
0.0
0.0
0.0
0.0
0.0
0.0
0.0
0.0
0.0
0.0
0.0
0.0
0.0
0.0
0.0
0.0
0.0
0.0
0.0
0.0
0.0
0.0
0.0
0.0
0.0
0.0
0.0
0.0
0.0
0.0
0.0
0.0
0.0
0.0
0.0
0.0
0.0
0.0
0.0
0.0
0.0
0.0
0.0
0.0
0.0
0.0
0.0
0.0
0.0
0.0
0.0
0.0
0.0
0.0
0.0
0.0
0.0
0.0
0.0
0.0
0.0
0.0
0.0
0.0
0.0
0.0
0.0
0.0
0.0
0.0
0.0
0.0
0.0
0.0
0.0
0.0
0.0
0.0
0.0
0.0
0.0
0.0
0.0
0.0
0.0
0.0
0.0
0.0
0.0
0.0
0.0
0.0
0.0
0.0
0.0
0.0
0.0
0.0
0.0
0.0
0.0
0.0
0.0
0.0
0.0
0.0
0.0
0.0
0.0
0.0
0.0
0.0
0.0
0.0
0.0
0.0
0.0
0.0
0.0
0.0
0.0
0.0
0.0
0.0
0.0
0.0
0.0
0.0
0.0
0.0
0.0
0.0
0.0
0.0
0.0
0.0
0.0
0.0
0.0
0.0
0.0
0.0
0.0
0.0
0.0
0.0
0.0
0.0
0.0
0.0
0.0
0.0
0.0
0.0
0.0
0.0
0.0
0.0
0.0
0.0
0.0
0.0
0.0
0.0
0.0
0.0
0.0
0.0
0.0
0.0
0.0
0.0
0.0
0.0
0.0
0.0
0.0
0.0
0.0
0.0
0.0
0.0
0.0
0.0
0.0
0.0
0.0
0.0
0.0
0.0
0.0
0.0
0.0
0.0
0.0
0.0
0.0
0.0
0.0
0.0
0.0
0.0
0.0
0.0
0.0
0.0
0.0
0.0
0.0
0.0
0.0
0.0
0.0
0.0
0.0
0.0
0.0
0.0
0.0
0.0
0.0
0.0
0.0
0.0
0.0
0.0
0.0
0.0
0.0
0.0
0.0
0.0
0.0
0.0
0.0
0.0
0.0
0.0
0.0
0.0
0.0
0.0
0.0
0.0
0.0
0.0
0.0
0.0
0.0
0.0
0.0
0.0
0.0
0.0
0.0
0.0
0.0
logs/alpha_1.6/PGSD_1000steps_3.log 1000061.21403 1000.06121403 0.0 1000000.0 0.0 359
