Policy Parameters:	-2.58984379898 2.8793857483
Control Steps:		1000
Start Time:		1438445149.6259058

-- TESTING STOPPED --

Stop Time:		1438445312.8172634
Duration:		163.19135761260986
Cost Matrix:
0.112710221181
0.0497553136322
0.161508852243
0.279431265024
0.257377875479
0.274798716428
0.248083101417
0.242039243642
0.00995415836225
0.0616188874895
0.186990310526
0.251454896811
0.330582906475
0.164697497144
0.222578854059
0.181077431141
0.133632490274
0.167598077433
0.0830045540122
0.180266062978
0.0767341820328
0.199960410921
0.232308557326
0.222512440193
0.104106422623
0.12833046074
0.0983091613672
0.1250999091
0.102010916554
0.129948750516
0.162089810783
0.250511606599
0.130717192575
0.124730938236
0.191427381504
0.253965803306
0.294086604112
0.158454181497
0.032226055528
0.0358892499452
0.102936173906
0.244887312167
0.245795757738
0.238960285931
0.319137214041
0.358493603333
0.275168995671
0.264697603732
0.32024796559
0.199948112796
0.259680337665
0.123831384786
0.0540283712953
0.0381595754401
0.0765026100417
0.142335771549
0.1553416759
0.0585083459283
0.167760051468
0.0996646022458
0.235364016796
0.0612103904529
0.0786154814367
0.0269779486724
0.0728224744857
0.00122309652565
0.0280514344326
0.0710038274007
0.0301683367638
0.0435008969627
0.0371554920024
0.0558534876868
0.165771160032
0.19340326701
0.0112307782996
0.0483962174294
0.102514928365
0.204600496253
0.128367333628
0.00302972191609
0.0199416260113
0.0389169924711
0.107548387688
0.116754255959
0.160297050842
0.0209448171842
0.059874598367
0.142062354583
0.0306710753617
0.0652875687658
0.113029186452
0.0321880237122
0.0636978050409
0.139683847703
0.0365730788171
0.038254293052
0.0922569057309
0.166694115461
0.238583614195
0.279168453945
0.428843519019
0.461216176929
0.824571551779
1.30590791887
1.4968358409
1.71891610446
1.83414932326
1.63256331603
1.68110334601
0.057705008222
0.165120918585
0.234949747936
0.352739099507
0.391058836586
0.342730002652
0.545476383247
0.680690519562
0.377841498867
0.639751918396
0.534867790683
0.813020391368
0.360844504861
0.379308850735
0.127888048624
0.186108264977
0.186598005041
0.100481918448
0.0219002982552
0.0588985245508
0.157156734039
0.128179946716
0.0954707295762
0.165277210193
0.017843028256
0.0541526380495
0.154650979004
0.219833689905
0.176971693948
0.207457922601
0.207783365343
0.262492166872
0.294296301467
0.268580768403
0.330880508279
0.523890769082
0.92266317701
0.811434511726
0.982288430598
0.943194228662
1.10027626173
1.08074671896
1.15804259677
1.01024947866
1.18905274906
1.07480877611
0.810103528382
0.567022167813
0.528479885642
0.419806165003
0.192268913455
0.0614325341175
0.0390642858792
0.0708093232793
0.103812195692
0.134187188751
0.0211193434971
0.0814879837348
0.126424908486
0.0870879836423
0.249932791521
0.217548948995
0.166602654325
0.225170442624
0.101582690229
0.0656216739231
0.0515222091145
0.132239596096
0.171946320336
0.147101650204
0.150053530459
0.237048963175
0.272239482225
0.0992941944274
0.191901488264
0.00827037942509
0.0141911382163
0.0173460903841
0.0537656165569
0.0764105135628
0.0933836063463
0.178904980555
0.189776495007
0.105942514423
0.141020581614
0.117898119891
0.12272217779
0.0849097101994
0.229609328209
0.204984400673
0.172506973411
0.230488101575
0.264127014179
0.232148864614
0.0673088325761
0.111787751343
0.372334568804
0.940912526412
1.50413883227
1.67555929766
1.54693048608
1.68481366599
1.28936681694
1.56384011145
1.64280807992
1.29609012206
1.87845553091
1.84130701095
1.33275976944
1.31658175759
0.359084040761
0.109328020583
0.13588814285
0.0960784033662
0.231246907733
0.111713943616
0.172384358491
0.286501953903
0.114244987605
0.162914500293
0.231971164162
0.155068333856
0.160664288474
0.170759685057
0.182694807519
0.221036906461
0.234763029275
0.197924379403
0.123180636309
0.165321402962
0.159506273762
0.12756209134
0.0150516401037
0.0773790233585
0.189255139441
0.235756815998
0.242900483688
0.268881613318
0.476711369954
0.438677076415
0.41755648851
0.414797060313
0.302670697925
0.402549714921
0.438669877009
0.362168776348
0.406325471128
0.244637841717
0.277688208375
0.263150629243
0.162086346766
0.184081472834
0.244645787
0.195870399834
0.175017973414
0.0290176814292
0.0161305303283
0.0652079459158
0.0589547316044
0.0266978047197
0.067932639238
0.0388648363156
0.100578790557
0.177550027824
0.222774881554
0.188264730044
0.186285836394
0.0315749301011
0.0350551796583
0.079545358566
0.126730424419
0.0397940257973
0.0660456867195
0.172994394111
0.0883070003449
0.0719134465479
0.0358713170098
0.0764406316638
0.0263133536618
0.0694438188019
0.0573156534127
0.104315818958
0.182752613829
0.14118720331
0.071699984039
0.112916607656
0.182381531459
0.126953721432
0.269710182454
0.248318012942
0.255482790232
0.199838267375
0.180706305602
0.216028534202
0.290892191889
0.275622820281
0.273370310421
0.214340922948
0.37935507886
0.372415105853
0.419573620632
0.362286818262
0.55440968563
1.22035127828
0.416079414706
0.549208046186
0.553850973895
0.542479264444
0.635028237693
0.434468547667
0.62374582641
1.45440202429
0.123208089771
0.103548860306
0.0422893410437
0.108044911282
0.126984374022
0.0132119795366
0.0368935485041
0.0550570648335
0.0606957267641
0.0851288192184
0.299247091589
0.909528803598
0.00220228882082
0.0198634835208
0.0190082357919
0.0610063586444
0.0415308043835
0.110333125168
0.0965021246099
0.0879085672355
0.136453304952
0.157330371309
0.167310056178
0.11181262818
0.0547767621169
0.0648357105798
0.0319211722049
0.0915206169325
0.112267073216
0.149458606733
0.162065251463
0.155221775145
0.151308741365
0.149320945084
0.176778086683
0.0863143573058
0.119558017127
0.131114115615
0.164436112917
0.0734104434405
0.14676916334
0.160604256911
0.169897295423
0.164959325106
0.167942240037
0.179218958506
0.165248681898
0.120929666232
0.169241645403
0.0719370273622
0.0403671414281
0.137782842293
0.177600700811
0.133799464584
0.0792223754544
0.0517618386331
0.139780792358
0.151353693311
0.157016062663
0.182728273547
0.181375613836
0.215500111236
0.204171994342
0.201676568853
0.192146657233
0.182083890038
0.180106415635
0.19973704295
0.199989073996
0.204592419434
0.203726801702
0.202375118075
0.202813106431
0.209585709795
0.209029705334
0.211876051905
0.207759356515
0.215109693983
0.216915994573
0.219592150216
0.207434963863
0.193189565592
0.214574894919
0.22265642755
0.211965753108
0.216723269117
0.122704568486
0.130830820267
0.0546746011881
0.0414166211904
0.106730801465
0.120005886932
0.198887216336
0.143898636196
0.189057701647
0.201325746521
0.209462918008
0.224629183173
0.239000730924
0.245046921657
0.222031775105
0.201610807967
0.205521359327
0.191496059783
0.204118833233
0.222575273569
0.223739658945
0.215619670223
0.205141359524
0.202826324816
0.198672853616
0.200431142148
0.207339347248
0.24528227421
0.209154494455
0.0563112321029
0.183439685957
0.176718177665
0.0402758635185
0.103861424258
0.120806442295
0.0183935794503
0.0740757122896
0.185397363988
0.232587428951
0.19740265773
0.226745390213
0.205089529798
0.208334438509
0.214668045615
0.193997903915
0.206722183861
0.216135411794
0.200934315071
0.190011270035
0.23200834076
0.199694196652
0.228312956132
0.217261149193
0.246806818448
0.243526654845
0.239734280455
0.239767823815
0.234774346201
0.103519495329
0.166056856827
0.206972092876
0.250637013267
0.170506755906
0.257600252896
0.239333620541
0.170971083005
0.23498797352
0.216619523619
0.222463140698
0.202511054228
0.157680204146
0.180050966729
0.166974139183
0.189811418165
0.182324970606
0.189124587387
0.151004077152
0.204310098278
0.110773666024
0.0741364215584
0.0277140461211
0.0207189820951
0.0771103856092
0.143198529378
0.2590890564
0.265663424248
0.334237617556
0.288106394954
0.227376282605
0.303294657676
0.317463226986
0.402062775082
0.521207263946
0.789931053648
1.17404654979
1.56755063902
1.71557902749
1.90530563229
2.1313524697
1.16783232507
2.27638369355
1.84041106193
2.45483426614
0.35361085858
1.58883905151
0.376267765267
0.512330403219
0.098170451293
0.127021616489
0.108582634686
0.0299255171839
0.0175158741203
0.0251909394222
0.0636239293377
0.0788741794223
0.0563425583371
0.0738966273949
0.0674928067885
0.0878282094043
0.106907866468
0.135825605512
0.257903403782
0.184639013587
0.224971335437
0.390925266651
0.48434331377
0.504481297949
0.537454003846
0.586805718259
0.457437237232
0.501827040612
0.544248941232
1.17937245308
0.135113026409
0.25919507868
0.28643818152
0.27790675041
0.698579797115
2.44941614012
0.0444911361894
0.161220764622
0.25364646643
0.294590554471
0.319393309221
0.317109071053
0.309231012114
0.317826014471
0.318478757164
0.32156223534
0.330139026526
0.341381894084
0.359676560496
0.364946505521
0.375385799417
0.387645709971
0.393905220406
0.42703764711
0.436342196347
0.418943671273
0.407754472877
0.446103881512
0.46678290944
0.470449054093
0.478174871395
0.495623178981
0.505676758197
0.533582660832
0.670697459252
0.486050835828
0.529373154034
0.630889728263
0.549537918177
0.638614561261
0.508470041254
0.673762437154
0.875784728695
0.481795149938
0.710572683096
0.585071879242
0.767568087583
0.528655064119
0.739582792163
0.559394078497
0.821302121919
0.539372044218
0.772007957999
0.48763603682
0.520730366327
0.653188623176
0.550100898394
0.786347327785
0.572626600135
0.837264287854
0.561890952389
0.690769354973
0.536122436521
0.700339792381
0.501624713147
0.550242106385
0.5649089044
0.716536760416
0.457701997555
0.49377970679
0.480421516061
0.470008905376
0.440794705942
0.430551503524
0.443548314563
0.384354164129
0.438957756977
0.408374517396
0.539280262636
0.364849455227
0.326708599915
0.509951399544
0.294464874489
0.256154126816
0.382169702627
0.231794843371
0.18400567411
0.202127427988
0.185574254261
0.225676148906
0.279212286475
0.231760390223
0.212842121184
0.211104499694
0.202181203376
0.175827533738
0.128168780249
0.0112280289903
0.0328042756514
0.0740578372403
0.103125270572
0.145236603806
0.196068626752
0.271221558024
0.0946822730126
0.106929228256
0.236332939789
0.374145237658
0.114888377182
0.0579913941953
0.0823002874807
0.133650722245
0.188098102973
0.251756995248
0.313546077542
0.113891271741
0.12013083802
0.123761257655
0.129102121739
0.103893234005
0.149339620862
0.264793502919
0.0910340926886
0.171607700579
0.226671841499
0.347487417255
0.076625203189
0.16950016307
0.0729047488276
0.0959261697495
0.088842848769
0.197391195539
0.0366675358591
0.0835831925543
0.16107501266
0.00268872085502
0.0175191451894
0.0355325205715
0.0463444918539
0.0284472700926
0.0151202537423
0.0217664017815
0.0332496258141
0.0763683717814
0.0666399129351
0.0429322754854
0.0479487287641
0.0129044193772
0.0443998818666
0.033169875966
0.0642995810469
0.00462537216937
0.0812293524424
0.21704822667
0.0762844062792
0.122412152403
0.208870469275
0.159297059733
0.157078750142
0.242241295118
0.243499188266
0.250832165727
0.250748741027
0.360999243473
1.1635668788
0.286671656019
0.559890138029
1.62776161602
0.281224613497
0.466641890357
0.423681273015
0.402760990008
0.555174447219
0.595059402936
0.326081016721
0.449925739142
0.362181463573
0.311209864321
0.0310695241117
0.0306129222156
0.134728300072
0.309532152437
0.275027600705
0.194243762788
0.0523468362155
0.0936247733059
0.157429215872
0.221158339444
0.2132166585
0.133585073423
0.0644021063275
0.100858142952
0.215317922615
0.236261362807
0.16516473696
0.17348421811
0.0587375203567
0.0224511902244
0.0625567827252
0.0410157822529
0.107690688687
0.124371093534
0.151592499868
0.00698644326888
0.0357015052231
0.0828183750728
0.00915426023352
0.0315947642352
0.0557563578521
0.0644959090692
0.0854072510187
0.115565637765
0.114110526499
0.0450425503418
0.0219603247093
0.102763470367
0.296098479272
0.210902690142
0.115515795139
0.0405534850629
0.0776245419004
0.0549317991207
0.064644291966
0.156711106545
0.179140964902
0.150843644127
0.082152684803
0.0660152630209
0.101222013108
0.0671578218832
0.0407908842182
0.117628681108
0.179057710266
0.181020879262
0.151225738796
0.158420583428
0.208527500935
0.202921984422
0.249724366166
0.391646394357
0.283415969297
0.34395944037
0.427060677777
0.393258058856
0.426285311567
0.373928583441
0.298485515937
0.2026707026
0.196837084432
0.26629700211
0.21825825264
0.22820278127
0.208956577624
0.12203821214
0.235448545151
0.520076099891
0.784634575385
0.679542623391
0.798530670142
0.764038876827
0.746903716651
0.889380712341
0.883485390038
0.832114987297
0.575240417427
0.918475686341
0.38456260333
0.325628419946
0.219847454544
0.146707708049
0.0729594369897
0.187057462547
0.200450709953
0.142754963376
0.171262307635
0.37234329178
0.204779967777
0.243620314425
0.165011442359
0.132959854475
0.212069433692
0.440689742325
0.266586045381
0.259757332673
0.097363818706
0.224579390705
0.240628329469
0.251301716828
0.0076464252496
0.03609258886
0.0436102154663
0.110381555569
0.106146177245
0.214896173854
0.134631418965
0.179235072938
0.194310076524
0.303811767339
0.218658514024
0.282523504965
0.13759578741
0.175786190032
0.28080193008
0.25443728359
0.181442886372
0.189135538677
0.186079835889
0.202814662611
0.198702699355
0.148758667662
0.224753109455
0.0975489394202
0.164192316168
0.187117664521
0.212575627851
0.150711075474
0.0779287840704
0.0793811107327
0.235291990557
0.0956914216742
0.0198990460399
0.105547484171
0.26762184756
0.0516549826
0.15497579779
0.307082592682
0.158479781297
0.163556497979
0.109394042929
0.123424233918
0.188845732555
0.309914505527
0.239508127222
0.31943755762
0.268942333423
0.308909422685
0.334992433191
0.360096785314
0.396103042256
0.47328857129
0.514857407027
0.831679946627
0.577885643319
0.92905227008
0.560008252864
0.899677671763
0.497505796529
0.935627704999
0.501090294189
0.994997966533
0.429479016359
0.686599980586
0.207294585429
0.310371627088
0.140356322645
0.122219893782
0.0720187947479
0.0738317777182
0.100095909651
0.0793053143767
0.229411396184
0.0608229577992
0.130977174284
0.086312219641
0.0866721019753
0.0686901888024
0.149104390074
0.00457280757011
0.0231063320062
0.0123493233149
0.041134606323
0.0790247818451
0.024465420317
0.0369756537323
0.0359589269741
0.0532704852184
0.129230861096
0.199561822102
0.114919451707
0.077943322757
0.0705787230647
0.206623272251
0.0947020280464
0.0197917441811
0.0293068306846
0.0892349585452
0.172072549149
0.0577154953249
0.0451728638566
0.0659453944237
0.143212507134
0.139451614186
0.169985932753
0.202728412901
0.177762216217
0.289172791006
0.265962061537
0.276972204236
0.378710357222
0.423311661989
0.574909852451
0.935604439377
0.945564078622
1.46179349522
1.61241830535
1.79259073982
1.80573866235
1.1120753122
1.49146927166
1.42408985859
0.920827790529
1.04077392621
1.05920663248
0.533502777531
1.43242140794
0.214274195492
0.241309465627
0.127130417625
0.141807118114
0.0371553778994
0.132381972438
0.192288250814
0.256157813678
0.283045153478
0.221586838951
0.201342970343
0.168373669106
0.163810086601
0.170389824485
0.146893925033
0.141796762846
0.123692187851
0.104359137379
0.0628127630557
0.0405396654672
0.0332081480178
0.108125008104
0.206607801339
0.133083547351
0.241107867951
0.226894407664
0.220963633605
0.227819604444
0.167318491597
0.137500934369
0.125149520237
0.138764232765
0.0217129426814
0.0189913284591
0.0326954480324
0.0769115257269
0.14088116512
0.1281282253
0.0805276899089
0.0648881488612
0.0445058291642
0.0331538400501
0.0247801551409
0.021868278064
0.0653546386118
logs/alpha_1.6/PGSD_300steps_3.log 291.20201025 0.29120201025 0.191461720644 2.45483426614 0.00122309652565 -1
