Policy Parameters:	-1.97704753806 2.22884185334
Control Steps:		1000
Start Time:		1438452696.7459257

-- TESTING STOPPED --

Stop Time:		1438452809.6919022
Duration:		112.9459764957428
Cost Matrix:
0.0578594163653
0.115683821151
0.0304560956898
0.0197929803173
0.0292012909147
0.0407950337128
0.0289472980176
0.0390409118449
0.023452785124
0.0355728874905
0.00403234035633
0.024333308029
0.0953110574791
0.217035329916
0.320628127333
0.29389144394
0.274087308701
0.246980254808
0.340961382526
0.479592925488
0.550938093295
0.856223085439
0.92897851003
0.946914295811
1.19498484441
1.1648471238
1.31293493443
1.3440266033
1.5614375354
1.518091994
1.41474438383
1.37171175222
1.0185660174
0.369570247366
0.42952703688
0.358089145754
0.210366857705
0.147978921957
0.108466744911
0.0972576658693
0.100084964309
0.0147135733932
0.0512630579009
0.0598882368166
0.0453510984135
0.126044977741
0.151121444715
0.107903385012
0.0900309631864
0.0477332399322
0.0510963567822
0.0767668780953
0.170343466974
0.192470404399
0.0652535406049
0.0617823328245
0.151472398451
0.187876513225
0.249315319919
0.378967993203
0.291673534532
0.40188657752
0.496985255866
0.501262920614
0.498294789711
0.52108445088
0.488853148348
0.495373512508
0.49686934058
0.429909207614
0.40433638889
0.458352424991
0.365213483774
0.23395437803
0.217447244052
0.107668816443
0.115331664536
0.0867202064231
0.0686687911499
0.0653733938906
0.117897694712
0.120891401027
0.102341344745
0.0552546464558
0.119526505446
0.173386159541
0.169382928168
0.136453079171
0.21628925078
0.222201712473
0.25751982903
0.339008892713
0.404943945994
0.457951939122
0.610031168403
1.03055658783
0.623762267704
1.00323697279
0.686939973156
0.91420645059
0.736619517618
0.847852754037
0.726595823563
0.623301506873
0.989061318427
0.66291608881
0.392291988393
0.329873398348
0.0822846854685
0.139968390191
0.0631467558539
0.0362838183117
0.0947701765392
0.0931975301121
0.116643948519
0.187115489955
0.256928405626
0.177075749784
0.100668946278
0.188427958516
0.177583068332
0.111007064496
0.120470220032
0.223894755819
0.138031247941
0.157943019566
0.143789213687
0.13724714594
0.082487087227
0.0495069187329
0.0185368980139
0.0476455347427
0.064488800197
0.112334909039
0.0953166142608
0.0865056238269
0.0708882984687
0.0483945859541
0.0875154603897
0.0460207817757
0.0151363181301
0.0403723963804
0.0737383833142
0.0590353706654
0.0705002806661
0.0639619391946
0.0652367816133
0.017034931826
0.0625678418262
0.12062648108
0.0954563273304
0.148783020377
0.1972506983
0.20943483486
0.245698626851
0.272048768016
0.424462733446
0.511918133768
0.746396199285
0.88792444037
0.881420226403
0.921922228226
0.925618014771
1.07760882462
1.11000911609
1.07841116944
1.21425937441
1.0465542929
0.930751930082
0.237515388383
0.606422000278
0.341195456045
0.101617510533
0.116808026571
0.0042987997394
0.0334805315303
0.0741633289189
0.0950173540183
0.077378870743
0.0637081427381
0.127855452377
0.132717695358
0.124752969857
0.0889183942647
0.0279034547353
0.111820538856
0.225552199036
0.212439433314
0.259644553573
0.192903372871
0.17049640599
0.235516245025
0.196849013091
0.246544140241
0.394196115953
0.891606801139
0.167816652016
0.229621988638
0.287300332564
0.280898161541
0.297175635468
0.300853077534
0.276561216076
0.225329840588
0.206749545055
0.239347332984
0.212876342543
0.161949513082
0.181918912232
0.214811772867
0.143659769065
0.0945937111307
0.0322931760014
0.0602946382958
0.0784764956543
0.142272621497
0.248518335351
0.248546279286
0.298019897903
0.401582462648
0.483810193262
0.635844943161
0.548154064358
0.662161199559
0.448916423266
0.561121777017
0.50734447465
0.472457124816
0.521855496267
0.509199319962
0.441790535358
0.362639341063
0.19568074565
0.213441064637
0.177434170613
0.20242819564
0.139243443734
0.160077341708
0.0226604872342
0.0553790498787
0.116431330425
0.127280375455
0.172385506136
0.243673261046
0.140173275661
0.129861530006
0.1833578525
0.231486373621
0.181834344322
0.0705369476951
0.0481968138025
0.0288012933384
0.0528577234915
0.0296291972682
0.0176752109979
0.0737425701557
0.131185463021
0.0431580563365
0.0799297184936
0.112783853842
0.109497502027
0.141936979621
0.185661144006
0.220016064117
0.153777571663
0.180519417239
0.239653202567
0.205127596514
0.224381133252
0.270628195748
0.126572463896
0.196211805087
0.230228031668
0.223279864189
0.242132131713
0.23116677506
0.305731495199
0.394927306897
0.427511512496
0.570280049617
0.875697389924
0.698960598421
0.925550851492
0.881394723126
1.02715395755
1.04404807183
1.13153228093
1.02530244332
0.999407321714
0.770841441169
0.799143122508
0.478200444181
0.270226302167
0.0373416765595
0.0374892980406
0.0295563903011
0.0509765040935
0.100179438407
0.0506656916662
0.106391541467
0.0805338416266
0.0553958070078
0.127131986164
0.143661797214
0.0670921247906
0.120666440827
0.0665761462794
0.129645975936
0.202225040029
0.0572626178326
0.0833650006097
0.166580155809
0.17245395303
0.0793364175666
0.0975242880762
0.100635457353
0.0852862266186
0.0945176194487
0.114123202447
0.0206083551154
0.030090147771
0.0187278181716
0.0529743389903
0.104888919667
0.082524036605
0.082946201812
0.101440506008
0.101298605001
0.0104275410286
0.0189566682553
0.0929727544794
0.192704088061
0.142172329937
0.151990370322
0.227387391527
0.340181448044
0.437375421825
0.950966048596
1.26659240117
1.47109308834
1.51511961292
1.51225785056
1.56519948335
0.996282105814
1.56567049867
1.43499526969
1.29896377497
1.93589557394
0.632237429473
1.22755760576
0.371119846158
0.100879439234
0.0889987046286
0.0828757380944
0.159597253514
0.136799200552
0.0960907213994
0.103586885937
0.134645947744
0.175525409311
0.190357727818
0.189073700518
0.228245666013
0.158090065069
0.158325354983
0.194583680393
0.262949038738
0.270109129971
0.238950093454
0.228024261008
0.247764623836
0.234713413123
0.247040323387
0.241776868352
0.203885882163
0.159752878879
0.223863501702
0.181823475414
0.145175912933
0.12556804367
0.166485338495
0.14076870879
0.145499552398
0.161079317155
0.0928109967062
0.0363379605912
0.038277511979
0.108982125141
0.136107657066
0.135069750404
0.11079571665
0.150179166347
0.218546719834
0.130268906163
0.154433218454
0.0890691442361
0.0839435509939
0.149233543676
0.154002719695
0.0530807853863
0.0975539583056
0.150477741401
0.137358611295
0.0398711703064
0.0963443595103
0.130622960707
0.149542319472
0.175243468982
0.210737702787
0.197486152538
0.196836525677
0.198214950601
0.190519162032
0.212457855958
0.212040592568
0.224201921442
0.233356201421
0.225467820859
0.233354125323
0.235570626349
0.241034989563
0.247869463482
0.246720303084
0.259822402935
0.263253335562
0.256313696615
0.263009368242
0.277270332991
0.287286529095
0.29223640886
0.296464795685
0.304256184897
0.29971424947
0.311371356168
0.337198706056
0.33346313186
0.327845425799
0.355265143562
0.354818734834
0.372817966145
0.39480459538
0.399223384266
0.406922644324
0.412315309204
0.431666462523
0.437709841521
0.427333025802
0.456505952456
0.453892183096
0.450034491569
0.45073381207
0.47596096277
0.461872778842
0.500427833144
0.545579196135
0.51535242204
0.523594736667
0.559135653472
0.532610848589
0.53677766433
0.562256434269
0.529477196568
0.524124716376
0.504646644556
0.534595036678
0.58301873299
0.587085764431
0.487726558871
0.566140246489
0.590504927478
0.658844503247
0.571406661107
0.555282384964
0.542056302944
0.582585592936
0.584520626748
0.593459943601
0.585249824336
0.53486762244
0.549618765042
0.548244778121
0.575734340871
0.542180867809
0.512496325046
0.475045987128
0.47031194713
0.491415398748
0.440596638079
0.429053917662
0.41269730249
0.416493508183
0.384346056463
0.353561992729
0.34238782652
0.369055546494
0.36943431446
0.317835327239
0.288808607766
0.28698198471
0.245888253302
0.189721254194
0.263359665624
0.308864055137
0.238715337036
0.209077157609
0.22528060748
0.249687753812
0.257754093079
0.23951396499
0.198698464739
0.230130398026
0.213434446061
0.142223949207
0.111149841862
0.0844519337598
0.0927035676084
0.0751780217623
0.180285595637
0.103945810068
0.166528345119
0.239779093162
0.275553334306
0.0987469311388
0.106140960253
0.101912487766
0.00429397056795
0.0777445912986
0.182864674661
0.107444054106
0.0946846401027
0.0316459262117
0.0247034316094
0.0411628633241
0.00546259882622
0.0464289509819
0.100349916354
0.164236020589
0.181450295034
0.161378836532
0.138271294243
0.141011857365
0.139256925135
0.138111745455
0.146212227762
0.180252780808
0.136636050753
0.181655779791
0.180421313353
0.133818061829
0.140389521426
0.173022615493
0.121422215613
0.117202302725
0.111755975111
0.116434717993
0.123079603227
0.10600001459
0.0878127198189
0.0491451445969
0.0409756404966
0.0591848749238
0.119828198449
0.11862112598
0.167700189053
0.268510247813
0.187681779978
0.122447599244
0.193823372981
0.230691768408
0.214643455963
0.208174272209
0.208848539545
0.17258906686
0.20064863595
0.262639382924
0.166933154713
0.265652779233
0.189045441779
0.290279025881
0.280076845211
0.276647003873
0.208371872423
0.272449120789
0.277514963628
0.259882492617
0.242238258626
0.262454576009
0.278287147612
0.210597361037
0.279069029441
0.195087068229
0.148371012374
0.129205830778
0.127769377842
0.142671951183
0.147441921232
0.178057794271
0.175169648133
0.16074593371
0.154303999076
0.155384127952
0.168240685315
0.170833964222
0.18438732331
0.195308188529
0.179391448633
0.191479638868
0.196303217298
0.199775514984
0.208291298202
0.218279125414
0.239838343058
0.254056992245
0.275150107771
0.255985372367
0.267864842096
0.29344207037
0.274470056045
0.293914634612
0.308488030365
0.336605701758
0.337901772392
0.365189707107
0.391885641499
0.411303187264
0.412927865261
0.436299792551
0.468935316434
0.500791247905
0.520115111441
0.556520372636
0.57645693332
0.678969922649
0.688182210318
0.766862535091
0.859444521787
0.768646474137
0.940469267789
0.885792069164
1.33041739065
1.08870140772
1.16086465437
1.26995428904
1.3681785037
1.29564439038
1.3548816684
1.29244015534
1.53773401688
1.95894954357
1.77780489252
1.72125341685
1.71306026694
1.10205791825
1.91651683083
1.90553773044
1.50348553584
1.60749563391
1.81303232065
1.47127821107
1.40762856101
1.3364820022
1.38619627356
1.50715757879
1.24640400078
0.969915359774
0.959272572984
2.31404421331
1.3963174795
1000000.0
0.0
0.0
0.0
0.0
0.0
0.0
0.0
0.0
0.0
0.0
0.0
0.0
0.0
0.0
0.0
0.0
0.0
0.0
0.0
0.0
0.0
0.0
0.0
0.0
0.0
0.0
0.0
0.0
0.0
0.0
0.0
0.0
0.0
0.0
0.0
0.0
0.0
0.0
0.0
0.0
0.0
0.0
0.0
0.0
0.0
0.0
0.0
0.0
0.0
0.0
0.0
0.0
0.0
0.0
0.0
0.0
0.0
0.0
0.0
0.0
0.0
0.0
0.0
0.0
0.0
0.0
0.0
0.0
0.0
0.0
0.0
0.0
0.0
0.0
0.0
0.0
0.0
0.0
0.0
0.0
0.0
0.0
0.0
0.0
0.0
0.0
0.0
0.0
0.0
0.0
0.0
0.0
0.0
0.0
0.0
0.0
0.0
0.0
0.0
0.0
0.0
0.0
0.0
0.0
0.0
0.0
0.0
0.0
0.0
0.0
0.0
0.0
0.0
0.0
0.0
0.0
0.0
0.0
0.0
0.0
0.0
0.0
0.0
0.0
0.0
0.0
0.0
0.0
0.0
0.0
0.0
0.0
0.0
0.0
0.0
0.0
0.0
0.0
0.0
0.0
0.0
0.0
0.0
0.0
0.0
0.0
0.0
0.0
0.0
0.0
0.0
0.0
0.0
0.0
0.0
0.0
0.0
0.0
0.0
0.0
0.0
0.0
0.0
0.0
0.0
0.0
0.0
0.0
0.0
0.0
0.0
0.0
0.0
0.0
0.0
0.0
0.0
0.0
0.0
0.0
0.0
0.0
0.0
0.0
0.0
0.0
0.0
0.0
0.0
0.0
0.0
0.0
0.0
0.0
0.0
0.0
0.0
0.0
0.0
0.0
0.0
0.0
0.0
0.0
0.0
0.0
0.0
0.0
0.0
0.0
0.0
0.0
0.0
0.0
0.0
0.0
0.0
0.0
0.0
0.0
0.0
0.0
0.0
0.0
0.0
0.0
0.0
0.0
0.0
0.0
0.0
0.0
0.0
0.0
0.0
0.0
0.0
0.0
0.0
0.0
0.0
0.0
0.0
0.0
0.0
0.0
0.0
0.0
0.0
0.0
0.0
0.0
0.0
0.0
0.0
0.0
0.0
0.0
0.0
0.0
0.0
0.0
0.0
0.0
0.0
0.0
0.0
0.0
0.0
0.0
0.0
0.0
0.0
0.0
0.0
0.0
0.0
0.0
0.0
0.0
0.0
0.0
0.0
0.0
0.0
0.0
0.0
0.0
0.0
0.0
0.0
0.0
0.0
0.0
0.0
0.0
0.0
0.0
0.0
0.0
0.0
0.0
0.0
0.0
0.0
0.0
0.0
0.0
0.0
0.0
0.0
0.0
0.0
0.0
0.0
0.0
0.0
0.0
0.0
0.0
0.0
0.0
0.0
0.0
0.0
0.0
0.0
0.0
0.0
0.0
0.0
logs/alpha_1.6/PGSD_600steps_2.log 1000237.8076 1000.2378076 0.119677351947 1000000.0 0.0 668
