Policy Parameters:	-1.1236821862 0.698168419585
Control Steps:		1000
Start Time:		1438443135.884114

-- TESTING STOPPED --

Stop Time:		1438443176.4299963
Duration:		40.54588222503662
Cost Matrix:
0.282235523398
0.41612613649
0.493458184175
0.542217741942
0.510267230622
0.473517796872
0.433078718723
0.51031252501
0.561430120826
0.51534460247
0.363654085733
0.282946176625
0.235444951568
0.171026328491
0.139364653061
0.129917306645
0.0573702891648
0.0521422572148
0.0730990654098
0.039707422209
0.0198062624836
0.0367226484404
0.0334187195355
0.0568443845963
0.0569375585506
0.0818275354947
0.0647291340028
0.037038612792
0.0352524009552
0.0546628783281
0.0665556549019
0.0588154095907
0.0596111832524
0.0410582208482
0.0430931242209
0.0872965237476
0.0802119529545
0.0505448302291
0.0439427895692
0.00559360964102
0.0567766779199
0.0486275510888
0.046296923758
0.0350453431559
0.0494567055179
0.0240897177361
0.0238722759561
0.0187059317704
0.0339428947813
0.0316257899206
0.0327666216508
0.0753744649055
0.0385646331422
0.0401592460303
0.0513619691859
0.0120346549514
0.0554416709981
0.0328316280956
0.0575067802379
0.075427770996
0.0184100707135
0.030402487021
0.0543218676934
0.041575933672
0.0217588751782
0.0478483800017
0.115427275252
0.13113357305
0.0814486126751
0.09400716574
0.0900964393348
0.130298981382
0.14269838737
0.124754852613
0.161887450394
0.209007421919
0.281551416756
0.412905881497
0.490892067325
0.505995528115
0.533151560212
0.560384402241
0.595007482049
0.628428996492
0.614705672278
0.667670621881
0.806052109627
0.699847001916
0.638006610348
0.636583829318
0.664014869091
0.459676734888
0.00582137222877
0.0376918959709
0.0283795979801
0.0592875328693
0.0494325190505
0.0319373213326
0.0376964934852
0.0117919307362
0.0305699911005
0.0513576622963
0.0658215143569
0.0565491210261
0.0793887990117
0.100380175521
0.116897370639
0.115300332449
0.103187719471
0.148631197891
0.162546613755
0.170752503748
0.168972078822
0.166968508201
0.178314139414
0.182100613787
0.185326436886
0.217107516304
0.210538591926
0.198657362498
0.217997184283
0.202789663783
0.221088717363
0.209782812721
0.216670981149
0.237428374553
0.188723727462
0.161200231884
0.134784503526
0.192241418997
0.130604302405
0.0215187118068
0.026819895467
0.0116571288937
0.0108882554157
0.0225111356491
0.0573753148424
0.0975671996297
0.100181960618
0.082184520733
0.0932180002646
0.131666297235
0.144221951551
0.12408572837
0.140725991327
0.153207967753
0.17602556399
0.197684948118
0.207463731477
0.239462900101
0.27797633494
0.320445671764
0.348262303081
0.378174091967
0.37507377529
0.355440815311
0.379810150739
0.394257696719
0.387241251005
0.391016878901
0.396938163004
0.401047225196
0.414317371986
0.423516226624
0.40601939005
0.474493070668
0.458973811072
0.215925290046
0.0954139470463
0.100244486303
0.135755553574
0.106877556559
0.0821336767903
0.0957302311363
0.100718223523
0.0880584330396
0.0624350357276
0.0488574730128
0.0187938706879
0.0502156959974
0.0173373992584
0.0171845561432
0.0528349409436
0.0698121212865
0.07904111348
0.112051374205
0.148156291703
0.176289159073
0.172993213335
0.173618688457
0.20708511033
0.210019747142
0.171381025729
0.17583588211
0.177274152633
0.157695142995
0.155656355678
0.152970988269
0.185026396032
0.191281192879
0.157540015715
0.135721595187
0.140879624201
0.16210331417
0.151218983896
0.124628732524
0.105331559568
0.0972097378069
0.0835017288008
0.0481095693344
0.0645918617331
0.0661116190368
0.0567091252538
0.0801915598919
0.101444643949
0.053906388983
0.0586540411326
0.0767715821985
0.0477509681793
0.0300041034282
0.0950154543523
0.126850724908
0.0964237574274
0.0967634480492
0.0671770356482
0.0148165443062
0.0440031769975
0.0756528698934
0.1042876686
0.0531230570434
0.0155612743584
0.04012846319
0.0655583131181
0.087852937258
0.0979432560133
0.0736367099333
0.038989391189
0.00990469967147
0.0338808402161
0.0513339851254
0.0402449497988
0.0394569359391
0.0413271223694
0.0471355151309
0.0515923966018
0.0649559548405
0.0653738363947
0.0587535809622
0.0642463034389
0.103331021116
0.148313247172
0.13975205138
0.152548176884
0.15778310699
0.182011488388
0.276475092966
0.357592871721
0.457555481416
0.5260444
0.574672430161
0.605639877569
0.703526979464
0.824424493523
0.712153330917
0.761213941897
0.676163614629
0.661391909877
0.75521829384
0.510341560136
0.371332982991
0.440057557263
0.479815798376
0.571033828181
1000000.0
0.0
0.0
0.0
0.0
0.0
0.0
0.0
0.0
0.0
0.0
0.0
0.0
0.0
0.0
0.0
0.0
0.0
0.0
0.0
0.0
0.0
0.0
0.0
0.0
0.0
0.0
0.0
0.0
0.0
0.0
0.0
0.0
0.0
0.0
0.0
0.0
0.0
0.0
0.0
0.0
0.0
0.0
0.0
0.0
0.0
0.0
0.0
0.0
0.0
0.0
0.0
0.0
0.0
0.0
0.0
0.0
0.0
0.0
0.0
0.0
0.0
0.0
0.0
0.0
0.0
0.0
0.0
0.0
0.0
0.0
0.0
0.0
0.0
0.0
0.0
0.0
0.0
0.0
0.0
0.0
0.0
0.0
0.0
0.0
0.0
0.0
0.0
0.0
0.0
0.0
0.0
0.0
0.0
0.0
0.0
0.0
0.0
0.0
0.0
0.0
0.0
0.0
0.0
0.0
0.0
0.0
0.0
0.0
0.0
0.0
0.0
0.0
0.0
0.0
0.0
0.0
0.0
0.0
0.0
0.0
0.0
0.0
0.0
0.0
0.0
0.0
0.0
0.0
0.0
0.0
0.0
0.0
0.0
0.0
0.0
0.0
0.0
0.0
0.0
0.0
0.0
0.0
0.0
0.0
0.0
0.0
0.0
0.0
0.0
0.0
0.0
0.0
0.0
0.0
0.0
0.0
0.0
0.0
0.0
0.0
0.0
0.0
0.0
0.0
0.0
0.0
0.0
0.0
0.0
0.0
0.0
0.0
0.0
0.0
0.0
0.0
0.0
0.0
0.0
0.0
0.0
0.0
0.0
0.0
0.0
0.0
0.0
0.0
0.0
0.0
0.0
0.0
0.0
0.0
0.0
0.0
0.0
0.0
0.0
0.0
0.0
0.0
0.0
0.0
0.0
0.0
0.0
0.0
0.0
0.0
0.0
0.0
0.0
0.0
0.0
0.0
0.0
0.0
0.0
0.0
0.0
0.0
0.0
0.0
0.0
0.0
0.0
0.0
0.0
0.0
0.0
0.0
0.0
0.0
0.0
0.0
0.0
0.0
0.0
0.0
0.0
0.0
0.0
0.0
0.0
0.0
0.0
0.0
0.0
0.0
0.0
0.0
0.0
0.0
0.0
0.0
0.0
0.0
0.0
0.0
0.0
0.0
0.0
0.0
0.0
0.0
0.0
0.0
0.0
0.0
0.0
0.0
0.0
0.0
0.0
0.0
0.0
0.0
0.0
0.0
0.0
0.0
0.0
0.0
0.0
0.0
0.0
0.0
0.0
0.0
0.0
0.0
0.0
0.0
0.0
0.0
0.0
0.0
0.0
0.0
0.0
0.0
0.0
0.0
0.0
0.0
0.0
0.0
0.0
0.0
0.0
0.0
0.0
0.0
0.0
0.0
0.0
0.0
0.0
0.0
0.0
0.0
0.0
0.0
0.0
0.0
0.0
0.0
0.0
0.0
0.0
0.0
0.0
0.0
0.0
0.0
0.0
0.0
0.0
0.0
0.0
0.0
0.0
0.0
0.0
0.0
0.0
0.0
0.0
0.0
0.0
0.0
0.0
0.0
0.0
0.0
0.0
0.0
0.0
0.0
0.0
0.0
0.0
0.0
0.0
0.0
0.0
0.0
0.0
0.0
0.0
0.0
0.0
0.0
0.0
0.0
0.0
0.0
0.0
0.0
0.0
0.0
0.0
0.0
0.0
0.0
0.0
0.0
0.0
0.0
0.0
0.0
0.0
0.0
0.0
0.0
0.0
0.0
0.0
0.0
0.0
0.0
0.0
0.0
0.0
0.0
0.0
0.0
0.0
0.0
0.0
0.0
0.0
0.0
0.0
0.0
0.0
0.0
0.0
0.0
0.0
0.0
0.0
0.0
0.0
0.0
0.0
0.0
0.0
0.0
0.0
0.0
0.0
0.0
0.0
0.0
0.0
0.0
0.0
0.0
0.0
0.0
0.0
0.0
0.0
0.0
0.0
0.0
0.0
0.0
0.0
0.0
0.0
0.0
0.0
0.0
0.0
0.0
0.0
0.0
0.0
0.0
0.0
0.0
0.0
0.0
0.0
0.0
0.0
0.0
0.0
0.0
0.0
0.0
0.0
0.0
0.0
0.0
0.0
0.0
0.0
0.0
0.0
0.0
0.0
0.0
0.0
0.0
0.0
0.0
0.0
0.0
0.0
0.0
0.0
0.0
0.0
0.0
0.0
0.0
0.0
0.0
0.0
0.0
0.0
0.0
0.0
0.0
0.0
0.0
0.0
0.0
0.0
0.0
0.0
0.0
0.0
0.0
0.0
0.0
0.0
0.0
0.0
0.0
0.0
0.0
0.0
0.0
0.0
0.0
0.0
0.0
0.0
0.0
0.0
0.0
0.0
0.0
0.0
0.0
0.0
0.0
0.0
0.0
0.0
0.0
0.0
0.0
0.0
0.0
0.0
0.0
0.0
0.0
0.0
0.0
0.0
0.0
0.0
0.0
0.0
0.0
0.0
0.0
0.0
0.0
0.0
0.0
0.0
0.0
0.0
0.0
0.0
0.0
0.0
0.0
0.0
0.0
0.0
0.0
0.0
0.0
0.0
0.0
0.0
0.0
0.0
0.0
0.0
0.0
0.0
0.0
0.0
0.0
0.0
0.0
0.0
0.0
0.0
0.0
0.0
0.0
0.0
0.0
0.0
0.0
0.0
0.0
0.0
0.0
0.0
0.0
0.0
0.0
0.0
0.0
0.0
0.0
0.0
0.0
0.0
0.0
0.0
0.0
0.0
0.0
0.0
0.0
0.0
0.0
0.0
0.0
0.0
0.0
0.0
0.0
0.0
0.0
0.0
0.0
0.0
0.0
0.0
0.0
0.0
0.0
0.0
0.0
0.0
0.0
0.0
0.0
0.0
0.0
0.0
0.0
0.0
0.0
0.0
0.0
0.0
0.0
0.0
0.0
0.0
0.0
0.0
0.0
0.0
0.0
0.0
0.0
0.0
0.0
0.0
0.0
0.0
0.0
0.0
0.0
0.0
0.0
0.0
0.0
0.0
0.0
0.0
0.0
0.0
0.0
0.0
0.0
0.0
0.0
0.0
0.0
0.0
0.0
0.0
0.0
0.0
0.0
0.0
0.0
0.0
0.0
0.0
0.0
0.0
0.0
0.0
0.0
0.0
0.0
0.0
0.0
0.0
0.0
0.0
0.0
0.0
0.0
0.0
0.0
0.0
0.0
logs/alpha_1.6/PGSD_200steps_2.log 1000051.29015 1000.05129015 0.0 1000000.0 0.0 273
