Policy Parameters:	-0.223937537921 0.927864573305
Control Steps:		1000
Start Time:		1438443659.564426

-- TESTING STOPPED --

Stop Time:		1438443689.3472161
Duration:		29.782790184020996
Cost Matrix:
0.222433742356
0.268335025646
0.315273336961
0.355102323316
0.371747993015
0.401606925181
0.539692966931
0.553904652838
0.648029070045
0.487538466045
0.419441940591
0.628986729457
0.116997424765
0.150486457427
0.0751563688052
0.105972436321
0.0923682776286
0.0666705482912
0.168293682281
0.191262383623
0.214767430256
0.150365382731
0.154829797306
0.168858027305
0.120490935533
0.125462209155
0.0612128202801
0.127506650713
0.0852001999318
0.0986922644937
0.134449299674
0.150038600686
0.150783020023
0.149582478294
0.146997678194
0.132891193049
0.108955353419
0.0946258713048
0.067826196158
0.0341096800639
0.0631454760115
0.0933098024239
0.0671932436961
0.10608166725
0.116062019364
0.0384508287983
0.0071995651412
0.0556261375747
0.00572428195953
0.0436266136239
0.0751272403212
0.00374404893568
0.0301243692225
0.0561726218016
0.0401590888247
0.0680510106161
0.0192484175161
0.0373028942539
0.0672853269537
0.0801998242023
0.0595568551043
0.0722033678102
0.0673744281132
0.0383572121517
0.0410081797422
0.0519798625943
0.0556272403265
0.0893283522337
0.0886445218414
0.0787367713097
0.11694022159
0.122539469459
0.134095306097
0.14800821903
0.149096154393
0.231012643521
0.254444427253
0.223294085391
0.242019920614
0.298339861232
0.333558199477
0.351173407188
0.361219231803
0.359192365076
0.40261208933
0.396735777844
0.40376215595
0.431805470406
0.472428003468
0.543120480486
0.542195985451
0.53031251003
0.502264410699
0.432266026297
0.352251669276
0.269731217024
0.210510659511
0.143650265863
0.104643767757
0.0883720701313
0.0627283176879
0.0280338802891
0.0263983705836
0.0423138831079
0.0643008155591
0.121737382741
0.117425837802
0.0407027263891
0.0327859042674
0.0633612058791
0.0568109791784
0.0191224487834
0.0840557278131
0.0971687025747
0.0919610916444
0.0732037569681
0.0322021899126
0.0752006342276
0.104771553184
0.0898216997225
0.0702198685238
0.0824538168671
0.0911808666842
0.115445617711
0.126791438307
0.160199659967
0.169759845036
0.168974963188
0.190398465245
0.177699271137
0.187827265652
0.183320605252
0.156077186603
0.167764946658
0.198944909622
0.19007303406
0.165911132446
0.198409146834
0.214426255576
0.192273442589
0.184274126326
0.172351665703
0.178335810315
0.20497736443
0.200011371763
0.141554010458
0.0921565287653
0.100190362274
0.0678202968343
0.0112070029864
0.03062618645
0.0719034959588
0.0737914568295
0.0468794650855
0.0513245253038
0.0489082216879
0.037177526393
0.0163886294646
0.00636079687786
0.0172493951397
0.0271395117835
0.017406094959
0.00478558445732
0.00696609524138
0.0284418084738
0.018458734018
0.029531118015
0.030189319868
0.047913245584
0.0573290185589
0.0729341817911
0.0665350147507
0.0874407051233
0.0239366486081
0.0191884702121
0.0174214770985
0.0228446959609
0.0538049004201
0.00514764484209
0.0558456403382
0.108324823309
0.098432995576
0.10517271637
0.122617306781
0.120866784812
0.110891775502
0.160296298635
0.221334649019
0.285745877913
0.365001181504
0.54699539262
0.717708946388
0.813144981533
0.895698145298
0.809320617663
0.800227546603
0.889821232962
0.862204499139
0.687933949779
0.880560382169
1.034944801
1.01202391717
1.11358707211
1000000.0
0.0
0.0
0.0
0.0
0.0
0.0
0.0
0.0
0.0
0.0
0.0
0.0
0.0
0.0
0.0
0.0
0.0
0.0
0.0
0.0
0.0
0.0
0.0
0.0
0.0
0.0
0.0
0.0
0.0
0.0
0.0
0.0
0.0
0.0
0.0
0.0
0.0
0.0
0.0
0.0
0.0
0.0
0.0
0.0
0.0
0.0
0.0
0.0
0.0
0.0
0.0
0.0
0.0
0.0
0.0
0.0
0.0
0.0
0.0
0.0
0.0
0.0
0.0
0.0
0.0
0.0
0.0
0.0
0.0
0.0
0.0
0.0
0.0
0.0
0.0
0.0
0.0
0.0
0.0
0.0
0.0
0.0
0.0
0.0
0.0
0.0
0.0
0.0
0.0
0.0
0.0
0.0
0.0
0.0
0.0
0.0
0.0
0.0
0.0
0.0
0.0
0.0
0.0
0.0
0.0
0.0
0.0
0.0
0.0
0.0
0.0
0.0
0.0
0.0
0.0
0.0
0.0
0.0
0.0
0.0
0.0
0.0
0.0
0.0
0.0
0.0
0.0
0.0
0.0
0.0
0.0
0.0
0.0
0.0
0.0
0.0
0.0
0.0
0.0
0.0
0.0
0.0
0.0
0.0
0.0
0.0
0.0
0.0
0.0
0.0
0.0
0.0
0.0
0.0
0.0
0.0
0.0
0.0
0.0
0.0
0.0
0.0
0.0
0.0
0.0
0.0
0.0
0.0
0.0
0.0
0.0
0.0
0.0
0.0
0.0
0.0
0.0
0.0
0.0
0.0
0.0
0.0
0.0
0.0
0.0
0.0
0.0
0.0
0.0
0.0
0.0
0.0
0.0
0.0
0.0
0.0
0.0
0.0
0.0
0.0
0.0
0.0
0.0
0.0
0.0
0.0
0.0
0.0
0.0
0.0
0.0
0.0
0.0
0.0
0.0
0.0
0.0
0.0
0.0
0.0
0.0
0.0
0.0
0.0
0.0
0.0
0.0
0.0
0.0
0.0
0.0
0.0
0.0
0.0
0.0
0.0
0.0
0.0
0.0
0.0
0.0
0.0
0.0
0.0
0.0
0.0
0.0
0.0
0.0
0.0
0.0
0.0
0.0
0.0
0.0
0.0
0.0
0.0
0.0
0.0
0.0
0.0
0.0
0.0
0.0
0.0
0.0
0.0
0.0
0.0
0.0
0.0
0.0
0.0
0.0
0.0
0.0
0.0
0.0
0.0
0.0
0.0
0.0
0.0
0.0
0.0
0.0
0.0
0.0
0.0
0.0
0.0
0.0
0.0
0.0
0.0
0.0
0.0
0.0
0.0
0.0
0.0
0.0
0.0
0.0
0.0
0.0
0.0
0.0
0.0
0.0
0.0
0.0
0.0
0.0
0.0
0.0
0.0
0.0
0.0
0.0
0.0
0.0
0.0
0.0
0.0
0.0
0.0
0.0
0.0
0.0
0.0
0.0
0.0
0.0
0.0
0.0
0.0
0.0
0.0
0.0
0.0
0.0
0.0
0.0
0.0
0.0
0.0
0.0
0.0
0.0
0.0
0.0
0.0
0.0
0.0
0.0
0.0
0.0
0.0
0.0
0.0
0.0
0.0
0.0
0.0
0.0
0.0
0.0
0.0
0.0
0.0
0.0
0.0
0.0
0.0
0.0
0.0
0.0
0.0
0.0
0.0
0.0
0.0
0.0
0.0
0.0
0.0
0.0
0.0
0.0
0.0
0.0
0.0
0.0
0.0
0.0
0.0
0.0
0.0
0.0
0.0
0.0
0.0
0.0
0.0
0.0
0.0
0.0
0.0
0.0
0.0
0.0
0.0
0.0
0.0
0.0
0.0
0.0
0.0
0.0
0.0
0.0
0.0
0.0
0.0
0.0
0.0
0.0
0.0
0.0
0.0
0.0
0.0
0.0
0.0
0.0
0.0
0.0
0.0
0.0
0.0
0.0
0.0
0.0
0.0
0.0
0.0
0.0
0.0
0.0
0.0
0.0
0.0
0.0
0.0
0.0
0.0
0.0
0.0
0.0
0.0
0.0
0.0
0.0
0.0
0.0
0.0
0.0
0.0
0.0
0.0
0.0
0.0
0.0
0.0
0.0
0.0
0.0
0.0
0.0
0.0
0.0
0.0
0.0
0.0
0.0
0.0
0.0
0.0
0.0
0.0
0.0
0.0
0.0
0.0
0.0
0.0
0.0
0.0
0.0
0.0
0.0
0.0
0.0
0.0
0.0
0.0
0.0
0.0
0.0
0.0
0.0
0.0
0.0
0.0
0.0
0.0
0.0
0.0
0.0
0.0
0.0
0.0
0.0
0.0
0.0
0.0
0.0
0.0
0.0
0.0
0.0
0.0
0.0
0.0
0.0
0.0
0.0
0.0
0.0
0.0
0.0
0.0
0.0
0.0
0.0
0.0
0.0
0.0
0.0
0.0
0.0
0.0
0.0
0.0
0.0
0.0
0.0
0.0
0.0
0.0
0.0
0.0
0.0
0.0
0.0
0.0
0.0
0.0
0.0
0.0
0.0
0.0
0.0
0.0
0.0
0.0
0.0
0.0
0.0
0.0
0.0
0.0
0.0
0.0
0.0
0.0
0.0
0.0
0.0
0.0
0.0
0.0
0.0
0.0
0.0
0.0
0.0
0.0
0.0
0.0
0.0
0.0
0.0
0.0
0.0
0.0
0.0
0.0
0.0
0.0
0.0
0.0
0.0
0.0
0.0
0.0
0.0
0.0
0.0
0.0
0.0
0.0
0.0
0.0
0.0
0.0
0.0
0.0
0.0
0.0
0.0
0.0
0.0
0.0
0.0
0.0
0.0
0.0
0.0
0.0
0.0
0.0
0.0
0.0
0.0
0.0
0.0
0.0
0.0
0.0
0.0
0.0
0.0
0.0
0.0
0.0
0.0
0.0
0.0
0.0
0.0
0.0
0.0
0.0
0.0
0.0
0.0
0.0
0.0
0.0
0.0
0.0
0.0
0.0
0.0
0.0
0.0
0.0
0.0
0.0
0.0
0.0
0.0
0.0
0.0
0.0
0.0
0.0
0.0
0.0
0.0
0.0
0.0
0.0
0.0
0.0
0.0
0.0
0.0
0.0
0.0
0.0
0.0
0.0
0.0
0.0
0.0
0.0
0.0
0.0
0.0
0.0
0.0
0.0
0.0
0.0
0.0
0.0
0.0
0.0
0.0
0.0
0.0
0.0
0.0
0.0
0.0
0.0
0.0
0.0
0.0
0.0
0.0
0.0
0.0
0.0
0.0
0.0
0.0
0.0
0.0
0.0
0.0
0.0
0.0
0.0
0.0
0.0
0.0
0.0
0.0
0.0
0.0
0.0
0.0
0.0
0.0
0.0
0.0
0.0
0.0
0.0
0.0
0.0
0.0
0.0
0.0
0.0
0.0
0.0
0.0
0.0
0.0
0.0
0.0
0.0
0.0
0.0
0.0
0.0
0.0
0.0
0.0
0.0
0.0
0.0
0.0
0.0
0.0
0.0
0.0
0.0
0.0
0.0
logs/alpha_1.6/PGSD_200steps_4.log 1000039.26706 1000.03926706 0.0 1000000.0 0.0 203
