Policy Parameters:	-0.42894741315 0.400935229472
Control Steps:		1000
Start Time:		1438109363.289461

-- TESTING STOPPED --

Stop Time:		1438109409.8212383
Duration:		46.53177738189697
Cost Matrix:
0.120860689435
0.161916583421
0.199215660326
0.189620987869
0.217724025768
0.195472195541
0.200191730779
0.193338241265
0.211919783603
0.222361107275
0.218654569901
0.219550658963
0.253536716254
0.256369215953
0.260808878595
0.239324464045
0.260822935792
0.221097584474
0.208813505195
0.194833385383
0.193391531193
0.156120368348
0.14276053369
0.145341378886
0.0916029603342
0.153014193172
0.092772467442
0.0283309610124
0.00247293464585
0.0441054666796
0.0517878573167
0.0403436094037
0.0154391645637
0.0437510820624
0.0477700166408
0.033469436539
0.0129111596583
0.0317223077658
0.0451220390828
0.0256920339262
0.0415315744813
0.0977445499851
0.0857362396735
0.0928949199554
0.143239370303
0.0953567496035
0.0855787881517
0.130921046158
0.128741096333
0.119922088957
0.103639476216
0.16294060025
0.16615721605
0.149603152282
0.12797652933
0.15289552803
0.173250091632
0.168239830692
0.143495319867
0.118850196656
0.166011779587
0.131427031489
0.135906220862
0.174421959878
0.134706562095
0.122584130477
0.155229101693
0.135209463985
0.169689277244
0.141981847924
0.115005195255
0.133127006179
0.100968966236
0.102945378589
0.0988048235621
0.0840829059667
0.096594020639
0.0494767276875
0.0176643846517
0.0272293807117
0.0264184676978
0.0231048550389
0.0868592293207
0.11389235249
0.115815153099
0.120228427354
0.135856098442
0.128683194843
0.137273876997
0.146358474816
0.150416257543
0.123207516389
0.143799075628
0.150496973685
0.136069389392
0.162742156183
0.150218755962
0.154279135478
0.14579531195
0.142506058698
0.124791534532
0.127517700366
0.0930253337634
0.111592832841
0.13646798073
0.120284800741
0.0983789488493
0.0690779328863
0.0475976985935
0.0609158641768
0.0388335175577
0.0553614502908
0.0418267180847
0.0655003606153
0.0262601123861
0.00973231428857
0.00722341467999
0.0399013602888
0.0194229365865
0.0253964061867
0.0278934081246
0.0720935801856
0.0395194862274
0.013469993299
0.0331641774277
0.0240047021474
0.0144148546021
0.0211305371133
0.00940932508871
0.0382788934777
0.0338123477686
0.0166021232969
0.00485661166013
0.047580425399
0.0269341079287
0.0133677948406
0.0330072432445
0.030543569102
0.0137737042803
0.0601369959341
0.0249274305394
0.0388626440195
0.0605823756179
0.0319517295405
0.0623229704479
0.043362069413
0.0591259013495
0.0316543810615
0.0315517520321
0.0739003610864
0.0764820377462
0.0708790663269
0.0681223086254
0.0577385002702
0.0232079011155
0.034513784857
0.0719310257965
0.0842762849818
0.103369848329
0.111968918955
0.12581517486
0.126382894139
0.158299404989
0.200116030059
0.252835817413
0.253424694826
0.268572631606
0.288121339718
0.325846549722
0.319796774334
0.347549987621
0.383771022594
0.37291578294
0.481703334892
0.554500924676
0.63568843863
0.536129289864
0.5289366738
0.76012275221
0.905818434109
1.00903465964
0.587980752393
0.191511033625
0.051616368431
0.0373564261128
0.0625840471297
0.0495389937553
0.0343193620301
0.0152105231482
0.0917124856232
0.131587925881
0.101328067284
0.0829602679512
0.135434352788
0.128911919355
0.0584702508345
0.0532530836536
0.0748501612381
0.138338200182
0.135406496982
0.108321123236
0.124417208646
0.121442530144
0.124856103169
0.0629550064389
0.0639046704285
0.0373145943643
0.058033282104
0.0617121826306
0.0255654040913
0.0445472806607
0.0441877560942
0.0633022007279
0.0281521437228
0.0364728732212
0.0244828454644
0.0107120828474
0.0195714174153
0.0108952308166
0.00616174268507
0.00635469528234
0.0377194746658
0.0524342466474
0.0269531952488
0.0243176320118
0.0149419283083
0.0208801246453
0.0271116439551
0.024829236825
0.0351975632036
0.0233413260515
0.0160297584191
0.0424530204522
0.0256410039927
0.0364696798827
0.012933102513
0.00413497738692
0.0520122713708
0.0390088632007
0.0161622869874
0.0459255090971
0.0258554448353
0.0229249115962
0.0150204173587
0.00820320522232
0.0412643693542
0.0208066675575
0.0213950051853
0.0141651929643
0.032180261082
0.0329518386564
0.042007338335
0.0165405192189
0.0178982075805
0.0426232565571
0.0224931625088
0.0393112361513
0.0774677704937
0.0335604950694
0.0131999516442
0.0126298083816
0.0156310636097
0.122658636955
0.0656327491236
0.0171187058399
0.0519012484795
0.0314485789128
0.0138970209949
0.0325963092392
0.0157017131016
0.0251595465294
0.0319087633147
0.0141588611164
0.0237394085622
0.01487591892
0.0085912098159
0.0266563854025
0.0376920729715
0.0356868130083
0.0472735753206
0.020627531146
0.00295240093212
0.0152588148151
0.0149160210913
0.0251473626345
0.0462634202809
0.0240219238607
0.00997573923263
0.0110437565177
0.0302453880569
0.0157016371466
0.0270589823401
0.0370288797586
0.0257895147388
0.034155178436
0.0171517990412
0.0302366318515
0.0288394815206
0.0511112202379
0.0678485203684
0.041261940607
0.0336915005596
0.0285960537308
0.0696917903014
0.0469639644335
0.0546562515054
0.0255453926149
0.0178306289409
0.0999131220001
0.125487583211
0.126610018427
0.0560210490106
0.0807148556327
0.104496753488
0.0829656718686
0.0895491178107
0.147382691791
0.170899622789
0.190608437092
0.203685932888
0.295971608275
0.343638189399
0.42516199116
0.473368278494
0.496500679098
0.546770013196
0.605930436434
0.679639985407
0.714031265459
0.751982342458
0.51082623699
0.484191670445
0.587360383271
0.228065934777
0.0341267720097
0.0567700134355
0.0447698898162
0.0625416560094
0.028214407103
1000000.0
0.0
0.0
0.0
0.0
0.0
0.0
0.0
0.0
0.0
0.0
0.0
0.0
0.0
0.0
0.0
0.0
0.0
0.0
0.0
0.0
0.0
0.0
0.0
0.0
0.0
0.0
0.0
0.0
0.0
0.0
0.0
0.0
0.0
0.0
0.0
0.0
0.0
0.0
0.0
0.0
0.0
0.0
0.0
0.0
0.0
0.0
0.0
0.0
0.0
0.0
0.0
0.0
0.0
0.0
0.0
0.0
0.0
0.0
0.0
0.0
0.0
0.0
0.0
0.0
0.0
0.0
0.0
0.0
0.0
0.0
0.0
0.0
0.0
0.0
0.0
0.0
0.0
0.0
0.0
0.0
0.0
0.0
0.0
0.0
0.0
0.0
0.0
0.0
0.0
0.0
0.0
0.0
0.0
0.0
0.0
0.0
0.0
0.0
0.0
0.0
0.0
0.0
0.0
0.0
0.0
0.0
0.0
0.0
0.0
0.0
0.0
0.0
0.0
0.0
0.0
0.0
0.0
0.0
0.0
0.0
0.0
0.0
0.0
0.0
0.0
0.0
0.0
0.0
0.0
0.0
0.0
0.0
0.0
0.0
0.0
0.0
0.0
0.0
0.0
0.0
0.0
0.0
0.0
0.0
0.0
0.0
0.0
0.0
0.0
0.0
0.0
0.0
0.0
0.0
0.0
0.0
0.0
0.0
0.0
0.0
0.0
0.0
0.0
0.0
0.0
0.0
0.0
0.0
0.0
0.0
0.0
0.0
0.0
0.0
0.0
0.0
0.0
0.0
0.0
0.0
0.0
0.0
0.0
0.0
0.0
0.0
0.0
0.0
0.0
0.0
0.0
0.0
0.0
0.0
0.0
0.0
0.0
0.0
0.0
0.0
0.0
0.0
0.0
0.0
0.0
0.0
0.0
0.0
0.0
0.0
0.0
0.0
0.0
0.0
0.0
0.0
0.0
0.0
0.0
0.0
0.0
0.0
0.0
0.0
0.0
0.0
0.0
0.0
0.0
0.0
0.0
0.0
0.0
0.0
0.0
0.0
0.0
0.0
0.0
0.0
0.0
0.0
0.0
0.0
0.0
0.0
0.0
0.0
0.0
0.0
0.0
0.0
0.0
0.0
0.0
0.0
0.0
0.0
0.0
0.0
0.0
0.0
0.0
0.0
0.0
0.0
0.0
0.0
0.0
0.0
0.0
0.0
0.0
0.0
0.0
0.0
0.0
0.0
0.0
0.0
0.0
0.0
0.0
0.0
0.0
0.0
0.0
0.0
0.0
0.0
0.0
0.0
0.0
0.0
0.0
0.0
0.0
0.0
0.0
0.0
0.0
0.0
0.0
0.0
0.0
0.0
0.0
0.0
0.0
0.0
0.0
0.0
0.0
0.0
0.0
0.0
0.0
0.0
0.0
0.0
0.0
0.0
0.0
0.0
0.0
0.0
0.0
0.0
0.0
0.0
0.0
0.0
0.0
0.0
0.0
0.0
0.0
0.0
0.0
0.0
0.0
0.0
0.0
0.0
0.0
0.0
0.0
0.0
0.0
0.0
0.0
0.0
0.0
0.0
0.0
0.0
0.0
0.0
0.0
0.0
0.0
0.0
0.0
0.0
0.0
0.0
0.0
0.0
0.0
0.0
0.0
0.0
0.0
0.0
0.0
0.0
0.0
0.0
0.0
0.0
0.0
0.0
0.0
0.0
0.0
0.0
0.0
0.0
0.0
0.0
0.0
0.0
0.0
0.0
0.0
0.0
0.0
0.0
0.0
0.0
0.0
0.0
0.0
0.0
0.0
0.0
0.0
0.0
0.0
0.0
0.0
0.0
0.0
0.0
0.0
0.0
0.0
0.0
0.0
0.0
0.0
0.0
0.0
0.0
0.0
0.0
0.0
0.0
0.0
0.0
0.0
0.0
0.0
0.0
0.0
0.0
0.0
0.0
0.0
0.0
0.0
0.0
0.0
0.0
0.0
0.0
0.0
0.0
0.0
0.0
0.0
0.0
0.0
0.0
0.0
0.0
0.0
0.0
0.0
0.0
0.0
0.0
0.0
0.0
0.0
0.0
0.0
0.0
0.0
0.0
0.0
0.0
0.0
0.0
0.0
0.0
0.0
0.0
0.0
0.0
0.0
0.0
0.0
0.0
0.0
0.0
0.0
0.0
0.0
0.0
0.0
0.0
0.0
0.0
0.0
0.0
0.0
0.0
0.0
0.0
0.0
0.0
0.0
0.0
0.0
0.0
0.0
0.0
0.0
0.0
0.0
0.0
0.0
0.0
0.0
0.0
0.0
0.0
0.0
0.0
0.0
0.0
0.0
0.0
0.0
0.0
0.0
0.0
0.0
0.0
0.0
0.0
0.0
0.0
0.0
0.0
0.0
0.0
0.0
0.0
0.0
0.0
0.0
0.0
0.0
0.0
0.0
0.0
0.0
0.0
0.0
0.0
0.0
0.0
0.0
0.0
0.0
0.0
0.0
0.0
0.0
0.0
0.0
0.0
0.0
0.0
0.0
0.0
0.0
0.0
0.0
0.0
0.0
0.0
0.0
0.0
0.0
0.0
0.0
0.0
0.0
0.0
0.0
0.0
0.0
0.0
0.0
0.0
0.0
0.0
0.0
0.0
0.0
0.0
0.0
0.0
0.0
0.0
0.0
0.0
0.0
0.0
0.0
0.0
0.0
0.0
0.0
0.0
0.0
0.0
0.0
0.0
0.0
0.0
0.0
0.0
0.0
0.0
0.0
0.0
0.0
0.0
0.0
0.0
0.0
0.0
0.0
0.0
0.0
0.0
0.0
0.0
0.0
0.0
0.0
0.0
0.0
0.0
0.0
0.0
0.0
0.0
0.0
0.0
0.0
0.0
0.0
0.0
0.0
0.0
0.0
0.0
0.0
0.0
0.0
0.0
0.0
0.0
0.0
0.0
logs/alpha_0.1/PGSD_300steps_3.log 1000039.52024 1000.03952024 0.0 1000000.0 0.0 339
