Policy Parameters:	-0.356249846188 0.397836223574
Control Steps:		1000
Start Time:		1438108777.7617748

-- TESTING STOPPED --

Stop Time:		1438108815.4871845
Duration:		37.725409746170044
Cost Matrix:
0.0499299300881
0.115269627396
0.108908185523
0.120619036725
0.0991397055742
0.0659654929585
0.133294570823
0.0776665615257
0.0436625756207
0.0614471063179
0.0759864780358
0.0435438524182
0.0293547152024
0.0235974839639
0.0163762880975
0.0073722538837
0.00695315424487
0.0480048458614
0.0420758310304
0.153951443547
0.173760524725
0.16485929938
0.185798482455
0.148049559277
0.180599445209
0.191369837564
0.189913873423
0.121069803153
0.210857682648
0.218704682594
0.170204976282
0.265875808505
0.267104508245
0.282903981095
0.281576148544
0.302225102873
0.300577323105
0.291010716985
0.293127222894
0.285140315304
0.283287244524
0.288812086547
0.277657932441
0.304135182275
0.253503409442
0.271612696703
0.240159554836
0.188811774391
0.133797073835
0.160575291941
0.0746887047457
0.0767286755719
0.0279970737384
0.0468485101527
0.037606331656
0.0566487360892
0.0263441088585
0.0177795339633
0.0229630001716
0.0463094301744
0.0261473327946
0.0726210557453
0.0959065218801
0.0902724433825
0.0983956151691
0.0638528080085
0.0247399940423
0.0306658592551
0.0962298966163
0.143554378605
0.107088533756
0.124246247073
0.116574990289
0.152217134942
0.177931070893
0.207392837817
0.203117695543
0.236276295178
0.255912476686
0.295493535296
0.30108632615
0.368548370165
0.416389416763
0.489271004456
0.515917332019
0.556369929013
0.5763151374
0.540374818371
0.446036028668
0.569237035639
0.622757508769
0.530524304392
0.597304428291
0.599177293837
0.461942128176
0.499870846936
0.607043753771
0.719650265723
0.725270328082
0.499191015334
0.400843320541
0.292545198205
0.102892521159
0.0765200039599
0.102005640193
0.134334307197
0.0887265966993
0.130151208656
0.134626771396
0.142887980147
0.130349958401
0.125574687311
0.102131635848
0.0941621097012
0.110729088261
0.108129763766
0.117374102921
0.0752410828458
0.082350823643
0.0953205664722
0.0977955075488
0.0781574496446
0.0752173161401
0.0624372741068
0.0691001476656
0.0507904639037
0.0173862569486
0.0148383496229
0.0117008046086
0.0526003038305
0.0548145024257
0.0408209647452
0.0227899022872
0.0746207387463
0.0751032619814
0.0762689786262
0.0979210149422
0.0817205298639
0.0565075289923
0.0671791340732
0.077345057459
0.0891458053769
0.176725584961
0.195669404389
0.229999026128
0.249592504831
0.204601834304
0.228596708113
0.267531383131
0.306067051477
0.340821839152
0.369858595895
0.39461135667
0.428754099866
0.473708107887
0.483394025632
0.489215213386
0.467056071153
0.497733377055
0.507886834851
0.515506074251
0.523297887617
0.460394516331
0.519454353166
0.503595765538
0.481903537482
0.493648102699
0.393226318803
0.457472764409
0.350751927711
0.279411435316
0.125647233318
0.0367937956337
0.0156374361088
0.0454514857763
0.0344483372461
0.0134596148339
0.0578195036287
0.0571867781078
0.0677126689563
0.0736450780535
0.0806881517284
0.0482474999675
0.0419517248775
0.0572605179697
0.0616885499591
0.0503410965952
0.0216794401587
0.00647949001619
0.0310979810306
0.0233924078541
0.0222625779907
0.0195518508435
0.0234643580598
0.0227882094526
0.0118502219247
0.00175287891182
0.004474284377
0.0268178473305
0.0662222136847
0.0253474918688
0.0122163933004
0.0444205935364
0.0172540856315
0.00464015984578
0.0276090297408
0.0149634584117
0.0435065482993
0.0185671856925
0.0658063138244
0.0226250736327
0.01219757519
0.0627404949952
0.0247056970311
0.0283509119431
0.0373021008919
0.0162135481789
0.0293092119656
0.0187999051468
0.00976903144872
0.0399907205889
0.0171475846781
0.001283721029
0.042358391438
0.0214978384201
0.0301310339192
0.0578791977408
0.0552917912982
0.0368677057466
0.0244538118562
0.0491978024046
0.0165890587355
0.00182727933459
0.042511281412
0.0313452112966
0.0168373627448
0.0186104980039
0.0107261768508
0.00535786222147
0.0639750261521
0.0669393314025
0.0964840460994
0.115678367036
0.126887038218
0.18295856549
0.25723281414
0.281936918149
0.338362914169
0.360039867342
0.387111039526
0.408627118534
0.435325623284
0.47660616301
0.525385557076
0.583018213212
0.657908285902
0.743311831654
0.652950029435
0.904198629396
1.04454556583
0.961811162075
0.4485705847
0.475973405303
0.519673341113
0.50901527162
0.459710855934
0.380599981804
0.393199927696
1000000.0
0.0
0.0
0.0
0.0
0.0
0.0
0.0
0.0
0.0
0.0
0.0
0.0
0.0
0.0
0.0
0.0
0.0
0.0
0.0
0.0
0.0
0.0
0.0
0.0
0.0
0.0
0.0
0.0
0.0
0.0
0.0
0.0
0.0
0.0
0.0
0.0
0.0
0.0
0.0
0.0
0.0
0.0
0.0
0.0
0.0
0.0
0.0
0.0
0.0
0.0
0.0
0.0
0.0
0.0
0.0
0.0
0.0
0.0
0.0
0.0
0.0
0.0
0.0
0.0
0.0
0.0
0.0
0.0
0.0
0.0
0.0
0.0
0.0
0.0
0.0
0.0
0.0
0.0
0.0
0.0
0.0
0.0
0.0
0.0
0.0
0.0
0.0
0.0
0.0
0.0
0.0
0.0
0.0
0.0
0.0
0.0
0.0
0.0
0.0
0.0
0.0
0.0
0.0
0.0
0.0
0.0
0.0
0.0
0.0
0.0
0.0
0.0
0.0
0.0
0.0
0.0
0.0
0.0
0.0
0.0
0.0
0.0
0.0
0.0
0.0
0.0
0.0
0.0
0.0
0.0
0.0
0.0
0.0
0.0
0.0
0.0
0.0
0.0
0.0
0.0
0.0
0.0
0.0
0.0
0.0
0.0
0.0
0.0
0.0
0.0
0.0
0.0
0.0
0.0
0.0
0.0
0.0
0.0
0.0
0.0
0.0
0.0
0.0
0.0
0.0
0.0
0.0
0.0
0.0
0.0
0.0
0.0
0.0
0.0
0.0
0.0
0.0
0.0
0.0
0.0
0.0
0.0
0.0
0.0
0.0
0.0
0.0
0.0
0.0
0.0
0.0
0.0
0.0
0.0
0.0
0.0
0.0
0.0
0.0
0.0
0.0
0.0
0.0
0.0
0.0
0.0
0.0
0.0
0.0
0.0
0.0
0.0
0.0
0.0
0.0
0.0
0.0
0.0
0.0
0.0
0.0
0.0
0.0
0.0
0.0
0.0
0.0
0.0
0.0
0.0
0.0
0.0
0.0
0.0
0.0
0.0
0.0
0.0
0.0
0.0
0.0
0.0
0.0
0.0
0.0
0.0
0.0
0.0
0.0
0.0
0.0
0.0
0.0
0.0
0.0
0.0
0.0
0.0
0.0
0.0
0.0
0.0
0.0
0.0
0.0
0.0
0.0
0.0
0.0
0.0
0.0
0.0
0.0
0.0
0.0
0.0
0.0
0.0
0.0
0.0
0.0
0.0
0.0
0.0
0.0
0.0
0.0
0.0
0.0
0.0
0.0
0.0
0.0
0.0
0.0
0.0
0.0
0.0
0.0
0.0
0.0
0.0
0.0
0.0
0.0
0.0
0.0
0.0
0.0
0.0
0.0
0.0
0.0
0.0
0.0
0.0
0.0
0.0
0.0
0.0
0.0
0.0
0.0
0.0
0.0
0.0
0.0
0.0
0.0
0.0
0.0
0.0
0.0
0.0
0.0
0.0
0.0
0.0
0.0
0.0
0.0
0.0
0.0
0.0
0.0
0.0
0.0
0.0
0.0
0.0
0.0
0.0
0.0
0.0
0.0
0.0
0.0
0.0
0.0
0.0
0.0
0.0
0.0
0.0
0.0
0.0
0.0
0.0
0.0
0.0
0.0
0.0
0.0
0.0
0.0
0.0
0.0
0.0
0.0
0.0
0.0
0.0
0.0
0.0
0.0
0.0
0.0
0.0
0.0
0.0
0.0
0.0
0.0
0.0
0.0
0.0
0.0
0.0
0.0
0.0
0.0
0.0
0.0
0.0
0.0
0.0
0.0
0.0
0.0
0.0
0.0
0.0
0.0
0.0
0.0
0.0
0.0
0.0
0.0
0.0
0.0
0.0
0.0
0.0
0.0
0.0
0.0
0.0
0.0
0.0
0.0
0.0
0.0
0.0
0.0
0.0
0.0
0.0
0.0
0.0
0.0
0.0
0.0
0.0
0.0
0.0
0.0
0.0
0.0
0.0
0.0
0.0
0.0
0.0
0.0
0.0
0.0
0.0
0.0
0.0
0.0
0.0
0.0
0.0
0.0
0.0
0.0
0.0
0.0
0.0
0.0
0.0
0.0
0.0
0.0
0.0
0.0
0.0
0.0
0.0
0.0
0.0
0.0
0.0
0.0
0.0
0.0
0.0
0.0
0.0
0.0
0.0
0.0
0.0
0.0
0.0
0.0
0.0
0.0
0.0
0.0
0.0
0.0
0.0
0.0
0.0
0.0
0.0
0.0
0.0
0.0
0.0
0.0
0.0
0.0
0.0
0.0
0.0
0.0
0.0
0.0
0.0
0.0
0.0
0.0
0.0
0.0
0.0
0.0
0.0
0.0
0.0
0.0
0.0
0.0
0.0
0.0
0.0
0.0
0.0
0.0
0.0
0.0
0.0
0.0
0.0
0.0
0.0
0.0
0.0
0.0
0.0
0.0
0.0
0.0
0.0
0.0
0.0
0.0
0.0
0.0
0.0
0.0
0.0
0.0
0.0
0.0
0.0
0.0
0.0
0.0
0.0
0.0
0.0
0.0
0.0
0.0
0.0
0.0
0.0
0.0
0.0
0.0
0.0
0.0
0.0
0.0
0.0
0.0
0.0
0.0
0.0
0.0
0.0
0.0
0.0
0.0
0.0
0.0
0.0
0.0
0.0
0.0
0.0
0.0
0.0
0.0
0.0
0.0
0.0
0.0
0.0
0.0
0.0
0.0
0.0
0.0
0.0
0.0
0.0
0.0
0.0
0.0
0.0
0.0
0.0
0.0
0.0
0.0
0.0
0.0
0.0
0.0
0.0
0.0
0.0
0.0
0.0
0.0
0.0
0.0
0.0
0.0
0.0
0.0
0.0
0.0
0.0
0.0
0.0
0.0
0.0
0.0
0.0
0.0
0.0
0.0
0.0
0.0
0.0
0.0
0.0
0.0
0.0
0.0
0.0
0.0
0.0
0.0
0.0
0.0
0.0
0.0
0.0
0.0
0.0
0.0
0.0
0.0
0.0
0.0
0.0
0.0
0.0
0.0
0.0
0.0
0.0
0.0
0.0
0.0
0.0
0.0
0.0
0.0
0.0
0.0
0.0
0.0
0.0
0.0
0.0
0.0
0.0
0.0
0.0
0.0
0.0
0.0
0.0
0.0
0.0
0.0
0.0
0.0
0.0
0.0
0.0
0.0
0.0
0.0
0.0
0.0
0.0
0.0
0.0
0.0
0.0
0.0
0.0
0.0
logs/alpha_0.1/PGSD_300steps_0.log 1000052.29077 1000.05229077 0.0 1000000.0 0.0 268
