Policy Parameters:	0.00449574639312 0.131318035479
Control Steps:		1000
Start Time:		1438108457.2623816

-- TESTING STOPPED --

Stop Time:		1438108485.3814085
Duration:		28.11902689933777
Cost Matrix:
0.0137503254716
0.0347915283656
0.000673480934697
0.0218267371687
0.0256108231438
0.0157634971396
0.0111440053618
0.0209343717817
0.0556669119991
0.0138049990943
0.0396012432041
0.0450336310056
0.0507771457471
0.0239781184901
0.0406777747022
0.0122155044467
0.0219026297759
0.0083878152616
0.0332027207778
0.038525646
0.0143714121952
0.0220121948477
0.0101112363565
0.0449554900853
0.0673268083253
0.0452091773183
0.0711352713204
0.0957053703999
0.0389983581022
0.0263990107654
0.0813822962312
0.093246539893
0.0690710507289
0.0994422772954
0.106883222566
0.092013522737
0.0636071606525
0.108296601576
0.146429616938
0.114066948659
0.114259850667
0.160172756607
0.079174348856
0.161981829655
0.239527521031
0.409593463574
0.368716016701
0.37437229276
0.414888881754
0.447971457699
0.457959241031
0.483434614823
0.517581483892
0.571631997932
0.536275193511
0.493513610552
0.56386805707
0.701909549527
0.687662489924
0.558336436565
0.59936890219
0.74379044444
0.820098797263
0.747405033412
0.812323522826
0.788884415308
0.701576041113
0.683486742354
0.727160332875
0.494119274025
0.465834996034
0.275991229908
0.10417201661
0.0605946759178
0.0221409224885
0.0181057333963
0.0163072562372
0.0460429485145
0.0133491537212
0.00152782040217
0.0133610625168
0.028539333389
0.0461251736075
0.0165239820814
0.0285578562217
0.057126150611
0.0840037695341
0.0304260580261
0.0794903503207
0.0603975914145
0.0504887601691
0.0364552773536
0.0311923172524
0.0323179400247
0.0633738001698
0.0660967602633
0.080643810037
0.127988301579
0.0768231586634
0.0972453218888
0.146028607519
0.182969940043
0.209322325983
0.196261039787
0.215446737757
0.229680576849
0.223192271011
0.249929058237
0.263327688219
0.237530593701
0.265797244512
0.230984811831
0.304085659931
0.306501117305
0.345772624218
0.35212272706
0.37032152814
0.36372472753
0.357216844414
0.387875264144
0.423516040432
0.433117896275
0.44088400144
0.435523551045
0.578860532836
0.58392420022
0.550187644929
0.258044225124
0.229858189442
0.191831878297
0.166972894828
0.00145489480001
0.0569047256066
0.00637249063812
0.00199281637531
0.0125740784587
0.0744962886556
0.0266133975154
0.0456765202494
0.00433597539978
0.0296163911389
0.0358476833127
0.0303975333766
0.0173627700925
0.0110514688314
0.00737383191929
0.0349565071241
0.00831924585555
0.0469441025675
0.0253552712823
0.00715324439851
0.0192338902809
0.0164601111463
0.00567702756143
0.0119010355121
0.0196227166079
0.0161197538946
0.0298521086193
0.00799737637004
0.0122669266081
0.00938933926529
0.00787380743624
0.00564274849932
0.0562164612909
0.11070916321
0.0612576972547
0.0464227161356
0.0293462670625
0.0202960303617
0.0487502388717
0.0101991425502
0.0207790646168
0.00759677925373
0.0368758729676
0.0238400960481
0.0309406970865
0.0286416952814
0.0529562936226
0.0537928597458
0.0698234772441
0.063050654611
0.0808661055663
0.0718554351671
0.094386911226
0.144760606119
0.167268012916
0.204058752999
0.311145109668
0.351543309899
0.282494660251
0.357212130258
0.365803335426
0.482519202776
0.514670038708
0.530318875679
0.484406668899
0.460076954319
0.582190207932
0.688820944606
0.590972300552
0.836357432665
0.710167591889
0.759917779676
0.969707144104
0.828538981666
0.922700731105
0.853402135925
0.700171918862
0.769278340457
0.709129406681
1000000.0
0.0
0.0
0.0
0.0
0.0
0.0
0.0
0.0
0.0
0.0
0.0
0.0
0.0
0.0
0.0
0.0
0.0
0.0
0.0
0.0
0.0
0.0
0.0
0.0
0.0
0.0
0.0
0.0
0.0
0.0
0.0
0.0
0.0
0.0
0.0
0.0
0.0
0.0
0.0
0.0
0.0
0.0
0.0
0.0
0.0
0.0
0.0
0.0
0.0
0.0
0.0
0.0
0.0
0.0
0.0
0.0
0.0
0.0
0.0
0.0
0.0
0.0
0.0
0.0
0.0
0.0
0.0
0.0
0.0
0.0
0.0
0.0
0.0
0.0
0.0
0.0
0.0
0.0
0.0
0.0
0.0
0.0
0.0
0.0
0.0
0.0
0.0
0.0
0.0
0.0
0.0
0.0
0.0
0.0
0.0
0.0
0.0
0.0
0.0
0.0
0.0
0.0
0.0
0.0
0.0
0.0
0.0
0.0
0.0
0.0
0.0
0.0
0.0
0.0
0.0
0.0
0.0
0.0
0.0
0.0
0.0
0.0
0.0
0.0
0.0
0.0
0.0
0.0
0.0
0.0
0.0
0.0
0.0
0.0
0.0
0.0
0.0
0.0
0.0
0.0
0.0
0.0
0.0
0.0
0.0
0.0
0.0
0.0
0.0
0.0
0.0
0.0
0.0
0.0
0.0
0.0
0.0
0.0
0.0
0.0
0.0
0.0
0.0
0.0
0.0
0.0
0.0
0.0
0.0
0.0
0.0
0.0
0.0
0.0
0.0
0.0
0.0
0.0
0.0
0.0
0.0
0.0
0.0
0.0
0.0
0.0
0.0
0.0
0.0
0.0
0.0
0.0
0.0
0.0
0.0
0.0
0.0
0.0
0.0
0.0
0.0
0.0
0.0
0.0
0.0
0.0
0.0
0.0
0.0
0.0
0.0
0.0
0.0
0.0
0.0
0.0
0.0
0.0
0.0
0.0
0.0
0.0
0.0
0.0
0.0
0.0
0.0
0.0
0.0
0.0
0.0
0.0
0.0
0.0
0.0
0.0
0.0
0.0
0.0
0.0
0.0
0.0
0.0
0.0
0.0
0.0
0.0
0.0
0.0
0.0
0.0
0.0
0.0
0.0
0.0
0.0
0.0
0.0
0.0
0.0
0.0
0.0
0.0
0.0
0.0
0.0
0.0
0.0
0.0
0.0
0.0
0.0
0.0
0.0
0.0
0.0
0.0
0.0
0.0
0.0
0.0
0.0
0.0
0.0
0.0
0.0
0.0
0.0
0.0
0.0
0.0
0.0
0.0
0.0
0.0
0.0
0.0
0.0
0.0
0.0
0.0
0.0
0.0
0.0
0.0
0.0
0.0
0.0
0.0
0.0
0.0
0.0
0.0
0.0
0.0
0.0
0.0
0.0
0.0
0.0
0.0
0.0
0.0
0.0
0.0
0.0
0.0
0.0
0.0
0.0
0.0
0.0
0.0
0.0
0.0
0.0
0.0
0.0
0.0
0.0
0.0
0.0
0.0
0.0
0.0
0.0
0.0
0.0
0.0
0.0
0.0
0.0
0.0
0.0
0.0
0.0
0.0
0.0
0.0
0.0
0.0
0.0
0.0
0.0
0.0
0.0
0.0
0.0
0.0
0.0
0.0
0.0
0.0
0.0
0.0
0.0
0.0
0.0
0.0
0.0
0.0
0.0
0.0
0.0
0.0
0.0
0.0
0.0
0.0
0.0
0.0
0.0
0.0
0.0
0.0
0.0
0.0
0.0
0.0
0.0
0.0
0.0
0.0
0.0
0.0
0.0
0.0
0.0
0.0
0.0
0.0
0.0
0.0
0.0
0.0
0.0
0.0
0.0
0.0
0.0
0.0
0.0
0.0
0.0
0.0
0.0
0.0
0.0
0.0
0.0
0.0
0.0
0.0
0.0
0.0
0.0
0.0
0.0
0.0
0.0
0.0
0.0
0.0
0.0
0.0
0.0
0.0
0.0
0.0
0.0
0.0
0.0
0.0
0.0
0.0
0.0
0.0
0.0
0.0
0.0
0.0
0.0
0.0
0.0
0.0
0.0
0.0
0.0
0.0
0.0
0.0
0.0
0.0
0.0
0.0
0.0
0.0
0.0
0.0
0.0
0.0
0.0
0.0
0.0
0.0
0.0
0.0
0.0
0.0
0.0
0.0
0.0
0.0
0.0
0.0
0.0
0.0
0.0
0.0
0.0
0.0
0.0
0.0
0.0
0.0
0.0
0.0
0.0
0.0
0.0
0.0
0.0
0.0
0.0
0.0
0.0
0.0
0.0
0.0
0.0
0.0
0.0
0.0
0.0
0.0
0.0
0.0
0.0
0.0
0.0
0.0
0.0
0.0
0.0
0.0
0.0
0.0
0.0
0.0
0.0
0.0
0.0
0.0
0.0
0.0
0.0
0.0
0.0
0.0
0.0
0.0
0.0
0.0
0.0
0.0
0.0
0.0
0.0
0.0
0.0
0.0
0.0
0.0
0.0
0.0
0.0
0.0
0.0
0.0
0.0
0.0
0.0
0.0
0.0
0.0
0.0
0.0
0.0
0.0
0.0
0.0
0.0
0.0
0.0
0.0
0.0
0.0
0.0
0.0
0.0
0.0
0.0
0.0
0.0
0.0
0.0
0.0
0.0
0.0
0.0
0.0
0.0
0.0
0.0
0.0
0.0
0.0
0.0
0.0
0.0
0.0
0.0
0.0
0.0
0.0
0.0
0.0
0.0
0.0
0.0
0.0
0.0
0.0
0.0
0.0
0.0
0.0
0.0
0.0
0.0
0.0
0.0
0.0
0.0
0.0
0.0
0.0
0.0
0.0
0.0
0.0
0.0
0.0
0.0
0.0
0.0
0.0
0.0
0.0
0.0
0.0
0.0
0.0
0.0
0.0
0.0
0.0
0.0
0.0
0.0
0.0
0.0
0.0
0.0
0.0
0.0
0.0
0.0
0.0
0.0
0.0
0.0
0.0
0.0
0.0
0.0
0.0
0.0
0.0
0.0
0.0
0.0
0.0
0.0
0.0
0.0
0.0
0.0
0.0
0.0
0.0
0.0
0.0
0.0
0.0
0.0
0.0
0.0
0.0
0.0
0.0
0.0
0.0
0.0
0.0
0.0
0.0
0.0
0.0
0.0
0.0
0.0
0.0
0.0
0.0
0.0
0.0
0.0
0.0
0.0
0.0
0.0
0.0
0.0
0.0
0.0
0.0
0.0
0.0
0.0
0.0
0.0
0.0
0.0
0.0
0.0
0.0
0.0
0.0
0.0
0.0
0.0
0.0
0.0
0.0
0.0
0.0
0.0
0.0
0.0
0.0
0.0
0.0
0.0
0.0
0.0
0.0
0.0
0.0
0.0
0.0
0.0
0.0
0.0
0.0
0.0
0.0
0.0
0.0
0.0
0.0
0.0
0.0
0.0
0.0
0.0
0.0
0.0
0.0
0.0
0.0
0.0
0.0
0.0
0.0
0.0
0.0
0.0
0.0
logs/alpha_0.1/PGSD_200steps_1.log 1000045.50511 1000.04550511 0.0 1000000.0 0.0 210
