Initial Policy Parameters:	0.0 0.0
Learning Rate:			0.1
Learning Steps:			500
Start Time:			1436804877.3031912

-- LEARNING STOPPED --

Stop Time:			1436804945.603512
Duration:			68.30032086372375
Final Policy Parameters:	-0.380358141383 0.407605088628
