Initial Policy Parameters:	0.0 0.0
Learning Rate:			0.1
Learning Steps:			200
Start Time:			1436804283.0361485

-- LEARNING STOPPED --

Stop Time:			1436804310.194952
Duration:			27.158803462982178
Final Policy Parameters:	-0.0255162437853 0.0709009255057
