Policy Parameters:	-0.105227653966 0.157349550921
Control Steps:		1000
Start Time:		1438114079.1495354

-- TESTING STOPPED --

Stop Time:		1438114121.1411607
Duration:		41.99162530899048
Cost Matrix:
0.0187206137804
0.0444897539338
0.0550035864926
0.037348140218
0.0252019451207
0.00735274385867
0.00883058309133
0.0618981572132
0.040901514123
0.00932854617222
0.0369279210631
0.0100544171614
0.00699225643037
0.0466136781549
0.0133949812422
0.019520366315
0.0240815454054
0.0217784226495
0.0035738204369
0.0105573928314
0.0214378045007
0.0429862817845
0.0311640554004
0.0425173069415
0.0154348031915
0.0296069594186
0.0449981356721
0.00804733194304
0.0356328190686
0.0869191468489
0.0374483284195
0.0272974485358
0.0427159312748
0.0467082974782
0.0194814166327
0.0150552727159
0.0543470724854
0.0727402703739
0.0799636384405
0.0881979392219
0.10935695466
0.109702624932
0.173730411206
0.0934073975505
0.129838324866
0.133212384319
0.152027356334
0.165121470056
0.176056077126
0.130239861209
0.198136965599
0.114776725309
0.202870845423
0.189438544386
0.19249930936
0.215298762331
0.216495836231
0.200215747772
0.207515199316
0.162710944631
0.255568191572
0.210686895233
0.24973648887
0.242519651725
0.24943442886
0.253125435476
0.206980894927
0.229564969059
0.231406422265
0.187646627996
0.228730685271
0.171108575897
0.181732305503
0.182455968236
0.116218195944
0.0441285756231
0.0788336537333
0.0341763225109
0.066512853986
0.0428754077492
0.059806456963
0.00616131862994
0.0574068283127
0.104562770922
0.0452717592131
0.0843820863491
0.132035924653
0.115720140442
0.0998537163417
0.0864617655233
0.136898189089
0.189188544044
0.123323853257
0.142727405843
0.164006851793
0.132545982819
0.115891806836
0.139551161274
0.154532611503
0.152390863065
0.137238384789
0.148774412118
0.136234332645
0.194436043633
0.131170180645
0.13564912837
0.212508086113
0.190201102106
0.225719745001
0.1345834723
0.107168702782
0.11872499141
0.154053937058
0.0943292757779
0.00522484748918
0.0348870178097
0.00931649308529
0.0830305191891
0.0515394639977
0.0757317432998
0.0957996511257
0.0614863051282
0.0920426336763
0.0719466067687
0.0914625627783
0.0707579066712
0.0984037323526
0.0551401987951
0.0934378403767
0.0536688099857
0.109879587228
0.0901325289585
0.0730626587098
0.0943431946705
0.0472540347416
0.0767041847659
0.0779765741262
0.0149921851313
0.0488270109641
0.0141597134312
0.0455395395202
0.0656234006964
0.0470244391738
0.0267119301239
0.0294828750938
0.0470657162174
0.054302689405
0.00847737876553
0.00479766537559
0.0356671985564
0.0286433959844
0.0335172335412
0.0311707064153
0.0637535054563
0.00752454682182
0.0714603169244
0.0119386559557
0.015504685141
0.0716776969442
0.0172664572644
0.0153145136282
0.0299840342361
0.041257476563
0.0386677917497
0.056885518694
0.0538203149698
0.0475527009239
0.00834202717086
0.0345195942911
0.0334253251544
0.0210453471931
0.04370346253
0.0253457532387
0.00059420998706
0.0278131390985
0.065442568811
0.0368611596527
0.0403420241276
0.0261629845567
0.0489102750237
0.0374241177503
0.0731991908381
0.0416987018469
0.0491155169817
0.0104735354817
0.0150683349998
0.0538459427835
0.0300995983007
0.0167972103918
0.00478278393521
0.0398650655746
0.0106167391433
0.00370967371161
0.0215817492012
0.0506147336336
0.0367911266107
0.0415666929419
0.0215477840064
0.0731487282219
0.0192546218691
0.0218836598376
0.0195251458812
0.0188095583756
0.0301970517286
0.0274770443175
0.00856106095026
0.106754084606
0.0249936490465
0.0149849064564
0.0866662076708
0.056739472679
0.0312927481296
0.0165241579409
0.0211824155351
0.0509205055674
0.0726207791742
0.0799750593015
0.057001362365
0.0517577492359
0.0704091401252
0.0637880879378
0.060384982264
0.0275458654494
0.0463395748381
0.0919396559633
0.0504558905908
0.0524409536765
0.0154694406544
0.0684469520702
0.00529094411784
0.0111724528004
0.00385124997083
0.0265049815794
0.0205301003477
0.0177596484004
0.00073805505331
0.0084001786137
0.00390886340721
0.00779341684773
0.0358587908896
0.00693646254131
0.0360995577895
0.0154505185118
0.0132405143001
0.0698017780946
0.0244749107592
0.0407130746127
0.0216285865898
0.0441808063935
0.0114323295257
0.00124640516605
0.0521498825905
0.0424619154689
0.0144689642548
0.00955638766686
0.0217308403017
0.0252633348829
0.0168014936333
0.0114607418402
0.0108384466202
0.0369388801038
0.0232891561488
0.0153089492364
0.00826730123667
0.0136150084894
0.0452834195274
0.0398124709294
0.0321780186091
0.0204456218793
0.00559100664804
0.0216142062051
0.0118049851275
0.00284348944341
0.0240477226331
0.0179051096373
0.0338853414398
0.0253617283662
0.02072541248
0.0380149620938
0.0153935691273
0.00650310492889
0.0130331915203
0.032779722384
0.0158219647319
0.0195002243445
0.00661226579481
0.0202124680376
0.0035637757818
0.0196441314044
0.0147896014867
0.0264675018505
0.0493103466647
0.0212565768559
0.060378535275
0.0476679454653
0.0840729686736
0.0430823919413
0.134483262606
0.110411405425
0.174333818506
0.217606926091
0.392886113019
0.632543714312
0.716097349214
0.595580028723
0.78518392568
0.615919564604
0.562987994378
0.490233589881
0.529684052012
0.530615414267
0.588711488476
0.614344360204
0.407492288035
0.374282990714
0.223758232349
1000000.0
0.0
0.0
0.0
0.0
0.0
0.0
0.0
0.0
0.0
0.0
0.0
0.0
0.0
0.0
0.0
0.0
0.0
0.0
0.0
0.0
0.0
0.0
0.0
0.0
0.0
0.0
0.0
0.0
0.0
0.0
0.0
0.0
0.0
0.0
0.0
0.0
0.0
0.0
0.0
0.0
0.0
0.0
0.0
0.0
0.0
0.0
0.0
0.0
0.0
0.0
0.0
0.0
0.0
0.0
0.0
0.0
0.0
0.0
0.0
0.0
0.0
0.0
0.0
0.0
0.0
0.0
0.0
0.0
0.0
0.0
0.0
0.0
0.0
0.0
0.0
0.0
0.0
0.0
0.0
0.0
0.0
0.0
0.0
0.0
0.0
0.0
0.0
0.0
0.0
0.0
0.0
0.0
0.0
0.0
0.0
0.0
0.0
0.0
0.0
0.0
0.0
0.0
0.0
0.0
0.0
0.0
0.0
0.0
0.0
0.0
0.0
0.0
0.0
0.0
0.0
0.0
0.0
0.0
0.0
0.0
0.0
0.0
0.0
0.0
0.0
0.0
0.0
0.0
0.0
0.0
0.0
0.0
0.0
0.0
0.0
0.0
0.0
0.0
0.0
0.0
0.0
0.0
0.0
0.0
0.0
0.0
0.0
0.0
0.0
0.0
0.0
0.0
0.0
0.0
0.0
0.0
0.0
0.0
0.0
0.0
0.0
0.0
0.0
0.0
0.0
0.0
0.0
0.0
0.0
0.0
0.0
0.0
0.0
0.0
0.0
0.0
0.0
0.0
0.0
0.0
0.0
0.0
0.0
0.0
0.0
0.0
0.0
0.0
0.0
0.0
0.0
0.0
0.0
0.0
0.0
0.0
0.0
0.0
0.0
0.0
0.0
0.0
0.0
0.0
0.0
0.0
0.0
0.0
0.0
0.0
0.0
0.0
0.0
0.0
0.0
0.0
0.0
0.0
0.0
0.0
0.0
0.0
0.0
0.0
0.0
0.0
0.0
0.0
0.0
0.0
0.0
0.0
0.0
0.0
0.0
0.0
0.0
0.0
0.0
0.0
0.0
0.0
0.0
0.0
0.0
0.0
0.0
0.0
0.0
0.0
0.0
0.0
0.0
0.0
0.0
0.0
0.0
0.0
0.0
0.0
0.0
0.0
0.0
0.0
0.0
0.0
0.0
0.0
0.0
0.0
0.0
0.0
0.0
0.0
0.0
0.0
0.0
0.0
0.0
0.0
0.0
0.0
0.0
0.0
0.0
0.0
0.0
0.0
0.0
0.0
0.0
0.0
0.0
0.0
0.0
0.0
0.0
0.0
0.0
0.0
0.0
0.0
0.0
0.0
0.0
0.0
0.0
0.0
0.0
0.0
0.0
0.0
0.0
0.0
0.0
0.0
0.0
0.0
0.0
0.0
0.0
0.0
0.0
0.0
0.0
0.0
0.0
0.0
0.0
0.0
0.0
0.0
0.0
0.0
0.0
0.0
0.0
0.0
0.0
0.0
0.0
0.0
0.0
0.0
0.0
0.0
0.0
0.0
0.0
0.0
0.0
0.0
0.0
0.0
0.0
0.0
0.0
0.0
0.0
0.0
0.0
0.0
0.0
0.0
0.0
0.0
0.0
0.0
0.0
0.0
0.0
0.0
0.0
0.0
0.0
0.0
0.0
0.0
0.0
0.0
0.0
0.0
0.0
0.0
0.0
0.0
0.0
0.0
0.0
0.0
0.0
0.0
0.0
0.0
0.0
0.0
0.0
0.0
0.0
0.0
0.0
0.0
0.0
0.0
0.0
0.0
0.0
0.0
0.0
0.0
0.0
0.0
0.0
0.0
0.0
0.0
0.0
0.0
0.0
0.0
0.0
0.0
0.0
0.0
0.0
0.0
0.0
0.0
0.0
0.0
0.0
0.0
0.0
0.0
0.0
0.0
0.0
0.0
0.0
0.0
0.0
0.0
0.0
0.0
0.0
0.0
0.0
0.0
0.0
0.0
0.0
0.0
0.0
0.0
0.0
0.0
0.0
0.0
0.0
0.0
0.0
0.0
0.0
0.0
0.0
0.0
0.0
0.0
0.0
0.0
0.0
0.0
0.0
0.0
0.0
0.0
0.0
0.0
0.0
0.0
0.0
0.0
0.0
0.0
0.0
0.0
0.0
0.0
0.0
0.0
0.0
0.0
0.0
0.0
0.0
0.0
0.0
0.0
0.0
0.0
0.0
0.0
0.0
0.0
0.0
0.0
0.0
0.0
0.0
0.0
0.0
0.0
0.0
0.0
0.0
0.0
0.0
0.0
0.0
0.0
0.0
0.0
0.0
0.0
0.0
0.0
0.0
0.0
0.0
0.0
0.0
0.0
0.0
0.0
0.0
0.0
0.0
0.0
0.0
0.0
0.0
0.0
0.0
0.0
0.0
0.0
0.0
0.0
0.0
0.0
0.0
0.0
0.0
0.0
0.0
0.0
0.0
0.0
0.0
0.0
0.0
0.0
0.0
0.0
0.0
0.0
0.0
0.0
0.0
0.0
0.0
0.0
0.0
0.0
0.0
0.0
0.0
0.0
0.0
0.0
0.0
0.0
0.0
0.0
0.0
0.0
0.0
0.0
0.0
0.0
0.0
0.0
0.0
0.0
0.0
0.0
0.0
0.0
0.0
0.0
0.0
0.0
0.0
0.0
0.0
0.0
0.0
0.0
0.0
0.0
0.0
0.0
0.0
0.0
0.0
0.0
0.0
0.0
0.0
0.0
0.0
0.0
0.0
0.0
0.0
0.0
0.0
0.0
0.0
0.0
0.0
0.0
0.0
0.0
0.0
0.0
0.0
0.0
0.0
0.0
0.0
0.0
0.0
0.0
0.0
0.0
0.0
0.0
0.0
0.0
0.0
0.0
0.0
0.0
0.0
0.0
0.0
0.0
0.0
0.0
0.0
0.0
0.0
0.0
0.0
0.0
0.0
0.0
0.0
0.0
0.0
0.0
0.0
0.0
0.0
0.0
0.0
0.0
0.0
0.0
0.0
0.0
0.0
logs/alpha_0.1/PGSD_900steps_1.log 1000027.81144 1000.02781144 0.0 1000000.0 0.0 316
