Initial Policy Parameters:	0.0 0.0
Learning Rate:			0.1
Learning Steps:			700
Start Time:			1436805957.7890909

-- LEARNING STOPPED --

Stop Time:			1436806052.2404146
Duration:			94.45132374763489
Final Policy Parameters:	-0.294285471936 0.404574697006
