Initial Policy Parameters:	0.0 0.0
Learning Rate:			0.1
Learning Steps:			800
Start Time:			1436806491.9886591

-- LEARNING STOPPED --

Stop Time:			1436806601.3403177
Duration:			109.35165858268738
Final Policy Parameters:	-0.241058109463 0.287348889479
