Policy Parameters:	-2.20910771351 3.55163060851
Control Steps:		1000
Start Time:		1438254133.493076

-- TESTING STOPPED --

Stop Time:		1438254304.7580235
Duration:		171.2649474143982
Cost Matrix:
0.0314531221314
0.125136717927
0.162895858487
0.130863128833
0.210792391624
0.415393075639
0.408367155357
0.228180482896
0.194214181831
0.377185512798
0.332313399875
0.357441871858
0.403553957044
0.405018729535
0.41573018474
0.450375244935
0.457849651135
0.496657945253
0.539858908563
1.04900195754
0.901722501095
1.55553058601
0.870055913484
2.03317899334
1.12452233047
2.05884251038
1.80860358359
1.73235141748
1.57126091998
0.545340136422
1.51042635487
0.485693459264
0.459398173143
0.502738901741
0.111691907706
0.0669683558698
0.154283169409
0.197591515028
0.214669000166
0.286891096219
0.27732338755
0.177948014595
0.144184916162
0.205475094436
0.220828444499
0.0836717343866
0.130439456865
0.0642614195345
0.00690901544508
0.114514961978
0.394484558973
0.340761850464
0.168755063107
0.279321767368
0.358538366924
0.194962072871
0.248325213678
0.332873423521
0.290048426399
0.282057696934
0.330898596958
0.135464305667
0.181793772127
0.187632480634
0.281165588273
0.0201799509025
0.0424379552188
0.0702217650514
0.0240495690363
0.0334015909582
0.0515372929501
0.00624009377892
0.0425827177713
0.0504792194617
0.0966685351766
0.0877493232058
0.0176110206362
0.00478343367903
0.0412589181929
0.0723755315664
0.00254184736783
0.0329581097591
0.0483892713752
0.055148245091
0.0917995905689
0.0917779104249
0.154844860053
0.0514159755082
0.102701425165
0.0916185673806
0.107185498406
0.171052912819
0.179652754869
0.142094904798
0.0891552710575
0.165738245496
0.272310717892
0.263596506879
0.197666101093
0.242021288778
0.321880796013
0.378381267899
0.373552262604
0.341714141872
0.351510002392
0.388464939545
0.39839532135
0.414382615127
0.501047589821
0.509538939412
0.474786931774
0.426409055249
0.364104787696
0.294215382948
0.333678550239
0.373998168119
0.241967301845
0.19615523194
0.161102475356
0.0792575638118
0.120018985455
0.154281156916
0.129958595447
0.152240789396
0.0686774055917
0.0937546773922
0.148148720827
0.111841139768
0.0591607759141
0.105177414608
0.0951277416922
0.0991673452166
0.0900280910566
0.181671766223
0.252335228233
0.106887376165
0.0641090242185
0.151040520786
0.276340161249
0.272669394245
0.308499112779
0.331783169053
0.331805136802
0.372320482095
0.41873233173
0.514064081702
0.925667763621
1.11718197506
1.2280754796
1.3632846359
1.36498993241
1.45639150127
1.61887081031
1.54025418379
1.48813069462
1.43960134013
1.44936398691
0.294049878047
0.888462350355
1.16453078373
0.238775674007
0.299469516664
0.1489859105
0.196930961671
0.371835980334
0.407547875466
0.37132654389
0.341619963954
0.327778007463
0.385856613615
0.398126816259
0.337384370429
0.3346871088
0.162358021554
0.145244754561
0.203057251675
0.148490456967
0.139260037638
0.106044977892
0.115932662212
0.220123633803
0.218680769165
0.263605890859
0.291193824284
0.375966355017
0.293756787744
0.364921940027
0.393928218794
0.446810783557
0.565762569697
0.597082285332
0.538555859464
0.547958047698
0.548686394278
0.448864495294
0.56146112955
0.579852804609
0.454163960801
0.274968171557
0.171217266605
0.202586576695
0.0392589690631
0.00908399844648
0.0276373713004
0.0166160780235
0.0466761315534
0.0330005311566
0.0258823054402
0.0417073767935
0.172989437533
0.0506590129297
0.0109178413877
0.0253349326993
0.106016250046
0.169591789614
0.406496337225
0.158718811874
0.0331358574932
0.0401198069481
0.101827530514
0.132777670714
0.11606692034
0.10836174036
0.125243450964
0.114936013809
0.200622150731
0.276777480088
0.325601084082
0.366386645774
0.363544534298
0.361338760986
0.545353093052
0.702176006265
1.01724359354
1.02947938799
1.21674325599
1.06910413004
1.09855037559
0.980265947113
0.998321321429
0.967241963536
0.750635554619
0.750515690616
0.476845332329
0.404101043605
0.206217297719
0.117998194702
0.0951587107814
0.141699887966
0.357372234744
0.177588759634
0.192283740753
0.295827476906
0.142194608758
0.0689774503176
0.0691428915247
0.0978963357978
0.151094815283
0.220612477943
0.267415940528
0.184445191748
0.153673027066
0.0941455983676
0.288611489666
0.527653803563
0.215495386966
0.0733288365556
0.166550181192
0.405928177031
0.450233051265
0.222625398259
0.286420078897
0.197620550479
0.22041494804
0.0975547632786
0.0462431409511
0.100776092541
0.262267002567
0.271097614244
0.406102412575
0.266537957576
0.264636339731
0.26523353018
0.211571179245
0.160976027319
0.131364325194
0.147153063855
0.24637520091
0.313139603191
0.336654086051
0.348365966043
0.4318101179
0.489140849456
0.971936936053
1.14826362176
1.75825845962
2.31834688239
1.81696965493
2.44642939174
2.70911319301
1.15543592777
3.47463985194
2.67117766963
0.0497863169487
0.239850997421
0.375747334735
0.371099565349
0.389574628571
0.385714712629
0.396059238861
0.386388350357
0.402654675108
0.411139865813
0.426696479577
0.415675622944
0.421531010005
0.413673728668
0.449295808458
0.448813793368
0.442903308391
0.477716608832
0.461613733124
0.456702312964
0.459992018371
0.464119434357
0.466338325626
0.447547349703
0.437308235339
0.450049434862
0.433099578462
0.453633664533
0.421352522771
0.411438371633
0.446251791891
0.44794437772
0.409536625454
0.407567619507
0.409915364212
0.415649983187
0.400697883785
0.397076422191
0.418446801345
0.437932349524
0.395087924454
0.387095793961
0.36367460839
0.398355902127
0.367564371667
0.364549094592
0.375327835967
0.365189946957
0.361900164307
0.332507673284
0.350151112759
0.303085416307
0.335481107397
0.359275337257
0.35169262405
0.372194422228
0.393078163614
0.268159500823
0.153034615456
0.186652519764
0.239535637429
0.232832160824
0.124098682796
0.0144120803748
0.120638493862
0.339337840592
0.32193125664
0.271047198629
0.352483527003
0.418087938269
0.293746161229
0.261435112101
0.258824219366
0.275132455206
0.305713622484
0.237579165385
0.100761605935
0.208346884263
0.217055447819
0.341375239839
0.171080622495
0.208938887764
0.294762095164
0.345651664858
0.311944408155
0.328542276528
0.275747195479
0.281400187945
0.285854059739
0.328289405748
0.325643156628
0.317634531946
0.236182763035
0.243950956974
0.263026970826
0.205985568089
0.105461854242
0.163235155526
0.393806126288
0.357605141125
0.33760793428
0.322146949479
0.301108293841
0.288244614475
0.483308871187
0.460104623248
0.427277470046
0.455566229559
0.46433055485
0.151999407288
0.521788478285
0.502870172795
0.463386236623
0.393528008873
0.414712260503
0.409664293786
0.462534443848
0.126260960559
0.209747596271
0.238947679463
0.238922924153
0.00390160285267
0.019539825931
0.0237084378466
0.0739169488633
0.140870719213
0.0288309336057
0.0640735736653
0.0526046898881
0.00734365431754
0.0331505814599
0.0393736160229
0.00757506267506
0.0855717586575
0.0378551915967
0.0293721205828
0.0667653615858
0.0328533974398
0.0472416362084
0.0983615704714
0.0473762309454
0.0545135791586
0.0652525528077
0.136069664473
0.017232339787
0.0171366677612
0.0135104487889
0.012341971778
0.0516980289659
0.0186636933219
0.036906885643
0.0860925025616
0.170175124088
0.238475180917
0.0860888657735
0.139690739371
0.24564007491
0.0968431971796
0.126041708902
0.161416647933
0.315234891617
0.316606321439
0.366583053478
0.44799488602
0.847794013746
1.25879436186
1.41317466414
1.50713158841
1.57907148142
1.72656135098
1.7750062006
1.65302221978
1.7666018455
1.54312645715
1.67173209125
0.244511827322
0.330077794097
0.218589423443
0.0985854954373
0.0815673488127
0.0261033624918
0.0045657090696
0.0709366090606
0.140738922217
0.0583632300831
0.202942759588
0.202687039587
0.0931342262019
0.235388783537
0.197547023206
0.136955625371
0.333264356995
0.187741783709
0.079242798678
0.262446429833
0.308551580374
0.301067383674
0.481613236441
0.50339715494
0.426780450148
0.45426541117
0.485787675487
0.514391210568
0.72573907856
0.543741877478
0.547745933892
0.414264963912
0.412386694263
0.426147235162
0.232988985936
0.286191735458
0.30000574808
0.258276150064
0.103760874818
0.00682543652588
0.13763326745
0.177575527977
0.0740347018824
0.0964680881672
0.132439827501
0.0551849628317
0.114665982488
0.258002576744
0.229638828268
0.201741330211
0.227835420866
0.223098171291
0.200933986008
0.222872076323
0.272512580045
0.340552165413
0.242559726671
0.32999553159
0.361915818436
0.254060129838
0.259544536645
0.261886668549
0.203294412089
0.234570283105
0.207182768116
0.239616832141
0.235895608656
0.237492415938
0.281307394538
0.295227836025
0.222554240349
0.0700711809705
0.0606797048924
0.0655588673483
0.105246366243
0.0669641547881
0.0270183100172
0.0261328593481
0.019939220574
0.0357122756884
0.0728257013648
0.0847315217152
0.0562930646506
0.0702519498967
0.123939256687
0.166470962641
0.172704617791
0.133216325857
0.151071940219
0.162184652326
0.132622801411
0.115340888426
0.0751307094892
0.0720677080657
0.0636195483632
0.128760778101
0.0937822601175
0.128561902181
0.090570814084
0.104660512689
0.0856841691411
0.0985154462992
0.0737658370391
0.231687818686
0.220696098549
0.103969196514
0.223689317723
0.256335651201
0.287113232656
0.0182158506061
0.0945995206813
0.0979341473987
0.253938792852
0.316093638422
0.260915204613
0.251803712136
0.312532957852
0.424183735738
0.243614388194
0.352151622267
0.435206423215
0.507516124341
0.523622265433
0.513089026413
0.507988502768
0.366306525557
0.275607098428
0.325717213906
0.333660385068
0.288954223115
0.302755796862
0.196456023225
0.205102341047
0.214200111473
0.0971199644734
0.101929197949
0.0149440725729
0.0688666372768
0.12610885073
0.102566235998
0.115125299451
0.169773431829
0.123781676701
0.128550063179
0.0946777685769
0.153006295171
0.096976774008
0.136916584206
0.171190992378
0.139714651593
0.190796188942
0.114561743239
0.155824964647
0.0946715009219
0.116921012866
0.146813785733
0.0980677128551
0.178146745088
0.0765226460512
0.10265751682
0.0751255817315
0.125627637005
0.179426335432
0.0582961179125
0.0392193659206
0.0262112576086
0.0331383651665
0.0665099712806
0.0438390451151
0.0859402629194
0.0642340300784
0.00420181093792
0.0319789164973
0.05127269094
0.0524408119649
0.0728107072987
0.123380946315
0.0128243091698
0.00972505538717
0.0498388252766
0.0634495813671
0.208009535834
0.220346962767
0.0259664598971
0.0443918827896
0.0939239916028
0.114501970667
0.0713898382774
0.0376591200687
0.0712599625342
0.143087652161
0.163164295611
0.07725012881
0.0843457383797
0.0810977950119
0.12371645113
0.136776794602
0.0920717757375
0.163436616288
0.191954808273
0.280496796311
0.176826734075
0.232585906416
0.214239271196
0.210764917696
0.288575436752
0.468824466778
0.453379163749
0.54877357478
0.83526946128
0.633328629793
0.738133050252
0.683958940054
0.739656130546
0.750832393286
0.849247353244
0.749449535717
0.918822779653
0.494326178169
0.485469438744
0.42125568366
0.239656513545
0.197137746207
0.111003260183
0.117897245739
0.0450490357304
0.079271163202
0.301909636378
0.337120309697
0.167088502607
0.281852194223
0.323649524673
0.219778325493
0.307471473491
0.230815316211
0.353305762292
0.39606281043
0.387820559867
0.386445926024
0.395080476871
0.428313786731
0.485858049602
0.790844420239
0.655599495261
1.01587410213
1.12109960249
0.965145028844
1.14850566769
1.12710724838
1.21900602208
2.17220630272
0.225173084409
0.925154994605
0.375741433211
0.504110634164
0.735042117035
0.260139077127
0.22655302482
0.0801887396296
0.198516353459
0.332759856611
0.364066662603
0.36915454093
0.345187461932
0.325044739521
0.516510544416
0.262617582776
0.279911331923
0.197909179505
0.178258352665
0.189944133537
0.186217221121
0.0993944389577
0.156280615018
0.0601637136846
0.0748333852389
0.126753727487
0.0963699549332
0.031076337161
0.0215555589945
0.0578147288501
0.0597957161395
0.076714192138
0.119023126787
0.109350927647
0.0919476286964
0.169146040859
0.061437551677
0.0461331462798
0.0951607143329
0.230208772378
0.245530148412
0.0891864696605
0.251652319131
0.20937010076
0.0684204352392
0.124700702928
0.118401019107
0.0251995761123
0.042768404641
0.117740509706
0.151982298045
0.0699378331821
0.0729655253635
0.173798767964
0.0805562250074
0.107321863736
0.126189554797
0.188604614796
0.107894392429
0.0772721944814
0.10578606269
0.105827623105
0.093654245655
0.0965319706569
0.139830523392
0.274343840426
0.289550690042
0.264891138001
0.104857545984
0.122263613583
0.184911038027
0.26434903134
0.304721711272
0.30245401473
0.258326566606
0.351611072426
0.320073719607
0.233228475867
0.409483938727
0.511270409395
0.816713039219
0.363658199598
0.570869908312
0.546942833368
0.616863357767
0.532365361964
0.677539387814
0.586456398396
0.785847338417
0.288005079533
0.390224810139
0.31594404651
0.264467094557
0.209643275354
0.101083036429
0.0474121941263
0.102117558095
0.0771487427278
0.180190303668
0.402639235999
0.290241566014
0.191014260357
0.245179347639
0.389797208155
0.222539357836
0.197620041027
0.245707458634
0.255607105963
0.261702469779
0.201359406962
0.171770487024
0.21300168185
0.172461164927
0.190590912213
0.0438025569481
0.105735856085
0.270658656322
0.203956711626
0.0568005892673
0.102914763466
0.229990424615
0.549013900223
0.990143020514
1.22400761203
1.48662443317
1.61077701377
1.44310840061
2.27779350157
2.79596696482
0.373890231014
0.86142355616
0.640036122975
0.406053612087
0.366188136782
0.299480177626
0.180241586066
0.135136556968
0.399927287815
0.667949886226
0.60793928825
0.604612789508
0.706007673633
0.534349526055
0.49028618903
0.746985833263
0.53047485688
0.401918470356
0.376425794144
0.307077373545
0.326900960524
0.269080159129
0.239082633232
0.26421923066
0.309640597944
0.160908155702
0.177872382161
0.370394496215
0.399520497609
0.459459802008
0.405925710711
0.381040194387
0.345414441519
0.296503212004
0.291741317482
0.293610181536
0.257959028368
0.261542324154
0.220143583693
0.192840044723
0.116171256161
0.198052199088
0.193924964033
0.0532537574492
0.21489949723
0.293368584791
0.281466828459
0.266878544049
0.196562902207
0.186916596613
0.330694678794
0.145790056739
0.317609457727
0.313519348294
0.444881083104
0.43348973925
0.449223844488
0.549335714891
0.543884079901
0.542632934396
0.561194578243
0.512642164468
0.54263536321
0.525433325686
0.485848083606
0.430064010107
0.46507339401
0.438297884614
0.4566134683
0.601932091246
0.304229515922
0.30973741131
0.33904972942
0.34872401454
0.3454535476
0.394179657816
0.383409658091
0.406559069674
0.411058290906
0.43334776788
0.42384614182
0.432255367691
0.431177646186
0.447333336411
0.436526546112
0.450088905069
0.465675519744
0.494732600805
0.506303114346
0.479677603293
0.505186347249
0.542992331048
0.524562670741
0.53512988791
0.585992351475
0.611040905019
0.551390757735
0.6938310326
0.540185581088
0.720471247459
0.534495238038
0.830268090159
0.510913088375
0.842164940452
0.541647365404
0.873757903797
0.544001812384
0.82706335385
0.586255352903
0.817036683695
0.561297101159
0.923160903411
0.528305213685
0.864059828929
0.545970243542
0.877956437453
0.544689292013
0.877717045389
0.506142408312
0.803952433466
0.540094665325
0.809045789228
0.496108997566
0.77432331731
0.483767897738
0.474512788615
0.511293626261
0.506290748697
0.511077650126
0.474972656725
0.434856025711
0.441427682034
0.464281802148
0.478831932233
0.430325287503
0.400093178682
0.345594433972
0.34846070378
0.433861630622
0.400678459783
0.478423765716
0.458152691012
logs/alpha_0.7/PGSD_700steps_4.log 355.686861023 0.355686861023 0.267147242288 3.47463985194 0.00254184736783 -1
