Policy Parameters:	-3.5935945389 3.21867543083
Control Steps:		1000
Start Time:		1438252661.5635123

-- TESTING STOPPED --

Stop Time:		1438252804.6686313
Duration:		143.10511898994446
Cost Matrix:
0.150287287506
0.0475924947324
0.10679512774
0.0256342409317
0.0195144565464
0.0487780639918
0.133529441786
0.237469020556
0.135111410491
0.152645542349
0.120183559405
0.0631447864683
0.208367270785
0.0244654396549
0.0982558803621
0.092642604214
0.0293001091914
0.0950619432785
0.0164633143155
0.0554568278934
0.0635363169157
0.120839920256
0.22712272297
0.0163462904659
0.028812578513
0.0603379590063
0.072240118333
0.236410334189
0.157067395223
0.0389372595302
0.117748900898
0.0485747381702
0.0798074073327
0.0396931283173
0.15206044349
0.0859773654112
0.0651651199841
0.228462324449
0.290669696899
0.148410656723
0.185392512854
0.218230770065
0.155064828305
0.320410519474
0.319925325221
0.172804252065
0.30229242442
0.245172673964
0.281699366574
0.234949164065
0.362270951246
0.201261786653
0.21731600136
0.141435848561
0.181831409141
0.237126471389
0.0697329437726
0.130367394866
0.141624665797
0.157159383946
0.0979381417235
0.138005640564
0.127223324337
0.0539960882558
0.195212637376
0.345839721713
0.291432884712
0.36762397844
0.629088507437
0.739895781483
1.09613536368
0.987850041187
1.14011299341
0.856956263486
1.10020160773
0.612515151013
1.36957530655
0.452030956677
0.942382504371
0.259850547806
0.20192912188
0.048466221124
0.195295948557
0.169161673618
0.0
0.0315404159619
0.101026310467
0.0349115293825
0.101827310147
0.126359301111
0.118717018641
0.0249097356072
0.0049792030346
0.0575968660316
0.21511579945
0.166423903643
0.152622290558
0.131335676656
0.221998425449
0.296704311596
0.284095292882
0.318733457379
0.517141144831
0.565663498493
0.901689052496
0.571524848412
1.13794721396
0.559440348961
1.03380769222
0.597242502444
0.593147917079
0.74634115162
0.759023476943
0.536487935519
0.409081775183
0.473983888218
0.254674594685
0.254919716833
0.200371202301
0.283346695643
0.40414288289
0.0278499332194
0.0289924786896
0.0794324039281
0.25184969113
0.213413039275
0.104334021534
0.0301621681221
0.0584627666915
0.0817903355835
0.0785476489239
0.151892577865
0.295545107802
0.209337319277
0.24362012978
0.14843758302
0.114557569396
0.167291278485
0.0971660016032
0.0622676081421
0.218250322232
0.108182478797
0.302866623876
0.112944672621
0.187902452954
0.210551910337
0.373599585826
0.520630584933
0.313478044731
0.252511504874
0.242448859788
0.335419682991
0.344333518232
0.277985185343
0.255555255938
0.268171206411
0.458292705101
0.375007780222
0.268406310831
0.161819369546
0.286261103399
0.163496539853
0.209854160923
0.165960726705
0.163503281013
0.0312742708922
0.120324716667
0.230327212183
0.219916689646
0.0845340916541
0.115101449862
0.096703785241
0.0143752744331
0.0494051657197
0.053812590751
0.070756155926
0.203994094638
0.164695013183
0.187383909381
0.110069245824
0.0684439637646
0.147516443908
0.0290416392573
0.0299666686149
0.127346654947
0.282861689719
0.299985911448
0.00392366545967
0.013310672391
0.0284248758157
0.0255749276043
0.0755644934514
0.0503706571449
0.13762174108
0.00310724885636
0.0266537058529
0.0107964773756
0.0313383754265
0.0475580106
0.0971779670292
0.166845105409
0.0698207827706
0.0323737895441
0.0507321507914
0.0966096747086
0.245669755105
0.103014442277
0.22685613656
0.127220742137
0.29375565767
0.236928041374
0.192592267479
0.280908014883
0.378060581278
0.350169366939
0.769029147843
0.56276801749
0.872777613806
0.572771841666
0.953523282953
0.487004739531
0.858484868974
0.664494377038
0.503299653346
0.625298919049
0.236476661084
0.177017873267
0.108091773167
0.296747180226
1.25687984071
0.0289758095771
0.127222196083
0.201560098847
0.226649728899
0.218439091076
0.0167442054468
0.096051308905
0.220856425344
0.0763558297853
0.162460825607
0.425265522442
0.00438278411418
0.0231194426051
0.0389519986922
0.0917977063631
0.155666888965
0.0093859553015
0.0314992058988
0.0501210759106
0.0527748644167
0.0786929260775
0.0412819532744
0.135767297284
0.222649437321
0.0684283317843
0.248667052421
0.182826093675
0.042407270214
0.102466203776
0.193017838403
0.255530798592
0.125244097661
0.145132163181
0.117071123319
0.428115773777
0.141365611358
0.0403634854631
0.0814206561694
0.21269016031
0.218935870583
0.101773307483
0.195321047382
0.116039655539
0.0557378581626
0.137464167195
0.153512640102
0.249090682347
0.309534102627
0.371717960416
0.327737616908
0.389768157149
0.458798617559
0.39565761861
0.472069236721
0.568349261473
0.947171355372
1.09916293903
1.60566691253
1.5339907965
1.59851906042
1.61487360754
1.64253705148
1.72475422477
1.46679136631
1.86635080752
3.13414254255
0.137086720961
0.0988021080662
0.115857819574
0.220579418607
0.044541350719
0.0926328718796
0.297661047993
0.175858634427
0.223209754024
0.407474133623
0.446608472645
0.397528611153
0.43124583742
0.380339496778
0.6412662298
0.521065027002
0.610574251012
0.524312511789
0.518427552551
0.551325970753
0.440174857838
0.451078756597
0.260650741913
0.332966155234
0.294052988463
0.154699742587
0.252376971993
0.17026845882
0.450655409989
0.177586424576
0.306200215483
0.303019738517
0.429185688256
0.395363219235
0.505166136639
0.683337743902
0.773887562418
0.858078414755
0.953209870998
0.773388677529
0.870144113471
0.887499699344
0.699241190846
0.805683142391
0.547159776779
0.97992216135
0.311565109736
0.300771830748
0.166269872389
0.274365180962
0.424217214676
0.00165798673069
0.046126039825
0.163324132582
0.0967739513275
0.0663028741486
0.0279580941805
0.0376978940334
0.0630632108966
0.183392904476
0.119793016559
0.0713380987495
0.0246750233866
0.0318285072951
0.10125474511
0.15837357642
0.18553693424
0.154220709014
0.110619253991
0.159955009108
0.096474372623
0.106146284956
0.192970588477
0.275101632395
0.237965622459
0.272019730287
0.0609490860684
0.152476958986
0.100315764005
0.0223376540514
0.0345551740106
0.0960562459354
0.0097502786779
0.0192871942272
0.0341865789218
0.124781348231
0.17492260876
0.283609918221
0.13428354047
0.254072443283
0.274285898448
0.253169646823
0.222928349056
0.277806500906
0.262533590743
0.337800955361
0.362343277272
0.338146563311
0.670764554111
0.385216252414
0.35066966235
0.513210505978
0.381837216266
0.466165828384
0.505877554379
0.367598310483
0.221316359055
0.283751719634
0.335146765278
0.361622880054
0.259229482683
0.0911850458865
0.136766560446
0.406653987883
0.0088118496956
0.0565156622287
0.0571639105167
0.0991130530718
0.0114625654745
0.074587561786
0.214681259701
0.298129988662
0.166843327244
0.305448950035
0.0574349827174
0.0250431538936
0.0628717383307
0.181021911496
0.259982651354
0.236147623016
0.305464842151
0.183759347765
0.144131029419
0.181130564169
0.241433002361
0.127130829258
0.134595612227
0.127977048645
0.177933440527
0.31202699654
0.289856016795
0.392961907394
0.479441529788
0.489505253656
0.740243886357
0.665998671339
1.25007296197
1.22387528288
1.31868589497
1.23395000623
1.14799145039
1.00621941442
0.936430759809
0.920624556787
0.926516580457
0.504989949471
0.566153317648
0.964862434642
0.43796243787
0.095171128038
0.04702720914
0.165426523663
0.190269797697
0.118236585696
0.11195652686
0.28983255539
0.264570234038
0.044305515157
0.14666714928
0.282318603267
0.230616771646
0.293226702736
0.0923941958157
0.0320457850277
0.0480722932297
0.0366522650046
0.0821344124755
0.0614470865964
0.19848615872
0.53363914909
0.198352638937
0.0804645163953
0.151588274184
0.0102013559252
0.0244356773326
0.0182422609126
0.0774843641875
0.216671976079
0.381334496276
0.447926093335
0.52568561549
0.949376824475
1.32914373273
1.45564986523
1.53057139948
1.65142047144
1.7983791722
1.84043263686
0.96954807053
1.62686490364
0.823693289223
1.48729894728
0.237402855316
0.579188120901
0.261179852198
0.0978669332726
0.110156559751
0.178221146963
0.126215325017
0.180927231791
0.26716313977
0.0943551696214
0.0800040815416
0.25979004091
0.309384758608
0.277388742799
0.310249176288
0.166856202771
0.219637213562
0.269523056778
0.079352581039
0.0930040248526
0.223863965296
0.297355203621
0.226449856216
0.375182071814
0.198617200736
0.274735373209
0.284057531496
0.228801165728
0.338329344958
0.324827653537
0.193743544734
0.244630685849
0.249172511148
0.419599044187
0.692182632016
0.161575362736
0.204242115658
0.347291884026
0.315375291252
0.307558135495
0.307445461127
0.333125272792
0.215489256027
0.182266075762
0.0749340554544
0.184735827624
0.215115758584
0.226539399693
0.176437064024
0.154531964527
0.14781936525
0.144692459017
0.14296748881
0.132514093662
0.18986557875
0.198379672825
0.192097107911
0.179476475095
0.190632625362
0.175784861746
0.193361793038
0.195495207929
0.208572138272
0.18977662962
0.180347982187
0.22045722436
0.252427387908
0.214343832123
0.22071265598
0.256289913022
0.250647451995
0.265399209789
0.276952923059
0.294687291519
0.296252788012
0.310096746314
0.35139092648
0.342777502121
0.344724592246
0.336871806383
0.341380028652
0.336776001281
0.356231169283
0.345749125382
0.352532736014
0.374508086593
0.399375539407
0.41284475057
0.396648772662
0.421665528765
0.493126569782
0.459390518423
0.422616970504
0.438398320847
0.448603542298
0.430669609161
0.426170559945
0.417711224671
0.441078939179
0.485746425085
0.475537151644
0.490486684643
0.51610673753
0.853470358134
0.435538699949
0.514234812466
0.516140197695
0.516169840418
0.515116445771
0.567030087151
0.508980127773
0.542871929989
0.583338520685
0.545736362326
0.628449723341
0.5164205986
0.539706443828
0.544989876573
0.584936745522
0.516536484674
0.527805399434
0.527196034638
0.510643396721
0.540023174391
0.521781137792
0.511926358109
0.50101056285
0.468152149649
0.475898987304
0.420795917585
0.420976720401
0.409910948489
0.40918291867
0.386527919872
0.360016168998
0.386214379078
0.421025842385
0.434580710121
0.324008589532
0.299283779675
0.325469318537
0.309682041465
0.250706060935
0.282594098145
0.26202017255
0.294187207467
0.462801971969
0.388441249111
0.261996926436
0.232678131515
0.380532006994
0.369536823335
0.341284739634
0.282027595825
0.216571451052
0.315352174098
0.266236998427
0.209097072975
0.284783869476
0.225170025105
0.361084760119
0.34117248067
0.416035481167
0.444860491609
0.466860650419
0.849749224416
1.10725341857
0.833194680404
1.10271084613
1.03146473129
1.16466930073
1.03269483118
1.01843810635
1.05979809098
1.08652607583
0.821945734952
0.469146606432
0.539427174376
0.421030369491
0.235368723331
0.122858325585
0.155461096091
0.0645577512962
0.151837628592
0.0844968668241
0.081921342693
0.0770011574737
0.248278176553
0.111973918694
0.164630003387
0.0111533898271
0.0299821331533
0.0850469997592
0.182560751242
0.151956988907
0.149390232295
0.246682116698
0.0985296325963
0.0174878666687
0.0977410373048
0.250160582844
0.161557700697
0.103479818597
0.1559235921
0.0320983698696
0.0338365930668
0.0492950959753
0.000314154984833
0.0093914654103
0.0579618255976
0.158723394281
0.133236472657
0.100000521356
0.121253947884
0.282075610043
0.230825127441
0.280127570121
0.354683568106
0.459132810471
0.473036479612
0.935936380002
1.31206615051
1.98826604881
1.55778986659
1.92075450803
1.65785535433
2.29616836392
1.42129763848
1.81229860054
0.55289885283
0.672186267891
0.424785789508
0.739255084488
0.0826667860861
0.109319605341
0.262437529879
0.137850076119
0.30008690838
0.26843428052
0.138945462011
0.166728421193
0.354722723497
0.32777199561
0.212199142781
0.389981430483
0.41486166248
1.11690778891
0.300781729575
0.639167543629
0.392172510467
0.457797565337
0.479988594404
0.375908999804
0.391419791157
0.392913030891
0.376459695403
0.367907896018
0.241534323157
0.25669740634
0.255317859545
0.229248426882
0.199646044212
0.211634107623
0.20740610524
0.253226045238
0.24133958215
0.238330249527
0.203249457523
0.250084680046
0.255755103368
0.255867248343
0.265807555283
0.231137151401
0.282603664273
0.258619340638
0.278049140585
0.282245214495
0.303381961615
0.298367051788
0.311377644366
0.310215498476
0.318914118773
0.329452992152
0.320186125946
0.297715402594
0.303103260913
0.340962469131
0.383387484018
0.353028057908
0.364067660896
0.381275083566
0.374384085511
0.388061555507
0.389966520169
0.435924446986
0.435400020184
0.400576176495
0.414376865563
0.450357388535
0.455972069529
0.465856186397
0.424971757005
0.472790759361
0.52908944191
0.522488110402
0.482504768386
0.582464287675
0.518939152729
0.5451543421
0.746148480043
0.508686045708
0.634772806893
0.519967165862
0.906092180799
0.707505797993
0.963884416552
0.818769068091
1.07999906112
1.19696521094
1.35091130635
1.43597162836
1.44974783219
1.5549927005
1.37947951558
1.81904857981
3.56770998138
1.95109642158
3.26363849835
0.238533957804
1.08124803158
1.20739310858
0.0601173441936
1000000.0
0.0
0.0
0.0
0.0
0.0
0.0
0.0
0.0
0.0
0.0
0.0
0.0
0.0
0.0
0.0
0.0
0.0
0.0
0.0
0.0
0.0
0.0
0.0
0.0
0.0
0.0
0.0
0.0
0.0
0.0
0.0
0.0
0.0
0.0
0.0
0.0
0.0
0.0
0.0
0.0
0.0
0.0
0.0
0.0
0.0
0.0
0.0
0.0
0.0
0.0
0.0
0.0
0.0
0.0
0.0
0.0
0.0
0.0
0.0
0.0
0.0
0.0
0.0
0.0
0.0
0.0
0.0
0.0
0.0
0.0
0.0
0.0
0.0
0.0
0.0
0.0
0.0
0.0
0.0
0.0
0.0
0.0
0.0
0.0
0.0
0.0
0.0
0.0
0.0
0.0
0.0
0.0
0.0
0.0
0.0
0.0
0.0
0.0
0.0
0.0
0.0
0.0
0.0
0.0
0.0
0.0
0.0
0.0
0.0
0.0
0.0
0.0
0.0
0.0
0.0
0.0
0.0
0.0
0.0
0.0
0.0
0.0
0.0
0.0
0.0
0.0
0.0
0.0
0.0
0.0
0.0
0.0
0.0
0.0
0.0
0.0
0.0
0.0
0.0
0.0
0.0
0.0
0.0
0.0
0.0
0.0
0.0
0.0
0.0
0.0
0.0
0.0
0.0
0.0
0.0
0.0
0.0
0.0
0.0
0.0
0.0
0.0
0.0
0.0
0.0
0.0
0.0
0.0
0.0
logs/alpha_0.7/PGSD_700steps_3.log 1000306.71587 1000.30671587 0.211916625202 1000000.0 0.0 830
