Policy Parameters:	-2.23072375329 1.53562596822
Control Steps:		1000
Start Time:		1438250562.5946245

-- TESTING STOPPED --

Stop Time:		1438250728.4288516
Duration:		165.83422708511353
Cost Matrix:
0.0809441746301
0.122185673655
0.102094303262
0.16495922191
0.201472021257
0.175443815834
0.175542524707
0.20396348798
0.215116047896
0.274622366635
0.414932161143
1.03331005443
0.326146871544
0.369045919726
0.376276727913
0.421506563026
0.470617846014
0.373463588211
0.422633637476
0.389916414461
0.343929969773
0.380897969647
0.387111371912
0.392584326989
0.319774642755
0.139187881176
0.262008110433
0.301425590859
0.0962086438377
0.0715958241125
0.139560860793
0.206218140335
0.204468127238
0.233459745675
0.241161206127
0.292379112589
0.350779053062
0.49042129563
0.633424463872
0.437603454135
0.469279240181
0.506614051608
0.554504461296
0.539785182571
0.537452292839
0.561064982595
0.55426943433
0.508799905597
0.488237029586
0.461042914542
0.477193472094
0.434388652783
0.343863391157
0.315746006615
0.296867142783
0.11627297428
0.0573187291911
0.03913245899
0.0344833728832
0.089371384512
0.119851435922
0.146104107503
0.116991858829
0.134747432818
0.0797766750313
0.145787977777
0.0673097288562
0.118689828484
0.0777958222801
0.129776614638
0.0983506217261
0.0953784364076
0.0607635351496
0.0420412947311
0.0382687539602
0.0941635267807
0.0493571875362
0.0415520567205
0.0215509876385
0.0134072393658
0.059063908291
0.0719910289211
0.124725163503
0.041157042378
0.0435578467706
0.0606479688759
0.0184226639618
0.0219740319485
0.0710904731274
0.144830417608
0.182208563637
0.0574751006635
0.1347579947
0.206971616108
0.0996833551127
0.0533893853632
0.0560274744343
0.0358148245618
0.0335871044988
0.100679316324
0.149710027451
0.0666816425203
0.137945230793
0.133738636538
0.0777375896458
0.178646817706
0.138638842457
0.121376183753
0.146389481691
0.145910951462
0.17913078694
0.174046756579
0.170288807386
0.105640056923
0.190066500157
0.258434215247
0.196072387484
0.289605002321
0.26412474588
0.26434114564
0.324409036102
0.438989684674
0.408506911024
0.423765437321
0.525396130253
0.617596843644
0.770065243967
0.655923242915
0.830186664698
0.604123188979
0.879497016519
0.594191474789
0.932722735122
0.556807673834
0.779238438737
0.415146557679
0.324584941122
0.267023960999
0.0983017974978
0.125861164282
0.029616034194
0.105009292377
0.171960477445
0.0756686980546
0.0935341987303
0.139833236411
0.0841845441012
0.0776467493981
0.0557724528511
0.0187841104314
0.0540752606914
0.0636856937757
0.0469296957303
0.129189527917
0.12439390072
0.0254128815374
0.0231033873131
0.0642107226118
0.0895997288062
0.0255274999337
0.047061178563
0.0654481413266
0.0213999024997
0.0100789155333
0.0648874237893
0.0801118109002
0.118498466783
0.148033703616
0.153001428132
0.138666182387
0.14480551199
0.134488561788
0.173146790647
0.194634884802
0.206805559045
0.199261180025
0.213022647071
0.233411149657
0.242908446471
0.247638515266
0.25505586552
0.257254184862
0.254227808084
0.235184235312
0.254722499692
0.278094990964
0.249032354082
0.24012164971
0.227419555059
0.238394417655
0.237884544539
0.230897966086
0.250644367964
0.248599855398
0.159642822938
0.140507851186
0.124712524983
0.111364745816
0.0880455540834
0.0265213794848
0.0364919540307
0.139229448904
0.257503618549
0.2979937036
0.262284959608
0.260739429892
0.298662284131
0.41694179023
0.546082290256
0.613082057055
0.795944292222
0.673045901926
0.802362071768
0.611994475953
0.928590315993
0.632668540814
0.584641097367
0.672696765357
0.621318542722
0.569705914942
0.349317426201
0.430855480942
0.174719753773
0.145488029343
0.0377788434582
0.0392058178137
0.0418011859906
0.0881032832353
0.131358705246
0.135231550189
0.137010128729
0.152279710749
0.169439522586
0.177475412956
0.168380054366
0.214152659827
0.271270526986
0.290151293161
0.261847146779
0.236693569701
0.268821201923
0.197510811937
0.175993070348
0.172951924129
0.207835917265
0.247011785425
0.200340240237
0.202487822536
0.182661508898
0.107437879986
0.113724346185
0.138899212226
0.152181657618
0.143098908083
0.103441239668
0.044297612149
0.057388304701
0.0488573878955
0.112593813205
0.173056364059
0.13728068333
0.152382526462
0.104739292615
0.00751894761964
0.0525078412814
0.112998969893
0.013999013738
0.0470597454088
0.0970412952326
0.0348686848669
0.0398343188777
0.0444239666929
0.0689189949456
0.11459743513
0.0396616945855
0.0454650308979
0.0994346968851
0.148312506836
0.0910456497472
0.15320291788
0.0834316544877
0.0359150318554
0.0657661883694
0.0852965682742
0.0226924243547
0.0379629044853
0.107821075743
0.155768083694
0.0537494539727
0.0825513824301
0.0319359978894
0.0430075417407
0.0241346293718
0.0184295859624
0.0242683733726
0.0669124034772
0.0403514407554
0.0260551668145
0.0483184893244
0.162929672794
0.180353313874
0.0468993776842
0.107888773437
0.139870351166
0.169237357768
0.148982361855
0.155789008758
0.143134325546
0.209773499099
0.239803908777
0.277226796464
0.271132496212
0.255282910974
0.365207962756
0.427878307032
0.452366743699
0.545004421936
0.786302359536
0.662063500994
0.761248122955
0.6315347944
0.854298672666
0.707745565594
0.669311485914
0.573212868162
0.560558594174
0.581595087341
1.01508421735
0.131402978264
0.0294025775743
0.0843944552041
0.130455369109
0.0936422216696
0.0517076166146
0.0999190879092
0.146175018471
0.187939691512
0.166864995408
0.148681683659
0.181626124549
0.153894695425
0.147979562424
0.13891793431
0.206830614448
0.182923436467
0.252974824604
0.276889183016
0.328922853858
0.347782657586
0.358777607549
0.465655669626
0.55059877365
0.570779552186
0.5815140283
0.650196056525
0.782163446665
0.604027698442
0.821687478051
0.750052550346
0.753473446479
0.709849421651
0.537146223129
0.362648486397
0.175765079096
0.1303756747
0.146257122159
0.0864217104232
0.109766163863
0.0617077089742
0.0562077870551
0.0339225060503
0.0823737265999
0.123740330817
0.132512037448
0.0543775979985
0.0486839844855
0.100920881187
0.166687183055
0.168154655537
0.134664374889
0.160117265528
0.167605604401
0.195873875586
0.226412433444
0.255836716093
0.241740343973
0.24777683057
0.278692617573
0.316528728793
0.29530247093
0.296836627604
0.294058103249
0.295552898853
0.286294776323
0.307538238255
0.312179141991
0.281242887436
0.245294751235
0.24938171207
0.169940835516
0.149661718093
0.106301272769
0.137416441206
0.108573997104
0.116267401543
0.108652261385
0.100581652639
0.122796831646
0.0965620855459
0.131948730585
0.0998903883757
0.141556038318
0.140161030119
0.0767491273455
0.187244625065
0.135432653571
0.206144573736
0.16410477176
0.054512052769
0.143169558555
0.0698442651233
0.0898903297117
0.0584055976433
0.0972666533133
0.172576591244
0.206057308803
0.148810643471
0.084068102602
0.154180360861
0.190313178398
0.139795987725
0.168550173785
0.245981254169
0.194418702324
0.196134812696
0.218752978676
0.294811987081
0.290390135473
0.323744508253
0.203622878527
0.234725507783
0.211117621257
0.21852048548
0.281940722321
0.201366853654
0.150651326429
0.135226795531
0.127868707266
0.0520933558073
0.0144384694631
0.032892035759
0.0578894402567
0.0652232642139
0.0543740888051
0.0942888009962
0.116265692023
0.0671398572185
0.0673154313615
0.0635510352568
0.0957935316755
0.157761177923
0.150459895478
0.0894807665608
0.0906674427694
0.0893449541601
0.0944046636127
0.100516511981
0.110486761821
0.130103378775
0.155092808138
0.147818354038
0.136215917895
0.193017214344
0.207382496387
0.215432241844
0.206188395072
0.200625727465
0.212980438535
0.266111476732
0.297900035122
0.333377877593
0.405652328781
0.527547876985
0.66907515172
0.99891111074
0.983022260748
1.14305825329
1.07114151572
1.13471735363
1.15137321148
1.03882797441
0.817559053277
1.29528658131
0.986541260089
0.575673668472
0.676081334602
1.00203918379
0.114410785271
0.0831207616081
0.0808937819054
0.107301204597
0.12435598026
0.0737005058218
0.045123216421
0.0327612384907
0.0751852477736
0.0977793029543
0.0281226996811
0.0787667610025
0.195124433826
0.103868756448
0.111652974248
0.0449545533033
0.0931053016903
0.0760453196494
0.00939549940113
0.0853464859409
0.119501721974
0.127002217244
0.136586359529
0.18752860186
0.18215106906
0.163661981359
0.151161641589
0.170596999076
0.191109977319
0.209622648892
0.212963182412
0.222982844543
0.235167526341
0.249687942297
0.289958299357
0.354264672595
0.401131362129
0.434685145695
0.364100869061
0.401865979524
0.471037151179
0.477544511852
0.494807965518
0.510374864375
0.496440205649
0.474704003516
0.475165606241
0.479859689702
0.396608610465
0.380242204675
0.35851888263
0.281495292534
0.257234327595
0.196608868282
0.0812956684265
0.0552127360739
0.0373983318522
0.0168747864697
0.0441937651361
0.0813734696501
0.121492300975
0.166921419896
0.174042279462
0.177618089252
0.178481693315
0.184249437158
0.201336779215
0.194670045695
0.209212969137
0.20772050242
0.214309851273
0.224987913642
0.219554921272
0.241535546823
0.241935937669
0.27429818488
0.279435232673
0.291168629124
0.305009529117
0.319465576366
0.325425534749
0.33708998567
0.356562339811
0.360440741635
0.36292080051
0.406831653615
0.442943179941
0.466976165939
0.476819774154
0.503097858783
0.530600369607
0.578056688341
0.779954619894
0.55260933668
0.809023267072
0.680802497791
0.881572792458
0.750245659008
0.984037235675
1.00283645006
1.20367208063
1.06299196535
1.17714204574
1.02071460951
1.35998266163
1.51468856638
1.44504252081
1.50387820492
1.57442442861
1.63736528175
1.41047901114
1.71700631927
1.45114499345
1.9691025175
1.44111373997
1.2905358347
1.67312251031
1.69322680691
1.39209035584
1.40151403261
1.2899203121
1.29663088556
1.14657123173
1.224318937
0.910653042901
1.14359036687
0.886852691831
1.05160401959
0.904762103781
0.935796619858
1.029704095
0.934678218166
1.47454545249
1.22309067013
1.2240074803
1.14978897981
1.24670394953
1.32864012007
1.35398185261
1.07274483601
1.61191818122
1.50275149387
1.73205514986
1.88328459354
0.282486849616
0.813341205071
0.550972599285
0.776287483004
0.893557710029
0.471356381342
0.48008518463
1.27661247471
1.39246534695
3.03198129813
0.87011213182
2.68412842708
0.35839321857
1.31426262459
1.39049459054
1.09629681104
0.985425941056
1.3414094028
2.49738841513
0.351215853575
1.25855390605
0.539703355526
0.759958667286
1.1008794218
0.772520050741
1.15976779615
0.606278641216
1.14556419585
0.534938159612
0.930522107515
0.457865362069
0.793655133856
0.423907368629
0.556558834887
0.449668241116
0.386317583995
0.334939426252
0.284373121704
0.245279865569
0.316130976533
0.308640097855
0.377067750454
0.391162313459
0.265446333128
0.241111019295
0.254766749269
0.193041633021
0.20399887949
0.145810222443
0.116311767559
0.130923525925
0.0969315238886
0.100276370021
0.124100474331
0.121658068763
0.120281166326
0.0917568258984
0.124078488844
0.0275683887649
0.036876353514
0.029829410038
0.0364137469777
0.0725157991209
0.123384153347
0.0707972590717
0.0998274634683
0.0761018303147
0.13883411801
0.138028778379
0.0816465984039
0.0841880343646
0.190260662101
0.225386921071
0.0897388527389
0.187879972275
0.0479412619088
0.0319537524305
0.0588030377538
0.109065716117
0.106099438279
0.076758194262
0.0740196320357
0.0882871236171
0.0712956315676
0.0683392400934
0.115594438398
0.119439134938
0.0994662335887
0.160937706228
0.18822153894
0.178469250624
0.182366897102
0.186731872056
0.235597961563
0.297608891682
0.333650590593
0.409444099217
0.479497481695
0.595776370445
0.834465981914
1.00809650921
1.20292757773
1.06071356463
0.892285941051
1.72922136864
0.177482723015
0.254434524174
0.00771003903961
0.0668131493312
0.072259384836
0.11681742028
0.143020127373
0.117327310554
0.0790110270779
0.108942077403
0.162951491336
0.282014987099
0.303324661335
0.299820841447
0.293412640826
0.290747316726
0.288257883747
0.0794570457443
0.0371033587873
0.0823008772142
0.182738833213
0.0847671673495
0.111380946956
0.185188488821
0.172725769507
0.0679300019842
0.0709166989114
0.099744946898
0.104660589509
0.0774258493745
0.100247177158
0.193716541902
0.241028396292
0.13607466062
0.128982782558
0.122243251648
0.0896215465129
0.0995369678369
0.0871568671052
0.0332598248235
0.164489713424
0.299224301869
0.419822224269
0.577472137741
1.07303748637
1.34099312972
1.44611206942
1.57925019399
1.67458574543
1.63867192283
1.11742503514
1.87740539907
1.81981076554
1.08422248656
1.92544276671
0.941817092382
0.747292454583
0.342165051055
0.00645141792189
0.0507154771972
0.131438024621
0.126575381573
0.143736306499
0.166560028316
0.0724100598891
0.073297418702
0.0427299777651
0.143828258177
0.182605979066
0.180388732385
0.144508390255
0.018593287703
0.0429348104392
0.176656204064
0.342005438122
0.19689645077
0.176377578937
0.112174292913
0.0660752926127
0.0727503550013
0.15641005235
0.241953563923
0.200704283618
0.261024029975
0.213786535239
0.221941357732
0.314015807881
0.320623665032
0.343316903495
0.485863587951
0.491838429106
0.843484508832
0.897983499936
1.08987948989
1.66754794358
2.02040900633
0.671374820823
1.34181318115
1.36956551573
1.48411570763
1.8780984835
1.24395814792
1.3681397056
1.01788339534
1.21037796117
0.139431264972
0.14280715867
0.151282325896
0.105697880787
0.116519904856
0.0431632025889
0.101516143981
0.206917949985
0.14719354434
0.0367559693912
0.0472924443811
0.0744451352206
0.0632307255773
0.0196303485496
0.0611610350521
0.108928745424
0.113534918303
0.149291223981
0.0509710031087
0.0322183115893
0.0582371346178
0.135598640485
0.0915767636945
0.06824005536
0.166186495263
0.18935642416
0.172302402236
0.0433784174438
0.0487102992749
0.0403226450929
0.0454158534701
0.0206563365075
0.0378946528936
0.11535024572
0.158953221122
0.233238220603
0.194255701535
0.278695031343
0.180761763783
0.177765536496
0.164437341971
0.201467493169
0.283014042866
0.326403503059
0.171570673296
0.261868723065
0.330481251597
0.266417662125
0.199160981965
0.198967520507
0.254212831462
0.28733590013
0.285483563709
0.214545308725
0.144392342485
0.139510848979
0.161261699496
0.14832211776
0.0937251087444
0.18652582157
0.327325767859
0.432860589351
0.4584968572
0.476989368397
0.516547285814
0.603585563878
0.652126733765
0.729289467228
0.52889325602
0.616799288708
0.603904103925
0.540134780677
0.5352996062
0.533742173774
0.481471673033
0.390965947558
0.358645300941
0.317227264183
0.199984585822
0.15626558706
0.134951250337
0.172545033876
0.205248022368
0.198684342662
0.145699381143
0.109035330359
0.149305117756
0.109164896421
0.057911350187
0.0422830984623
0.0576595685205
0.0733730296914
0.0553053330224
0.0515000833211
0.0371810657499
0.0393555647388
0.11129669158
0.178145798972
0.179100037496
0.12302922594
0.148743320578
0.176407576267
0.237796531807
0.248277234985
0.205360267339
0.235692299372
0.277669341696
0.34502891739
0.325947900883
0.37464139657
0.37370022953
0.41531383814
0.367255101468
0.409979610571
0.439387205579
0.451655068754
0.409015977072
0.376141811795
0.338027903732
0.190239389402
0.252810295371
0.2183407054
0.187612629195
0.172674302872
0.159814740632
0.208443913734
0.204852475325
0.0557877896979
0.0741785084197
0.0138662001671
0.0134921235831
0.0638964033343
0.14443618261
0.0760575796799
0.111330510864
0.0725297207677
0.082824563664
0.129433803945
0.0315800269718
0.0411578184447
0.0015096861008
0.0143279213724
0.0541357272778
0.082370774007
0.0876730329975
0.0958611673929
0.102939129761
0.0469683389404
0.0707190614222
logs/alpha_0.7/PGSD_600steps_0.log 340.69757782 0.34069757782 0.187909831894 3.03198129813 0.0015096861008 -1
