Policy Parameters:	-1.26066700758 1.17151261035
Control Steps:		1000
Start Time:		1438251923.9108963

-- TESTING STOPPED --

Stop Time:		1438252045.194121
Duration:		121.28322458267212
Cost Matrix:
0.0210099489357
0.0654520639381
0.0818953241247
0.0664609614705
0.0890025022598
0.0845297270599
0.0397508000972
0.0375479573257
0.0263408203769
0.0252216351043
0.0355715501224
0.0404038755568
0.0377091452659
0.0697777860116
0.105962530998
0.123573606059
0.112084465906
0.0904677161068
0.092762347522
0.107835186713
0.0510644249546
0.0552730160153
0.0449595548817
0.049380334639
0.100019024329
0.137027141714
0.110237455719
0.115785642196
0.0974344220323
0.121909493553
0.153399021513
0.168671709561
0.155972501631
0.156092845937
0.201404744891
0.210981405926
0.248098304769
0.302475806508
0.385071805213
0.867408733468
1.53412536117
0.566975417495
0.815837060738
0.631538275526
0.778024572448
0.630847495508
0.584904886391
0.57926209576
0.663655574861
1.19551029591
1.54086627668
0.716279495102
0.859998476929
0.588004512168
0.530340483328
0.36866286803
0.229084292245
0.0820504728071
0.0572222073123
0.0360973508066
0.0528731981335
0.0590580677348
0.064326984559
0.116557611912
0.129588141383
0.124287284404
0.129113474624
0.157591226758
0.206338522916
0.233874789112
0.251207882975
0.265949804613
0.276137813294
0.288910571884
0.305741706552
0.332470218855
0.360436188663
0.352262972793
0.331310984943
0.331405046952
0.29473106412
0.31864750549
0.339390172584
0.295964686515
0.298824789289
0.300190684403
0.27861434682
0.284002368422
0.265803311547
0.223548340155
0.175086575244
0.0406374671557
0.103986897412
0.193559027325
0.241172171073
0.266722361544
0.332137021873
0.365876821336
0.302420486629
0.25104627802
0.294646097781
0.293262921874
0.237407879448
0.229776314503
0.262097061241
0.276881463903
0.211831837423
0.1414674057
0.111097163034
0.0195549460016
0.0508284579737
0.122364513728
0.190024354503
0.194909988624
0.174129826545
0.17585907087
0.153663878113
0.158329473901
0.151163194187
0.147784113646
0.128036910622
0.111471152272
0.143303249637
0.130488618465
0.0988658296528
0.0828671314229
0.127037530319
0.124808124896
0.0460481101742
0.0491669640356
0.0572154473808
0.0423723689413
0.052232151789
0.0514345446392
0.0425262261827
0.0136402160058
0.0336976010368
0.061711831793
0.0599768183863
0.0301742246651
0.0553310135544
0.0468027982561
0.0321398311623
0.0722772119018
0.0703737707216
0.0501965650131
0.0599846599911
0.0939898265739
0.132024441664
0.145971330688
0.147584093557
0.10298219371
0.116500174452
0.152996532231
0.232799109063
0.275651920714
0.254118500023
0.246291321397
0.241020681638
0.261185439263
0.274789961584
0.275684694096
0.278432027758
0.319825806297
0.314180586525
0.23686318896
0.294249439623
0.350122016774
0.317679186617
0.320876103884
0.31727642205
0.220655226964
0.191687142296
0.184597514974
0.147057601573
0.0641960982341
0.0379131463615
0.0899151926087
0.149170487218
0.19258029001
0.203737855369
0.203202356148
0.213793880294
0.240917118984
0.245454514915
0.227808149823
0.218904401621
0.222262085067
0.225962228964
0.244120479882
0.24974181165
0.239448241894
0.206138956915
0.232505987999
0.211641361609
0.143371601984
0.112479973623
0.0958394107472
0.0531575049213
0.051880752273
0.0905712635768
0.136186402901
0.187413240005
0.219055815552
0.265532069095
0.319899911231
0.32101907485
0.311466818198
0.318809607223
0.363130898388
0.408054332108
0.412877210525
0.40754262625
0.40721362184
0.406793527692
0.42463989695
0.485986903991
0.480303937628
0.379061209748
0.285327018456
0.247502460592
0.192548975752
0.139447037367
0.0878377688497
0.0586261121482
0.0846033257659
0.177676873206
0.201071951533
0.133995634223
0.13387806857
0.151763915158
0.187930736845
0.216383482616
0.194082021511
0.145704938757
0.154183728772
0.161863895351
0.160322192781
0.118036421891
0.114934201102
0.107052757517
0.0850450434608
0.103677446979
0.011566239852
0.0481389047641
0.0691392041922
0.0451820550393
0.0345141186685
0.00703215550179
0.00634233786758
0.0095991087927
0.0409440543788
0.0518307711766
0.021680669842
0.0341291824741
0.0564743255551
0.0715317459769
0.0777672751651
0.0179099172685
0.0311693906831
0.0454269287333
0.0363103349636
0.0337652079435
0.0357158651993
0.0446324967039
0.0512065763639
0.0617030260559
0.0717173634241
0.094906288786
0.0746940245945
0.0642993799483
0.0452032521917
0.0519489986101
0.0408787756466
0.0345295815288
0.0459137223574
0.0508960221033
0.0886542835263
0.106353029801
0.0688866557583
0.0998947858538
0.132175392993
0.134211589857
0.138551295068
0.139279771523
0.164504091237
0.187044220106
0.178329579416
0.2001734331
0.28317745167
0.319859629655
0.33205035282
0.335696768028
0.289680457501
0.286929571213
0.285490954167
0.301610402738
0.347251976757
0.378884383944
0.369648119088
0.342115504569
0.353386107351
0.353531864529
0.280261915693
0.25607923916
0.195095550847
0.0946780428135
0.00466788384597
0.0176894184388
0.0436182269659
0.0695879099291
0.0917314372445
0.105895346424
0.104969747595
0.111842492717
0.0921241154912
0.101060827941
0.116650124554
0.110067165561
0.122167366799
0.161258369551
0.156464991178
0.162353682605
0.190989520413
0.232530496579
0.284171598719
0.325208759828
0.34709897338
0.343159058439
0.331521097652
0.360650533986
0.356353056255
0.299848141937
0.307373801218
0.298391104387
0.293432230354
0.309591440027
0.28952441118
0.300270592886
0.363222771779
0.314802438239
0.14897193803
0.167277975399
0.157773367645
0.13374387575
0.144995130672
0.102818221653
0.0345362623879
0.038924643667
0.0749923452874
0.0781658776366
0.0437414689633
0.051550795019
0.0262622742024
0.0172836900997
0.0110990692841
0.020798047305
0.03868424767
0.0355624113136
0.0168960484118
0.0239425773105
0.018792918197
0.0145757316192
0.0505896975761
0.118021489011
0.170535806864
0.182591385516
0.198240481904
0.220677337024
0.246683231526
0.267763464026
0.264558675903
0.26582518589
0.243931508467
0.265456935403
0.278709258709
0.241198315943
0.214624569104
0.197400809959
0.177965044022
0.131193593089
0.111926786634
0.171693924432
0.156509702069
0.049134002909
0.0325721792669
0.0815720174703
0.112819392696
0.0830128744156
0.100796924285
0.0847871019909
0.082551905374
0.0837623356888
0.0862254318221
0.0759221534594
0.0544847775373
0.0583941981713
0.048789541086
0.0457599915264
0.000656889280965
0.0176676158142
0.0214555885653
0.0205067710644
0.03890471275
0.042852586857
0.0274543442703
0.0352101914584
0.0453187770902
0.083909173895
0.103987150152
0.0752822449223
0.0684591003725
0.0424526001146
0.0240190930238
0.029875114821
0.0181380696292
0.0340131714061
0.0496932659629
0.042457675303
0.0392438674518
0.0217783687261
0.0294846153627
0.0474077894834
0.0501094505277
0.0501985059668
0.0633414418142
0.0243495854695
0.0812497086322
0.105320722403
0.0517671126762
0.0666823303424
0.0328833833744
0.0129539360582
0.0104476444119
0.0988294814539
0.151279505393
0.152324204293
0.125323107739
0.050016277353
0.0451674031079
0.0314331189412
0.0357659598089
0.0242789362978
0.0168739681743
0.0066178363065
0.0546859039866
0.0727880525948
0.0847782202453
0.0943740185297
0.132107745755
0.161208262947
0.0834008978653
0.11695081542
0.173725408072
0.194792636107
0.20314616312
0.208913021103
0.216154091782
0.256266395981
0.288023693028
0.328503977072
0.378935878443
0.455957431568
0.556763689915
0.628033349596
0.662329020914
0.705070409912
0.784824288414
0.664632881241
0.638495830092
0.742710714001
1.03405011033
0.638518828355
0.614042178681
0.573931014356
0.324702523589
0.186371886715
0.0735192134473
0.164888275548
0.171700851459
0.0316260793764
0.0562808789718
0.100816278696
0.111256458828
0.0578846516103
0.0560355888063
0.0484852973458
0.0393533703759
0.0133089735006
0.0358854218023
0.0585028532401
0.0683083775481
0.0787558466701
0.0549835187087
0.0177217126296
0.0317577353143
0.0729130335188
0.105047819295
0.0915443142359
0.0404421323008
0.0204438873019
0.0135134381146
0.00913097501284
0.017653093795
0.0387750139869
0.0634037839176
0.121873771078
0.169608359096
0.176434890194
0.184847546405
0.183088333557
0.177610814584
0.192067133754
0.214013825016
0.24468747056
0.281500314558
0.302073863659
0.336775995435
0.357696904756
0.378756322922
0.396450907872
0.395587532585
0.427286516876
0.429243624436
0.422147500683
0.409213906379
0.407481642338
0.408606306978
0.388947707032
0.362697218274
0.355630798345
0.294205701251
0.206484168138
0.221294690679
0.213425540815
0.062464802465
0.045506441303
0.0199338189778
0.0184374251398
0.714378687376
1.36586529469
0.0295239125924
0.0480416919812
0.0578081577659
0.055181304563
0.0311863468099
0.027249306003
0.0454701437063
0.0544376860337
0.0282628878216
0.0323582043978
0.00788844149791
0.0169529237336
0.0275975865592
0.0409073720908
0.0596450721568
0.0707553362345
0.0699863746619
0.0649729159855
0.0674122184948
0.0663338592579
0.0526950290033
0.0314507212107
0.0267996268018
0.0340910978375
0.0172069810725
0.038732319892
0.0539421037977
0.0477652802016
0.0452749106919
0.0371321464152
0.0372450884357
0.062383835753
0.0756993952032
0.0787727946227
0.0697792800629
0.0461945058748
0.0430478124035
0.0485680742713
0.0574817986453
0.0332543348748
0.0430477787805
0.0733053336471
0.0826383353792
0.085415878892
0.0987537674632
0.0926736481054
0.0745489606002
0.0619564958959
0.0697892260488
0.077054997724
0.0938387758771
0.0816854896875
0.0529980241952
0.0535050357165
0.0822725711522
0.101082587219
0.089192094476
0.088394733899
0.103586380945
0.107850868697
0.110275614271
0.106902246573
0.101199548671
0.0970900857976
0.100818432399
0.102247563831
0.104462456325
0.0800550422151
0.0612809650109
0.0967467306398
0.101570758369
0.10765426339
0.115410678379
0.116420238706
0.114470846429
0.110422365299
0.112761997522
0.117415011102
0.091093563505
0.0821662998115
0.0878889574501
0.0595771130833
0.0849729014254
0.097684668721
0.129004608677
0.141182459187
0.132292159883
0.0960858675966
0.0943566085804
0.0857869575297
0.0395079956444
0.0757300011496
0.110366397401
0.120118395642
0.13412152725
0.132461810464
0.136837309247
0.140226872239
0.140557869019
0.132670652581
0.132134558189
0.142978328199
0.149581583226
0.137783580254
0.127085398271
0.140398097667
0.142761045785
0.146011842303
0.14611134697
0.152138557328
0.146782369263
0.147776130434
0.150724139838
0.155236227012
0.140165434626
0.118286223604
0.150641234297
0.162711560274
0.161697759995
0.158381750993
0.155427355207
0.155778165675
0.164529545657
0.171838272956
0.172684347881
0.164182933916
0.159734177034
0.162672169924
0.168053801769
0.17045951954
0.178523202622
0.181061408268
0.182254306875
0.187732921919
0.179040344522
0.175683553376
0.179905645742
0.177666276272
0.177033773403
0.179533555284
0.187139350947
0.199631585364
0.192002530658
0.168068453393
0.142960397689
0.112974280415
0.129113598716
0.138838334
0.146488435441
0.155292858905
0.142589400587
0.146108527941
0.119778274912
0.121595351628
0.0948617308372
0.0280205153094
0.029695893252
0.0466135067843
0.0486982805812
0.0439102283638
0.0500912847983
0.0548050583564
0.0536445363816
0.056434980594
0.0608046098964
0.0675996639982
0.0912756682871
0.0982062332658
0.0938533934365
0.0824792279634
0.0241681033632
0.0122178440903
0.0489478749224
0.0975224376114
0.150374439596
0.171661828199
0.170534015577
0.173293648588
0.172322216445
0.174173047202
0.178570142051
0.178931933045
0.185381560824
0.194889465329
0.214209317107
0.220216445688
0.222469366989
0.220410430043
0.222086570312
0.228780890215
0.230009033094
0.225280309212
0.214455162398
0.212359779748
0.21802714402
0.219844236625
0.216656231989
0.208988446637
0.205404825018
0.199152137096
0.194596431646
0.193786944149
0.200036378832
0.207222166869
0.201516520333
0.200847063141
0.19798925818
0.190151704703
0.186058831776
0.193689738112
0.19615897343
0.194205400625
0.19854495315
0.195804171314
0.187668992641
0.190564150304
0.192821291963
0.191992128686
0.193813120119
0.18106080089
0.200536560667
0.209977245567
0.175528584813
0.174140552701
0.198012040022
0.195622430147
0.18732577394
0.188207028104
0.18186886479
0.180535952525
0.187672854758
0.188534769975
0.180690686302
0.166620208718
0.156444531258
0.162265019162
0.160050409459
0.139026683619
0.104985264523
0.102550242146
0.118289986282
0.11839154431
0.112640600311
0.124479958517
0.133548194501
0.132957104077
0.13035497564
0.1276316344
0.124047459597
0.127308671771
0.12447183947
0.126926993816
0.138680544693
0.14873286384
0.15958488283
0.17801090924
0.197168048122
0.208789706099
0.228454242038
0.239141645052
0.223976118485
0.232994307764
0.283372455497
0.285481849444
0.276014850806
0.392363172047
0.351260574181
0.243289401828
0.857623575023
1.57551320967
1.22787078035
2.17505726434
0.32657890466
0.393735923351
0.119561185094
1000000.0
0.0
0.0
0.0
0.0
0.0
0.0
0.0
0.0
0.0
0.0
0.0
0.0
0.0
0.0
0.0
0.0
0.0
0.0
0.0
0.0
0.0
0.0
0.0
0.0
0.0
0.0
0.0
0.0
0.0
0.0
0.0
0.0
0.0
0.0
0.0
0.0
0.0
0.0
0.0
0.0
0.0
0.0
0.0
0.0
0.0
0.0
0.0
0.0
0.0
0.0
0.0
0.0
0.0
0.0
0.0
0.0
0.0
0.0
0.0
0.0
0.0
0.0
0.0
0.0
0.0
0.0
0.0
0.0
0.0
0.0
0.0
0.0
0.0
0.0
0.0
0.0
0.0
0.0
0.0
0.0
0.0
0.0
0.0
0.0
0.0
0.0
0.0
0.0
0.0
0.0
0.0
0.0
0.0
0.0
0.0
0.0
0.0
0.0
0.0
0.0
0.0
0.0
0.0
0.0
0.0
0.0
0.0
0.0
0.0
0.0
0.0
0.0
0.0
0.0
0.0
0.0
0.0
0.0
0.0
0.0
0.0
0.0
0.0
0.0
0.0
0.0
0.0
0.0
0.0
0.0
0.0
0.0
0.0
0.0
0.0
0.0
0.0
0.0
0.0
0.0
0.0
0.0
0.0
0.0
0.0
0.0
0.0
0.0
0.0
0.0
0.0
0.0
0.0
0.0
0.0
0.0
0.0
0.0
0.0
0.0
0.0
0.0
0.0
0.0
0.0
0.0
0.0
0.0
0.0
0.0
0.0
0.0
0.0
0.0
0.0
0.0
0.0
0.0
0.0
0.0
0.0
0.0
0.0
logs/alpha_0.7/PGSD_600steps_3.log 1000145.19462 1000.14519462 0.103832172196 1000000.0 0.0 816
