Policy Parameters:	-0.967236329625 1.19301096914
Control Steps:		1000
Start Time:		1438259015.0818782

-- TESTING STOPPED --

Stop Time:		1438259067.2828984
Duration:		52.20102024078369
Cost Matrix:
0.0458322962722
0.100888167293
0.144332879402
0.201656909989
1.02063359342
1.47793621926
0.147902871026
0.271134625322
0.346779745936
0.469483688237
0.612220763659
0.696548880313
0.743759236906
0.747165840328
0.640835195707
0.671766643209
0.744603397516
0.706240518699
0.671022487449
0.564073181423
0.532277912146
0.504260444147
0.363482944449
0.211197105586
0.0704060235854
0.0337928885632
0.0392287812132
0.0747716036443
0.0874166262857
0.118887826937
0.151961154938
0.148383829499
0.121799200093
0.0896812035237
0.111607166135
0.158654883279
0.142004173514
0.165712089184
0.190850258093
0.162913930326
0.171759433648
0.176735725477
0.14745128892
0.133852410186
0.125060001949
0.117937752474
0.123536763047
0.128363885213
0.108400528447
0.0971996673514
0.0885514528023
0.0425519510439
0.0544946389195
0.0913351055251
0.102359769412
0.0968474569552
0.0748347523279
0.0502490674243
0.0224218266626
0.00892772803121
0.0223154294051
0.0173362637221
0.0230394085855
0.037722102294
0.0283908453006
0.109901582365
0.152619052986
0.101475122709
0.0775225974781
0.0740013338066
0.100622403564
0.114940002063
0.0879360258849
0.0866083746825
0.106946626936
0.148322033835
0.140570750117
0.114201488234
0.127452561858
0.149201258749
0.160548152026
0.159895542908
0.10364663759
0.130253572165
0.136371860123
0.0942923308499
0.114038502211
0.141564571662
0.142101339361
0.153848363737
0.160606957671
0.150230394899
0.134834438597
0.10114234221
0.0637156789753
0.0661515898198
0.0627155324273
0.0992587706538
0.119148955448
0.0678033346002
0.0282906246542
0.0451242273936
0.0544457677989
0.0216149670178
0.0440132929882
0.0590930761203
0.0354774218062
0.0443135365336
0.0428169434403
0.0285066437428
0.0270510094951
0.0240468262768
0.0541116144273
0.0892446716137
0.095323648918
0.0611092679688
0.0274455688673
0.0485723027688
0.0844181575506
0.0993677880552
0.092193238446
0.0626095783379
0.0951908819052
0.111661062146
0.095340984421
0.0926393465947
0.0965940369213
0.13353737295
0.131853889135
0.105032443721
0.104916580974
0.138987396824
0.167280586591
0.192951424689
0.225703975054
0.213194279923
0.24465189224
0.260523736246
0.249318453319
0.257853533915
0.282499514028
0.295243086473
0.264087472776
0.22285299441
0.247982988521
0.307433836946
0.341483010358
0.336993240727
0.331770301852
0.29919585309
0.290126232933
0.306208132546
0.231701252384
0.0720491267101
0.0179350333488
0.07105199259
0.109054571803
0.132483034696
0.142860602303
0.182831659811
0.204394715013
0.183260709176
0.16827711935
0.183178251971
0.201788921173
0.203879151195
0.171756783448
0.172666996073
0.189842368899
0.158591854682
0.139526483195
0.131688681891
0.0988552396878
0.0860183229178
0.0836641810713
0.05471878409
0.0462596880976
0.0408990730025
0.0379472147899
0.0465162527736
0.0189490871475
0.0233614954448
0.0163845426446
0.00980996032581
0.0450652026064
0.0431942483159
0.0222770409466
0.023322936008
0.0320349935562
0.0304217112783
0.0252497043251
0.0380104619059
0.00903904660793
0.00862094484438
0.0297113833787
0.0445451930111
0.0505132910829
0.0521628150706
0.0620801781832
0.0528391975089
0.0657895973478
0.106706815117
0.0999921833893
0.0480692497207
0.0192226897673
0.0110382240639
0.0739868927339
0.0762986351909
0.0461696106645
0.100790953407
0.0944021575688
0.0604309594564
0.0904755869797
0.0949001822486
0.104664650545
0.0975636044953
0.102034699618
0.137319854901
0.212910586676
0.230082043042
0.20651490251
0.230250564202
0.250800186399
0.303666728454
0.348583277346
0.379298628361
0.409260111681
0.444475985063
0.494896280691
0.544704063041
0.567779483784
0.651290601339
0.692356974025
0.745247979611
0.823497126317
0.743185475973
0.768466031719
0.591890501038
0.440025900294
0.55484231941
0.49757196573
0.450032790552
0.459946527602
0.385534750398
0.366893652326
0.248017394952
0.113059390981
0.0287458615976
0.0344715973627
0.0843449843255
0.0993051158897
0.0975298517719
0.14835890342
0.167606892608
0.158373874874
0.189768860128
0.204308734821
0.204012201727
0.203599549755
0.195173908561
0.205436600876
0.212591855862
0.210044780687
0.250765417819
0.24870093082
0.208835999182
0.225374321383
0.261892891075
0.271292380132
0.237908624608
0.209429915846
0.206825773157
0.200832103382
0.204836379659
0.198488569
0.162201186643
0.14980340279
0.142192371738
0.129295412657
0.121355972589
0.104081911713
0.0539850758617
0.0279599633884
0.0325090438691
0.0425123006159
0.00926529996303
0.0563199904544
0.0815838083372
0.06259806912
0.0439725523337
0.00607087905513
0.0106634334674
0.0202931218234
0.0522520302661
0.0598594181508
0.0382602783356
0.0565083904694
0.0684067562289
0.0746219603579
0.0799541985099
0.05054535522
0.035781506743
0.0610349746694
0.061448287399
0.0272456184768
0.0551737060732
0.0871134598958
0.0809202291066
0.0810181286486
0.0725594674421
0.0704962656933
0.0864665693689
0.0530895859067
0.0843650609456
0.10513038749
0.0890295699268
0.0822139607708
0.0998364836407
0.0569345507063
0.0687051863844
0.0776414462929
0.064148047014
0.0670459606044
0.127412149994
0.138253208117
0.0799913054299
0.13211696502
0.159121013206
0.11715164317
0.10511607923
0.0931584213564
0.130755425905
0.173592104627
0.194309808776
0.223208378521
0.30422167311
0.431996069792
0.616632296682
0.807521120827
0.924601274134
1.12274193332
0.978303856575
1.22230612245
1.30799991757
0.748071765982
0.671614092497
0.561747690697
0.306374124702
0.308150485044
1000000.0
0.0
0.0
0.0
0.0
0.0
0.0
0.0
0.0
0.0
0.0
0.0
0.0
0.0
0.0
0.0
0.0
0.0
0.0
0.0
0.0
0.0
0.0
0.0
0.0
0.0
0.0
0.0
0.0
0.0
0.0
0.0
0.0
0.0
0.0
0.0
0.0
0.0
0.0
0.0
0.0
0.0
0.0
0.0
0.0
0.0
0.0
0.0
0.0
0.0
0.0
0.0
0.0
0.0
0.0
0.0
0.0
0.0
0.0
0.0
0.0
0.0
0.0
0.0
0.0
0.0
0.0
0.0
0.0
0.0
0.0
0.0
0.0
0.0
0.0
0.0
0.0
0.0
0.0
0.0
0.0
0.0
0.0
0.0
0.0
0.0
0.0
0.0
0.0
0.0
0.0
0.0
0.0
0.0
0.0
0.0
0.0
0.0
0.0
0.0
0.0
0.0
0.0
0.0
0.0
0.0
0.0
0.0
0.0
0.0
0.0
0.0
0.0
0.0
0.0
0.0
0.0
0.0
0.0
0.0
0.0
0.0
0.0
0.0
0.0
0.0
0.0
0.0
0.0
0.0
0.0
0.0
0.0
0.0
0.0
0.0
0.0
0.0
0.0
0.0
0.0
0.0
0.0
0.0
0.0
0.0
0.0
0.0
0.0
0.0
0.0
0.0
0.0
0.0
0.0
0.0
0.0
0.0
0.0
0.0
0.0
0.0
0.0
0.0
0.0
0.0
0.0
0.0
0.0
0.0
0.0
0.0
0.0
0.0
0.0
0.0
0.0
0.0
0.0
0.0
0.0
0.0
0.0
0.0
0.0
0.0
0.0
0.0
0.0
0.0
0.0
0.0
0.0
0.0
0.0
0.0
0.0
0.0
0.0
0.0
0.0
0.0
0.0
0.0
0.0
0.0
0.0
0.0
0.0
0.0
0.0
0.0
0.0
0.0
0.0
0.0
0.0
0.0
0.0
0.0
0.0
0.0
0.0
0.0
0.0
0.0
0.0
0.0
0.0
0.0
0.0
0.0
0.0
0.0
0.0
0.0
0.0
0.0
0.0
0.0
0.0
0.0
0.0
0.0
0.0
0.0
0.0
0.0
0.0
0.0
0.0
0.0
0.0
0.0
0.0
0.0
0.0
0.0
0.0
0.0
0.0
0.0
0.0
0.0
0.0
0.0
0.0
0.0
0.0
0.0
0.0
0.0
0.0
0.0
0.0
0.0
0.0
0.0
0.0
0.0
0.0
0.0
0.0
0.0
0.0
0.0
0.0
0.0
0.0
0.0
0.0
0.0
0.0
0.0
0.0
0.0
0.0
0.0
0.0
0.0
0.0
0.0
0.0
0.0
0.0
0.0
0.0
0.0
0.0
0.0
0.0
0.0
0.0
0.0
0.0
0.0
0.0
0.0
0.0
0.0
0.0
0.0
0.0
0.0
0.0
0.0
0.0
0.0
0.0
0.0
0.0
0.0
0.0
0.0
0.0
0.0
0.0
0.0
0.0
0.0
0.0
0.0
0.0
0.0
0.0
0.0
0.0
0.0
0.0
0.0
0.0
0.0
0.0
0.0
0.0
0.0
0.0
0.0
0.0
0.0
0.0
0.0
0.0
0.0
0.0
0.0
0.0
0.0
0.0
0.0
0.0
0.0
0.0
0.0
0.0
0.0
0.0
0.0
0.0
0.0
0.0
0.0
0.0
0.0
0.0
0.0
0.0
0.0
0.0
0.0
0.0
0.0
0.0
0.0
0.0
0.0
0.0
0.0
0.0
0.0
0.0
0.0
0.0
0.0
0.0
0.0
0.0
0.0
0.0
0.0
0.0
0.0
0.0
0.0
0.0
0.0
0.0
0.0
0.0
0.0
0.0
0.0
0.0
0.0
0.0
0.0
0.0
0.0
0.0
0.0
0.0
0.0
0.0
0.0
0.0
0.0
0.0
0.0
0.0
0.0
0.0
0.0
0.0
0.0
0.0
0.0
0.0
0.0
0.0
0.0
0.0
0.0
0.0
0.0
0.0
0.0
0.0
0.0
0.0
0.0
0.0
0.0
0.0
0.0
0.0
0.0
0.0
0.0
0.0
0.0
0.0
0.0
0.0
0.0
0.0
0.0
0.0
0.0
0.0
0.0
0.0
0.0
0.0
0.0
0.0
0.0
0.0
0.0
0.0
0.0
0.0
0.0
0.0
0.0
0.0
0.0
0.0
0.0
0.0
0.0
0.0
0.0
0.0
0.0
0.0
0.0
0.0
0.0
0.0
0.0
0.0
0.0
0.0
0.0
0.0
0.0
0.0
0.0
0.0
0.0
0.0
0.0
0.0
0.0
0.0
0.0
0.0
0.0
0.0
0.0
0.0
0.0
0.0
0.0
0.0
0.0
0.0
0.0
0.0
0.0
0.0
0.0
0.0
0.0
0.0
0.0
0.0
0.0
0.0
0.0
0.0
0.0
0.0
0.0
0.0
0.0
0.0
0.0
0.0
0.0
0.0
0.0
0.0
0.0
0.0
0.0
0.0
0.0
0.0
0.0
0.0
0.0
0.0
0.0
0.0
0.0
0.0
0.0
0.0
0.0
0.0
0.0
0.0
0.0
0.0
0.0
0.0
0.0
0.0
0.0
0.0
0.0
0.0
0.0
0.0
0.0
0.0
0.0
0.0
0.0
0.0
0.0
0.0
0.0
0.0
0.0
0.0
0.0
0.0
0.0
0.0
0.0
0.0
0.0
0.0
0.0
0.0
0.0
0.0
0.0
0.0
0.0
0.0
0.0
0.0
0.0
0.0
0.0
0.0
0.0
0.0
0.0
0.0
0.0
0.0
0.0
0.0
0.0
0.0
0.0
0.0
0.0
0.0
0.0
0.0
0.0
0.0
0.0
0.0
0.0
0.0
logs/alpha_0.7/PGSD_1000steps_1.log 1000067.5086 1000.0675086 0.0 1000000.0 0.0 349
