Policy Parameters:	0.052929556249 0.65762495446
Control Steps:		1000
Start Time:		1438243860.2548485

-- TESTING STOPPED --

Stop Time:		1438243917.9251614
Duration:		57.67031288146973
Cost Matrix:
0.0487223621902
0.0616273934652
0.0465543363673
0.0621876165941
0.0775550764264
0.0574919158378
0.0320433099033
0.0644229284321
0.0728898647255
0.0715413478826
0.0783466657313
0.0841282865704
0.0855620707061
0.0817607205447
0.0949166302378
0.113127073756
0.0882552533164
0.077853536007
0.117274566575
0.112999477217
0.100584066384
0.116721408288
0.0842262644042
0.120616034203
0.108573182321
0.100886087778
0.121381893829
0.0948541836227
0.129901064291
0.0819224140704
0.095236492788
0.093114728051
0.132814665277
0.111879598534
0.11914217126
0.0925997167963
0.109147897647
0.110906301257
0.0996113665328
0.152739969964
0.174027371221
0.0988744326058
0.0898947513484
0.0823631086527
0.0397289822495
0.0648697068009
0.0508845022886
0.0245432032353
0.016775594478
0.0564991683689
0.0457787551495
0.0339131869993
0.0431511306327
0.00316929563301
0.0269823095219
0.00249467972633
0.0947763659733
0.0286469352589
0.0278736556347
0.0681802249942
0.0451490920538
0.058619037753
0.123040619322
0.0854285964144
0.0366315962028
0.0272986625652
0.0224404358787
0.00838121320045
0.0195033720128
0.0301976075602
0.0333520248645
0.01981539645
0.0249264054635
0.0573467650401
0.0404081002011
0.00726960007834
0.0205435811541
0.0228775263128
0.0244270599402
0.0653768819168
0.037851965915
0.054369857885
0.0537538876632
0.0588083150086
0.0280219082124
0.0543905591753
0.0431437215739
0.0431467063898
0.0221911160528
0.0529767163973
0.0772910111595
0.0671206493373
0.0897166949572
0.100397161652
0.0895578483912
0.0450066357558
0.0943936825702
0.0733148371049
0.0742302851694
0.0978617263296
0.116055747975
0.0944289809586
0.118400055016
0.144014899553
0.0799776788123
0.155957865382
0.140814067173
0.135403234413
0.106828942723
0.156979128801
0.180875249077
0.162044550113
0.22605625508
0.156814313738
0.166313207994
0.158130993598
0.129572851316
0.183630656761
0.215647646874
0.142621788224
0.214313933759
0.167635651222
0.200601039508
0.17113293543
0.171133955992
0.111945285218
0.0224778728104
0.00223928333439
0.0145997706242
0.0440881571671
0.0370696752035
0.0263335898548
0.0271906351151
0.0232067243168
0.0479336508329
0.0462020289836
0.0194799722789
0.0255600806009
0.045111471901
0.0257333942788
0.041953529099
0.032425921186
0.0200598021661
0.0635873391063
0.0115219595365
0.0217067615665
0.0242188465015
0.0311477418108
0.0698029264744
0.0205374079514
0.0578889608668
0.0762804422019
0.00841920252834
0.0581061149388
0.113947605086
0.011015177678
0.0447298162098
0.0838798644273
0.0129590133846
0.0642838959666
0.0420114930582
0.0450229572788
0.0894643916994
0.0716422999735
0.0692674960435
0.106399654579
0.100515834333
0.129590421739
0.122615508905
0.109033152293
0.110649035008
0.121947722473
0.160620393296
0.156681947625
0.148023541726
0.142904213707
0.165431672204
0.184409837595
0.206495096926
0.144395663546
0.13438442602
0.158307791708
0.205454064956
0.216818202433
0.181620346891
0.118435391281
0.156043762629
0.176310963087
0.20223037629
0.187070148234
0.159230566971
0.136954426829
0.126122252605
0.106016970244
0.049538226063
0.0909443085818
0.0491408949596
0.0676117713935
0.054383989966
0.0577140028987
0.0615667695342
0.0651475330398
0.0569564630553
0.0591428927114
0.0767956831069
0.101004877069
0.0801992104019
0.0391826388586
0.0291196860101
0.0376488054336
0.0771126230933
0.0492571826664
0.0278368157526
0.0445442962302
0.0309028033141
0.0864047354481
0.0869145833361
0.0383982086401
0.047062085227
0.05404963501
0.0838593216869
0.0853843021536
0.0871358361223
0.0413826062015
0.0729524499636
0.0563672229367
0.0903268525443
0.0544386949824
0.0563819375507
0.118641292377
0.0718711444067
0.101598392151
0.111003948792
0.0381665835761
0.0959287706482
0.0682791877125
0.107585149624
0.056634062849
0.0893717315473
0.1131185097
0.0730897357894
0.0795263733595
0.0600749178343
0.075953254165
0.107012236977
0.0797455217217
0.0727531485756
0.0338437958666
0.0714380180716
0.0515240722473
0.0238320264356
0.036728302805
0.063002941659
0.0355417081692
0.0360244060838
0.0598427167779
0.0524502112912
0.0440613087176
0.0485520595826
0.0367604451592
0.0375593611446
0.068238396101
0.0320220046093
0.0818349379322
0.0563381784922
0.0693313813853
0.0755258140197
0.0941860231017
0.104250230485
0.0896690034194
0.0854070593951
0.0940082601831
0.0938530529516
0.108336487548
0.130908674432
0.158251876001
0.174038654191
0.164129269224
0.171140451711
0.196311562658
0.230722596044
0.206848571042
0.194356562641
0.172544459374
0.191739948562
0.157106944154
0.163559979687
0.193464910982
0.249322093699
0.227056531086
0.17685371368
0.209650545442
0.203198396829
0.162097801315
0.182407749813
0.204770050233
0.192742274495
0.137616982359
0.0838059266549
0.0850747677557
0.0888882869873
0.0939572776391
0.103479715799
0.130164819425
0.100108009564
0.111000491063
0.124861099177
0.0830567926682
0.115624229933
0.0896894909932
0.0859816091
0.120994312977
0.16369737423
0.104387116944
0.152176177206
0.100065635348
0.0955822430537
0.0907971465189
0.110441089926
0.102532534321
0.0661370039529
0.0426748810942
0.0558117491928
0.0375008515183
0.0520083012126
0.0882782413934
0.0972626123776
0.0762785077365
0.0662447569351
0.08099600094
0.074017596763
0.0548630516347
0.0496022508539
0.0611910591204
0.0669940340496
0.0990274911256
0.0904405924122
0.0795063440672
0.0529463534348
0.0650961459373
0.0742072725844
0.080550389486
0.0693914640653
0.0593815717368
0.0626631517936
0.075192059084
0.0366418500146
0.044001723275
0.047021941695
0.0235135916064
0.0294069726277
0.00843168915681
0.0367766043855
0.0362326877953
0.0433411887702
0.0292136769495
0.0345436840199
0.0102198744745
0.0215005007418
0.0450822441527
0.0303194333731
0.0385739751289
0.0388601557344
0.0863079475616
0.0198048473595
0.0170059325633
0.00773048797819
0.00395859948852
0.06586562231
0.0246504543387
0.0414802998133
0.0108589129578
0.0291265454483
0.0213355097569
0.0580155747683
0.0293820958111
0.0374439789909
0.0310431102726
0.00599236689027
0.0234599427366
0.0873736177398
0.0534968003037
0.0169256528924
0.0254502011768
0.0716779141378
0.0451224081507
0.0100550466029
0.0359083767105
0.0647648064582
0.126743857922
0.0413993222589
0.0427224282416
0.0369245903806
0.024643285269
0.126917306703
0.079983756943
0.0228484304622
0.0362471721307
0.0107362819601
0.0536831133558
0.0538508771838
0.0874086639676
0.0346890203655
0.0752055803496
0.120926460967
0.116728202602
0.16510996641
0.191195030083
0.662798510238
0.3833687605
0.462852246829
0.294297434892
0.426126835488
0.355816066877
0.507823959472
0.669999499609
0.638834960399
0.648112491644
0.376888433254
0.618450476028
1000000.0
0.0
0.0
0.0
0.0
0.0
0.0
0.0
0.0
0.0
0.0
0.0
0.0
0.0
0.0
0.0
0.0
0.0
0.0
0.0
0.0
0.0
0.0
0.0
0.0
0.0
0.0
0.0
0.0
0.0
0.0
0.0
0.0
0.0
0.0
0.0
0.0
0.0
0.0
0.0
0.0
0.0
0.0
0.0
0.0
0.0
0.0
0.0
0.0
0.0
0.0
0.0
0.0
0.0
0.0
0.0
0.0
0.0
0.0
0.0
0.0
0.0
0.0
0.0
0.0
0.0
0.0
0.0
0.0
0.0
0.0
0.0
0.0
0.0
0.0
0.0
0.0
0.0
0.0
0.0
0.0
0.0
0.0
0.0
0.0
0.0
0.0
0.0
0.0
0.0
0.0
0.0
0.0
0.0
0.0
0.0
0.0
0.0
0.0
0.0
0.0
0.0
0.0
0.0
0.0
0.0
0.0
0.0
0.0
0.0
0.0
0.0
0.0
0.0
0.0
0.0
0.0
0.0
0.0
0.0
0.0
0.0
0.0
0.0
0.0
0.0
0.0
0.0
0.0
0.0
0.0
0.0
0.0
0.0
0.0
0.0
0.0
0.0
0.0
0.0
0.0
0.0
0.0
0.0
0.0
0.0
0.0
0.0
0.0
0.0
0.0
0.0
0.0
0.0
0.0
0.0
0.0
0.0
0.0
0.0
0.0
0.0
0.0
0.0
0.0
0.0
0.0
0.0
0.0
0.0
0.0
0.0
0.0
0.0
0.0
0.0
0.0
0.0
0.0
0.0
0.0
0.0
0.0
0.0
0.0
0.0
0.0
0.0
0.0
0.0
0.0
0.0
0.0
0.0
0.0
0.0
0.0
0.0
0.0
0.0
0.0
0.0
0.0
0.0
0.0
0.0
0.0
0.0
0.0
0.0
0.0
0.0
0.0
0.0
0.0
0.0
0.0
0.0
0.0
0.0
0.0
0.0
0.0
0.0
0.0
0.0
0.0
0.0
0.0
0.0
0.0
0.0
0.0
0.0
0.0
0.0
0.0
0.0
0.0
0.0
0.0
0.0
0.0
0.0
0.0
0.0
0.0
0.0
0.0
0.0
0.0
0.0
0.0
0.0
0.0
0.0
0.0
0.0
0.0
0.0
0.0
0.0
0.0
0.0
0.0
0.0
0.0
0.0
0.0
0.0
0.0
0.0
0.0
0.0
0.0
0.0
0.0
0.0
0.0
0.0
0.0
0.0
0.0
0.0
0.0
0.0
0.0
0.0
0.0
0.0
0.0
0.0
0.0
0.0
0.0
0.0
0.0
0.0
0.0
0.0
0.0
0.0
0.0
0.0
0.0
0.0
0.0
0.0
0.0
0.0
0.0
0.0
0.0
0.0
0.0
0.0
0.0
0.0
0.0
0.0
0.0
0.0
0.0
0.0
0.0
0.0
0.0
0.0
0.0
0.0
0.0
0.0
0.0
0.0
0.0
0.0
0.0
0.0
0.0
0.0
0.0
0.0
0.0
0.0
0.0
0.0
0.0
0.0
0.0
0.0
0.0
0.0
0.0
0.0
0.0
0.0
0.0
0.0
0.0
0.0
0.0
0.0
0.0
0.0
0.0
0.0
0.0
0.0
0.0
0.0
0.0
0.0
0.0
0.0
0.0
0.0
0.0
0.0
0.0
0.0
0.0
0.0
0.0
0.0
0.0
0.0
0.0
0.0
0.0
0.0
0.0
0.0
0.0
0.0
0.0
0.0
0.0
0.0
0.0
0.0
0.0
0.0
0.0
0.0
0.0
0.0
0.0
0.0
0.0
0.0
0.0
0.0
0.0
0.0
0.0
0.0
0.0
0.0
0.0
0.0
0.0
0.0
0.0
0.0
0.0
0.0
0.0
0.0
0.0
0.0
0.0
0.0
0.0
0.0
0.0
0.0
0.0
0.0
0.0
0.0
0.0
0.0
0.0
0.0
0.0
0.0
0.0
0.0
0.0
0.0
0.0
0.0
0.0
0.0
0.0
0.0
0.0
0.0
0.0
0.0
0.0
0.0
0.0
0.0
0.0
0.0
0.0
0.0
0.0
0.0
0.0
0.0
0.0
0.0
0.0
0.0
0.0
0.0
0.0
0.0
0.0
0.0
0.0
0.0
0.0
0.0
0.0
0.0
0.0
0.0
0.0
0.0
0.0
0.0
0.0
0.0
0.0
0.0
0.0
0.0
0.0
0.0
0.0
0.0
0.0
0.0
0.0
0.0
0.0
0.0
0.0
0.0
0.0
0.0
0.0
0.0
0.0
0.0
0.0
0.0
0.0
0.0
0.0
0.0
0.0
0.0
0.0
0.0
0.0
0.0
0.0
0.0
0.0
0.0
0.0
0.0
0.0
0.0
0.0
0.0
0.0
0.0
0.0
0.0
0.0
0.0
0.0
0.0
0.0
0.0
0.0
0.0
0.0
0.0
0.0
0.0
0.0
0.0
0.0
0.0
0.0
0.0
0.0
0.0
0.0
0.0
0.0
0.0
0.0
0.0
0.0
0.0
0.0
0.0
0.0
0.0
0.0
0.0
0.0
0.0
logs/alpha_0.7/PGSD_100steps_1.log 1000039.67333 1000.03967333 0.0 1000000.0 0.0 420
