Initial Policy Parameters:	0.0 0.0
Learning Rate:			0.7
Learning Steps:			100
Start Time:			1436827899.8187015

-- LEARNING STOPPED --

Stop Time:			1436827913.6538072
Duration:			13.835105657577515
Final Policy Parameters:	-0.152280614726 -0.0289140969107
