Initial Policy Parameters:	0.0 0.0
Learning Rate:			1.5
Learning Steps:			300
Start Time:			1448464079.98

-- LEARNING STOPPED --

Stop Time:			1448464162.54
Duration:			82.561912775
Final Policy Parameters:	-21.0865171811 20.8843509561
