Policy Parameters:	-2.51780444503 1.95614697402
Control Steps:		1000
Start Time:		1449080059.77

-- TESTING STOPPED --

Stop Time:		1449080118.33
Duration:		58.5587770939
Cost Matrix:
0.0016
0.0
0.386342840599
1.03016634433
0.666793696706
0.605721128237
0.342723976196
0.336272591702
0.238344324177
0.00510261389905
0.0382855072144
0.100291939997
0.0155265654831
0.0481367002899
0.0581129109241
0.033912626549
0.0783101634839
0.0062705388378
0.0266343233877
0.0660148063426
0.0431762916867
0.0514096791563
0.0263662176127
0.0482331483776
0.0550217347837
0.124016634268
0.110855239608
0.0457843885174
0.064716084384
0.0357460804328
0.075877566403
0.0488980518166
0.0444187636981
0.0389445614571
0.0908417533826
0.0406302735423
0.0399966004904
0.0324707630093
0.0562157360437
0.0882860899713
0.066117826676
0.105214515671
0.0891432277565
0.133600952672
0.04852976231
0.0645305365972
0.0755696718997
0.0842845707405
0.081648976023
0.147939528203
0.10782427279
2.4010775429
0.0440760689856
0.0630756316869
0.0693667465361
0.121205066918
0.0624425560329
0.0330314187554
0.0559423471686
0.0321308363986
0.0291222734208
0.0118963152646
0.0240109163966
0.069627165689
0.0154631858132
0.0425726924283
0.0761930474944
0.0491456499202
0.0930316398117
0.088653565675
0.119653992119
0.082238777912
0.154748131374
0.155742988358
0.208696194773
0.246955307463
0.348230265999
0.356788091217
0.439469839213
0.595741973961
1.04264861517
0.907005439593
1.28734021303
0.885770175364
1.64752329181
2.40727400809
0.0
0.00283588957295
0.168935957653
0.295644283194
0.610800583504
1.0524112627
0.369037287072
0.455452024579
0.417229144935
0.465570771356
0.333786750591
0.0581218912153
0.074677367423
0.0544421562729
0.0717148891537
0.113491188628
0.0324854429307
0.0481299390266
0.0191119210459
0.024784842738
0.0334705819652
0.0300153744129
0.0225057920852
0.034648527336
0.0536611538505
0.0883098681011
0.0498087910613
0.0885192583814
0.0530110415726
0.110065047424
0.112278724464
0.123056650946
0.124911769447
0.147378465456
0.137056782682
0.135981941707
0.120298863582
0.134045552494
0.119323414559
0.156180263959
0.175532132304
0.230178606166
0.257951648946
0.261636860923
0.333744296517
0.429053267333
0.619462451191
0.976162732941
0.649254279462
0.874334572687
0.908495510444
0.95262024613
1.10803013097
1.02584594934
0.937390540786
1.05770563127
0.470711622405
0.507103807898
0.605138112146
0.199773323056
0.119698935758
0.207361549253
0.21932257501
0.190018085439
0.192569840249
0.222341643631
0.121529488952
0.166595868825
0.201013224096
0.160302152703
0.21494520485
0.139352520839
0.210844128927
0.188511868652
0.191298057692
0.219063535207
0.322853598475
0.342093529501
0.235547258554
0.30733315909
0.359692763914
0.443873593148
0.287776825128
0.337216230684
0.20242172083
0.262095382989
0.318047507297
0.318574521576
2.4007592331
0.0
0.0464459260693
0.290893793749
0.159290515509
0.177491020708
0.0923180719682
0.0984829594727
0.136209504795
0.119191577378
0.110213259513
0.129243319005
0.11208329505
0.144853696454
0.17011955448
0.217040099777
0.26655194449
0.357895924197
0.493642133393
0.978588281329
1.28367650572
1.10153418243
1.34784666696
1.25510391944
0.798364251816
0.694910579634
0.428813695661
0.244471922464
0.395488834956
0.361612265529
0.353296263662
0.457378373497
0.459404333077
0.434233963028
0.248993796963
0.224106415411
0.2599357413
0.432460855969
0.861143773926
0.820106875786
0.970145688234
0.975284122861
0.816048999072
0.699836398926
1.05179215617
0.79586533329
0.714846534871
0.443220661022
0.248512006586
0.0914248129056
0.361910039491
0.951534638395
0.649480734587
0.777775697946
0.460307988165
0.853297381567
0.1319422265
0.0713546292424
0.0667407509806
2.4021185401
1000000.0
0.0
0.0
0.0
0.0
0.0
0.0
0.0
0.0
0.0
0.0
0.0
0.0
0.0
0.0
0.0
0.0
0.0
0.0
0.0
0.0
0.0
0.0
0.0
0.0
0.0
0.0
0.0
0.0
0.0
0.0
0.0
0.0
0.0
0.0
0.0
0.0
0.0
0.0
0.0
0.0
0.0
0.0
0.0
0.0
0.0
0.0
0.0
0.0
0.0
0.0
0.0
0.0
0.0
0.0
0.0
0.0
0.0
0.0
0.0
0.0
0.0
0.0
0.0
0.0
0.0
0.0
0.0
0.0
0.0
0.0
0.0
0.0
0.0
0.0
0.0
0.0
0.0
0.0
0.0
0.0
0.0
0.0
0.0
0.0
0.0
0.0
0.0
0.0
0.0
0.0
0.0
0.0
0.0
0.0
0.0
0.0
0.0
0.0
0.0
0.0
0.0
0.0
0.0
0.0
0.0
0.0
0.0
0.0
0.0
0.0
0.0
0.0
0.0
0.0
0.0
0.0
0.0
0.0
0.0
0.0
0.0
0.0
0.0
0.0
0.0
0.0
0.0
0.0
0.0
0.0
0.0
0.0
0.0
0.0
0.0
0.0
0.0
0.0
0.0
0.0
0.0
0.0
0.0
0.0
0.0
0.0
0.0
0.0
0.0
0.0
0.0
0.0
0.0
0.0
0.0
0.0
0.0
0.0
0.0
0.0
0.0
0.0
0.0
0.0
0.0
0.0
0.0
0.0
0.0
0.0
0.0
0.0
0.0
0.0
0.0
0.0
0.0
0.0
0.0
0.0
0.0
0.0
0.0
0.0
0.0
0.0
0.0
0.0
0.0
0.0
0.0
0.0
0.0
0.0
0.0
0.0
0.0
0.0
0.0
0.0
0.0
0.0
0.0
0.0
0.0
0.0
0.0
0.0
0.0
0.0
0.0
0.0
0.0
0.0
0.0
0.0
0.0
0.0
0.0
0.0
0.0
0.0
0.0
0.0
0.0
0.0
0.0
0.0
0.0
0.0
0.0
0.0
0.0
0.0
0.0
0.0
0.0
0.0
0.0
0.0
0.0
0.0
0.0
0.0
0.0
0.0
0.0
0.0
0.0
0.0
0.0
0.0
0.0
0.0
0.0
0.0
0.0
0.0
0.0
0.0
0.0
0.0
0.0
0.0
0.0
0.0
0.0
0.0
0.0
0.0
0.0
0.0
0.0
0.0
0.0
0.0
0.0
0.0
0.0
0.0
0.0
0.0
0.0
0.0
0.0
0.0
0.0
0.0
0.0
0.0
0.0
0.0
0.0
0.0
0.0
0.0
0.0
0.0
0.0
0.0
0.0
0.0
0.0
0.0
0.0
0.0
0.0
0.0
0.0
0.0
0.0
0.0
0.0
0.0
0.0
0.0
0.0
0.0
0.0
0.0
0.0
0.0
0.0
0.0
0.0
0.0
0.0
0.0
0.0
0.0
0.0
0.0
0.0
0.0
0.0
0.0
0.0
0.0
0.0
0.0
0.0
0.0
0.0
0.0
0.0
0.0
0.0
0.0
0.0
0.0
0.0
0.0
0.0
0.0
0.0
0.0
0.0
0.0
0.0
0.0
0.0
0.0
0.0
0.0
0.0
0.0
0.0
0.0
0.0
0.0
0.0
0.0
0.0
0.0
0.0
0.0
0.0
0.0
0.0
0.0
0.0
0.0
0.0
0.0
0.0
0.0
0.0
0.0
0.0
0.0
0.0
0.0
0.0
0.0
0.0
0.0
0.0
0.0
0.0
0.0
0.0
0.0
0.0
0.0
0.0
0.0
0.0
0.0
0.0
0.0
0.0
0.0
0.0
0.0
0.0
0.0
0.0
0.0
0.0
0.0
0.0
0.0
0.0
0.0
0.0
0.0
0.0
0.0
0.0
0.0
0.0
0.0
0.0
0.0
0.0
0.0
0.0
0.0
0.0
0.0
0.0
0.0
0.0
0.0
0.0
0.0
0.0
0.0
0.0
0.0
0.0
0.0
0.0
0.0
0.0
0.0
0.0
0.0
0.0
0.0
0.0
0.0
0.0
0.0
0.0
0.0
0.0
0.0
0.0
0.0
0.0
0.0
0.0
0.0
0.0
0.0
0.0
0.0
0.0
0.0
0.0
0.0
0.0
0.0
0.0
0.0
0.0
0.0
0.0
0.0
0.0
0.0
0.0
0.0
0.0
0.0
0.0
0.0
0.0
0.0
0.0
0.0
0.0
0.0
0.0
0.0
0.0
0.0
0.0
0.0
0.0
0.0
0.0
0.0
0.0
0.0
0.0
0.0
0.0
0.0
0.0
0.0
0.0
0.0
0.0
0.0
0.0
0.0
0.0
0.0
0.0
0.0
0.0
0.0
0.0
0.0
0.0
0.0
0.0
0.0
0.0
0.0
0.0
0.0
0.0
0.0
0.0
0.0
0.0
0.0
0.0
0.0
0.0
0.0
0.0
0.0
0.0
0.0
0.0
0.0
0.0
0.0
0.0
0.0
0.0
0.0
0.0
0.0
0.0
0.0
0.0
0.0
0.0
0.0
0.0
0.0
0.0
0.0
0.0
0.0
0.0
0.0
0.0
0.0
0.0
0.0
0.0
0.0
0.0
0.0
0.0
0.0
0.0
0.0
0.0
0.0
0.0
0.0
0.0
0.0
0.0
0.0
0.0
0.0
0.0
0.0
0.0
0.0
0.0
0.0
0.0
0.0
0.0
0.0
0.0
0.0
0.0
0.0
0.0
0.0
0.0
0.0
0.0
0.0
0.0
0.0
0.0
0.0
0.0
0.0
0.0
0.0
0.0
0.0
0.0
0.0
0.0
0.0
0.0
0.0
0.0
0.0
0.0
0.0
0.0
0.0
0.0
0.0
0.0
0.0
0.0
0.0
0.0
0.0
0.0
0.0
0.0
0.0
0.0
0.0
0.0
0.0
0.0
0.0
0.0
0.0
0.0
0.0
0.0
0.0
0.0
0.0
0.0
0.0
0.0
0.0
0.0
0.0
0.0
0.0
0.0
0.0
0.0
0.0
0.0
0.0
0.0
0.0
0.0
0.0
0.0
0.0
0.0
0.0
0.0
0.0
0.0
0.0
0.0
0.0
0.0
0.0
0.0
0.0
0.0
0.0
0.0
0.0
0.0
0.0
0.0
0.0
0.0
0.0
0.0
0.0
0.0
0.0
0.0
0.0
0.0
0.0
0.0
0.0
0.0
0.0
0.0
0.0
0.0
0.0
0.0
0.0
0.0
0.0
0.0
0.0
0.0
0.0
0.0
0.0
0.0
0.0
0.0
0.0
0.0
0.0
0.0
0.0
0.0
0.0
0.0
0.0
0.0
0.0
0.0
0.0
0.0
0.0
0.0
0.0
0.0
0.0
0.0
0.0
0.0
logs/lernen/5_erfolge_in_simu/median/1/PGSD_300steps_4.log 1000078.84201 1000.07884201 0.0 1000000.0 0.0 234
