Policy Parameters:	-2.21171216139 2.20734882868
Control Steps:		1000
Start Time:		1449077237.07

-- TESTING STOPPED --

Stop Time:		1449077314.91
Duration:		77.8391728401
Cost Matrix:
0.0
0.270490967186
0.79446377825
0.865809894344
1.24223917253
1.25610464509
1.27654004257
0.827828957337
1.15581509514
0.761248848215
0.551196025353
0.393679716325
0.294262091831
0.288895764478
0.233071768296
0.188711634929
0.114727673015
0.0673041685753
0.0132635541502
0.0346115098476
0.0751897309569
0.038607222771
0.0763100379073
0.110698350331
0.13254616785
0.074878831192
0.0523657195187
0.0482532102788
0.0634818195431
0.0801567752668
0.0317237311634
0.0719315688613
0.0629909827416
0.125145314336
0.112421252334
0.230701261178
0.245920767158
0.193017154285
0.267126313528
0.265626340674
0.21306850964
0.069641919128
0.0454502368099
0.0406522349191
0.0934760786611
0.0669632162791
0.0852434343669
0.150777799209
0.132966735565
0.142342268761
0.140490481723
0.0510910594816
0.107773790152
0.0856346307322
0.114089905237
0.114005810536
0.153193872547
0.145222102164
0.141739586848
0.19820079161
0.133133392956
0.151405895338
0.14042750625
0.154459807025
0.156582550578
0.16067398055
0.188857570874
0.194036539186
0.244495947466
0.196291397587
0.152036898262
0.171644154509
0.150112560064
0.249048849292
0.113462844733
0.219546792414
0.122723941913
0.192939520281
0.162277877719
0.173058909828
0.202758887881
0.148104560355
0.227619136613
0.233899106949
0.169352970022
0.196538515212
0.125814394926
2.40224109549
0.0186853678446
0.00557997710172
0.059512187241
0.137981843343
0.0865865155276
0.128514444679
0.162896899045
0.0392525459852
0.0730738204128
0.0666236445707
0.0561517979933
0.0572362063755
0.0634759397164
0.0199800054023
0.0540365584309
0.109227155267
0.123403702912
0.0940022881673
0.121176683289
0.122837308158
0.114948175517
0.133559159882
0.121403547141
0.0958681557705
0.180822099156
0.278481753668
0.337519569876
0.405804281933
0.728363590115
1.57709537888
1.6345637351
0.0549476435291
0.160844228948
0.406103934619
0.489487867812
0.0763472034459
0.088663161201
0.0756243287555
0.096914455448
0.0844329408416
0.116794988237
0.0397335296626
0.0203575471388
0.0257968938697
0.0101240201389
0.0346606234091
0.0800249179056
0.0584563266409
0.0769140230255
0.0564469288386
0.0760964055587
0.0555172357055
0.125387520388
0.0851374774009
0.178359197419
0.103205825717
0.135226351219
0.169845230129
0.186775176628
0.18076537218
0.184219385406
0.281096647455
0.343256119042
0.328645486689
0.516724987676
0.754094623817
0.76801217047
1.19686973413
2.2223192514
3.24331465073
2.16395475994
1.67728960412
0.90672773357
0.603294169692
0.850906967421
0.210903725697
0.262053380032
0.829821044995
1.57559608335
0.438131595738
2.40450685874
0.480263343813
0.470208436177
1.60611214819
0.728373828504
0.58827145611
0.510798986168
0.258019698851
0.0145939629128
0.0497513536122
0.08613624423
0.0831841582574
0.10668851997
0.144975593766
0.115039295352
0.145018525443
0.115386952694
0.169349410558
0.204666748332
0.10637125086
0.128528896187
0.149494073932
0.192752695229
0.147463749751
0.261486001909
0.0988829855875
0.230557155576
0.143809781691
0.038886021805
0.101307520999
0.108863195854
0.043178293457
0.098595766893
0.0352983646066
0.0471843254076
0.0237009035231
0.0184584592744
0.00163184763097
0.0
0.0
0.0
0.00318979622087
0.00553498650505
0.0132032244768
0.00996883288443
0.0
0.0
0.0
0.0
0.0
0.0
0.0
0.0
0.0
0.0
0.0
0.0
0.0
2.4
0.029309318931
0.0114572040512
0.0571017591861
0.117067204512
0.0917914548179
0.131506855495
0.0665562036029
0.0813435583228
0.056792816299
0.0572747609756
0.0432416009357
0.0235448255415
0.0181542631629
0.0438018394919
0.0678460759039
0.149023772183
0.214647518778
0.297972722218
0.391099983057
0.406974876625
0.586663754277
1.48421366677
2.40000243125
0.0785054485802
0.0248871938857
0.0708407769587
0.107128856791
0.157144020099
0.282368777483
0.485370654974
0.703715789901
0.80255469448
1.09174298018
1.06519617738
0.8299804845
0.811792719174
0.55047101623
0.64961697108
0.233092830067
0.0369161121492
0.0854369128069
0.0263806538085
0.0581982564369
0.0489275188398
0.0219533064646
0.0507581198452
0.0782299135832
0.0738542165496
0.102485956307
0.0741150154421
0.148998476652
0.159830020809
0.0794663238718
0.149617767964
0.0594853542335
0.0451946214695
0.069295678326
0.0989644699746
0.0536202050041
0.0313188100515
0.0790986759231
0.0892305819019
0.129407198397
0.10710417753
0.0932972429144
0.122008587814
0.111822403283
0.0457777904692
0.0862681661119
0.0565714860781
0.0323817193615
0.0674707465447
0.0728429295255
0.0720777124979
0.0836226876914
0.1680198925
0.339035125121
0.895727893358
1.72210347756
1.16363928186
1.49823694283
1.14861518313
1.53973540105
0.119540286594
0.500704213531
1000000.0
0.0
0.0
0.0
0.0
0.0
0.0
0.0
0.0
0.0
0.0
0.0
0.0
0.0
0.0
0.0
0.0
0.0
0.0
0.0
0.0
0.0
0.0
0.0
0.0
0.0
0.0
0.0
0.0
0.0
0.0
0.0
0.0
0.0
0.0
0.0
0.0
0.0
0.0
0.0
0.0
0.0
0.0
0.0
0.0
0.0
0.0
0.0
0.0
0.0
0.0
0.0
0.0
0.0
0.0
0.0
0.0
0.0
0.0
0.0
0.0
0.0
0.0
0.0
0.0
0.0
0.0
0.0
0.0
0.0
0.0
0.0
0.0
0.0
0.0
0.0
0.0
0.0
0.0
0.0
0.0
0.0
0.0
0.0
0.0
0.0
0.0
0.0
0.0
0.0
0.0
0.0
0.0
0.0
0.0
0.0
0.0
0.0
0.0
0.0
0.0
0.0
0.0
0.0
0.0
0.0
0.0
0.0
0.0
0.0
0.0
0.0
0.0
0.0
0.0
0.0
0.0
0.0
0.0
0.0
0.0
0.0
0.0
0.0
0.0
0.0
0.0
0.0
0.0
0.0
0.0
0.0
0.0
0.0
0.0
0.0
0.0
0.0
0.0
0.0
0.0
0.0
0.0
0.0
0.0
0.0
0.0
0.0
0.0
0.0
0.0
0.0
0.0
0.0
0.0
0.0
0.0
0.0
0.0
0.0
0.0
0.0
0.0
0.0
0.0
0.0
0.0
0.0
0.0
0.0
0.0
0.0
0.0
0.0
0.0
0.0
0.0
0.0
0.0
0.0
0.0
0.0
0.0
0.0
0.0
0.0
0.0
0.0
0.0
0.0
0.0
0.0
0.0
0.0
0.0
0.0
0.0
0.0
0.0
0.0
0.0
0.0
0.0
0.0
0.0
0.0
0.0
0.0
0.0
0.0
0.0
0.0
0.0
0.0
0.0
0.0
0.0
0.0
0.0
0.0
0.0
0.0
0.0
0.0
0.0
0.0
0.0
0.0
0.0
0.0
0.0
0.0
0.0
0.0
0.0
0.0
0.0
0.0
0.0
0.0
0.0
0.0
0.0
0.0
0.0
0.0
0.0
0.0
0.0
0.0
0.0
0.0
0.0
0.0
0.0
0.0
0.0
0.0
0.0
0.0
0.0
0.0
0.0
0.0
0.0
0.0
0.0
0.0
0.0
0.0
0.0
0.0
0.0
0.0
0.0
0.0
0.0
0.0
0.0
0.0
0.0
0.0
0.0
0.0
0.0
0.0
0.0
0.0
0.0
0.0
0.0
0.0
0.0
0.0
0.0
0.0
0.0
0.0
0.0
0.0
0.0
0.0
0.0
0.0
0.0
0.0
0.0
0.0
0.0
0.0
0.0
0.0
0.0
0.0
0.0
0.0
0.0
0.0
0.0
0.0
0.0
0.0
0.0
0.0
0.0
0.0
0.0
0.0
0.0
0.0
0.0
0.0
0.0
0.0
0.0
0.0
0.0
0.0
0.0
0.0
0.0
0.0
0.0
0.0
0.0
0.0
0.0
0.0
0.0
0.0
0.0
0.0
0.0
0.0
0.0
0.0
0.0
0.0
0.0
0.0
0.0
0.0
0.0
0.0
0.0
0.0
0.0
0.0
0.0
0.0
0.0
0.0
0.0
0.0
0.0
0.0
0.0
0.0
0.0
0.0
0.0
0.0
0.0
0.0
0.0
0.0
0.0
0.0
0.0
0.0
0.0
0.0
0.0
0.0
0.0
0.0
0.0
0.0
0.0
0.0
0.0
0.0
0.0
0.0
0.0
0.0
0.0
0.0
0.0
0.0
0.0
0.0
0.0
0.0
0.0
0.0
0.0
0.0
0.0
0.0
0.0
0.0
0.0
0.0
0.0
0.0
0.0
0.0
0.0
0.0
0.0
0.0
0.0
0.0
0.0
0.0
0.0
0.0
0.0
0.0
0.0
0.0
0.0
0.0
0.0
0.0
0.0
0.0
0.0
0.0
0.0
0.0
0.0
0.0
0.0
0.0
0.0
0.0
0.0
0.0
0.0
0.0
0.0
0.0
0.0
0.0
0.0
0.0
0.0
0.0
0.0
0.0
0.0
0.0
0.0
0.0
0.0
0.0
0.0
0.0
0.0
0.0
0.0
0.0
0.0
0.0
0.0
0.0
0.0
0.0
0.0
0.0
0.0
0.0
0.0
0.0
0.0
0.0
0.0
0.0
0.0
0.0
0.0
0.0
0.0
0.0
0.0
0.0
0.0
0.0
0.0
0.0
0.0
0.0
0.0
0.0
0.0
0.0
0.0
0.0
0.0
0.0
0.0
0.0
0.0
0.0
0.0
0.0
0.0
0.0
0.0
0.0
0.0
0.0
0.0
0.0
0.0
0.0
0.0
0.0
0.0
0.0
0.0
0.0
0.0
0.0
0.0
0.0
0.0
0.0
0.0
0.0
0.0
0.0
0.0
0.0
0.0
0.0
0.0
0.0
0.0
0.0
0.0
0.0
0.0
0.0
0.0
0.0
0.0
0.0
0.0
0.0
0.0
0.0
0.0
0.0
0.0
0.0
0.0
0.0
0.0
0.0
0.0
0.0
0.0
0.0
0.0
0.0
0.0
0.0
0.0
0.0
0.0
0.0
0.0
0.0
0.0
0.0
0.0
0.0
0.0
0.0
0.0
0.0
0.0
0.0
0.0
0.0
0.0
0.0
0.0
0.0
0.0
0.0
0.0
0.0
0.0
0.0
0.0
0.0
0.0
0.0
0.0
0.0
0.0
0.0
0.0
0.0
0.0
0.0
0.0
0.0
0.0
0.0
0.0
0.0
0.0
0.0
0.0
0.0
0.0
0.0
0.0
0.0
0.0
0.0
0.0
0.0
0.0
0.0
0.0
0.0
0.0
0.0
0.0
0.0
0.0
0.0
0.0
0.0
0.0
0.0
0.0
0.0
0.0
0.0
0.0
0.0
0.0
0.0
0.0
0.0
0.0
0.0
0.0
0.0
0.0
0.0
0.0
0.0
0.0
0.0
0.0
0.0
0.0
0.0
0.0
0.0
logs/lernen/5_erfolge_in_simu/max/2/PGSD_1000steps_4.log 1000091.68869 1000.09168869 0.0 1000000.0 0.0 312
