Policy Parameters:	-0.422519808293 0.202640209492
Control Steps:		1000
Start Time:		1438182398.593811

-- TESTING STOPPED --

Stop Time:		1438182438.1153395
Duration:		39.521528482437134
Cost Matrix:
0.0797742391826
0.108092884575
0.0915848517131
0.146947172649
0.125935682349
0.139105174356
0.134114024577
0.146923277563
0.132487048295
0.177841694105
0.131604729975
0.110329053951
0.0861328972744
0.103523682337
0.0500026971347
0.0776926159658
0.0722723462011
0.102648917845
0.0480058099938
0.074570279739
0.0546399686106
0.0666556615951
0.06837244548
0.0208641738582
0.035888488312
0.0383090049714
0.0141046897305
0.0476547622397
0.0331363404762
0.0866070231366
0.0470278904853
0.0690111730441
0.0435307675778
0.0928628919609
0.0835371365591
0.0895060847821
0.104624464358
0.132506606881
0.111687008706
0.110088098435
0.106835594203
0.107760577557
0.120910904959
0.109647820199
0.122633723572
0.120489419161
0.156248922319
0.125022303516
0.115584478045
0.119904165021
0.115443582082
0.111810303414
0.149299800192
0.121727842096
0.151250589101
0.128354492123
0.149506209389
0.158258550692
0.102859552077
0.100958214635
0.118927480299
0.112153583925
0.138476256478
0.0732510577476
0.0570691775098
0.0420410337915
0.0584979908601
0.0347094234209
0.0517736685389
0.0407357495096
0.0930987409907
0.0609662401884
0.0788307919002
0.052992521723
0.0770277147034
0.0880522364187
0.0831794589875
0.0681816861648
0.0806938192927
0.0768159274371
0.04625195886
0.0558118742373
0.0400462335501
0.0663384937408
0.108860015738
0.119041458923
0.124295893404
0.0648376439908
0.0778359365455
0.0811085123181
0.112860508309
0.0497775585566
0.0758993293695
0.113031021778
0.0655921199597
0.134961281676
0.0975629220525
0.105480473793
0.0719737452861
0.0683727570396
0.0406327017043
0.076265988111
0.0561413279248
0.0949854633903
0.0788530022532
0.0447687077144
0.0612552716814
0.0405606658689
0.00951708080258
0.0202044364347
0.0647678240218
0.0603500936931
0.0165335996167
0.0193670328369
0.0104185853395
0.044027221421
0.004737247389
0.0727647653352
0.0423621532918
0.0851927112423
0.0850239638898
0.0419542581792
0.0614550457849
0.0811053721182
0.0503966099264
0.0253947280496
0.0635561817721
0.0369329630726
0.0583465024253
0.055414988122
0.0968193881577
0.0800455180797
0.0972760939643
0.0924985431983
0.087934220207
0.0773804668195
0.0953390931168
0.0873343560591
0.103817919825
0.123001817149
0.125203145356
0.117286433462
0.125107745203
0.136897526267
0.142911912993
0.144506572631
0.143238834323
0.159635998932
0.145453876095
0.160297989216
0.167801202003
0.161715333609
0.119152349781
0.189390398185
0.171886529784
0.184345608266
0.207423683206
0.171129821304
0.181920825686
0.207795862491
0.177257978451
0.15547367604
0.168318301527
0.189023742958
0.177477418893
0.191646519799
0.147122662128
0.103938884973
0.0620220146192
0.0665014202532
0.0859432052255
0.0600900899763
0.0253112563018
0.0568680907215
0.0200269945128
0.00101725110946
0.0231282399618
0.00495833632116
0.0463004348617
0.0189308325962
0.0141183999771
0.0751214370026
0.0453083305825
0.0272748159726
0.0815935276428
0.0582160608804
0.0178563526066
0.0882252286269
0.0967045137303
0.101831838656
0.0935747559401
0.119367518438
0.112035853555
0.119253363449
0.123078604191
0.105730135086
0.156819952372
0.164582715598
0.170152025573
0.166351038986
0.16475152384
0.165378320582
0.170244780644
0.226916280864
0.225327462046
0.220110386694
0.189854618906
0.190301608437
0.246349065396
0.1385792924
0.170193264094
0.188723273773
0.132626459054
0.168516499769
0.167738071926
0.171461991872
0.149076155376
0.161415514007
0.193221051799
0.155563163855
0.034720299079
0.0617859781715
0.0146453696203
0.0390883878957
0.0132848085422
0.0416991357471
0.027939873128
0.017880571671
0.0388786084479
0.0301844033748
0.0210781518668
0.0158798275076
0.0377928435483
0.0446938240411
0.034579920853
0.0541977595131
0.0858027371501
0.0488789210014
0.0562302369763
0.025010341119
0.0257751782763
0.0154952499706
0.050548661274
0.0573430670681
0.0251945476505
0.0419727406067
0.0358106201805
0.0470502603206
0.0793220176642
0.0594833729971
0.0685282587186
0.0546663883164
0.110074235749
0.0838961351634
0.0991748401041
0.08638633911
0.0999504360107
0.0816456478754
0.13681783272
0.137899865175
0.185122847643
0.186316443468
0.18787059107
0.214915551899
0.24767547918
0.282439369658
0.318261138739
0.345663216281
0.363982662653
0.395808730181
0.428950873547
0.480264324618
0.515777830971
0.476228164003
0.658416858847
0.68322687804
0.68125642922
0.621613004789
0.69598839833
0.798520621013
0.334774334583
0.364779687512
0.249243970438
0.193278963596
0.142081607406
0.11571689413
0.0651555300065
0.074586746955
0.0907957969034
1000000.0
0.0
0.0
0.0
0.0
0.0
0.0
0.0
0.0
0.0
0.0
0.0
0.0
0.0
0.0
0.0
0.0
0.0
0.0
0.0
0.0
0.0
0.0
0.0
0.0
0.0
0.0
0.0
0.0
0.0
0.0
0.0
0.0
0.0
0.0
0.0
0.0
0.0
0.0
0.0
0.0
0.0
0.0
0.0
0.0
0.0
0.0
0.0
0.0
0.0
0.0
0.0
0.0
0.0
0.0
0.0
0.0
0.0
0.0
0.0
0.0
0.0
0.0
0.0
0.0
0.0
0.0
0.0
0.0
0.0
0.0
0.0
0.0
0.0
0.0
0.0
0.0
0.0
0.0
0.0
0.0
0.0
0.0
0.0
0.0
0.0
0.0
0.0
0.0
0.0
0.0
0.0
0.0
0.0
0.0
0.0
0.0
0.0
0.0
0.0
0.0
0.0
0.0
0.0
0.0
0.0
0.0
0.0
0.0
0.0
0.0
0.0
0.0
0.0
0.0
0.0
0.0
0.0
0.0
0.0
0.0
0.0
0.0
0.0
0.0
0.0
0.0
0.0
0.0
0.0
0.0
0.0
0.0
0.0
0.0
0.0
0.0
0.0
0.0
0.0
0.0
0.0
0.0
0.0
0.0
0.0
0.0
0.0
0.0
0.0
0.0
0.0
0.0
0.0
0.0
0.0
0.0
0.0
0.0
0.0
0.0
0.0
0.0
0.0
0.0
0.0
0.0
0.0
0.0
0.0
0.0
0.0
0.0
0.0
0.0
0.0
0.0
0.0
0.0
0.0
0.0
0.0
0.0
0.0
0.0
0.0
0.0
0.0
0.0
0.0
0.0
0.0
0.0
0.0
0.0
0.0
0.0
0.0
0.0
0.0
0.0
0.0
0.0
0.0
0.0
0.0
0.0
0.0
0.0
0.0
0.0
0.0
0.0
0.0
0.0
0.0
0.0
0.0
0.0
0.0
0.0
0.0
0.0
0.0
0.0
0.0
0.0
0.0
0.0
0.0
0.0
0.0
0.0
0.0
0.0
0.0
0.0
0.0
0.0
0.0
0.0
0.0
0.0
0.0
0.0
0.0
0.0
0.0
0.0
0.0
0.0
0.0
0.0
0.0
0.0
0.0
0.0
0.0
0.0
0.0
0.0
0.0
0.0
0.0
0.0
0.0
0.0
0.0
0.0
0.0
0.0
0.0
0.0
0.0
0.0
0.0
0.0
0.0
0.0
0.0
0.0
0.0
0.0
0.0
0.0
0.0
0.0
0.0
0.0
0.0
0.0
0.0
0.0
0.0
0.0
0.0
0.0
0.0
0.0
0.0
0.0
0.0
0.0
0.0
0.0
0.0
0.0
0.0
0.0
0.0
0.0
0.0
0.0
0.0
0.0
0.0
0.0
0.0
0.0
0.0
0.0
0.0
0.0
0.0
0.0
0.0
0.0
0.0
0.0
0.0
0.0
0.0
0.0
0.0
0.0
0.0
0.0
0.0
0.0
0.0
0.0
0.0
0.0
0.0
0.0
0.0
0.0
0.0
0.0
0.0
0.0
0.0
0.0
0.0
0.0
0.0
0.0
0.0
0.0
0.0
0.0
0.0
0.0
0.0
0.0
0.0
0.0
0.0
0.0
0.0
0.0
0.0
0.0
0.0
0.0
0.0
0.0
0.0
0.0
0.0
0.0
0.0
0.0
0.0
0.0
0.0
0.0
0.0
0.0
0.0
0.0
0.0
0.0
0.0
0.0
0.0
0.0
0.0
0.0
0.0
0.0
0.0
0.0
0.0
0.0
0.0
0.0
0.0
0.0
0.0
0.0
0.0
0.0
0.0
0.0
0.0
0.0
0.0
0.0
0.0
0.0
0.0
0.0
0.0
0.0
0.0
0.0
0.0
0.0
0.0
0.0
0.0
0.0
0.0
0.0
0.0
0.0
0.0
0.0
0.0
0.0
0.0
0.0
0.0
0.0
0.0
0.0
0.0
0.0
0.0
0.0
0.0
0.0
0.0
0.0
0.0
0.0
0.0
0.0
0.0
0.0
0.0
0.0
0.0
0.0
0.0
0.0
0.0
0.0
0.0
0.0
0.0
0.0
0.0
0.0
0.0
0.0
0.0
0.0
0.0
0.0
0.0
0.0
0.0
0.0
0.0
0.0
0.0
0.0
0.0
0.0
0.0
0.0
0.0
0.0
0.0
0.0
0.0
0.0
0.0
0.0
0.0
0.0
0.0
0.0
0.0
0.0
0.0
0.0
0.0
0.0
0.0
0.0
0.0
0.0
0.0
0.0
0.0
0.0
0.0
0.0
0.0
0.0
0.0
0.0
0.0
0.0
0.0
0.0
0.0
0.0
0.0
0.0
0.0
0.0
0.0
0.0
0.0
0.0
0.0
0.0
0.0
0.0
0.0
0.0
0.0
0.0
0.0
0.0
0.0
0.0
0.0
0.0
0.0
0.0
0.0
0.0
0.0
0.0
0.0
0.0
0.0
0.0
0.0
0.0
0.0
0.0
0.0
0.0
0.0
0.0
0.0
0.0
0.0
0.0
0.0
0.0
0.0
0.0
0.0
0.0
0.0
0.0
0.0
0.0
0.0
0.0
0.0
0.0
0.0
0.0
0.0
0.0
0.0
0.0
0.0
0.0
0.0
0.0
0.0
0.0
0.0
0.0
0.0
0.0
0.0
0.0
0.0
0.0
0.0
0.0
0.0
0.0
0.0
0.0
0.0
0.0
0.0
0.0
0.0
0.0
0.0
0.0
0.0
0.0
0.0
0.0
0.0
0.0
0.0
0.0
0.0
0.0
0.0
0.0
0.0
0.0
0.0
0.0
0.0
0.0
0.0
0.0
0.0
0.0
0.0
0.0
0.0
0.0
0.0
0.0
0.0
0.0
0.0
0.0
0.0
0.0
0.0
0.0
0.0
0.0
0.0
0.0
0.0
0.0
0.0
0.0
0.0
0.0
0.0
0.0
0.0
0.0
0.0
0.0
0.0
0.0
0.0
0.0
0.0
0.0
0.0
0.0
0.0
0.0
0.0
0.0
0.0
0.0
0.0
0.0
0.0
0.0
0.0
0.0
0.0
0.0
0.0
0.0
0.0
0.0
0.0
0.0
0.0
0.0
0.0
0.0
0.0
0.0
0.0
0.0
logs/alpha_0.2/PGSD_300steps_2.log 1000034.61486 1000.03461486 0.0 1000000.0 0.0 289
