Policy Parameters:	-0.477449191388 0.655703620918
Control Steps:		1000
Start Time:		1438185259.7720137

-- TESTING STOPPED --

Stop Time:		1438185325.7159073
Duration:		65.94389367103577
Cost Matrix:
0.080042465318
0.0805207591814
0.0861592124025
0.0970909807852
0.079147120267
0.104066563855
0.107821634866
0.0917809598316
0.053401375388
0.137988353297
0.150586658012
0.151757018835
0.220265796459
0.227267662823
0.284445954046
0.349054705909
0.413210293559
0.455843115356
0.489882210664
0.503933352269
0.532103601671
0.562046422857
0.621265080157
0.599546075635
0.622467847908
0.696753479103
0.541905659507
0.745085782936
0.78097238125
0.784916112328
0.821945644552
0.457336363839
0.0338475290345
0.11410195336
0.225006964076
0.322735117943
0.340796549804
0.252667591093
0.124758657096
0.0482294323366
0.0333578760963
0.0159356345687
0.00341116829879
0.00968013250082
0.0382757293747
0.0378060167669
0.0271045264863
0.0219471930692
0.0323876365731
0.0405221075689
0.0443344324052
0.0337466771371
0.0341217659036
0.0114899487742
0.0123968344764
0.018554858847
0.0240193808572
0.0147671819385
0.0298237767792
0.0626837238102
0.0693851632365
0.0789922995748
0.0727297852457
0.104194880691
0.118043030397
0.104377370718
0.0929473607768
0.0895078032404
0.083872211396
0.118518488664
0.146811525817
0.12987915154
0.139113558548
0.136954862788
0.157110752578
0.146541687408
0.197513704226
0.189226550902
0.184607666829
0.161639798442
0.138284993051
0.150067251144
0.160642133173
0.141612988036
0.163530086925
0.131258353821
0.128764481704
0.124225031534
0.118167068495
0.145575412839
0.135678266764
0.0783566669962
0.0463844732824
0.0188597831689
0.0163707910583
0.00401112377733
0.0357804055922
0.0310977519017
0.039287520779
0.0345498452231
0.0333261357871
0.0370068271945
0.0335771859311
0.0258623724913
0.0480206774688
0.0438889184681
0.052704849219
0.0489835766902
0.02931798156
0.0496298772984
0.0617467491581
0.0328331671898
0.013873479121
0.0683526551017
0.0875525392821
0.0496177084593
0.0267311846481
0.0608866455761
0.0485309405401
0.0264925237193
0.0638800663333
0.0593051120722
0.0814807459009
0.073608858204
0.0381113823364
0.034410650224
0.0522159149497
0.0222572115323
0.0157424356727
0.0561711545376
0.0282061653788
0.0263902319178
0.0190037311682
0.0363933746266
0.0459401845704
0.175414406678
0.214412637417
0.281792003127
0.327715244353
0.353180579744
0.355050903019
0.401551258329
0.410255743315
0.428001853405
0.469780947397
0.495882367028
0.552019676687
0.563322424162
0.635748767145
0.557527918821
0.682876716816
0.70072741441
0.758616596299
0.546153075142
0.71980668827
0.385089182323
0.203164392116
0.318686902116
0.362381756774
0.302669704863
0.193528342977
0.0939594382006
0.060084451697
0.0404424768853
0.0175287864004
0.0116177585383
0.0379326203262
0.016733100523
0.057094684532
0.038855335881
0.0380068134707
0.0419708714058
0.0277078860714
0.0414687584259
0.0338817449203
0.0223733093835
0.0255317277713
0.0240378009187
0.0154662987735
0.00954957225563
0.0220947018645
0.0361029770939
0.0261064409018
0.0116659093541
0.00595455896564
0.00361235537422
0.0519910337331
0.0240474463895
0.088536641756
0.0710303741321
0.0111072694846
0.0811344351091
0.0758642739629
0.0588428482214
0.069091103267
0.0957545684329
0.0927791245801
0.0577761781048
0.0711183141575
0.118852232936
0.0905605256959
0.0286176905615
0.0523934721012
0.070252501106
0.0870728021381
0.127920255581
0.159057237133
0.227689924075
0.388564334913
0.411862793724
0.438475591121
0.465467523474
0.503384368147
0.556674037594
0.548119345858
0.602419241179
0.6967021543
0.735501361431
0.631274411236
0.662131436501
0.763300540809
0.871682404385
0.709482891338
0.706718221712
0.66275601213
0.568877588756
0.564303913328
0.38183970337
0.173181660604
0.0532013265011
0.0181544391967
0.0557473587463
0.0489440050206
0.0275120267436
0.0221833279335
0.0341708311474
0.0421100257195
0.0465606518743
0.0316938993842
0.0204748001736
0.0292741542281
0.0371991107278
0.0644988694612
0.111035437743
0.0809918511465
0.0726072436917
0.122783523065
0.0988352021137
0.171150528624
0.187878373252
0.173572583321
0.184484133695
0.167092967756
0.19529623492
0.0843372936915
0.12822341727
0.242267344955
0.272137815995
0.274542742191
0.283851149323
0.29336690383
0.29894098656
0.314653482704
0.329335295072
0.3124283468
0.327252175255
0.335666724795
0.30619557295
0.327854986629
0.262621268121
0.227306893448
0.186517154338
0.112407681218
0.113117511549
0.0672995157918
0.0341656910744
0.0345300055352
0.071591508553
0.066947786562
0.087002602887
0.0765489815288
0.0241908035736
0.0373159900983
0.0150016573615
0.0201181909088
0.05712597356
0.0469433305783
0.0311063151939
0.0267703281003
0.0361311604394
0.0509311657332
0.066042907699
0.0926353369866
0.0779145197749
0.0817901257553
0.113534949877
0.125568835626
0.143141281238
0.143067685475
0.121579074643
0.127613460413
0.150497120121
0.157214608072
0.167121906397
0.165319395338
0.187659419309
0.202692712888
0.194562766275
0.176692331144
0.177209367883
0.191730740597
0.154618765594
0.139062434896
0.165958368453
0.139555417345
0.156725617895
0.132319004646
0.150918139866
0.133112347429
0.111277452254
0.0925440613402
0.0540816930481
0.0190086189604
0.0163358009279
0.00892084266027
0.00464881655999
0.049916316746
0.0382751064878
0.0439846985078
0.0344406177174
0.0398277364732
0.0191588802699
0.0297879724425
0.0674150849414
0.0687911641151
0.0387197964531
0.0158879276199
0.0308299565039
0.023282256968
0.0692889871071
0.0557062749835
0.0323170073973
0.0185822886252
0.004495360417
0.00918568535567
0.00950231395605
0.0280384471084
0.0736282894104
0.055004178273
0.0570082600017
0.0397393195038
0.0284956591657
0.0432250091534
0.0677270154022
0.0688320988482
0.0503354802066
0.0610796750601
0.0412988603203
0.0228380166211
0.0201476214158
0.0189759723987
0.00136729842515
0.0135429191374
0.028939814139
0.0203781360337
0.0559042086275
0.0283670406114
0.0444454888956
0.023431922059
0.0255165830296
0.0534688241487
0.0699302226401
0.0548746183316
0.0249855587903
0.0507408942628
0.0224685691245
0.073857165901
0.054572651014
0.0808349042193
0.0568644808821
0.0620311154882
0.0749639716843
0.0767195708327
0.0571540841987
0.0799554862767
0.0984051993423
0.104935322101
0.10448741888
0.093447432628
0.0638090973578
0.0902745651229
0.103154235893
0.074060349396
0.0584852265871
0.0674926803529
0.0714788830238
0.0476939967019
0.0197253446405
0.0438529278617
0.0247443010057
0.0152575526631
0.0989641398617
0.0750830127629
0.0396644237246
0.0259564871095
0.0487526307967
0.038865724498
0.0239435842864
0.0490123570345
0.0352475082479
0.0105984883598
0.0250820021309
0.019455226149
0.0498192729161
0.0175164471914
0.0634661931683
0.0476268288511
0.015720695272
0.0164485974895
0.0125692708111
0.0248406651703
0.0351180926742
0.0230126746904
0.0275330791056
0.0521739718466
0.0368489088682
0.0109478412477
0.0280622284967
0.105873564823
0.0554636845366
0.0128072382339
0.00824857698751
0.0365449262786
0.023302144658
0.0113996972659
0.00984749231423
0.0100073910344
0.0254362593822
0.0221585120615
0.0347720288033
0.0920478167047
0.0479855309001
0.042318547401
0.0374623044427
0.02078352836
0.0322578192012
0.0687563197676
0.0561460337068
0.0412501972061
0.0448919795541
0.111343193372
0.127385344904
0.138023526403
0.16626258256
0.212881723836
0.253949752162
0.2524305962
0.294953479634
0.394021011244
0.525822145526
0.680882586167
0.754468308134
0.855994095638
0.395156035248
0.253494229007
0.333838361335
0.277076987298
0.308247861486
0.297861117503
1000000.0
0.0
0.0
0.0
0.0
0.0
0.0
0.0
0.0
0.0
0.0
0.0
0.0
0.0
0.0
0.0
0.0
0.0
0.0
0.0
0.0
0.0
0.0
0.0
0.0
0.0
0.0
0.0
0.0
0.0
0.0
0.0
0.0
0.0
0.0
0.0
0.0
0.0
0.0
0.0
0.0
0.0
0.0
0.0
0.0
0.0
0.0
0.0
0.0
0.0
0.0
0.0
0.0
0.0
0.0
0.0
0.0
0.0
0.0
0.0
0.0
0.0
0.0
0.0
0.0
0.0
0.0
0.0
0.0
0.0
0.0
0.0
0.0
0.0
0.0
0.0
0.0
0.0
0.0
0.0
0.0
0.0
0.0
0.0
0.0
0.0
0.0
0.0
0.0
0.0
0.0
0.0
0.0
0.0
0.0
0.0
0.0
0.0
0.0
0.0
0.0
0.0
0.0
0.0
0.0
0.0
0.0
0.0
0.0
0.0
0.0
0.0
0.0
0.0
0.0
0.0
0.0
0.0
0.0
0.0
0.0
0.0
0.0
0.0
0.0
0.0
0.0
0.0
0.0
0.0
0.0
0.0
0.0
0.0
0.0
0.0
0.0
0.0
0.0
0.0
0.0
0.0
0.0
0.0
0.0
0.0
0.0
0.0
0.0
0.0
0.0
0.0
0.0
0.0
0.0
0.0
0.0
0.0
0.0
0.0
0.0
0.0
0.0
0.0
0.0
0.0
0.0
0.0
0.0
0.0
0.0
0.0
0.0
0.0
0.0
0.0
0.0
0.0
0.0
0.0
0.0
0.0
0.0
0.0
0.0
0.0
0.0
0.0
0.0
0.0
0.0
0.0
0.0
0.0
0.0
0.0
0.0
0.0
0.0
0.0
0.0
0.0
0.0
0.0
0.0
0.0
0.0
0.0
0.0
0.0
0.0
0.0
0.0
0.0
0.0
0.0
0.0
0.0
0.0
0.0
0.0
0.0
0.0
0.0
0.0
0.0
0.0
0.0
0.0
0.0
0.0
0.0
0.0
0.0
0.0
0.0
0.0
0.0
0.0
0.0
0.0
0.0
0.0
0.0
0.0
0.0
0.0
0.0
0.0
0.0
0.0
0.0
0.0
0.0
0.0
0.0
0.0
0.0
0.0
0.0
0.0
0.0
0.0
0.0
0.0
0.0
0.0
0.0
0.0
0.0
0.0
0.0
0.0
0.0
0.0
0.0
0.0
0.0
0.0
0.0
0.0
0.0
0.0
0.0
0.0
0.0
0.0
0.0
0.0
0.0
0.0
0.0
0.0
0.0
0.0
0.0
0.0
0.0
0.0
0.0
0.0
0.0
0.0
0.0
0.0
0.0
0.0
0.0
0.0
0.0
0.0
0.0
0.0
0.0
0.0
0.0
0.0
0.0
0.0
0.0
0.0
0.0
0.0
0.0
0.0
0.0
0.0
0.0
0.0
0.0
0.0
0.0
0.0
0.0
0.0
0.0
0.0
0.0
0.0
0.0
0.0
0.0
0.0
0.0
0.0
0.0
0.0
0.0
0.0
0.0
0.0
0.0
0.0
0.0
0.0
0.0
0.0
0.0
0.0
0.0
0.0
0.0
0.0
0.0
0.0
0.0
0.0
0.0
0.0
0.0
0.0
0.0
0.0
0.0
0.0
0.0
0.0
0.0
0.0
0.0
0.0
0.0
0.0
0.0
0.0
0.0
0.0
0.0
0.0
0.0
0.0
0.0
0.0
0.0
0.0
0.0
0.0
0.0
0.0
0.0
0.0
0.0
0.0
0.0
0.0
0.0
0.0
0.0
0.0
0.0
0.0
0.0
0.0
0.0
0.0
0.0
0.0
0.0
0.0
0.0
0.0
0.0
0.0
0.0
0.0
0.0
0.0
0.0
0.0
0.0
0.0
0.0
0.0
0.0
0.0
0.0
0.0
0.0
0.0
0.0
0.0
0.0
0.0
0.0
0.0
0.0
0.0
0.0
0.0
0.0
0.0
0.0
0.0
0.0
0.0
0.0
0.0
0.0
0.0
0.0
0.0
0.0
0.0
0.0
0.0
0.0
0.0
0.0
0.0
0.0
0.0
0.0
0.0
0.0
0.0
0.0
0.0
0.0
0.0
0.0
0.0
0.0
0.0
0.0
0.0
0.0
0.0
0.0
0.0
0.0
0.0
0.0
0.0
0.0
0.0
0.0
0.0
0.0
0.0
0.0
0.0
0.0
0.0
0.0
0.0
0.0
0.0
0.0
0.0
0.0
0.0
0.0
0.0
0.0
0.0
0.0
0.0
0.0
0.0
0.0
0.0
0.0
0.0
0.0
0.0
0.0
0.0
0.0
0.0
0.0
0.0
logs/alpha_0.2/PGSD_700steps_0.log 1000070.12044 1000.07012044 0.0 1000000.0 0.0 469
