Initial Policy Parameters:	0.0 0.0
Learning Rate:			0.2
Learning Steps:			500
Start Time:			1436808695.0397098

-- LEARNING STOPPED --

Stop Time:			1436808763.9239643
Duration:			68.8842544555664
Final Policy Parameters:	-0.658313610529 0.503982156608
