Policy Parameters:	-1.07935063425 0.606676590417
Control Steps:		1000
Start Time:		1438186581.5871227

-- TESTING STOPPED --

Stop Time:		1438186648.1265275
Duration:		66.53940486907959
Cost Matrix:
0.0646779555576
0.087235013238
0.0880842103725
0.060800190068
0.120496229984
0.0934424193272
0.0891911485925
0.0974396383744
0.0937568910218
0.0728464453575
0.073491054656
0.0734392019032
0.0984502505395
0.066228042163
0.051681704735
0.00883485662189
0.041243490197
0.0247420827678
0.013671448573
0.0185627842997
0.0439393353404
0.00835281977661
0.0491012056026
0.069451251375
0.0940557850881
0.0890222846221
0.041548708307
0.0211604358006
0.0229859860715
0.0436967549208
0.0517660629372
0.0463173272609
0.0293006833329
0.0339050254403
0.0326546505941
0.0347104850037
0.0106313070218
0.0125111537936
0.00222049203696
0.0223163343968
0.0610107972283
0.0886693289011
0.0754319393036
0.0326159187623
0.0121610107984
0.0137289510867
0.0254653725834
0.0157657489353
0.0214966626628
0.053289454416
0.0474917245688
0.0294660257132
0.0608153040928
0.0480730545333
0.0491079538961
0.0571854607233
0.0516842298789
0.0547096188262
0.0397347560041
0.0536307716925
0.0418767102156
0.075556475327
0.10762878278
0.0965359242243
0.111209386705
0.152464065368
0.150290550251
0.155751591109
0.175806682731
0.177321095473
0.236799319257
0.284872537787
0.271537478711
0.277271895035
0.288189964523
0.31315251728
0.338061835802
0.356822600023
0.364943791065
0.332519365644
0.341067364916
0.365480255364
0.35818370698
0.345329657788
0.341738553249
0.307447085613
0.294992140347
0.29497837181
0.254539803652
0.225131645151
0.198738446192
0.147925165172
0.178083589526
0.164226938616
0.0902090679184
0.0407252049846
0.0286672035583
0.00974616833417
0.0524790162845
0.0106771187851
0.0228210274328
0.0270050681645
0.0619315482842
0.0720710919292
0.0393996053258
0.0211975759277
0.0153915320111
0.0616810183768
0.0706333303963
0.0898336467658
0.11040834654
0.110446656215
0.081956963093
0.128966392189
0.162704840058
0.264691712291
0.341140379849
0.403074184658
0.431543368347
0.465228196408
0.506745287131
0.551912002166
0.599887155885
0.671104013303
0.65473128119
0.772767193836
0.766690690214
0.832851611861
0.770227940669
0.381116555998
0.115623489449
0.0741399957229
0.0418188145573
0.0235391283677
0.0589802120396
0.104938641802
0.14189784616
0.230796324574
0.232271505139
0.31924785033
0.328396481656
0.301124527394
0.29018968772
0.238167074662
0.209039899237
1.03848827552
0.788612795192
0.0164293291776
0.0329845776726
0.0363849073576
0.0422777475883
0.063158060996
0.0457180806882
0.0285906680779
0.0260800537504
0.0479601821951
0.0570309601181
0.062026728642
0.0466886438759
0.0294927509472
0.0700670915851
0.0752803220333
0.0759942838368
0.0568272979325
0.0849432976432
0.101003740804
0.16101148604
0.168195409311
0.149747797782
0.163358088202
0.216474201075
0.261790506036
0.304166285206
0.356615588911
0.403334737905
0.45030848179
0.483390741948
0.513663930178
0.559658084414
0.585749327854
0.581627144238
0.582136186521
0.614831961074
0.59184045649
0.528280805931
0.506847192762
0.49513212188
0.47140111481
0.413087560057
0.308942658062
0.177849764048
0.130813039417
0.195685030759
0.178033021691
0.150008972872
0.122607585763
0.117978654174
0.137746129838
0.115860831163
0.103583620246
0.0923011216412
0.125078145343
0.0760615314706
0.0243651942256
0.0324189329974
0.0131565671152
0.00788134482372
0.0241583139015
0.0179384874314
0.0655651900885
0.034348595856
0.00332798472574
0.033655462737
0.0521129941371
0.0276984752059
0.0473279844359
0.0293399663657
0.0224535586607
0.0510833512916
0.0750382478787
0.0844039352883
0.114216174389
0.116393258079
0.155592860762
0.180109240195
0.194914870259
0.218546536942
0.223521968835
0.242804302785
0.303553162655
0.3531159475
0.384322914155
0.412883153564
0.448257420069
0.489322606882
0.546654926164
0.587837463713
0.596988565573
0.606474110206
0.627944588512
0.565081974915
0.522092175339
0.541579171682
0.449441014496
0.353098092497
0.292286602107
0.301821443025
0.252551888467
0.182704894414
0.105453325022
0.105990037212
0.161022566732
0.173885663885
0.155472345402
0.113736103171
0.108453905168
0.105116841919
0.0771506619471
0.127083739374
0.0938796183537
0.0641818137945
0.102769049989
0.0618721644562
0.186992597052
1.18996043123
1.02146611119
0.0533778593988
0.0205142508811
0.0363567302046
0.0399214851585
0.0553041286163
0.006619941588
0.022881018638
0.03200028779
0.0475240552693
0.0194064096397
0.527476463141
0.311486649925
0.0138701298816
0.0459112832947
0.0362398771598
0.0731724427609
0.0681027551515
0.112898670781
0.053167147317
0.141197499926
0.168192496726
0.0935775186894
0.0807757540209
0.0717142530938
0.059064350411
0.0636748683824
0.107080049605
0.121143398828
0.11154486654
0.170558566172
0.197776242655
0.225599569915
0.25139146162
0.32564419477
0.414749234532
0.482766615246
0.546102005655
0.615535583555
0.709293694064
0.757045385285
0.825123486855
1.0386059713
0.515904766281
0.80019358629
0.966965983022
0.110934901402
0.130728926175
0.146319047826
0.121415186456
0.185260732436
0.272634824316
0.267586082057
0.267870116858
0.240937681349
0.226078346958
0.181866189677
0.0267140842927
0.0571990350808
0.0413581042124
0.0809910379678
0.0368847417898
0.0282602745818
0.00898035063329
0.0426990766601
0.0225332519983
0.0604695332639
0.0390898588076
0.0815641413404
0.0869219497404
0.0431502888289
0.0206680056172
0.0124229101423
0.0331126353578
0.0272350980884
0.0140337932714
0.0520045173787
0.0491840317103
0.0366516744757
0.108649358065
0.0538594305034
0.0360086200423
0.00883783676823
0.0154456274487
0.0571562784208
0.0665898901943
0.0228929573054
0.0465980122454
0.0592101557165
0.0622836922533
0.0191007238405
0.0119308884842
0.0240907692723
0.0133621760409
0.0212645245651
0.0218102764051
0.0115346159246
0.030050981862
0.0278917506734
0.0388234352285
0.00450147785107
0.0910742027993
0.0794030810012
0.0580882100868
0.0303523350912
0.0448825787406
0.0513530252108
0.117887562839
0.0690932263817
0.0300611297043
0.0738261019369
0.080866029743
0.111030370575
0.124471469511
0.143645884234
0.16691839941
0.19728335022
0.232211631153
0.233800333256
0.241799644139
0.253485314553
0.264035105168
0.264480329285
0.27211840806
0.300217383757
0.348228736229
0.380585079287
0.349632890189
0.337781923103
0.353745418921
0.333999785841
0.349837613328
0.357230546081
0.350303291844
0.336558506773
0.305719915126
0.277381135581
0.282181130301
0.24478890755
0.213200870251
0.127032859455
0.0286131753076
0.0550459649074
0.0811783824205
0.105959608574
0.145587344835
0.164898052882
0.16977078069
0.178075895046
0.18370039134
0.188061648521
0.19351672188
0.208002199636
0.21696208418
0.226594100473
0.231156814122
0.239491719416
0.247707893523
0.264528588241
0.297254094909
0.299330817778
0.328984539929
0.384658439288
0.38074404838
0.357379891925
0.370370503136
0.414514555259
0.388487443127
0.361693908906
0.396232405249
0.333834942652
0.257958738861
0.148696320811
0.0930129426799
0.350486927816
0.0144177114861
0.157680381187
0.0832518546674
0.268862171585
0.745714736363
1.10917681539
0.732732562935
0.273189271278
0.0160691838976
0.0317160446517
1000000.0
0.0
0.0
0.0
0.0
0.0
0.0
0.0
0.0
0.0
0.0
0.0
0.0
0.0
0.0
0.0
0.0
0.0
0.0
0.0
0.0
0.0
0.0
0.0
0.0
0.0
0.0
0.0
0.0
0.0
0.0
0.0
0.0
0.0
0.0
0.0
0.0
0.0
0.0
0.0
0.0
0.0
0.0
0.0
0.0
0.0
0.0
0.0
0.0
0.0
0.0
0.0
0.0
0.0
0.0
0.0
0.0
0.0
0.0
0.0
0.0
0.0
0.0
0.0
0.0
0.0
0.0
0.0
0.0
0.0
0.0
0.0
0.0
0.0
0.0
0.0
0.0
0.0
0.0
0.0
0.0
0.0
0.0
0.0
0.0
0.0
0.0
0.0
0.0
0.0
0.0
0.0
0.0
0.0
0.0
0.0
0.0
0.0
0.0
0.0
0.0
0.0
0.0
0.0
0.0
0.0
0.0
0.0
0.0
0.0
0.0
0.0
0.0
0.0
0.0
0.0
0.0
0.0
0.0
0.0
0.0
0.0
0.0
0.0
0.0
0.0
0.0
0.0
0.0
0.0
0.0
0.0
0.0
0.0
0.0
0.0
0.0
0.0
0.0
0.0
0.0
0.0
0.0
0.0
0.0
0.0
0.0
0.0
0.0
0.0
0.0
0.0
0.0
0.0
0.0
0.0
0.0
0.0
0.0
0.0
0.0
0.0
0.0
0.0
0.0
0.0
0.0
0.0
0.0
0.0
0.0
0.0
0.0
0.0
0.0
0.0
0.0
0.0
0.0
0.0
0.0
0.0
0.0
0.0
0.0
0.0
0.0
0.0
0.0
0.0
0.0
0.0
0.0
0.0
0.0
0.0
0.0
0.0
0.0
0.0
0.0
0.0
0.0
0.0
0.0
0.0
0.0
0.0
0.0
0.0
0.0
0.0
0.0
0.0
0.0
0.0
0.0
0.0
0.0
0.0
0.0
0.0
0.0
0.0
0.0
0.0
0.0
0.0
0.0
0.0
0.0
0.0
0.0
0.0
0.0
0.0
0.0
0.0
0.0
0.0
0.0
0.0
0.0
0.0
0.0
0.0
0.0
0.0
0.0
0.0
0.0
0.0
0.0
0.0
0.0
0.0
0.0
0.0
0.0
0.0
0.0
0.0
0.0
0.0
0.0
0.0
0.0
0.0
0.0
0.0
0.0
0.0
0.0
0.0
0.0
0.0
0.0
0.0
0.0
0.0
0.0
0.0
0.0
0.0
0.0
0.0
0.0
0.0
0.0
0.0
0.0
0.0
0.0
0.0
0.0
0.0
0.0
0.0
0.0
0.0
0.0
0.0
0.0
0.0
0.0
0.0
0.0
0.0
0.0
0.0
0.0
0.0
0.0
0.0
0.0
0.0
0.0
0.0
0.0
0.0
0.0
0.0
0.0
0.0
0.0
0.0
0.0
0.0
0.0
0.0
0.0
0.0
0.0
0.0
0.0
0.0
0.0
0.0
0.0
0.0
0.0
0.0
0.0
0.0
0.0
0.0
0.0
0.0
0.0
0.0
0.0
0.0
0.0
0.0
0.0
0.0
0.0
0.0
0.0
0.0
0.0
0.0
0.0
0.0
0.0
0.0
0.0
0.0
0.0
0.0
0.0
0.0
0.0
0.0
0.0
0.0
0.0
0.0
0.0
0.0
0.0
0.0
0.0
0.0
0.0
0.0
0.0
0.0
0.0
0.0
0.0
0.0
0.0
0.0
0.0
0.0
0.0
0.0
0.0
0.0
0.0
0.0
0.0
0.0
0.0
0.0
0.0
0.0
0.0
0.0
0.0
0.0
0.0
0.0
0.0
0.0
0.0
0.0
0.0
0.0
0.0
0.0
0.0
0.0
0.0
0.0
0.0
0.0
0.0
0.0
0.0
0.0
0.0
0.0
0.0
0.0
0.0
0.0
0.0
0.0
0.0
0.0
0.0
0.0
0.0
0.0
0.0
0.0
0.0
0.0
0.0
0.0
0.0
0.0
0.0
0.0
0.0
0.0
0.0
0.0
0.0
0.0
0.0
0.0
0.0
0.0
0.0
0.0
0.0
0.0
0.0
0.0
0.0
0.0
0.0
0.0
0.0
0.0
0.0
0.0
0.0
0.0
0.0
0.0
0.0
0.0
0.0
0.0
0.0
0.0
0.0
0.0
0.0
0.0
0.0
0.0
0.0
0.0
0.0
0.0
0.0
0.0
0.0
0.0
0.0
0.0
0.0
0.0
0.0
0.0
0.0
0.0
0.0
0.0
0.0
0.0
0.0
0.0
0.0
0.0
0.0
0.0
0.0
0.0
0.0
0.0
0.0
0.0
0.0
0.0
0.0
0.0
0.0
0.0
0.0
0.0
0.0
0.0
0.0
0.0
0.0
0.0
0.0
0.0
0.0
0.0
0.0
0.0
0.0
0.0
logs/alpha_0.2/PGSD_800steps_2.log 1000088.29392 1000.08829392 0.0 1000000.0 0.0 450
