Policy Parameters:	-0.19953451089 -0.0440123430594
Control Steps:		1000
Start Time:		1438183706.9169068

-- TESTING STOPPED --

Stop Time:		1438183771.055603
Duration:		64.13869619369507
Cost Matrix:
0.0590191935772
0.0926384764992
0.169680555573
0.19282978662
0.189477113978
0.235068440917
0.302378888242
0.354222839601
0.418185827545
0.462822287683
0.457397435188
0.507636070216
0.488838204819
0.424630559279
0.518769962493
0.538400068418
0.542158856302
0.505778691506
0.622054380167
0.675271461259
0.710980047141
0.677078729544
0.784524671331
0.612940809493
0.732899057128
0.620865280516
0.476479925197
0.492318245298
0.478250977289
0.230906766631
0.24241177732
0.144427207004
0.0381905123241
0.0247811041808
0.0335988002935
0.0179737522115
0.0218605929688
0.0440717273366
0.0170243536572
0.0201457014088
0.0486408504521
0.0378775722347
0.0356188808873
0.0155524490215
0.0110301515537
0.0176479350114
0.0691067035603
0.0451738682262
0.0933172388341
0.0499490647408
0.0634433515648
0.0943470799014
0.132807121513
0.138337065712
0.101185740489
0.17138916936
0.1540547453
0.188015799715
0.20556879704
0.220009418153
0.218567608014
0.201232176322
0.199135344523
0.203631647557
0.231035748261
0.218004086762
0.252940742734
0.217035653325
0.253574671106
0.216859977895
0.279326895747
0.244184633973
0.295569362946
0.282633659031
0.288293332961
0.292804416706
0.282252496221
0.282522746215
0.279436263352
0.253151593993
0.207102068707
0.207016930456
0.155951321061
0.0614381562674
0.00485236876842
0.0510647621492
0.017453110257
0.0211407479451
0.022936372264
0.0129411955081
0.0479280764782
0.00924043143752
0.0519111230099
0.0472728879722
0.0612863770933
0.0279946693306
0.0243973974876
0.055620402377
0.0151673688352
0.0148565362978
0.014301321221
0.0201505948208
0.0552872245976
0.0589845617786
0.0730205839287
0.0870475874946
0.104485225551
0.126165504254
0.155777202998
0.146421172198
0.130350045247
0.140137718948
0.18636339699
0.215022510216
0.171788990347
0.0543680986455
0.187912224412
0.218241408863
0.23420223145
0.225046103581
0.216219315955
0.219944016666
0.224824069368
0.210847082169
0.265698350715
0.225056060044
0.277805393009
0.268698507713
0.247143751974
0.282964009315
0.251559335694
0.205332723861
0.238778326951
0.209085255643
0.218127770342
0.228161152342
0.119809469337
0.0581057224847
0.0326391885525
0.0334400250738
0.0283827084301
0.0850452789395
0.0701449931097
0.0182934596005
0.042731675214
0.0617449217865
0.0334050713108
0.0482812453172
0.00743210784843
0.0249026903643
0.0140273837553
0.0604825938189
0.00859513032013
0.0693144949116
0.0225028987208
0.0140827957247
0.0295660809617
0.0443291001435
0.0128412903311
0.0322235907489
0.0167624127424
0.0186277747298
0.0143920967935
0.0442736303742
0.0458660051359
0.0641796067988
0.0275296672149
0.0270385962053
0.0561750892014
0.0801514082126
0.0789343976138
0.0726937759639
0.125558372751
0.102726781075
0.0863060114735
0.0680860397756
0.101501447809
0.103302836053
0.0535161820721
0.108139871184
0.0898709665134
0.108631625456
0.0686078136098
0.0771822320815
0.0251749871475
0.0780072214949
0.0377963299
0.0511450940635
0.0357469727293
0.0544517014194
0.0278528591342
0.0611413328712
0.0235245746376
0.0480903261752
0.0356958155423
0.0201089725007
0.0467898854816
0.00508794407835
0.0436661404578
0.0436926565944
0.0309157712231
0.0480722652234
0.0185226524942
0.0198466150439
0.0165247012701
0.0508878625055
0.0189219953052
0.0396226485732
0.0295123455332
0.00952752694741
0.0300191683575
0.0758234916189
0.00699236703263
0.0458606456865
0.0364383780926
0.0105083034451
0.0122835068367
0.0327578190497
0.0608685452867
0.0456702454591
0.0256622885151
0.0570849336374
0.0150614828701
0.0160912623437
0.00864806449682
0.053824240372
0.0267707896672
0.0186507446453
0.0317507599307
0.0150378300047
0.0761334435308
0.0267287996292
0.00114219889493
0.0268242884121
0.0133313197337
0.0278341681673
0.0227874224063
0.019608057948
0.0303989894602
0.0112759718951
0.0765681047193
0.0199438713806
0.0544361059897
0.0143927726691
0.0122918839984
0.00632985878626
0.0445035086211
0.00610698230169
0.019109782185
0.0454832687141
0.0177872123864
0.053868008347
0.023062282829
0.0501345531965
0.0222481644859
0.0454060752416
0.0298151117172
0.0243584112156
0.0159242955135
0.0308995245096
0.0369959522513
0.0874628241206
0.048365308323
0.0542324041695
0.0492785000045
0.0751609618394
0.079971765708
0.0764422103652
0.0566577731309
0.090866850059
0.0758428093374
0.0853807037785
0.11010292279
0.117093759132
0.121482088703
0.135767021048
0.115687331354
0.10740829384
0.0777207466448
0.121444301454
0.11454506713
0.136782889634
0.101192279285
0.155926571202
0.107174198002
0.071593853473
0.0907031524051
0.0479282404771
0.0205519145085
0.0356230905659
0.0102148708509
0.0186469274112
0.00906197926775
0.0346795910405
0.0158093164847
0.0145116859466
0.0276892947037
0.0427739820345
0.0193054180085
0.00324096276658
0.0200948216889
0.0263104394806
0.0272045384359
0.0949593792497
0.0589209950752
0.065739826188
0.0844565136227
0.0738087544679
0.0694939609619
0.0445251610471
0.0843413099131
0.0745816245314
0.0770172045222
0.101660789436
0.0877920671688
0.111215239817
0.0968005455493
0.119383065149
0.0868154832418
0.0434938904655
0.137713332258
0.127374198134
0.162218951256
0.155602632595
0.186952432401
0.16397433152
0.120066557404
0.162958669465
0.113094028723
0.173414839628
0.148277825474
0.16492435789
0.159035686039
0.193969216424
0.132857753666
0.208014308935
0.192699009279
0.173484537956
0.14000078072
0.124226159584
0.114296533529
0.100077855447
0.136424561827
0.0994944678418
0.0540799835611
0.0613483854537
0.0861561250129
0.0632608682942
0.0488784067267
0.0217991756483
0.0415135737463
0.031014577953
0.0122268733137
0.0109184486761
0.0323117432704
0.0474900504421
0.0124610944439
0.032477849927
0.0460804435679
0.0108242884733
0.0457014132438
0.0437222893487
0.0144960654669
0.0629062829404
0.067997109607
0.0267987618291
0.0364318294829
0.0393618816694
0.0904650904796
0.0143401509183
0.0184086045975
0.0936353999605
0.0466114891969
0.0174655707462
0.0622398051415
0.0380084015177
0.0334884376778
0.053290648259
0.0816311769697
0.0112498522756
0.0466356651101
0.062789253493
0.0312760476038
0.0530609529488
0.0311097155686
0.0129161684455
0.0397205416376
0.00692218076008
0.0135459200604
0.0248003726711
0.0494153745777
0.0241907667532
0.0290423158034
0.0626786033234
0.0528301975739
0.0196331374958
0.0154038219834
0.0594117940742
0.0284491183032
0.0262809828421
0.0341903892023
0.0338095795735
0.0106125689517
0.0192631623811
0.0423852341726
0.0182784836688
0.0212271446955
0.0412206580659
0.0420469790703
0.0173264012289
0.047243367629
0.0188446482313
0.0130763322242
0.0337508828691
0.0557190651629
0.0114170996407
0.0315779758751
0.0289027304545
0.0366582500373
0.0476625314599
0.0418983557622
0.0312601683032
0.00862396231042
0.0508239432143
0.0114186796493
0.0159291078402
0.0313612486798
0.0915905999759
0.0199684501501
0.0384881755891
0.0422359316533
0.00869905998644
0.00701680133508
0.0228175048792
0.0149441376771
0.0264088790382
0.0245239031228
0.00783949284324
0.0146548044907
0.0205869983152
0.00952996988803
0.00702246797096
0.00758856098875
0.0298406095218
0.010509007746
0.00794648112107
0.030673677666
0.0845610990437
0.0535294584957
0.0576663158047
0.061432710496
0.0756567335988
0.137098707751
0.128160256983
0.175112089845
0.2278998053
0.285997511984
0.296463941602
0.334384533576
0.356658726038
0.420376952538
0.364300754557
0.501909555673
0.400096741667
0.581390803213
0.632282570217
0.608912682979
0.595034415762
0.703824512906
0.775030020949
0.250598814546
0.212049772331
0.185895696316
0.147541698922
0.176081766007
0.217644151634
1000000.0
0.0
0.0
0.0
0.0
0.0
0.0
0.0
0.0
0.0
0.0
0.0
0.0
0.0
0.0
0.0
0.0
0.0
0.0
0.0
0.0
0.0
0.0
0.0
0.0
0.0
0.0
0.0
0.0
0.0
0.0
0.0
0.0
0.0
0.0
0.0
0.0
0.0
0.0
0.0
0.0
0.0
0.0
0.0
0.0
0.0
0.0
0.0
0.0
0.0
0.0
0.0
0.0
0.0
0.0
0.0
0.0
0.0
0.0
0.0
0.0
0.0
0.0
0.0
0.0
0.0
0.0
0.0
0.0
0.0
0.0
0.0
0.0
0.0
0.0
0.0
0.0
0.0
0.0
0.0
0.0
0.0
0.0
0.0
0.0
0.0
0.0
0.0
0.0
0.0
0.0
0.0
0.0
0.0
0.0
0.0
0.0
0.0
0.0
0.0
0.0
0.0
0.0
0.0
0.0
0.0
0.0
0.0
0.0
0.0
0.0
0.0
0.0
0.0
0.0
0.0
0.0
0.0
0.0
0.0
0.0
0.0
0.0
0.0
0.0
0.0
0.0
0.0
0.0
0.0
0.0
0.0
0.0
0.0
0.0
0.0
0.0
0.0
0.0
0.0
0.0
0.0
0.0
0.0
0.0
0.0
0.0
0.0
0.0
0.0
0.0
0.0
0.0
0.0
0.0
0.0
0.0
0.0
0.0
0.0
0.0
0.0
0.0
0.0
0.0
0.0
0.0
0.0
0.0
0.0
0.0
0.0
0.0
0.0
0.0
0.0
0.0
0.0
0.0
0.0
0.0
0.0
0.0
0.0
0.0
0.0
0.0
0.0
0.0
0.0
0.0
0.0
0.0
0.0
0.0
0.0
0.0
0.0
0.0
0.0
0.0
0.0
0.0
0.0
0.0
0.0
0.0
0.0
0.0
0.0
0.0
0.0
0.0
0.0
0.0
0.0
0.0
0.0
0.0
0.0
0.0
0.0
0.0
0.0
0.0
0.0
0.0
0.0
0.0
0.0
0.0
0.0
0.0
0.0
0.0
0.0
0.0
0.0
0.0
0.0
0.0
0.0
0.0
0.0
0.0
0.0
0.0
0.0
0.0
0.0
0.0
0.0
0.0
0.0
0.0
0.0
0.0
0.0
0.0
0.0
0.0
0.0
0.0
0.0
0.0
0.0
0.0
0.0
0.0
0.0
0.0
0.0
0.0
0.0
0.0
0.0
0.0
0.0
0.0
0.0
0.0
0.0
0.0
0.0
0.0
0.0
0.0
0.0
0.0
0.0
0.0
0.0
0.0
0.0
0.0
0.0
0.0
0.0
0.0
0.0
0.0
0.0
0.0
0.0
0.0
0.0
0.0
0.0
0.0
0.0
0.0
0.0
0.0
0.0
0.0
0.0
0.0
0.0
0.0
0.0
0.0
0.0
0.0
0.0
0.0
0.0
0.0
0.0
0.0
0.0
0.0
0.0
0.0
0.0
0.0
0.0
0.0
0.0
0.0
0.0
0.0
0.0
0.0
0.0
0.0
0.0
0.0
0.0
0.0
0.0
0.0
0.0
0.0
0.0
0.0
0.0
0.0
0.0
0.0
0.0
0.0
0.0
0.0
0.0
0.0
0.0
0.0
0.0
0.0
0.0
0.0
0.0
0.0
0.0
0.0
0.0
0.0
0.0
0.0
0.0
0.0
0.0
0.0
0.0
0.0
0.0
0.0
0.0
0.0
0.0
0.0
0.0
0.0
0.0
0.0
0.0
0.0
0.0
0.0
0.0
0.0
0.0
0.0
0.0
0.0
0.0
0.0
0.0
0.0
0.0
0.0
0.0
0.0
0.0
0.0
0.0
0.0
0.0
0.0
0.0
0.0
0.0
0.0
0.0
0.0
0.0
0.0
0.0
0.0
0.0
0.0
0.0
0.0
0.0
0.0
0.0
0.0
0.0
0.0
0.0
0.0
0.0
0.0
0.0
0.0
0.0
0.0
0.0
0.0
0.0
0.0
0.0
0.0
0.0
0.0
0.0
0.0
0.0
0.0
0.0
0.0
0.0
0.0
0.0
0.0
0.0
0.0
0.0
0.0
0.0
0.0
0.0
0.0
0.0
0.0
0.0
0.0
0.0
0.0
0.0
0.0
0.0
0.0
0.0
0.0
0.0
0.0
0.0
0.0
0.0
0.0
0.0
0.0
0.0
0.0
0.0
0.0
0.0
0.0
0.0
0.0
0.0
0.0
0.0
0.0
0.0
0.0
0.0
0.0
0.0
0.0
0.0
0.0
0.0
0.0
0.0
0.0
0.0
0.0
0.0
0.0
0.0
0.0
0.0
logs/alpha_0.2/PGSD_400steps_4.log 1000053.93369 1000.05393369 0.0 1000000.0 0.0 476
