Policy Parameters:	-0.222433960045 -0.0271077216408
Control Steps:		1000
Start Time:		1438180630.9152975

-- TESTING STOPPED --

Stop Time:		1438180665.2103438
Duration:		34.29504632949829
Cost Matrix:
0.6264409362
0.530124613858
0.626210821919
0.349654302189
0.27629719835
0.082564592506
0.0646660240154
0.0272843612978
0.0248142851755
0.018501242078
0.0342781294696
0.048674850132
0.0200104708493
0.0177035898551
0.0488500929997
0.0124686443978
0.0133997897189
0.0148735318106
0.0180259497045
0.0635010172956
0.0153808621172
0.0153306418921
0.02654773847
0.048305038995
0.0118856854999
0.0195176439785
0.0353174542315
0.0308476130858
0.0317217422601
0.0509802356208
0.0561043047817
0.0348158982468
0.089219959129
0.0966314739214
0.103155648471
0.105823919112
0.120347412598
0.118814177729
0.134948234995
0.130048478641
0.154307993154
0.180053444121
0.138720726249
0.128005418189
0.194342900003
0.164671032598
0.144844468447
0.201084286321
0.161061033998
0.156115355529
0.19140949333
0.205558686564
0.249710318338
0.255467814215
0.183390827838
0.300561203036
0.254926080615
0.315179549488
0.322415481849
0.451929522268
0.318313071193
0.312108009039
0.305766340067
0.204111093432
0.0961964167619
0.00639217556304
0.0254233892796
0.00301122618011
0.0246929107206
0.0300159338756
0.0682579842207
0.00942570296471
0.0260670009975
0.00733987895337
0.00284263270078
0.0683272104425
0.0108508875276
0.0592706781926
0.00980397172983
0.0300654790533
0.0425824583084
0.0156601606575
0.0323832708031
0.0610338062303
0.00452156821209
0.0328706312997
0.0669816555096
0.0178682323055
0.030789613254
0.0203832051014
0.00275887783567
0.0412172993522
0.0173401880214
0.0212081711472
0.0139287429382
0.0199141788248
0.0229952014036
0.0196873901409
0.0230468620853
0.0376950078811
0.00808242786743
0.0117558616652
0.0279048600075
0.0202772576177
0.0303784617025
0.0280611318837
0.0235070123986
0.0568106367105
0.0359476198499
0.0525230593178
0.0303962777902
0.0347685706367
0.0132844876854
0.0401949284006
0.0583234639751
0.0334032364605
0.0259295971039
0.0760284959584
0.0526215017977
0.0822179553429
0.0829401575384
0.123227235534
0.150031697866
0.0728621455201
0.143125941736
0.0846052254075
0.0656632651619
0.0789607773644
0.0761566551903
0.0772734921184
0.0726817127971
0.114486320724
0.112661142146
0.11396222792
0.0889186886517
0.0690901748749
0.0789740479805
0.0838330622728
0.10271888907
0.0809355444462
0.0580788644731
0.048798023494
0.0743751528159
0.444597751167
0.131264994142
0.0305426264666
0.0643128226774
0.07685437215
0.0329175375032
0.0755535763523
0.0269013995036
0.0781478818932
0.0571771378961
0.0655239135376
0.0674538298262
0.0153697635963
0.0248027257632
0.0046864341409
0.00659174841508
0.0053623526357
0.00461806811999
0.0095565829041
0.0226363192784
0.0122895290427
0.0366811830042
0.0252613104983
0.0488689134328
0.017330198482
0.0186985730645
0.0542663864957
0.0266322920139
0.008585735106
0.0036193436
0.0144989709984
0.0082697834332
0.00754649176319
0.0181171867285
0.0375283257891
0.0124248596708
0.0174912706568
0.0480045120768
0.0441733837474
0.0128057136092
0.0187686597478
0.0193412618155
0.0144420761971
0.0466837595705
0.0182462055425
0.0247256053121
0.00725522225663
0.0319703052367
0.0188099664662
0.0125736845634
0.0188822403811
0.0176784935559
0.0248745522322
0.0103018281438
0.0382682050831
0.00982935666644
0.0523183505797
0.0182815018174
0.0157894152453
0.00759108889823
0.0611246912425
0.0266760018915
0.0165492358259
0.0706656139266
0.0138322159845
0.0487747987702
0.0203675629255
0.0470932769807
0.0532239695913
0.0618617316611
0.0642163892341
0.0119835137341
0.0892964521742
0.0105680892917
0.013359210519
0.0791119007632
0.0699032845751
0.0209535604849
0.0591027959416
0.0994060262325
0.0605950655802
0.0984142868659
0.104631205065
0.127716113421
0.100288022322
0.0926877399123
0.113420007238
0.0768337040327
0.102796394688
0.149614962677
0.176033173761
0.173844726982
0.195290468658
0.212068097754
0.242649653768
0.303883522124
0.342078103041
0.400730310665
0.520914164191
0.503756285089
0.679888085999
0.590985117819
0.917737456322
0.629177187013
0.226091441082
0.217346129895
0.168701528272
0.143157425531
0.12316330122
0.092669440534
0.0794580436132
0.0532064288507
0.0574582203962
1000000.0
0.0
0.0
0.0
0.0
0.0
0.0
0.0
0.0
0.0
0.0
0.0
0.0
0.0
0.0
0.0
0.0
0.0
0.0
0.0
0.0
0.0
0.0
0.0
0.0
0.0
0.0
0.0
0.0
0.0
0.0
0.0
0.0
0.0
0.0
0.0
0.0
0.0
0.0
0.0
0.0
0.0
0.0
0.0
0.0
0.0
0.0
0.0
0.0
0.0
0.0
0.0
0.0
0.0
0.0
0.0
0.0
0.0
0.0
0.0
0.0
0.0
0.0
0.0
0.0
0.0
0.0
0.0
0.0
0.0
0.0
0.0
0.0
0.0
0.0
0.0
0.0
0.0
0.0
0.0
0.0
0.0
0.0
0.0
0.0
0.0
0.0
0.0
0.0
0.0
0.0
0.0
0.0
0.0
0.0
0.0
0.0
0.0
0.0
0.0
0.0
0.0
0.0
0.0
0.0
0.0
0.0
0.0
0.0
0.0
0.0
0.0
0.0
0.0
0.0
0.0
0.0
0.0
0.0
0.0
0.0
0.0
0.0
0.0
0.0
0.0
0.0
0.0
0.0
0.0
0.0
0.0
0.0
0.0
0.0
0.0
0.0
0.0
0.0
0.0
0.0
0.0
0.0
0.0
0.0
0.0
0.0
0.0
0.0
0.0
0.0
0.0
0.0
0.0
0.0
0.0
0.0
0.0
0.0
0.0
0.0
0.0
0.0
0.0
0.0
0.0
0.0
0.0
0.0
0.0
0.0
0.0
0.0
0.0
0.0
0.0
0.0
0.0
0.0
0.0
0.0
0.0
0.0
0.0
0.0
0.0
0.0
0.0
0.0
0.0
0.0
0.0
0.0
0.0
0.0
0.0
0.0
0.0
0.0
0.0
0.0
0.0
0.0
0.0
0.0
0.0
0.0
0.0
0.0
0.0
0.0
0.0
0.0
0.0
0.0
0.0
0.0
0.0
0.0
0.0
0.0
0.0
0.0
0.0
0.0
0.0
0.0
0.0
0.0
0.0
0.0
0.0
0.0
0.0
0.0
0.0
0.0
0.0
0.0
0.0
0.0
0.0
0.0
0.0
0.0
0.0
0.0
0.0
0.0
0.0
0.0
0.0
0.0
0.0
0.0
0.0
0.0
0.0
0.0
0.0
0.0
0.0
0.0
0.0
0.0
0.0
0.0
0.0
0.0
0.0
0.0
0.0
0.0
0.0
0.0
0.0
0.0
0.0
0.0
0.0
0.0
0.0
0.0
0.0
0.0
0.0
0.0
0.0
0.0
0.0
0.0
0.0
0.0
0.0
0.0
0.0
0.0
0.0
0.0
0.0
0.0
0.0
0.0
0.0
0.0
0.0
0.0
0.0
0.0
0.0
0.0
0.0
0.0
0.0
0.0
0.0
0.0
0.0
0.0
0.0
0.0
0.0
0.0
0.0
0.0
0.0
0.0
0.0
0.0
0.0
0.0
0.0
0.0
0.0
0.0
0.0
0.0
0.0
0.0
0.0
0.0
0.0
0.0
0.0
0.0
0.0
0.0
0.0
0.0
0.0
0.0
0.0
0.0
0.0
0.0
0.0
0.0
0.0
0.0
0.0
0.0
0.0
0.0
0.0
0.0
0.0
0.0
0.0
0.0
0.0
0.0
0.0
0.0
0.0
0.0
0.0
0.0
0.0
0.0
0.0
0.0
0.0
0.0
0.0
0.0
0.0
0.0
0.0
0.0
0.0
0.0
0.0
0.0
0.0
0.0
0.0
0.0
0.0
0.0
0.0
0.0
0.0
0.0
0.0
0.0
0.0
0.0
0.0
0.0
0.0
0.0
0.0
0.0
0.0
0.0
0.0
0.0
0.0
0.0
0.0
0.0
0.0
0.0
0.0
0.0
0.0
0.0
0.0
0.0
0.0
0.0
0.0
0.0
0.0
0.0
0.0
0.0
0.0
0.0
0.0
0.0
0.0
0.0
0.0
0.0
0.0
0.0
0.0
0.0
0.0
0.0
0.0
0.0
0.0
0.0
0.0
0.0
0.0
0.0
0.0
0.0
0.0
0.0
0.0
0.0
0.0
0.0
0.0
0.0
0.0
0.0
0.0
0.0
0.0
0.0
0.0
0.0
0.0
0.0
0.0
0.0
0.0
0.0
0.0
0.0
0.0
0.0
0.0
0.0
0.0
0.0
0.0
0.0
0.0
0.0
0.0
0.0
0.0
0.0
0.0
0.0
0.0
0.0
0.0
0.0
0.0
0.0
0.0
0.0
0.0
0.0
0.0
0.0
0.0
0.0
0.0
0.0
0.0
0.0
0.0
0.0
0.0
0.0
0.0
0.0
0.0
0.0
0.0
0.0
0.0
0.0
0.0
0.0
0.0
0.0
0.0
0.0
0.0
0.0
0.0
0.0
0.0
0.0
0.0
0.0
0.0
0.0
0.0
0.0
0.0
0.0
0.0
0.0
0.0
0.0
0.0
0.0
0.0
0.0
0.0
0.0
0.0
0.0
0.0
0.0
0.0
0.0
0.0
0.0
0.0
0.0
0.0
0.0
0.0
0.0
0.0
0.0
0.0
0.0
0.0
0.0
0.0
0.0
0.0
0.0
0.0
0.0
0.0
0.0
0.0
0.0
0.0
0.0
0.0
0.0
0.0
0.0
0.0
0.0
0.0
0.0
0.0
0.0
0.0
0.0
0.0
0.0
0.0
0.0
0.0
0.0
0.0
0.0
0.0
0.0
0.0
0.0
0.0
0.0
0.0
0.0
0.0
0.0
0.0
0.0
0.0
0.0
0.0
0.0
0.0
0.0
0.0
0.0
0.0
0.0
0.0
0.0
0.0
0.0
0.0
0.0
0.0
0.0
0.0
0.0
0.0
0.0
0.0
0.0
0.0
0.0
0.0
0.0
0.0
0.0
0.0
0.0
0.0
0.0
0.0
0.0
0.0
0.0
0.0
0.0
0.0
0.0
0.0
0.0
0.0
0.0
0.0
0.0
0.0
0.0
0.0
0.0
0.0
0.0
0.0
0.0
0.0
0.0
0.0
0.0
0.0
0.0
0.0
0.0
0.0
0.0
0.0
0.0
0.0
0.0
0.0
0.0
0.0
0.0
0.0
0.0
0.0
0.0
0.0
0.0
0.0
0.0
0.0
0.0
0.0
0.0
0.0
0.0
0.0
0.0
0.0
0.0
0.0
0.0
0.0
0.0
0.0
0.0
0.0
0.0
0.0
0.0
0.0
0.0
0.0
0.0
0.0
0.0
0.0
0.0
0.0
0.0
0.0
0.0
0.0
0.0
0.0
0.0
0.0
logs/alpha_0.2/PGSD_100steps_0.log 1000024.66772 1000.02466772 0.0 1000000.0 0.0 256
