Policy Parameters:	-0.422519808293 0.202640209492
Control Steps:		1000
Start Time:		1438182440.141358

-- TESTING STOPPED --

Stop Time:		1438182500.2096412
Duration:		60.06828331947327
Cost Matrix:
0.205825953673
0.227274856329
0.185694247527
0.141097413391
0.143453230419
0.0888945492987
0.162099206599
0.0752746451303
0.0286374068882
0.022245346406
0.0491534855994
0.0225299723532
0.0608936745815
0.033171412437
0.0419142249307
0.0341754541538
0.00664716539398
0.00986100257803
0.031258595956
0.0282919068802
0.0384597286154
0.0503619823444
0.0281644196521
0.0221747452848
0.0119424967181
0.016212147674
0.0239079411477
0.037329654937
0.0339041870374
0.0108160994395
0.0385829308867
0.0343370350665
0.0415747960018
0.0801761849315
0.1015012166
0.117466354068
0.125159640806
0.122776672037
0.155753607012
0.162640133684
0.177576663404
0.210348742071
0.206052169421
0.254873271042
0.287317895244
0.320382317177
0.26583741702
0.307040812924
0.298085746319
0.30799282311
0.351596781822
0.358767789633
0.358631961828
0.415289015986
0.442202794372
0.42693975389
0.377393820488
0.479888647655
0.424553979441
0.381677494276
0.483291879503
0.426633648362
0.352171631208
0.432897097368
0.475614001445
0.403247593413
0.497970258955
0.23878159907
0.0561028838974
0.0078646723093
0.00768365376492
0.0171415096397
0.027263564663
0.0124131409125
0.0495805692995
0.0369858844558
0.0128445108885
0.038309237249
0.0202442740462
0.00464823842826
0.0227911142737
0.036830910215
0.00772284150758
0.0125203557254
0.0178970194913
0.00544541723626
0.026260553271
0.0259913592563
0.00971654547834
0.0311627188809
0.0530797630768
0.0231917393831
0.0379842269839
0.0100644973567
0.0160348390009
0.0075627814173
0.0332950209275
0.00805252000025
0.0103082795213
0.00485347400507
0.0250654139654
0.0223477039531
0.00827048758192
0.0253542359491
0.029960064895
0.00396120314319
0.0168993824468
0.0194325843756
0.0164205047188
0.035150273524
0.0129366653752
0.0283674811812
0.0220418075558
0.0282776012462
0.0258908406467
0.00914884979612
0.0200243684018
0.0214480609544
0.0316920601575
0.0585868815396
0.0712826604844
0.0723876743365
0.0687515855001
0.0653962652779
0.0903202843182
0.129164964123
0.127592913077
0.12321614598
0.174203418664
0.25006416468
0.314654041289
0.378146884807
0.473565326553
0.514267134416
0.546718677517
0.581689997574
0.508865664137
0.645354479067
0.613609410759
0.61085321657
0.582439435702
0.797259357775
0.783820147139
0.954657571518
0.887535217998
0.77889096214
0.710737863
0.717283773593
0.676238364435
0.575625838574
0.46634734227
0.692922011383
0.380969948564
0.108704718222
0.0495639294042
0.0214667199498
0.000350694563273
0.00278997830093
0.0335351240537
0.0262047368542
0.0212524641467
0.0140416298536
0.00439070926802
0.0116781599637
0.0266965631484
0.0139152474392
0.00811243758558
0.0170003198272
0.00112888543338
0.00746816275372
0.0214278578193
0.0247613291975
0.0486983743299
0.0274920629237
0.019755852436
0.0166097910065
0.0288895369817
0.0294637294419
0.0519983296911
0.0394371163715
0.0404991521265
0.0312088446896
0.0317210364075
0.00550014515667
0.0106732250131
0.0111092703989
0.0303856509151
0.0513144121754
0.0430573608344
0.0535621689669
0.0573903609039
0.0532807513699
0.0268451044845
0.0258059361066
0.0166351639953
0.00755011324414
0.0487383840137
0.0384939069407
0.0156309164989
0.0118777363322
0.0243235592448
0.0121743418721
0.0629500720941
0.012796762783
0.013467772586
0.0651568450666
0.0203033246097
0.0773786766899
0.036191159687
0.0380062413629
0.0987132016962
0.0418118323396
0.0530934875385
0.100778884312
0.0935423934655
0.0654813595323
0.0671109644125
0.0867514820506
0.102473632577
0.110391613675
0.106524836851
0.07081830017
0.131354892417
0.146208245727
0.148737041191
0.181060270909
0.14774886347
0.205242417558
0.213424171494
0.272010762696
0.300648592689
0.336826535512
0.376295507531
0.470311816087
0.533830771458
0.552026466557
0.576237946437
0.645027782248
0.480096343424
0.614173594953
0.606991299069
0.622167050041
0.846780297381
0.850801866968
0.855135515607
0.606867084543
0.743217113073
0.695040995135
0.761198746408
0.802869757679
0.769077286191
0.461257934967
0.503513012056
0.520889697768
0.660055164353
0.346046444946
0.67967252485
0.139054365946
0.00885608385147
0.0158665958033
0.0186418961695
0.0284628834446
0.0280753213553
0.0166352919441
0.0552536830762
0.0154021731474
0.0153178336596
0.0339456027135
0.0766902056108
0.0323659663026
0.0182848497736
0.0179432522393
0.0190180792241
0.0838554146296
0.0493231590418
0.0102751398977
0.0460643149539
0.0126917614553
0.0360126376973
0.0580399044064
0.0389830078051
0.0484753149735
0.0691134045912
0.0470734993389
0.0522204144366
0.0139083885578
0.0124774521647
0.0459720954601
0.00498448505227
0.0606259291579
0.0183713321402
0.0426285056493
0.0292566007091
0.0464454721714
0.0721941988342
0.061265849614
0.0647452564138
0.0818454971398
0.118114903319
0.178496290735
0.284153438772
0.324087895951
0.352512635962
0.375573147357
0.404175553244
0.446871410822
0.486274771343
0.523409335959
0.576827505793
0.619708408669
0.592446531043
0.664679835608
0.708822234887
0.774075747416
0.687862103154
0.713187619808
0.377034734533
0.179426618295
0.235370450081
0.334447471313
0.454257501294
0.501760041866
0.484077982468
0.501599749006
0.426240986215
0.358270914508
0.212961170731
0.208545537924
0.0869832515265
0.0233612173519
0.0529596943829
0.0275921046867
0.0207069343508
0.0294339416303
0.00816873180868
0.0166046694258
0.0233279265629
0.0228320922641
0.0352512652241
0.00568776824778
0.0402815969501
0.00263614047312
0.0210546356329
0.0325501151702
0.0394034335134
0.0210326421638
0.023977066612
0.0441188581554
0.00901404241817
0.0642295547922
0.0529693470167
0.0131581715951
0.0570473287287
0.0379030518164
0.00909577989
0.0521672590953
0.0628108792825
0.0235943647157
0.0558162525326
0.032999927127
0.0391985500916
0.0463327357051
0.0384339684021
0.0216368372848
0.00682168093709
0.0317202774532
0.0185574419503
0.00542221954613
0.00834375634789
0.00634814057454
0.0329854264885
0.00211239971841
0.0141564196625
0.00883451207449
0.00479620120448
0.00667976971228
0.00513748168004
0.00358305840627
0.00659815672051
0.00457494237236
0.014910666383
0.00724803123512
0.00646420423078
0.00846452483685
0.0283849977984
0.00808162754487
0.0297058032055
0.012636020671
0.0150020143275
0.0384672928066
0.0165795527329
0.0291600653686
0.0166463771799
0.0224837469051
0.0195969908771
0.0127484717324
0.000972987044724
0.0472737559276
0.00512689427331
0.00664092377824
0.0123658318188
0.0105106130337
0.0110674799043
0.0139750759254
0.0311111886949
0.0249430326332
0.0110976316827
0.0190867524445
0.0086742796014
0.0103054641829
0.0190283420034
0.0183093126146
0.0393473962423
0.0238608841274
0.0337216004015
0.0320147817534
0.023497236764
0.0232014534742
0.00970723314743
0.0215826055658
0.0264237010594
0.0243868090751
0.0389319605799
0.0468312063221
0.0512077568051
0.0468861842654
0.0822781030267
0.706527244363
0.412642962773
0.0821440387252
0.00649583261466
0.0182947085626
0.0746753850506
0.0435859877752
0.0158929613256
0.0082414577515
1000000.0
0.0
0.0
0.0
0.0
0.0
0.0
0.0
0.0
0.0
0.0
0.0
0.0
0.0
0.0
0.0
0.0
0.0
0.0
0.0
0.0
0.0
0.0
0.0
0.0
0.0
0.0
0.0
0.0
0.0
0.0
0.0
0.0
0.0
0.0
0.0
0.0
0.0
0.0
0.0
0.0
0.0
0.0
0.0
0.0
0.0
0.0
0.0
0.0
0.0
0.0
0.0
0.0
0.0
0.0
0.0
0.0
0.0
0.0
0.0
0.0
0.0
0.0
0.0
0.0
0.0
0.0
0.0
0.0
0.0
0.0
0.0
0.0
0.0
0.0
0.0
0.0
0.0
0.0
0.0
0.0
0.0
0.0
0.0
0.0
0.0
0.0
0.0
0.0
0.0
0.0
0.0
0.0
0.0
0.0
0.0
0.0
0.0
0.0
0.0
0.0
0.0
0.0
0.0
0.0
0.0
0.0
0.0
0.0
0.0
0.0
0.0
0.0
0.0
0.0
0.0
0.0
0.0
0.0
0.0
0.0
0.0
0.0
0.0
0.0
0.0
0.0
0.0
0.0
0.0
0.0
0.0
0.0
0.0
0.0
0.0
0.0
0.0
0.0
0.0
0.0
0.0
0.0
0.0
0.0
0.0
0.0
0.0
0.0
0.0
0.0
0.0
0.0
0.0
0.0
0.0
0.0
0.0
0.0
0.0
0.0
0.0
0.0
0.0
0.0
0.0
0.0
0.0
0.0
0.0
0.0
0.0
0.0
0.0
0.0
0.0
0.0
0.0
0.0
0.0
0.0
0.0
0.0
0.0
0.0
0.0
0.0
0.0
0.0
0.0
0.0
0.0
0.0
0.0
0.0
0.0
0.0
0.0
0.0
0.0
0.0
0.0
0.0
0.0
0.0
0.0
0.0
0.0
0.0
0.0
0.0
0.0
0.0
0.0
0.0
0.0
0.0
0.0
0.0
0.0
0.0
0.0
0.0
0.0
0.0
0.0
0.0
0.0
0.0
0.0
0.0
0.0
0.0
0.0
0.0
0.0
0.0
0.0
0.0
0.0
0.0
0.0
0.0
0.0
0.0
0.0
0.0
0.0
0.0
0.0
0.0
0.0
0.0
0.0
0.0
0.0
0.0
0.0
0.0
0.0
0.0
0.0
0.0
0.0
0.0
0.0
0.0
0.0
0.0
0.0
0.0
0.0
0.0
0.0
0.0
0.0
0.0
0.0
0.0
0.0
0.0
0.0
0.0
0.0
0.0
0.0
0.0
0.0
0.0
0.0
0.0
0.0
0.0
0.0
0.0
0.0
0.0
0.0
0.0
0.0
0.0
0.0
0.0
0.0
0.0
0.0
0.0
0.0
0.0
0.0
0.0
0.0
0.0
0.0
0.0
0.0
0.0
0.0
0.0
0.0
0.0
0.0
0.0
0.0
0.0
0.0
0.0
0.0
0.0
0.0
0.0
0.0
0.0
0.0
0.0
0.0
0.0
0.0
0.0
0.0
0.0
0.0
0.0
0.0
0.0
0.0
0.0
0.0
0.0
0.0
0.0
0.0
0.0
0.0
0.0
0.0
0.0
0.0
0.0
0.0
0.0
0.0
0.0
0.0
0.0
0.0
0.0
0.0
0.0
0.0
0.0
0.0
0.0
0.0
0.0
0.0
0.0
0.0
0.0
0.0
0.0
0.0
0.0
0.0
0.0
0.0
0.0
0.0
0.0
0.0
0.0
0.0
0.0
0.0
0.0
0.0
0.0
0.0
0.0
0.0
0.0
0.0
0.0
0.0
0.0
0.0
0.0
0.0
0.0
0.0
0.0
0.0
0.0
0.0
0.0
0.0
0.0
0.0
0.0
0.0
0.0
0.0
0.0
0.0
0.0
0.0
0.0
0.0
0.0
0.0
0.0
0.0
0.0
0.0
0.0
0.0
0.0
0.0
0.0
0.0
0.0
0.0
0.0
0.0
0.0
0.0
0.0
0.0
0.0
0.0
0.0
0.0
0.0
0.0
0.0
0.0
0.0
0.0
0.0
0.0
0.0
0.0
0.0
0.0
0.0
0.0
0.0
0.0
0.0
0.0
0.0
0.0
0.0
0.0
0.0
0.0
0.0
0.0
0.0
0.0
0.0
0.0
0.0
0.0
0.0
0.0
0.0
0.0
0.0
0.0
0.0
0.0
0.0
0.0
0.0
0.0
0.0
0.0
0.0
0.0
0.0
0.0
0.0
0.0
0.0
0.0
0.0
0.0
0.0
0.0
0.0
0.0
0.0
0.0
0.0
0.0
0.0
0.0
0.0
0.0
0.0
0.0
0.0
0.0
0.0
0.0
0.0
0.0
0.0
0.0
0.0
0.0
0.0
0.0
0.0
0.0
0.0
0.0
0.0
0.0
0.0
0.0
0.0
0.0
0.0
0.0
0.0
0.0
0.0
0.0
0.0
0.0
0.0
0.0
0.0
0.0
0.0
0.0
0.0
0.0
0.0
0.0
0.0
0.0
logs/alpha_0.2/PGSD_300steps_2.log 1000068.18628 1000.06818628 0.0 1000000.0 0.0 436
