Initial Policy Parameters:	0.0 0.0
Learning Rate:			0.9
Learning Steps:			600
Start Time:			1447162508.8

-- LEARNING STOPPED --

Stop Time:			1447162763.4
Duration:			254.597937107
Final Policy Parameters:	-0.898646959078 0.960926973636
