Initial Policy Parameters:	0.0 0.0
Learning Rate:			0.4
Learning Steps:			600
Start Time:			1436816882.1003563

-- LEARNING STOPPED --

Stop Time:			1436816971.9194279
Duration:			89.81907153129578
Final Policy Parameters:	-1.6894089669 0.852619969399
