Policy Parameters:	-0.98111022491 1.06652609378
Control Steps:		1000
Start Time:		1438207423.3878653

-- TESTING STOPPED --

Stop Time:		1438207541.7370024
Duration:		118.3491370677948
Cost Matrix:
0.0110830524437
0.068110170193
0.128599693902
0.145654492643
0.129138361644
0.115598972625
0.133415493945
0.139694789001
0.122870971077
0.120549722968
0.152224298019
0.169194790181
0.144243228535
0.132944448457
0.127633134275
0.0913721615375
0.0798749192403
0.0860085660116
0.0750970372501
0.0802217332532
0.0635513830687
0.0507220063193
0.0523818685108
0.0412360837987
0.0380217828496
0.0082088466578
0.0619424236809
0.081179380678
0.0830570379234
0.087025707734
0.0529387392937
0.0641848574059
0.0957543097565
0.0896951781076
0.109187177178
0.120311884132
0.137673104827
0.134998401299
0.10157979565
0.132047724286
0.131901374924
0.141504116176
0.145301518112
0.155732599155
0.165287587777
0.202112660794
0.257663061861
0.254167021079
0.237844583377
0.270834853278
0.292637818127
0.284565359412
0.301233985305
0.337435990158
0.347607985479
0.328390806297
0.331580756282
0.35853977575
0.333890397349
0.304519788717
0.266264096541
0.235699453793
0.199931267043
0.135275746487
0.111751852227
0.0616556994536
0.029874406105
0.0748642838751
0.0942095299444
0.0856090695139
0.0941224130949
0.129599495386
0.12840226648
0.125327036824
0.137401913799
0.120014883037
0.119173571083
0.107551128697
0.10510193688
0.145391660029
0.126447274457
0.0741303240266
0.0564480462029
0.033895173599
0.0762791341777
0.0923608654242
0.0830998891209
0.0607229180564
0.0563897523021
0.0653172980132
0.059850589147
0.0829587664087
0.0774463409577
0.0483658222437
0.0489057813692
0.0335959999631
0.033953392414
0.0335501771401
0.0340872614846
0.0380249121443
0.00867447739885
0.0330101206945
0.0426983048677
0.0230023579956
0.0376831963418
0.0636063735993
0.0598002912995
0.0497794693311
0.0466484003681
0.0275896132265
0.0309477466733
0.0372396282941
0.0400912453686
0.0205965059812
0.00120693998135
0.00110929345166
0.0470736552586
0.0704054750725
0.0510173805759
0.00925187379181
0.0200707148751
0.0140555580237
0.00239136566082
0.0168782260271
0.0229866324119
0.0294710495749
0.0287834874838
0.0174456448781
0.0239317157502
0.0417125993049
0.0483020283271
0.0511602066421
0.11105563285
0.119944311475
0.0813896302952
0.10063422606
0.158759789544
0.21584925493
0.222058756584
0.206128098881
0.252237671899
0.285801749326
0.266523543818
0.242963099242
0.243558398311
0.29156746778
0.292907659597
0.275199410241
0.296347661898
0.308882788539
0.314635086958
0.327392467942
0.347144993434
0.30060096655
0.260230350228
0.281473681023
0.262675472873
0.238430774426
0.174487569677
0.07919396337
0.0761393799593
0.0979555332733
0.0930981319392
0.0639094486569
0.0686998992071
0.0418514290612
0.0361608666808
0.0257196710598
0.0218868394339
0.0283100925072
0.0391755512832
0.0574614123965
0.0468249661146
0.0266037837466
0.0149924187235
0.0196812209448
0.0196215072221
0.00946448765749
0.0124717347519
0.0160915170193
0.052654214921
0.0727775181375
0.0455477926661
0.0491992385567
0.0625148104046
0.0739622567054
0.0815554859881
0.0860433337705
0.0824943226211
0.0695309504744
0.050512134457
0.0335549153498
0.0265064981427
0.0248471201849
0.0427117743072
0.0602074208585
0.0663672368717
0.0442519774705
0.0112861367036
0.00362512224047
0.0254750481034
0.0516025758329
0.0452157796643
0.001772906338
0.0408717262748
0.0520458957546
0.0393080136799
0.0491502307681
0.0723196517319
0.084950444066
0.123509468029
0.16292094416
0.202235677903
0.287379613569
0.336875169206
0.389995252666
0.542070428753
0.668223788386
0.685724926414
0.772130965545
1.01864432528
1.01123338852
1.0364180396
0.188442319283
0.245478350542
0.203529482291
0.221349759789
0.23713762736
0.230087744783
0.190572779214
0.386984374953
0.480264331737
0.414656328014
0.361380717144
0.275792049827
0.317688295498
0.258519885256
0.067499259739
0.0843727029236
0.0611246409531
0.0487861473547
0.0637597005675
0.0572464839714
0.0305226924236
0.0579672009725
0.152833383424
0.213931501052
0.238065139485
0.255236261782
0.220053424505
0.153953442354
0.12331972462
0.110595348775
0.116790076327
0.130364501567
0.135606887483
0.101688026013
0.0375119136595
0.0176163977639
0.0896189782297
0.13103217969
0.113464148283
0.0812010091496
0.0828279421712
0.0812162344798
0.064531792574
0.0433779132693
0.0249860276319
0.0147924760178
0.0119698851842
0.0164009400024
0.0415715383568
0.0418023789278
0.00654360348418
0.018394738714
0.0295853293518
0.0239969347342
0.015346219623
0.00976971991715
0.00167771706593
0.00225269969722
0.0186734120627
0.0257439283396
0.0293189681044
0.0437643999751
0.0373128361211
0.0561326375448
0.0566588431839
0.0112616555872
0.0396069296801
0.0686209183911
0.0798279508115
0.0553362163508
0.0159043107632
0.0169218731712
0.00727808338712
0.0101767472509
0.050117530198
0.0550853298236
0.0732349086632
0.0698418488659
0.0334155703063
0.0976838539357
0.110638904224
0.0940752660976
0.0947117170608
0.0972279320893
0.112128319234
0.119344844876
0.0847946445163
0.030840330991
0.0437844434161
0.0721339399618
0.0903151487511
0.0823708831466
0.134006126645
0.155239140913
0.147007158629
0.134770933813
0.113205837577
0.130861034118
0.163118276707
0.181157976773
0.178674983526
0.185293694049
0.219982267522
0.256439808429
0.286337135011
0.314278427669
0.352997359759
0.437084832212
0.541946699938
0.648595336104
0.866910816712
1.08662639851
0.697028724853
0.733987753235
0.822466390107
0.983921997537
0.826030114034
1.0295775133
1.02592727892
1.10973227079
0.601350388554
0.649261606308
1.01451552141
1.31046732611
0.0767908246189
0.0233216873064
0.017340949979
0.0142001534393
0.0238749631392
0.0380904455098
0.0462127928565
0.0425635099943
0.02313084909
0.0184477747521
0.0460799790984
0.0456702543188
0.0334955815214
0.0347725668032
0.0380610483828
0.0553493700714
0.0598849246986
0.0845330906687
0.105425733942
0.11177321767
0.122884025756
0.118736716174
0.105073339575
0.100992366192
0.135768969251
0.184930830629
0.205339189988
0.220192907801
0.225857688542
0.263399904957
0.31265076431
0.374454218191
0.427888225641
0.47078007694
0.533951443523
0.5783403592
0.610794445529
0.643567611002
0.679449370506
0.701865213692
0.606412333231
0.493046952114
0.628617806745
0.739306026767
0.638607002402
0.543703824799
0.438401638792
0.213898846089
0.166375130882
0.0485608238298
0.0381636242845
0.0222572959056
0.0283620165123
0.0459465816653
0.0538478057512
0.0509847516889
0.0425759654571
0.0790757168899
0.0846044578716
0.0463599440402
0.0384411188949
0.104064261898
0.11860287038
0.0881418568139
0.100534719548
0.0803995387835
0.0236104538342
0.0257604149857
0.0537752080303
0.0743058636918
0.0873904777202
0.0979081863063
0.0824918235782
0.0689157018096
0.0592789858914
0.0264505975095
0.00990036263942
0.0622970116735
0.078176544787
0.0506784635276
0.0515399126453
0.074234968807
0.0560680524307
0.00308586933549
0.00224110943238
0.042012726329
0.0615682620434
0.0651360322596
0.0493247302904
0.0422250377861
0.0419845270933
0.0272828748205
0.0450477360148
0.0557268551182
0.0696163646254
0.0611966697385
0.0613370967337
0.0723943690453
0.0663809519392
0.09985207864
0.119600621198
0.104712972868
0.0885778644623
0.112503428309
0.11932178363
0.135519230194
0.169334775211
0.22669199059
0.250942700772
0.22970801488
0.228861001969
0.248621291665
0.256359355306
0.267248048571
0.289315073779
0.294879978829
0.300969748164
0.313055840118
0.333059853474
0.324824610833
0.305336378413
0.336201365993
0.359589280109
0.319039962479
0.301664683548
0.287006612402
0.242685085305
0.24915260081
0.235127578946
0.205588209835
0.219472761272
0.201994614869
0.336316270295
0.316524378391
0.0673770573204
0.0357021919083
0.0296205525603
0.0280868413833
0.0213756519357
0.0463201415296
0.0469044400302
0.0353362797845
0.0269075126367
0.0167801192052
0.0203573689591
0.0298760480686
0.0181480013043
0.0117650668806
0.0191687491091
0.0416569592517
0.0404433658007
0.0377936718315
0.0268145616401
0.0386511815345
0.0491589890043
0.0185338683547
0.0665370479533
0.0785029881847
0.0517577735788
0.0694769724843
0.0777081563288
0.0770624409408
0.100836174748
0.0901541281799
0.043183232222
0.0402167997422
0.0446460183128
0.08041656123
0.0862974944523
0.0591742564169
0.0604726170705
0.0789901206605
0.0782093671734
0.0583366127475
0.0433090030687
0.025466751617
0.0463421391791
0.0683394913142
0.0718739152905
0.0706426618829
0.0744989153354
0.0737144882084
0.0744688218384
0.0812308094915
0.0844310657662
0.0747014837006
0.073943379272
0.0822889065196
0.0856060752069
0.0813281939143
0.0831014714681
0.0853554682111
0.0782462261274
0.0899651680682
0.0993327195154
0.101435063948
0.103892052212
0.102280225753
0.0948910158793
0.0953153678354
0.102714850015
0.104253570811
0.103807722754
0.110145806073
0.101844062044
0.096366041421
0.115136848172
0.12205102069
0.125816273122
0.126859941071
0.125054070674
0.127541382238
0.129529249149
0.129936690988
0.12430243011
0.128272908881
0.136181668967
0.136636389704
0.143386025545
0.153649575882
0.15332812231
0.145466047413
0.154445007248
0.165497360157
0.172840676611
0.177390487518
0.177527056926
0.181819726514
0.189633970776
0.194105755656
0.192097435359
0.196918427874
0.210297400585
0.214674072977
0.215445583397
0.215455115111
0.224981869603
0.238795169197
0.239167163836
0.247888460401
0.258007521844
0.259178931395
0.259336064313
0.266665468398
0.283116283235
0.290112794359
0.289447108838
0.302032060843
0.319016484928
0.333894043234
0.367376572272
0.394858436987
0.392698620237
0.40285594155
0.423019266887
0.419264024603
0.431762314612
0.454110135839
0.47545601305
0.513349186531
0.547034263752
0.57023958658
0.606156233862
0.687904042755
0.720756185225
0.719611788705
0.71783158605
0.701332127514
0.664741088655
0.698357049109
0.82059732291
0.957071467182
0.930780506269
1.21760670011
1.06223288421
1.1367654378
1.58121803144
0.677178458234
0.955630498422
1.25450545227
0.945326366851
0.93639424626
0.740973143635
0.90407391116
1.11788344363
1.05091742845
1.45120956087
0.634699121894
0.698548627245
0.673978592959
0.67766304756
0.640142046602
0.59549588847
0.57704924026
0.55907259918
0.526950677348
0.486639819457
0.458879151203
0.426347515303
0.396821188094
0.389797584383
0.363712131247
0.342649127449
0.317900178112
0.267529880397
0.250479049737
0.20878853613
0.128782264054
0.108475678791
0.116885440131
0.127312786939
0.0710976161984
0.107311214104
0.126475773542
0.110532767427
0.100146091641
0.0534265020366
0.0234356210081
0.140118772134
0.205134841092
0.216744995792
0.214384110937
0.21712557318
0.207952811334
0.189658605441
0.159820034705
0.110153136798
0.0929392945931
0.0861138115209
0.122119496636
0.120716661301
0.0798666595586
0.0641221314589
0.0348148117303
0.0161067510109
0.0156806508432
0.0853978411847
0.103091792197
0.114729076194
0.129915623868
0.0339289670627
0.0182473244639
0.0254341112467
0.0447748654632
0.097698432375
0.123715251048
0.119007352851
0.114367226184
0.124630262254
0.126606285124
0.118758978008
0.0862996620754
0.0532679373532
0.109729491516
0.111505532945
0.0898614687513
0.0864955269278
0.105031910989
0.109269806402
0.0917926766609
0.0490975447146
0.0347491150277
0.0338456836092
0.0654100777303
0.0806292728612
0.0569365778683
0.0681522248798
0.0862921154406
0.0737738425117
0.021075994049
0.014817860259
0.0469594299579
0.0566218781094
0.0365901158137
0.0585422208008
0.061408015305
0.0776807427759
0.0817487153944
0.0715392078802
0.11182925301
0.179415980251
0.234180212977
0.231712152238
0.187700008773
0.167673971
0.193381486267
0.204988226575
0.187295859433
0.192476129933
0.206015708141
0.179745038744
0.177617720671
0.183536701788
0.155059108928
0.192814844007
0.206885780946
0.210478425704
0.206286444147
0.162673348729
0.120299158341
0.14766067091
0.15416382529
0.155216625562
0.169242418273
0.182685231544
0.156486791713
0.0879569974331
0.0300451513368
0.0132804434021
0.0190732072874
0.028477491384
0.037531669698
0.0469975736751
0.0537954441524
0.0705280890608
0.076369096371
0.0732675117582
0.0744638977082
0.0774585693367
0.083500473137
0.0807099168613
0.0831755380877
0.10183759128
0.107989992818
0.118938153778
0.126809351338
0.140847811469
0.142122291856
0.126747767939
0.127983491425
0.126112314361
0.129273176423
0.161557130234
0.21197124692
0.26050261917
0.257174737161
0.218200399425
0.214561210103
0.242763924477
0.300853205399
0.331476847036
0.25834817325
0.110310287266
0.548280182274
0.841236024166
0.392749072062
0.46172435389
1.04933389306
1.5074882728
0.0805048836788
1000000.0
0.0
0.0
0.0
0.0
0.0
0.0
0.0
0.0
0.0
0.0
0.0
0.0
0.0
0.0
0.0
0.0
0.0
0.0
0.0
0.0
0.0
0.0
0.0
0.0
0.0
0.0
0.0
0.0
0.0
0.0
0.0
0.0
0.0
0.0
0.0
0.0
0.0
0.0
0.0
0.0
0.0
0.0
0.0
0.0
0.0
0.0
0.0
0.0
0.0
0.0
0.0
0.0
0.0
0.0
0.0
0.0
0.0
0.0
0.0
0.0
0.0
0.0
0.0
0.0
0.0
0.0
0.0
0.0
0.0
0.0
0.0
0.0
0.0
0.0
0.0
0.0
0.0
0.0
0.0
0.0
0.0
0.0
0.0
0.0
0.0
0.0
0.0
0.0
0.0
0.0
0.0
0.0
0.0
0.0
0.0
0.0
0.0
0.0
0.0
0.0
0.0
0.0
0.0
0.0
0.0
0.0
0.0
0.0
0.0
0.0
0.0
0.0
0.0
0.0
0.0
0.0
0.0
0.0
0.0
0.0
0.0
0.0
0.0
0.0
0.0
0.0
0.0
0.0
0.0
0.0
0.0
0.0
0.0
0.0
0.0
0.0
0.0
0.0
0.0
0.0
0.0
0.0
0.0
0.0
0.0
0.0
0.0
0.0
0.0
0.0
0.0
0.0
0.0
0.0
0.0
0.0
0.0
0.0
0.0
0.0
0.0
0.0
0.0
0.0
0.0
0.0
0.0
0.0
0.0
0.0
0.0
0.0
0.0
0.0
0.0
0.0
0.0
0.0
0.0
0.0
0.0
0.0
0.0
0.0
0.0
0.0
0.0
0.0
0.0
0.0
0.0
0.0
0.0
0.0
0.0
0.0
0.0
0.0
0.0
0.0
0.0
0.0
logs/alpha_0.4/PGSD_700steps_0.log 1000152.84027 1000.15284027 0.0783746071561 1000000.0 0.0 797
