Initial Policy Parameters:	0.0 0.0
Learning Rate:			0.4
Learning Steps:			800
Start Time:			1436817951.0049915

-- LEARNING STOPPED --

Stop Time:			1436818058.7077725
Duration:			107.70278096199036
Final Policy Parameters:	-0.393022457023 0.386346366701
