Policy Parameters:	-0.823841620805 1.02782354391
Control Steps:		1000
Start Time:		1438203084.2092464

-- TESTING STOPPED --

Stop Time:		1438203150.8468795
Duration:		66.63763308525085
Cost Matrix:
0.0117591718324
0.025809016531
0.0628990828853
0.0754819411346
0.0534796576291
0.0621380823909
0.089627230777
0.11261002876
0.111322174037
0.0649011288107
0.0730655177725
0.0962203844648
0.102965479567
0.125869647179
0.114465084335
0.0793572779106
0.0809042117973
0.0830425435675
0.083041587913
0.0930507957447
0.0989431447526
0.065649657256
0.0556453315651
0.054958926048
0.0715782619618
0.10218457293
0.0905979645767
0.089145050176
0.0714782779255
0.0216043566836
0.029222513939
0.0353827808502
0.0284103318483
0.0206936050473
0.101621536208
0.107611416639
0.0126261570452
0.0191183209274
0.0174287114803
0.0371977151472
0.0537262078669
0.0463753435494
0.0270163691513
0.011650627024
0.00479627225281
0.0370804619031
0.0432361864094
0.0367366407741
0.0700837851832
0.08284683097
0.138300007213
0.138537174908
0.0643844206413
0.0269611917215
0.0366329535
0.0461168224899
0.0413784533107
0.0157943655214
0.0745730101735
0.0818709079595
0.0810019983702
0.0804941675238
0.0650990006275
0.0660520992986
0.0292568325796
0.0533139602208
0.0579185714752
0.0268790325048
0.0192140278538
0.042211203552
0.0506839654963
0.0708751967315
0.0905703312833
0.112560531617
0.146226894943
0.12417162442
0.0890307321088
0.094254522014
0.0711703895413
0.0593045375301
0.0769655089026
0.067829113754
0.057509272734
0.0707178028175
0.0282148147729
0.00538126520009
0.010397585086
0.0505855569645
0.0873878304145
0.088831421231
0.075716829372
0.0597736655996
0.0168129541768
0.031963343068
0.101427524942
0.128337999609
0.259944384863
0.257419601056
0.247128558277
0.239844673003
0.246661956953
0.238744519626
0.224330715488
0.258126847584
0.257498801279
0.229248450078
0.231365932821
0.239090266235
0.231561020594
0.224973558671
0.219976629502
0.221131230422
0.181213190783
0.153158185838
0.191049654211
0.145590419289
0.0489003634795
0.0122184144695
0.0126142909704
0.0391332615314
0.0463419073804
0.0128146087037
0.0120046429235
0.0142332334397
0.0642251046173
0.0747567424483
0.0423829145
0.042869751526
0.0243354724944
0.0309095179018
0.0418185463749
0.0406818147201
0.0228265118461
0.0325185466169
0.0185307911795
0.0163728660599
0.00963036840153
0.0151967060319
0.0232100772894
0.0796939437347
0.108135785709
0.0774378578059
0.0431487288089
0.035490244189
0.0759317662698
0.0713269433366
0.0367318409753
0.041893366579
0.0944185982091
0.102936821433
0.100202894131
0.0917707067042
0.0934070080951
0.111917179115
0.139541186108
0.217374943904
0.272623573744
0.364961248184
0.475798050396
0.717649096972
0.93213146541
1.22115421361
1.05565782209
0.0519059609681
0.0406559405775
0.000737923603735
0.0178460152684
0.0341080587875
0.0297488334854
0.0049167398228
0.00755263831919
0.0617186305743
0.311881222413
0.250984831947
0.132668809653
0.127462672348
0.0839757025961
0.0528349392654
0.0414533344944
0.0857150246199
0.0707369345634
0.0933975835859
0.0710197750957
0.0257203686993
0.0425400692224
0.0423603613912
0.0423800764784
0.0585893461517
0.0768789088218
0.0718956455314
0.0313369738986
0.0414540632413
0.0449593914387
0.0214817392999
0.0447920559828
0.0485146928149
0.0667281996606
0.0526974197171
0.0404521470344
0.0283620337337
0.0484712429139
0.0786681195398
0.0636757596062
0.0503909594843
0.0497492117731
0.0116787206399
0.0276339827059
0.0369822002004
0.0202480563515
0.0086450222896
0.0258400221514
0.0276835606335
0.0306841140727
0.0488874198703
0.0766543740613
0.105820173461
0.118818315306
0.107555374082
0.119301244212
0.1057063414
0.0648714624046
0.0482372733318
0.050847499583
0.112268808313
0.115490496738
0.140733931525
0.16736730289
0.178397541439
0.199121189137
0.207985085522
0.221213070392
0.271870802264
0.282405446908
0.279481986652
0.296171131014
0.311020652154
0.347679929424
0.358787984604
0.391383551985
0.45969787108
0.534481817156
0.625110063622
0.763796495715
0.780898115982
0.680816383205
1.17806581175
1.45302040693
0.409367462002
0.369044154461
0.324988246385
0.382218769618
0.425061662849
0.367256445651
0.282587018808
0.247294946476
0.205630766512
0.126257693214
0.0712919649937
0.0451781826903
0.0416589887537
0.0259509038279
0.0978876234706
0.12965039838
0.154098220689
0.184527394745
0.20213946392
0.234495839827
0.243386871827
0.187524550307
0.16107013753
0.226087865005
0.239712711316
0.236450844187
0.224764476692
0.224454130073
0.224966123115
0.207368336098
0.186654336573
0.170388232681
0.16544209085
0.155718624496
0.10677789079
0.0394856329012
0.0638408156422
0.101126153953
0.129701337036
0.137525419813
0.154836379796
0.193655342389
0.177518828487
0.12530616775
0.106476948694
0.153558437007
0.169181055618
0.148424568279
0.144300324529
0.135299925613
0.133707691016
0.120779945607
0.106796447423
0.124078955117
0.124459729739
0.117315039952
0.118112738035
0.104378496938
0.150445228684
0.152842428056
0.0934462031879
0.071142619093
0.0571641905729
0.0531606002484
0.0413992086087
0.058993507508
0.0680671941517
0.0291608514846
0.037537817582
0.0377505319778
0.0106233783696
0.0616240668781
0.0862520661495
0.0581605688627
0.0186239459217
0.025144197447
0.0326646555356
0.0414960993971
0.026111173417
0.00312175343457
0.0146167074782
0.0237579384588
0.0260893562863
0.0175165465464
0.0423456248364
0.0377671865441
0.0372689157109
0.0372552484406
0.033135912564
0.0254578872721
0.0171532887798
0.0264724299171
0.044192991999
0.0382901916035
0.0097867446959
0.0373078467597
0.0365323899921
0.022857981113
0.0347753901719
0.0562600040873
0.0599706273758
0.0724641153936
0.068921973872
0.0740852589631
0.063431420553
0.0644313025004
0.112929975424
0.173136538378
0.215403698627
0.261089899152
0.266314798439
0.250195787687
0.252111657237
0.238108392015
0.241513136385
0.257982173264
0.267876475459
0.292442254051
0.313014649116
0.286126192574
0.246922902178
0.229996958112
0.264543947605
0.269963810955
0.22150314862
0.222278979991
0.202971806599
0.140001517569
0.114453987928
0.0950996954164
0.0944474538847
0.102454005592
0.0870683074224
0.0374618024716
0.0180748814292
0.0101572723369
0.0548102774156
0.0455823079659
0.0186765470662
0.0127048447828
0.021406341435
0.0107669967551
0.0375508366394
0.0298773730358
0.0698850253362
0.111541986372
0.107554436889
0.0621822932597
0.0389798168721
0.00579560995865
0.0249247232206
0.0516505187187
0.0688685974661
0.0474992354366
0.051947374221
0.0352146237292
0.0429227469932
0.0907908274896
0.0833978477537
0.0129234564135
0.0235746736103
0.0613238120935
0.0976773999043
0.0796284840239
0.0530085792894
0.0484921780138
0.0411529428844
0.0258677852865
0.00500322104671
0.0201753714291
0.0357004830116
0.0332293371022
0.0373679204729
0.0292380479894
0.0299831677142
0.0480168126643
0.0385624656051
0.00785563749785
0.000212428093725
0.00625702943734
0.0114222541953
0.0171657424464
0.0134906900506
0.0149312337589
0.029995127704
0.0569633338418
0.0616502572408
0.0429360488821
0.0190006879691
0.0311603655789
0.0435539015588
0.0604527214193
0.0830000701057
0.0713020424576
0.0505159661327
0.0793748095436
0.0935302406839
0.0671326604971
0.0295454150686
0.0438555176948
0.029294787867
0.078500152789
0.10374948272
0.0694827622548
0.0198883074636
0.0182525687935
0.0282279199327
0.0704569890652
0.105400006414
0.128043144538
0.174958779222
0.230120764833
0.3322375978
0.600479766345
1.12707783498
1.47776735042
0.109926087389
0.137917652202
0.0818086105994
0.0436128743159
0.0547564578572
0.0457268957245
0.0250191769716
1000000.0
0.0
0.0
0.0
0.0
0.0
0.0
0.0
0.0
0.0
0.0
0.0
0.0
0.0
0.0
0.0
0.0
0.0
0.0
0.0
0.0
0.0
0.0
0.0
0.0
0.0
0.0
0.0
0.0
0.0
0.0
0.0
0.0
0.0
0.0
0.0
0.0
0.0
0.0
0.0
0.0
0.0
0.0
0.0
0.0
0.0
0.0
0.0
0.0
0.0
0.0
0.0
0.0
0.0
0.0
0.0
0.0
0.0
0.0
0.0
0.0
0.0
0.0
0.0
0.0
0.0
0.0
0.0
0.0
0.0
0.0
0.0
0.0
0.0
0.0
0.0
0.0
0.0
0.0
0.0
0.0
0.0
0.0
0.0
0.0
0.0
0.0
0.0
0.0
0.0
0.0
0.0
0.0
0.0
0.0
0.0
0.0
0.0
0.0
0.0
0.0
0.0
0.0
0.0
0.0
0.0
0.0
0.0
0.0
0.0
0.0
0.0
0.0
0.0
0.0
0.0
0.0
0.0
0.0
0.0
0.0
0.0
0.0
0.0
0.0
0.0
0.0
0.0
0.0
0.0
0.0
0.0
0.0
0.0
0.0
0.0
0.0
0.0
0.0
0.0
0.0
0.0
0.0
0.0
0.0
0.0
0.0
0.0
0.0
0.0
0.0
0.0
0.0
0.0
0.0
0.0
0.0
0.0
0.0
0.0
0.0
0.0
0.0
0.0
0.0
0.0
0.0
0.0
0.0
0.0
0.0
0.0
0.0
0.0
0.0
0.0
0.0
0.0
0.0
0.0
0.0
0.0
0.0
0.0
0.0
0.0
0.0
0.0
0.0
0.0
0.0
0.0
0.0
0.0
0.0
0.0
0.0
0.0
0.0
0.0
0.0
0.0
0.0
0.0
0.0
0.0
0.0
0.0
0.0
0.0
0.0
0.0
0.0
0.0
0.0
0.0
0.0
0.0
0.0
0.0
0.0
0.0
0.0
0.0
0.0
0.0
0.0
0.0
0.0
0.0
0.0
0.0
0.0
0.0
0.0
0.0
0.0
0.0
0.0
0.0
0.0
0.0
0.0
0.0
0.0
0.0
0.0
0.0
0.0
0.0
0.0
0.0
0.0
0.0
0.0
0.0
0.0
0.0
0.0
0.0
0.0
0.0
0.0
0.0
0.0
0.0
0.0
0.0
0.0
0.0
0.0
0.0
0.0
0.0
0.0
0.0
0.0
0.0
0.0
0.0
0.0
0.0
0.0
0.0
0.0
0.0
0.0
0.0
0.0
0.0
0.0
0.0
0.0
0.0
0.0
0.0
0.0
0.0
0.0
0.0
0.0
0.0
0.0
0.0
0.0
0.0
0.0
0.0
0.0
0.0
0.0
0.0
0.0
0.0
0.0
0.0
0.0
0.0
0.0
0.0
0.0
0.0
0.0
0.0
0.0
0.0
0.0
0.0
0.0
0.0
0.0
0.0
0.0
0.0
0.0
0.0
0.0
0.0
0.0
0.0
0.0
0.0
0.0
0.0
0.0
0.0
0.0
0.0
0.0
0.0
0.0
0.0
0.0
0.0
0.0
0.0
0.0
0.0
0.0
0.0
0.0
0.0
0.0
0.0
0.0
0.0
0.0
0.0
0.0
0.0
0.0
0.0
0.0
0.0
0.0
0.0
0.0
0.0
0.0
0.0
0.0
0.0
0.0
0.0
0.0
0.0
0.0
0.0
0.0
0.0
0.0
0.0
0.0
0.0
0.0
0.0
0.0
0.0
0.0
0.0
0.0
0.0
0.0
0.0
0.0
0.0
0.0
0.0
0.0
0.0
0.0
0.0
0.0
0.0
0.0
0.0
0.0
0.0
0.0
0.0
0.0
0.0
0.0
0.0
0.0
0.0
0.0
0.0
0.0
0.0
0.0
0.0
0.0
0.0
0.0
0.0
0.0
0.0
0.0
0.0
0.0
0.0
0.0
0.0
0.0
0.0
0.0
0.0
0.0
0.0
0.0
0.0
0.0
0.0
0.0
0.0
0.0
0.0
0.0
0.0
0.0
0.0
0.0
0.0
0.0
0.0
0.0
0.0
0.0
0.0
0.0
0.0
0.0
0.0
0.0
0.0
0.0
0.0
0.0
0.0
0.0
0.0
0.0
0.0
0.0
0.0
0.0
0.0
0.0
0.0
0.0
0.0
0.0
0.0
0.0
0.0
0.0
0.0
0.0
0.0
0.0
0.0
0.0
0.0
0.0
0.0
0.0
0.0
0.0
0.0
0.0
0.0
0.0
0.0
0.0
0.0
0.0
0.0
0.0
0.0
0.0
0.0
0.0
0.0
0.0
0.0
0.0
0.0
0.0
0.0
logs/alpha_0.4/PGSD_300steps_3.log 1000058.10746 1000.05810746 0.0 1000000.0 0.0 470
