Policy Parameters:	-6.7827947535 8.03928474997
Control Steps:		1000
Start Time:		1442528063.1002383

-- TESTING STOPPED --

Stop Time:		1442528263.8904476
Duration:		200.79020929336548
Cost Matrix:
0.104249500355
0.953268075251
1.59626444692
1.61450588741
0.704975509188
1.84145317897
1.24738915811
1.02208045744
1.09223434766
0.4562408604
0.704198377595
0.429234931467
0.242710625102
0.49361976915
0.117849757686
0.0495950235421
0.420537051716
0.103635066193
0.121306793892
0.389581184698
0.211652735061
1.07588998088
0.393986513381
0.228813610558
0.308122115073
0.470835398205
0.478288629889
0.463618961216
1.15268331531
0.196583891536
0.16710731218
0.355957271225
0.892883276493
0.317832273757
1.21719729078
0.410047591843
1.32608748791
1.12706651165
1.61719052323
1.81620793739
1.71818844225
1.66201882463
2.26190065549
1.30228243777
1.87107834327
0.318170404985
1.86632978387
0.386763476501
1.06719029447
0.109449577137
0.442661304646
0.34736968913
0.399502550678
0.65940721262
0.094197506536
0.494451374618
1.34938443236
0.393823911316
0.465747988768
0.789322286502
0.239824281748
0.22551839418
0.771737856065
0.46414727058
0.677409003797
0.233800182676
1.12122000644
0.417040339273
0.461933954163
0.0529351201678
0.293032575681
0.701796584234
1.58028502646
0.825803004532
1.19599436593
1.66937978321
1.69777712472
2.12603648841
1.91657227797
1.95807118837
1.9821815169
1.06780305337
1.66760542225
0.263417204228
0.80247610038
0.083064661805
0.611066191201
1.60139815334
0.791700865637
1.15874500847
1.01741923032
0.980375481055
0.256281437696
0.776625885325
1.02900367042
0.10697967275
0.106268487914
0.107297165251
0.201273227344
0.407315769964
0.310064872562
0.258024909918
0.333411563617
0.325436101836
0.334462498815
0.531784170907
0.401106132105
0.118658463009
0.128621729019
0.364509941987
1.0263327597
0.334303946048
0.275051437644
0.305656831918
0.37349000691
0.49931790454
0.264631257505
0.27490663347
0.235769484125
0.625252300261
0.315537333621
0.348028297918
0.374453913902
0.35263252051
0.337816911832
0.16373046165
0.203365839507
0.0873511363415
0.181986907729
0.373626367008
0.832364792932
0.116293564488
0.288265947483
1.27454334998
0.344251216975
0.990219133515
0.182617183713
0.529832265383
0.141513963537
1.15610647106
1.65244247041
0.00144677328965
0.0257737788414
0.0733413408523
0.481982211321
0.00642898474289
0.0439885462104
0.0527376292181
0.233334969861
0.008981524968
0.0157355881012
0.156062664994
0.123916718052
0.269684916242
2.56511624903
0.0320768190976
0.341933122984
0.956450729904
0.267238989118
1.16807964983
0.604606636751
3.56198350973
1.39617967213
1.08149587303
1.19044793344
0.768931395008
1.51975108592
0.0158602180319
0.11757059941
0.40550466922
1.05946471823
0.0772371928129
0.517602379347
1.32718597322
0.476504052474
1.30964302031
0.305932275375
0.527593866996
0.537543468691
0.515409489122
0.38292687339
0.491585859329
0.251030468621
0.294458568386
0.453982300606
0.458670788477
0.134816576148
0.363822403707
0.327164442727
0.518149740268
0.323350368381
0.357947740824
0.547184971316
0.441479341304
0.592169050417
0.24982654164
0.472808051952
1.01560068788
1.00410606774
1.13450297541
1.33196135171
1.15480141936
0.836119781413
1.12326164812
0.781593298952
0.447759122902
1.34679274392
0.326200295294
0.339113601949
0.493917260503
0.443363153356
0.323226022392
0.470683363947
0.162477214796
0.263568880644
0.293722100946
0.628994869408
0.352746855085
0.853073707613
0.414050398707
0.93462047727
0.522374847335
0.554858373878
1.14456241022
0.0504021899999
0.501938041583
1.86015991706
1.28302796835
2.29607639565
1.38321053598
1.95864711412
1.77277767255
1.35432943095
1.61961038595
0.618597166195
2.03376794227
0.00304746539747
0.111132673228
0.508146821563
0.513345518826
0.391004186604
0.495315466643
1.43247977169
0.141765381033
0.801596261357
0.259474267309
0.537065229895
0.471109114564
0.235885857872
0.271328780988
0.285262277075
0.241935810216
0.327939295403
0.271598277552
0.198299661454
0.302205145675
0.14394582399
0.138308931237
0.188246336215
0.146610974282
0.142941115126
0.637922965294
0.992177860966
0.894461301884
1.51665847573
1.60115674931
2.09494745715
1.84706687184
1.94923849453
1.37375278488
1.71907095735
0.972953068623
1.66437858945
0.585346491655
0.0895849097056
0.306725198773
1.61461161629
0.470323258866
1.26246061612
0.136194147644
1.15133332196
0.399098927488
0.512560250492
1.28220988662
0.151273846698
0.313520539355
0.362390762347
0.401969286367
0.34004411737
0.399695793724
0.435404366013
0.41315221595
0.515176007992
0.434740817803
0.395190180196
0.492722754233
0.400304395881
0.323529112779
0.37500834347
0.260709707362
0.426479467266
0.633000345102
0.470361466897
0.380318619492
0.426629482143
0.467766958221
0.527740740436
0.622047454954
0.386076221157
0.496606581803
0.431088272646
0.287493276937
0.531082694081
0.437423253527
0.384021290089
0.505299718756
0.45624219826
0.533155903686
0.346385796004
0.470749801737
0.455041908611
0.412486475358
0.376274626219
0.378092123651
0.372226641557
0.385223611323
0.342130327136
0.390360995983
0.362013866079
0.548078807554
0.506025079353
0.739115161655
0.412304272246
0.291326838195
0.881290097423
0.362237724311
0.503306948637
0.410701454735
0.744173453075
0.512159621565
0.907528159606
0.519912653317
1.12332882091
0.551499117184
1.78131987225
0.494769296751
2.27598789607
0.567987760599
2.45573283415
0.507100011256
1.68238511321
1.17411187821
0.46369871734
1.26107132764
0.316760151164
3.06974245479
0.00599440488083
0.0160118689842
0.101016069855
0.253021783903
0.273045042373
0.274469368312
0.374439618446
0.462995049287
0.366807255267
0.287371451759
0.303195911868
0.0381431334904
0.295844554876
0.716872289585
0.292035500473
0.524159890523
0.273843804853
0.285055902883
0.499538647358
0.221955976528
0.339886317058
0.390368901306
2.89399232649
0.0781430326971
0.955510899313
1.66435429097
1.47431982016
2.87734719252
2.11498603292
2.65693088396
2.11197044849
2.1789692609
0.837434587568
2.00242800696
0.250588528277
0.204552260435
0.156922455759
0.155592470108
0.100043410775
0.0227299654867
0.229186338332
0.470080812435
0.273379381211
0.0931438774349
0.203064458534
0.827816837372
1.31866942908
1.17740063874
1.65157040002
1.68152276063
1.47813208808
1.66579178059
1.45900163992
1.43225886358
1.65741607444
0.872687298334
1.89416053784
0.263546340341
1.33188732864
0.0224477382461
0.229623336314
1.11085873937
0.293595750474
0.467685263706
0.533908194511
0.0090237455303
0.154204009451
0.472317556475
0.432840511383
0.498019587034
0.0888068471177
0.634188627951
0.021354268459
0.15201661819
0.49939225117
0.385969743736
0.360121714583
0.419278708908
0.395907922363
0.973700758453
0.422203433513
0.39145206428
0.62332242374
0.600837915553
0.508597379794
0.907763994302
0.766639042703
0.456381900124
0.889203534664
0.958610337848
0.404669349715
1.12412653814
1.69685093599
1.31055326533
2.19070345898
1.88692617924
2.23334070421
2.20361157752
1.187687191
2.23047340252
0.47164273143
2.28348086593
0.0900329477175
1.30965708965
3.64957882127
1.6068302669
0.285350419469
2.66324280127
0.167980503899
1.55550775887
0.924972410445
1.79118449565
0.362418022294
0.527347663048
0.398743432777
0.455670354079
0.516022966833
0.308635195032
0.255771188258
0.0883964133819
1.01992483903
1.3276758404
0.44339120658
1.5561577956
0.0489555606273
0.430015632726
0.239897179445
0.195748946517
0.517564385474
0.528611124519
0.498180734708
0.560004964282
0.838457975039
0.518448773506
1.31561679584
1.09094652555
1.13690510614
1.33062675697
1.81164116378
0.557910523303
1.92617124947
0.955217439475
1.36593871856
0.844342305705
1.55134831429
0.306125851179
1.01548584031
0.489251480705
0.467948146313
0.302632314368
0.421416540139
0.453995905777
0.325052047346
0.464164412341
0.412014533163
0.356662702331
0.144282203794
1.21313855577
1.70567617901
1.40882781272
1.7010091943
0.985647807036
1.59499544156
0.371079451595
1.3394827203
0.686205689596
0.38904766471
0.321629174385
0.394240462864
0.327566542659
0.386375591071
0.245613383073
0.324778174645
0.182912382016
0.390198692284
0.168266800746
0.267898898533
0.438293304125
0.380602712338
1.47721344251
0.224810998426
0.597391086847
1.06348906681
0.496312473389
0.80537208565
0.75598345607
0.583108135435
0.964593507834
0.375426663893
1.05490050071
0.524264312639
1.17785437431
0.334849590897
0.541708968794
0.868002316448
0.535188270045
0.691848045825
0.837588037382
0.717780590918
0.923723716236
0.685125182854
1.06177220498
0.972970570948
1.08955503764
1.09066875349
1.15992000456
1.21654731434
1.1743952091
1.21800968816
1.31406547075
1.14298812052
1.5072009661
1.19134682497
1.72182572748
1.1069497881
1.75893167388
1.3052969164
1.8837463344
1.28135940659
2.15945923308
1.6438800132
1.98575521876
1.68973314379
1.88887929388
1.732762341
1.85591878616
1.64471361127
1.84006048305
1.6581458112
1.64502362106
1.54848696232
1.51004494746
1.5603362975
1.23934267027
1.55343939814
1.2640790871
1.35340725821
1.06542771492
1.3920762085
0.91376280841
1.02370493803
1.04078777565
0.912799510318
0.891377379256
0.987074261319
0.331145679474
0.764500852952
0.464391750985
0.985120455136
0.41404855377
0.437851934415
1.1184530328
0.249896586271
0.368998470535
0.89300081895
0.240661489435
0.71051564734
0.387390019484
0.709408221134
0.433171715297
0.431131695301
0.398860466152
0.488726920255
0.663108387779
0.527545671683
1.26983772161
0.13829689583
0.445334457916
1.02048226724
0.732732724023
1.33530477388
0.343420367335
1.16687737322
0.29540110873
0.848305710262
0.386892538053
0.646262811547
0.363687496478
0.357528345205
0.296029592687
0.531503594259
0.0877483805236
0.305381632931
0.914896197807
0.355007870785
0.708654558171
0.0125896458313
0.094464777767
0.238662712737
0.16768531423
0.233049836357
0.132323995997
0.133417718015
0.237648483097
0.137458953104
0.390116291429
0.280203521099
0.28770970877
0.0118115264522
0.0799142720312
0.0789296071628
0.249210714485
0.211335204442
0.213569695524
0.341403318515
0.270373799375
0.445629120249
0.15567931818
0.434411905769
0.160536815866
0.273889493493
0.51250489921
0.48466173553
0.439490115197
0.512638116248
0.513205434261
0.45623176363
0.497762472572
0.585068627491
0.257764843335
0.428213055795
0.976195942855
0.466970831252
1.03174577464
0.485297843124
1.97610048297
0.760033141251
1.96973750711
1.3105097316
1.69726133175
0.811228435312
1.78541677669
0.625543620609
1.73707129391
0.136274789318
0.955860538778
1.45726571804
0.102453011759
0.481236798802
0.071199584337
0.515766645427
1.06381346266
0.43097583197
1.7223032292
0.538474523113
1.92328557567
1.56330931302
0.200214935515
0.0851021313626
0.698143674306
1.74691265171
1.05577236637
1.26447425853
1.14462934114
1.14407580322
1.18552227524
0.952342098469
0.362644563443
0.515194023986
0.525341364685
0.27879104644
0.0320091958435
0.230604562027
0.302352213018
0.530182120223
0.473721260397
0.297000107092
0.702212214826
0.516157523164
0.810822232844
0.430211515939
1.08122749167
0.459826088674
1.65127542982
0.39337434274
1.9596985147
1.19602253056
1.5371299128
1.44078544876
0.793834687009
1.30677320181
0.880131704337
0.488968389035
1.34500282286
0.346115237206
0.76964141103
0.289140139829
0.0647647962455
0.157237534447
0.0159340269912
0.146930341617
0.216866862827
0.133737085606
0.427802215003
0.344440001359
0.01007369899
0.0207769839369
0.0624934458124
0.0160761169717
0.0867340384015
0.0853553334174
0.286454018033
0.157508923306
0.425358003571
0.509880310609
0.220937037885
0.262730176268
0.382330035374
0.279580655135
0.414218066195
0.216112701371
0.985358646163
0.709519784031
0.473005434663
1.07057952686
0.535479796486
0.668051343103
0.616986495007
1.09271340699
0.298057705154
0.882915116648
0.288359512301
1.16646914862
0.288181666924
0.400534211883
0.629224662406
0.178409736151
0.181451324941
0.229027545313
0.23198956715
0.275744784817
0.246183039186
0.0730393018265
0.048224737774
0.328442478366
0.438509675118
0.371582856961
0.397078650871
0.372738706262
0.360289156616
0.359180044512
0.415744138539
0.370290232213
0.366716428535
0.328425964134
0.374436017054
0.30205319692
0.28131350285
0.227481759272
0.399304615204
0.393771414008
0.274404687586
0.442919077383
0.225799028541
0.248261742229
0.185771159209
0.264119530167
0.558455665714
0.121956562987
0.734947967142
0.0911739563711
0.0642878961517
0.307605777888
0.492521433139
0.285626217022
0.452748819769
0.222561949966
0.672842559683
0.42965140666
0.776324265325
1.03255418945
0.37966134381
0.829697217417
0.654564159757
1.17147219862
1.12445199389
1.17601701841
1.05007383375
1.40329957026
1.13733246355
1.05773433017
1.1333756716
0.437272608523
0.758346276298
0.360376145405
0.455293679606
0.418171790747
0.480571709657
0.262238862023
0.283798742892
0.0150733219653
0.134460121669
0.0793114900439
0.104360518259
0.0
0.00632256535496
0.0119520540159
0.0905153592303
0.472528820995
0.174954612218
0.108219891351
0.0443360965319
0.361677499514
0.0332693809815
0.290570437983
0.150142986991
0.0979870530932
0.12050073862
0.225762443423
0.413420373891
0.273359983165
0.766293056066
0.212341573196
0.998092895084
0.496375436859
1.02137471101
0.612535398809
2.06413702862
1.06218935172
2.19007271647
1.24719022015
2.15502181573
3.21169000915
0.10347229597
1.33097506378
0.258650457315
0.596789867047
0.450300622186
0.108060598992
0.0676094653428
0.106541073798
0.273030683
0.0409007105804
0.291428384944
0.304676841083
0.337299059478
0.30992145851
0.311890125869
0.380805154561
0.354640547352
0.316872749449
0.303500172355
0.295565284514
0.252342727321
0.389411518877
0.28273238423
0.315920829684
0.255244398821
0.258519677858
0.234425799849
0.257080197225
0.336193156236
0.248344477783
0.288897364154
0.206508327567
0.296827008224
0.186379323387
0.216369612719
0.299640773958
0.160842352253
0.318033435661
0.322759300576
0.236370976284
0.217946019582
0.383972550116
0.147630769421
0.278294099863
0.172617222212
0.145346900573
0.258108829405
0.126026388334
0.23320895607
1.05402772242
0.0300173708635
0.21592238798
0.184853088673
0.256809430752
0.287620295228
0.227489768106
0.240082662566
0.178271697154
0.161525041963
0.280474459799
0.125223824462
0.302755655319
0.245532682046
0.132487853601
0.165181617577
0.117394765648
0.112985073784
0.256297803839
0.262004914649
0.105646510324
0.0684361811668
0.0401044492752
0.0364263519269
0.0323010992066
0.190709177228
0.0853994181163
0.302307726321
0.49147404951
1.38587227765
0.0243279852123
0.21146721017
1.23863564729
0.684772175524
1.65795989
1.21957195698
2.17293121307
1.78195304745
1.41540893418
1.93050985899
3.77242772907
0.91773519352
0.461656846583
0.492916729195
0.705494848848
0.534712027962
0.85270460875
0.465456661175
0.779718066479
0.541241664523
0.823772860824
0.472161704257
0.855305252801
0.476044140408
0.73896975663
0.475183960705
0.743930556334
0.456687513406
0.57892889301
0.53947763652
0.624658008637
0.492512640582
0.534459034813
0.532536038978
0.465207738241
0.505291963808
0.504189813604
0.609979896388
0.360077622058
0.442075906663
0.483923370686
0.409047561158
logs/alpha_10.0/PGSD_300steps_1.log 672.671844062 0.672671844062 0.457679150941 3.77242772907 0.0 -1
