Policy Parameters:	-83.8442616626 95.9238621289
Control Steps:		1000
Start Time:		1442548046.8405104

-- TESTING STOPPED --

Stop Time:		1442548381.9358866
Duration:		335.09537625312805
Cost Matrix:
3.78250658455
3.7807622483
3.77120045682
3.77117392197
0.0326977292854
3.77192738348
3.77117392197
0.0760593202699
3.77117426139
0.0037870719806
0.983781131642
3.22478792857
3.7711740651
0.257500932396
3.77118388832
1.29223946591
3.77171373373
3.77148567013
3.77788991713
3.77119981641
1.96490019338
3.77117426139
0.119727421471
3.77117426139
0.000134168614575
1.44733914703
2.26444252119
2.99597497617
3.77117426139
0.0338202465903
3.77119855657
1.92244677971
3.77158688673
3.77117392197
0.00725464922769
1.56554048758
3.77117392197
0.239525862368
3.77117426139
0.0615840557047
3.77117426139
0.0931754620125
3.77129211562
3.77150638334
3.77123755484
2.7711390123
3.77282028374
3.77117392197
0.391644131442
3.77117426139
0.201437114278
3.77639495674
3.77117426139
0.0630483233841
3.77339948446
3.77117392197
0.147740438221
3.77119829604
2.1564630099
3.77138627906
3.77117392197
0.435125463066
3.77117426139
0.165926151065
3.77146615253
3.77118635536
0.332499885398
0.284683936965
3.77117392197
0.0238454529459
3.77204959389
3.77117426139
0.142943351731
3.78899290374
3.77126218137
3.10850926394
0.13980117195
3.77117426139
0.0460392869045
3.77708871955
3.78819557497
3.77117392197
0.0949777695123
3.77121587671
2.73008080447
0.0311172020861
3.77117392197
0.229737699739
3.77117426139
0.134207224378
3.77117426139
0.0523504155103
3.77648603048
3.77117392197
0.0135777491
1.44178015942
0.23392060879
3.07964816418
0.404517347975
3.17354601155
2.60705417503
3.7715171825
3.77503989074
3.77117392197
0.0
0.079695253439
2.59450278064
0.00395402024755
0.946666637244
0.0317169640851
0.277486548994
3.77117392197
0.000270983050374
0.437844333846
1.93503899977
0.00301426387519
1.2285264139
3.77117392197
0.0522917734093
3.77158897372
3.77159568888
3.77117392197
0.296933764184
3.7711745638
0.382950499421
3.77117392197
0.184772537841
3.7978535496
3.77117392197
0.172066349007
3.77690096142
3.77117849556
1.01453472079
0.0414915247943
3.77117392197
0.342456460365
3.77117426139
0.0213446564899
2.6288894167
0.0100980811178
1.39947627869
0.00385759337347
0.0217659502376
1.81929723151
0.0304113422559
3.26333179967
0.00147013243389
1.43104453598
0.36875486116
3.77117392197
0.0202112232963
2.3343566024
0.0337377562927
3.44761651511
0.0207206883305
1.49361168414
0.00154408188559
1.28444583228
3.77117392197
0.0729175317157
0.823126992896
1.30192163447
0.366436390045
3.77117392197
0.0383030971267
3.77117426139
0.593923762833
3.77156522633
3.77117392197
0.114308978911
3.77117426139
0.0919574178547
3.77117426139
0.0373871919091
3.77117392197
0.0394621324922
3.77191340881
3.77117392197
0.0563935964484
3.77118536049
1.58538409675
0.0392574988999
3.77117392197
0.0155165577831
1.12217395957
0.0162032467455
1.94407506105
0.0404703520013
3.77117392197
0.0802508808703
3.77117426139
0.0229755087535
3.37343140669
0.0532290617986
3.77330411523
3.77243494469
3.77608950067
3.77117426139
0.0393170748168
3.64928428686
3.77117392197
0.00920503961063
2.47353581233
0.115012499019
3.77117426139
0.0103162550071
1.78980554035
0.0399793782955
3.77281658103
3.77117426139
0.481198700667
3.77117392197
0.181708267843
3.77117426139
0.0368934609983
3.77123073524
2.94580997451
3.14812755215
3.77117426139
0.200407534303
3.77118654213
1.65340864983
0.0
0.154076473912
3.64079919349
0.0469258761129
3.77130957
3.77117392197
0.204161472845
3.77117426139
0.0261106827703
3.68009337988
0.156670931964
3.77129702839
3.77258125545
3.77117426139
0.0222275130661
2.73402171777
0.00365366051102
1.01423320002
2.19179799465
0.0381816445404
3.77117426139
0.0475972689793
3.77117392197
0.0316820221081
3.36887419557
0.072631087049
3.77221283877
3.77117426139
0.00245768723439
0.535215384338
3.77128044494
3.31902257594
0.0296454166201
3.36064289595
0.0357741265335
3.77117392197
0.00204743159626
0.1168038264
3.77171216922
3.78608274258
3.77138439477
3.77117426139
0.00100151881848
0.11497990944
3.77117426139
0.0728553274146
3.77117392197
0.0128906933236
2.86701108014
0.00776865539667
1.69510195893
0.0147291766127
2.51434447867
0.003530009736
1.38277605095
0.0204780268576
2.19629297295
0.00146441573896
0.416214265127
0.155149250493
3.77117426139
0.016371979936
1.46404797277
0.0140418415467
2.47895671818
3.77117426139
0.0
1.27225313684
3.77117392197
0.0127614716123
1.06075022212
3.77117426139
0.0220800218041
3.77132005952
3.69765939282
0.0052855202589
0.268729961396
3.77117392197
0.000220885914847
0.101038613171
0.584329243983
3.01643878128
0.0167985804345
2.70331907114
0.0372607401061
3.77117392197
0.0552264346105
3.77117392197
0.173776472176
3.77124757182
2.91536267449
0.0914174920298
3.77117392197
0.0
0.69568564583
0.502031387777
0.00246816013613
0.344187613159
3.56342305271
0.438176458957
3.77117426139
0.0247428447034
2.8843366991
0.0341745238145
3.77117392197
0.0430274386482
3.77117426139
0.0142535626697
2.2403273103
0.0547215689299
3.77173624582
3.77201222438
3.77117392197
0.087401265197
3.84492038426
3.77117401868
0.205764250032
0.0981637919247
3.7769301853
3.77117426139
0.0628252569291
3.77674502135
3.77117426139
0.0690215076613
3.77117392197
0.0317074607981
3.50101740628
3.77117426139
0.099639659624
3.77119559596
1.82317720156
0.0
0.30034544216
3.32768171636
3.77175403293
3.7711754871
0.423862130172
3.77146187143
3.78412150167
3.7909845169
3.77155365776
3.81054524545
3.77117426139
0.111588007026
3.77967987032
3.77117426139
0.0952337175228
3.77264069081
3.77117426139
0.115920761043
3.77121507547
1.89127754972
0.00811087621809
2.02343049495
0.00548703629604
1.52744734587
0.0254049593376
3.5172927294
0.0481336809882
3.77117426139
0.00481915433458
1.59706965214
0.00162170064381
0.22038388858
3.77117392197
0.00383749021949
0.0217205104168
1.41405733402
0.00410961223245
0.140387267425
3.77117426139
0.00437010585282
0.0411255393312
2.85388558646
3.77117426139
0.0502659326545
3.77117392197
0.0199368461643
3.29233098764
0.016768368948
1.57839487848
3.48983950852
0.0196308010417
1.67112997923
0.0467300003509
3.77117392197
0.0439036098818
3.77432414127
3.77155573427
3.77117777181
0.91655609877
3.77117392197
0.017223216962
1.55581825394
3.40305106367
3.77117426139
0.0529882237171
3.77117392197
0.0191777623338
0.481894126776
3.77117392197
0.0529771849852
3.77121464921
2.61392452572
0.0157673884981
1.1838627028
3.77117426139
0.0503878805793
3.81116135436
3.77171853598
3.78927227512
3.77688607405
3.77117426139
0.0365343321356
3.77117392197
0.0615838551406
3.77117392197
0.00699326695624
0.0528075259506
3.77117392197
0.133169361566
3.77117426139
0.0136792245799
2.9312489501
0.0653609632107
3.77117426139
0.0391862160596
3.77117392197
0.0648234234424
3.77117426139
0.0747389958117
3.77117392197
0.0666042094368
3.77117968025
1.15095277206
3.77117392197
0.013971285951
0.53880861285
3.77117426139
0.0758148575942
3.77117392197
0.00109502604968
1.44220303708
3.09433670469
0.123312886426
3.77117426139
0.0285700158615
3.77327745043
3.8215926507
3.77117426139
0.075173293307
3.77117392197
0.021167813456
3.54025710251
0.0591769124775
3.77177844871
3.77117426139
0.0105154675244
2.79820483449
0.0798715115056
3.77117392197
0.0402504918398
3.77117392197
0.0563610176132
3.77117426139
0.035278720534
3.77117392197
0.0269020843529
2.65559795576
0.309678647073
3.77117426139
0.0429904405881
3.77121797967
2.41357928413
0.00812107831291
2.32576023451
0.0316313037944
3.77117392197
0.0786559287797
3.77138380277
3.77148492732
3.77117426139
0.0560235810539
3.77117970157
1.15345977091
3.77117392197
0.00769148601847
2.17298589197
0.00553780675435
1.83649623891
0.0271101886927
2.67332993005
0.0
0.940344648576
3.77117392197
0.00500227237439
0.055342374974
3.77117426139
0.00936614666682
2.35927248671
0.0131657251619
2.53482423759
0.0482803221505
3.77117426139
0.0168573494927
3.08420949802
3.77117426139
0.0457581565286
3.77117392197
0.0569832611659
3.77132375355
3.72902508222
0.0873922878381
3.77117392197
0.05852299999
3.77117392197
0.00953507144711
0.326008821326
3.77117559895
0.432683641508
2.31522003888
0.0944143879666
3.77463436883
3.77117426139
0.10050368733
3.77117392197
0.0605482636677
3.77117392197
0.0015073649947
1.03511248383
3.74655750238
0.0424994148811
3.77117426139
0.0333396348818
4.44509837009
3.77117426139
0.0852080708427
3.82267698801
3.77135514226
3.77136929996
3.7712696804
3.52760250913
0.0448680770754
3.77118109487
1.08430294428
4.33419403174
3.77117395719
0.0922480898787
2.95940144506
2.41447091646
0.0570535322309
3.77117392197
0.0549235352357
3.77175659866
3.77117426139
0.0587236133093
3.77566192645
3.77208317961
3.77117426139
0.0547044971115
3.77117392197
0.0019891949935
1.72894599867
0.0052397119487
0.152787283613
3.77117392197
0.096835789279
3.77117426139
0.079793401105
3.77540940018
3.77197471477
3.77423550711
3.77117392197
0.0747683142163
3.77117392197
0.0828412332675
3.77117392197
0.034864745815
3.77117392197
0.0204110124429
1.20074948787
3.77117426139
0.0
1.36662332554
0.112496836233
3.80706066215
3.77390411922
3.77117426139
0.0834914754972
3.77117392197
0.0483718152122
4.02787921304
3.77117426139
0.0535448979907
3.80094473905
3.77123924925
2.79222155338
0.0754482296863
3.77117392197
0.012639707647
2.62831278222
3.77449785829
3.77118339903
1.46068397319
3.77117392197
0.0741614263154
3.77272930884
3.77117392197
0.113543715417
3.77146616266
3.77117392197
0.097236413332
3.77117426139
0.0622387039353
3.77117426139
0.0543470526634
3.77117392197
0.0383095190342
3.7733958004
3.7711739633
0.152952557184
3.79380002744
3.77117426139
0.0652801551827
3.77186762132
3.77117807048
0.792439317657
3.77117426139
0.142169816198
3.77176800791
3.77125093914
3.27509109454
0.0838582390526
3.77117392197
0.0
1.5147974098
0.0583286687568
3.77117426139
0.0104746047021
3.10848793365
0.0468891170336
3.77117392197
0.110855856077
3.77117426139
0.320886414629
3.77117426139
0.11043988786
3.77151081395
3.77252625221
3.77447309724
3.77944188154
3.77117426139
0.0137003155665
3.25442036387
3.77117392197
0.0517535674585
3.77430636267
3.77267259273
3.77117392197
0.0632590991384
3.77386232702
3.77117975399
0.958803021093
2.83093469872
2.88244983544
3.77117392197
0.0727561263628
3.77117392197
0.0363149763614
3.77117426139
0.0818094747511
3.77809050275
3.77117426139
0.0263079758533
3.77117392197
0.0285254130803
3.24405090385
3.77117426139
0.0755848552707
3.77117392197
0.019740910729
2.56208410125
0.0259005454464
3.77117392197
0.0401868333091
3.77117426139
0.0518213602004
3.77117392197
0.0118158428331
1.95503969037
0.00774890704146
1.34772348246
0.0201445159975
3.0842461997
0.0077860317585
1.88934311074
3.77156584934
3.77117392197
0.060055938111
3.77120345943
2.06729728183
0.240093598825
3.67824067658
3.77117392197
0.0220603226193
3.77117392197
0.0125379271346
1.79368653569
0.00254145487103
0.211898573282
3.77277748062
3.77117426139
0.0131086498618
2.75928676807
0.0561077537913
3.77126276455
2.51079088237
3.34640021094
0.0444635300266
3.77117392197
0.0669165964658
3.77126822576
3.18148485623
0.0972153746423
3.77119791966
1.90133289054
0.0461195398529
3.77117392197
0.0375116848107
3.77117426139
0.0765846486211
3.77385816159
3.77117417413
1.37810369459
3.77117469311
0.354232208754
3.77139055868
3.7711924588
1.70707748916
0.152969262596
3.77117392197
0.0325962372132
3.77117392197
0.065442348728
3.77117426139
0.0690880066129
3.77457838703
3.77117426139
0.0840560053305
3.77238453607
3.77117426139
0.0829989105605
3.77117392197
0.0876696360147
3.77117426139
0.0611398542714
3.77534110092
3.77117426139
0.0793659127296
3.77117392197
0.0441282719194
3.77117426139
0.108957286261
3.77392842761
3.92009351835
3.77117392197
0.0189642199115
2.33457889693
0.0921185641788
3.77117426139
0.120433549071
3.77117426139
0.0
0.0475311700269
3.77117426139
0.109241247495
3.77117392197
0.00660304866254
0.486926468051
3.77117426139
0.0912707367431
3.77117392197
0.0153053760153
2.37058824716
3.77117426139
0.0
0.172935882193
2.98108353411
3.13916129696
0.00385610705395
0.352751951694
3.77117426139
0.0975652614198
3.7755923942
3.77117392197
0.0379754145552
3.77117392197
0.0123270660505
2.64667580196
0.0331773862446
3.24353054147
0.054269057082
3.77117392197
0.101050114202
3.77117426139
0.0488985349235
3.77117392197
0.10133854199
3.77665858944
3.77117392197
0.12124231431
3.77117426139
0.0572008031372
3.77126574688
3.15198922121
0.036347284742
3.77117392197
0.154440725792
3.77156816905
3.77117426139
0.108585165794
3.78327179906
3.77117426139
0.0396218888048
3.77140120547
3.77117426139
0.072776075422
3.77301697736
3.77117392197
0.0753271091565
3.78511290488
3.77120335195
2.06430594476
0.049812842994
3.77185404668
3.77117426139
0.0500104694481
3.77117392197
0.17023912686
3.77174514342
3.77117426139
0.0632327212544
3.77197082747
3.77163029583
3.77117426139
0.0818124639632
3.77117392197
0.00383478360947
0.0164626967956
0.190778755753
0.0512888198868
3.77117426139
0.00889781091544
2.87200288335
3.77141874497
3.77117426139
0.0109336635967
2.60995884985
0.0397124290712
3.77117426139
0.0473690832356
3.77735173307
3.77117426139
0.0645109335776
3.77117392197
0.0252499389119
2.97136002661
0.0177274174253
1.79965372678
0.0104217830507
0.225013413312
3.7729209537
3.77117426139
0.000693886256854
0.268236743733
0.459361111062
0.0333493001791
3.65116162587
0.110589816773
3.77117392197
0.0490033096429
3.77117426139
0.134648097572
3.77117392197
0.360451526908
3.77117426139
0.079109190683
3.77117392197
0.336727053108
3.77117426139
0.110471539861
3.77117392197
0.0590457092158
3.77117426139
0.000206577432764
0.445362895688
2.43192521904
0.000660557675484
0.0425099888391
2.71280906449
0.0275847273105
3.08113493552
0.0036046133271
0.93770549538
0.0195588324548
2.8293918885
0.00434368054792
0.30037960026
3.77117426139
0.00303849475016
0.902121214444
1.26615351044
0.00345907282009
0.699044354866
0.521608787483
3.57736669651
0.00926249048691
1.01740666142
0.289218114727
3.77121954117
2.44551006684
0.0206666758744
3.01052105416
0.000377619128819
0.458236299932
3.42619754797
0.000575928533056
0.119381185184
2.79184882231
0.00860147785014
0.867214176378
0.0313223405479
3.3210421171
0.00034890388549
0.433585655238
3.64807500232
0.0118821463304
0.615638272071
3.77117426139
0.0174540185721
2.69164107063
0.00985022066272
0.973188546272
0.0
0.259394324985
2.70362962713
0.0
0.496773262728
0.164567375515
3.26525103194
0.0105030717448
2.47870405523
0.0155260726768
3.00248586472
0.0701357409024
3.77117392197
0.0369372809964
3.77117661113
0.707750997823
3.77117392197
0.029719135629
3.06031142408
2.16794386926
0.0697229204117
3.77170105101
3.77865279006
3.77121851363
2.42459061837
0.0165339438715
1.76994414998
1.26096728416
2.91491738274
0.0287690304585
3.85289925123
3.77117392197
0.0381753103291
3.77231864768
3.77117426139
logs/alpha_10.0/PGSD_800steps_2.log 1982.04836237 1.98204836237 2.34692569182 4.44509837009 0.0 -1
