Policy Parameters:	-6.7827947535 8.03928474997
Control Steps:		1000
Start Time:		1442528657.77601

-- TESTING STOPPED --

Stop Time:		1442528849.2009661
Duration:		191.42495608329773
Cost Matrix:
0.318533198373
0.254568581177
0.116480977461
0.00759340816024
0.0529697559321
0.247678382175
0.849988546848
0.23649865281
0.59247554499
1.06644533255
0.719096678804
0.442908910937
1.54669975921
0.362060150825
1.43536639411
0.285427094989
0.910835166678
0.514663737895
1.37092500356
0.126779487675
0.47608740612
0.364735724618
0.0946267665851
0.238892980125
0.486146013298
0.0630054283506
0.0116162641402
0.0409397202611
0.0
0.0616542128677
0.358991706012
0.317833726594
0.115740664432
0.496913979883
0.124870343455
0.369788801082
0.245024531258
0.525344734402
0.225635625682
0.197177006335
0.410492763518
0.424228400339
0.348981330224
0.573642292333
0.501561547721
0.718039817877
0.482543219466
1.11317965605
0.527213296378
1.5784489516
0.616596625365
1.94715520831
1.15226791282
1.69841323963
1.10124837934
1.12380974355
0.762508824278
1.664697751
0.459178488892
2.19952152208
0.0110141538706
0.421913648128
0.0581380675055
0.0513903618273
0.101482585656
0.0346179409945
0.23553575296
0.0997178582005
0.678441293693
0.141122388309
0.0875676768159
0.296332409639
0.323541962325
0.320999266848
0.452265244023
0.267969282331
0.343438506786
0.19658693648
0.166503636118
0.29329100927
0.371262647341
0.0266196162077
0.178719043634
0.00667986267601
0.0683226850734
0.104413120018
0.0255791530973
0.177687483431
0.211653156688
0.0126630823081
0.157415501825
0.623225495697
0.311990804153
0.0490130365008
0.175147329626
0.0499298095307
0.419876153148
0.357040433421
0.126460246733
0.295054797391
0.727055208462
0.318779763933
0.45244246514
0.898335015496
0.892130808722
0.35657782214
1.37233430812
0.495184870942
1.38935800479
0.459817309697
1.34240818673
1.114059266
1.48377596402
1.06878403584
1.35737401389
0.801728795019
1.61038530347
0.438181288847
1.65548713885
0.336212273237
1.33645301291
0.263212357278
1.4494763493
0.0244782615116
0.141684103864
0.778039805031
0.453805512351
0.987062133706
0.530955768718
0.327381168408
0.577044608331
0.910662196782
0.180386083721
0.476258807808
0.161818012155
0.211844287827
0.141459976149
0.108399149952
0.186759809226
0.27435366605
0.349163012277
0.902327369674
0.355708936702
0.321807940839
0.416434823882
0.416674563132
0.244421408314
0.170530162441
0.422519162377
1.119839563
0.023110520316
0.237897697841
0.796852293078
0.511731901364
0.527081906944
0.77747284723
0.500640731548
0.24209413429
0.924645046814
0.678155213071
0.291654735209
0.487331381879
0.325620162617
0.19099945868
0.0532546003201
0.096555505266
0.129415059429
0.939092245169
0.190772441604
0.110441529184
0.110205556579
0.324532474047
0.771979879879
0.838203214507
0.336333632224
0.0682441337221
0.049773517911
0.322776577067
0.422661672935
0.899521538673
1.15160926301
0.56086710592
2.43711538774
1.96647104343
2.04595454104
2.20148014294
1.70824613631
2.42893997095
0.515796554336
2.34162153574
0.150868826862
0.47905725555
1.29449850902
0.468141414315
0.410967489237
0.080198300451
0.0777216623389
0.720204330302
1.36043460739
0.278759360435
0.771169500836
0.784316772618
0.958811434507
0.309112678973
0.531909855822
0.317450418518
0.358432252387
0.762715134371
0.207766631879
0.05056670247
0.355368494216
0.239403530259
0.339933564972
0.177985581334
0.315233272781
0.0071731320933
0.0572417764717
0.0746470904124
0.655456359789
0.201194421435
0.529809764095
0.10296542424
0.240494429902
0.523494173657
0.331355345586
0.234698205535
0.980315426722
0.135357463067
0.495753026686
0.733513658007
0.596367014505
1.21706780957
1.50654903897
1.61135822026
2.44490878188
1.55882581525
2.69868194086
1.16768067737
2.83340584185
0.230680394139
0.302580855232
0.129890084304
1.39917850515
0.478123343287
1.34175132145
0.0708120522218
0.450808798988
1.86024997415
0.547750805528
1.54529498534
0.288767115926
1.42256055086
0.436296738036
0.71410340072
0.384969646679
0.845438733562
0.0132364152288
0.157516889728
0.414146289384
0.462905317529
0.282073104656
0.307469322441
0.0634071543575
0.190815226723
0.420719564593
0.345416564992
0.233276997275
0.297219828201
0.295184010082
0.172538963051
0.556350003754
0.0504456092803
0.382974073797
0.177976696878
0.0704909911355
0.348988466357
0.269446953812
0.0292481951153
0.209243093359
0.0441086340171
0.372768097593
0.00361931540182
0.0419595627152
0.0242483256609
0.174109935439
0.298156747764
0.440347978858
0.119002831156
1.46780233912
0.0255564795682
0.189102606707
0.504135972031
0.044791802875
0.383613157273
0.0814280820408
0.0306217436139
0.195400744752
0.665479820208
0.135195932516
0.519916750807
0.443276486815
0.50322907393
0.444680632883
0.497316928052
0.790875373837
0.56850899764
1.03452273337
0.500195549805
1.8138376757
1.43187409404
2.41571190436
2.39538759524
2.24583904438
2.04393185676
1.19364752648
1.77444067445
0.384664902537
1.98276371353
0.318382826768
0.402019577575
0.210461689844
1.40325756086
0.369708300896
0.859245982613
0.475459724182
1.04721998665
0.167224836698
0.380737964991
0.372605008958
0.533032899424
0.312047737221
0.151601394055
0.215328510651
0.361365025791
0.0665779301217
0.42141137109
0.0442219620502
0.381127915026
0.519866847652
0.384051290922
0.421813916252
0.26916823259
0.380546440626
0.380030247437
0.275178863595
0.142903892787
0.332125866919
0.188951174898
0.851235604517
0.514287190087
1.19012626246
0.238551955785
1.08854352044
0.164932282997
0.0149964810645
0.156476139028
0.0606091502014
0.404489053275
1.20866238261
0.0481358803179
0.284418271685
0.322351684135
0.504413411074
0.0113627444083
0.0733304968438
0.286049650236
0.157251240044
0.485106139895
0.0346805725966
0.169705666025
0.151505842224
1.34293466299
0.109636784597
1.36418470264
0.00950808866016
0.11638996656
0.309473745638
0.0782567631724
0.0362894609215
0.160153246086
0.23701027816
0.099153367742
1.23992696396
0.025534998638
0.237175322733
0.301522500543
0.876510439336
0.452549963571
1.96193977151
0.436715447321
1.26296750869
0.467039452752
1.20814323003
0.491566312811
0.967639650808
0.327511925868
0.900643982003
0.389285363046
0.381330105263
0.673139796779
0.660844137846
0.178917950886
0.244578033358
0.224648886199
0.281616057166
0.430529276516
0.385917815662
0.424206992112
0.720753569446
0.38237510976
0.377937521925
0.434987110167
0.468988503726
0.445829140478
0.489785680826
0.50785877294
0.427901931887
0.586390151726
0.446271231186
0.458539028858
0.52567876419
0.611514085235
0.483547005471
0.800735255729
0.400384226408
0.708471012409
0.490767766662
0.79075414672
0.49669327987
0.877347139574
0.449427510671
1.04778688661
0.439853379904
0.993383941146
0.477221062919
1.07827514244
0.500160426688
1.08272167965
0.504340022533
1.1157120352
0.493215565694
1.08618572797
0.579260182233
1.14747228311
0.579425891827
1.35561139736
0.496583527726
1.59176607534
1.01857231347
1.88832429292
1.32562191214
2.25920389905
2.87154044388
2.61227897679
2.54110646043
2.35883168758
1.84783091084
2.01129333077
1.27514228587
0.201256386002
1.92798609378
0.206349991729
2.45440155182
0.021245134824
0.158984894443
0.25238938962
0.090442971353
0.188791133633
0.0313095728913
0.223241649991
0.0469199607797
0.240529576661
0.0689409164675
0.469328265252
0.430751594827
0.357058332638
0.352515036029
0.79710003017
0.286411892304
0.374415182174
1.54740935327
0.0229503879894
0.168798795019
0.347134463801
0.168181188699
0.293171611651
0.0613809640446
0.427664737246
0.214083955489
0.203073218933
0.236988960317
0.116369070394
1.1742984261
0.19303589336
0.684739117781
0.621021032754
0.334256272218
0.007708762035
0.0800082854351
0.0902929083091
0.0539245297373
0.0412643084509
0.0909817703221
0.0418764056194
0.302121484269
0.0162102707745
0.0585875301247
0.408611087134
0.34880899428
0.235167149719
0.405274256591
0.704170086497
0.314111558237
0.452806871434
0.481526735045
0.497377313268
0.653523270574
0.576308031133
1.2716538458
0.705593922015
1.59068490522
3.19935289791
0.065493047141
0.429933656383
2.04347277121
0.0572705163504
0.35145679427
1.1883021191
0.0821386660423
0.208122876512
0.505170258355
0.88758680211
0.0440389660747
0.377780442599
0.930409159885
0.446323927313
0.865145205152
0.365679098215
0.882746868559
0.45979856407
0.663172519045
0.390878095986
0.510393016358
0.6249831452
0.484008234071
0.617716291196
0.418631134269
0.529621046789
0.51131623135
0.470567940301
0.501623670247
0.471363959659
0.436718978799
0.442565561311
0.428313963301
0.347901772738
0.419128295166
0.333593892874
0.504433598953
0.539107068252
0.504717942789
0.471227157733
0.254946768696
0.268343902502
0.308229592526
0.512697275122
0.366321195747
0.228736009409
1.17173292427
1.3085901769
1.11901702715
1.05163423501
0.711048137066
1.06253840608
0.893647579981
1.06075913325
1.66752295271
0.0453224669334
0.266239374691
1.06518148807
2.95450060461
0.00760747209006
0.179053908759
0.945254431537
0.562488604723
1.19920889707
0.452507404081
1.25551229172
0.451638109391
1.04659560269
0.398017374841
0.969558586767
0.495347027257
0.949894116314
0.427059874627
1.36705876901
0.363421035015
1.1954469577
0.492001982994
1.25654497689
2.72067064684
0.186475073763
1.01035621255
0.408158735876
0.478136061529
1.84618492107
0.0722304943682
0.732678633506
1.01860663709
1.34516529417
0.742455442415
1.71543732431
0.435062901264
1.71005654593
0.383793607844
1.69100942788
1.54346584341
0.124073761047
1.53385879689
0.43454617874
0.0673592324084
0.72467968323
1.16589558634
0.337325106489
0.452813777461
0.105052212624
0.298775705608
0.105487067613
0.348047526916
0.238391309892
0.379231947558
0.231681701754
0.0247285879422
0.0119772062792
0.0689399837703
0.256931621852
0.00279172123463
0.0163564359758
0.0
0.0542365604684
0.419288978393
0.241199077727
0.0580252580043
0.224704926169
0.329798002906
0.0117106870801
0.126362248997
0.475447792702
0.0913699545024
0.0655588520891
0.234966712445
0.360049399899
0.454048651155
0.0314765568337
0.269724771365
0.260199057819
0.198170783298
0.37864449129
0.247622451887
0.277190832539
0.199383753186
0.496016309442
0.455505617859
0.480297547166
1.42357219069
0.617328044128
1.90955537689
0.965653900591
2.68046311026
1.68559236307
1.69161064844
1.9808116043
1.40520989824
1.2750633863
1.49741339547
0.600572232136
0.531237371462
0.935996332651
0.0506672554544
0.334950530818
0.244629168802
0.116602961857
1.20649302604
0.219968373643
0.548494669183
0.162453829089
0.33459177048
0.746303892122
0.498060497667
0.634444863548
0.376619814673
1.19340636512
0.536737658873
1.57861215413
3.22845229899
0.074770725907
0.536985036896
1.46982539213
0.272108789773
1.56987418742
0.449303641727
0.750942558205
0.0936225650953
1.20503787807
0.0524631059082
0.501969267814
0.0121869417886
0.173425313252
0.0316999044015
0.205710447339
0.149459128238
0.136787061702
0.33849683919
0.156586315716
0.172681212885
0.775914711929
0.00125161102828
0.0450240242369
0.158012532265
0.518844928746
0.296629032185
0.307867300915
0.0304909248905
0.216988386278
0.216351730273
0.0301384559399
0.170277512954
0.320047490211
0.15970769664
0.174493817895
0.347257742519
0.209413036479
0.86116709967
0.0101679769122
0.140115490995
0.0428573306893
0.383455963261
0.174083985339
0.18376444537
0.0987794814932
0.0456133590232
0.305197999161
0.861703626842
0.524116861938
0.939230419337
1.13809909799
3.24422611014
0.123284107666
1.23977651603
0.0721400331053
0.464221911311
0.796844074751
0.439433396178
0.208590626792
0.113996539024
0.313365801261
0.222875471972
0.157893347097
0.337281168006
0.48302632951
0.0733206955138
0.288929316936
0.269928647135
0.00505494071754
0.0849194254121
0.145968480768
0.20178253698
0.193807479607
0.280552897128
0.238869033435
0.203540943635
0.302096249206
0.100994679108
0.168394973013
0.238621992328
0.190427527267
0.171188764736
0.172316058607
0.237209746061
0.260746547457
0.214257451712
0.0927444438786
0.0356450117945
0.0241049835026
0.208101769059
0.0830432869757
0.0379984249602
0.122775495059
0.120371607567
0.237027079832
0.139630272707
0.087340137073
0.231153722922
0.480197068022
0.412025285097
0.4736730029
0.0628002505193
0.189468052176
0.694801359316
0.263471867664
0.17852346862
0.579448228612
0.349421216557
0.258742714707
0.280257042896
0.226089065026
0.638379523922
0.452692291019
0.648545020985
0.639622154526
0.866133931385
0.49779749786
1.07883399271
0.50462829226
1.29248452313
1.05814373111
1.370711112
0.823769370875
1.7690452122
1.52269310543
1.13019671575
1.43287346287
0.343223830363
1.89306060345
2.15110139
0.0906608295382
0.81315793418
1.22533685807
0.620240234687
1.22908390567
0.650623700195
1.27603498052
0.383371421075
1.48898036645
0.543332209616
0.894405681161
0.314954633206
0.0781185378663
0.152530479085
0.214540136016
0.327843521837
0.201027033277
0.372246931486
0.516148942635
0.193559917954
0.303955391697
0.508725373619
0.773179739311
0.271663522928
0.372456001237
0.27714491135
0.218150500172
0.345201866469
0.127952964414
0.729830053958
0.0203734510074
0.133862998721
0.199291855888
0.0641235981834
0.023582500205
0.155975851422
0.284042446984
0.190825512488
0.00842844401941
0.087031599042
0.122356170298
0.470674301082
0.00105019834645
0.0061161004931
0.0846610675938
0.165553648966
0.214625026456
0.0671885016836
0.133169690871
0.12850208984
0.0959834222129
0.123405160302
0.269415457346
0.16886278521
0.229881081582
0.20625957208
0.172921513598
0.188645759189
0.159355856845
0.10620861166
0.17939822755
0.102268390934
0.162254796815
0.104735568427
0.138504568892
0.246328254423
0.0861147848968
0.02583918391
0.132881238275
0.227724144747
0.446678443982
0.481393182507
0.450264389768
0.0239471409918
0.249559742355
0.792643548419
0.078400176288
0.4430576246
0.847126307762
0.376998420788
0.619494027094
0.535050941979
1.48750139544
2.35238920298
0.438566902013
0.46909619943
0.081454636209
0.285976836907
0.429190411898
0.844656748437
0.486283423655
1.26763654933
1.06128662308
1.30984475536
1.58449959121
1.906563381
2.44559803827
2.04275547094
2.80101936096
1.93610706052
2.44458046229
1.21955614087
2.88490420151
0.0358877935954
0.313633654486
0.427708436465
0.528300898581
0.462944826013
0.503985307975
0.465777965889
0.483146619098
0.488012699345
0.474057054055
0.36986411538
0.926219245124
0.454385689216
0.936969638772
0.492283504045
0.907685538752
0.500763859646
0.975750406034
0.541602323898
1.14165599395
1.0912117482
1.39074079112
0.467916176824
0.184887826118
0.395491735953
1.92834317103
1.59085224903
1.85056834432
1.78798415005
1.64690926308
0.974739091394
1.42126665385
1.01694151667
1.28969020796
0.240007773215
1.01211587386
0.0246205129236
0.163158591148
1.07588894387
0.700495561996
1.19683913893
0.458077432995
1.36027543959
0.369397827112
1.37054685459
0.355253458239
1.18514696966
0.664311777859
0.244593797569
1.66327421352
0.152226293679
1.94728731049
0.00590082441532
0.0290129250568
0.0390157460677
0.0656048447829
0.0364747043199
0.232043897204
0.378426508318
0.174669701978
0.392971566719
0.0272651375651
0.240520039234
0.400470162523
0.202412730319
0.279275906384
0.302426516029
0.272386242293
0.266003083994
0.379631273923
0.172052717547
0.158100009083
logs/alpha_10.0/PGSD_300steps_1.log 575.693020596 0.575693020596 0.383534560267 3.24422611014 0.0 -1
