Policy Parameters:	-12.173932425 25.4456353411
Control Steps:		1000
Start Time:		1442523872.5759866

-- TESTING STOPPED --

Stop Time:		1442524083.1184404
Duration:		210.54245376586914
Cost Matrix:
3.77117392197
0.0115880417952
0.0511417215685
0.286616260924
1.79031716023
0.0606403289538
0.286338328252
1.8699732305
0.00633966136677
0.362033801239
2.38069853562
0.0562684173302
0.677809036535
1.47023478011
1.39379201945
0.51015400589
1.89061810332
0.00780645246454
0.512382813737
0.391112088953
0.420444159963
0.501385792133
1.64301732926
0.0138987833678
0.146285145736
0.320210638229
0.282008063723
3.05733993665
0.0870495757495
1.40532904325
0.415549184372
1.96130047281
0.0400173702228
0.45318034191
0.8714425396
0.701112163564
0.00311655590724
0.0386748412658
0.235924458165
0.122166114587
0.19229892363
0.0406040942225
1.53192346485
0.0337280225619
1.5865680542
0.0202359112548
0.103762309014
0.390777343607
0.567871143987
0.328193553585
0.306549304942
0.00105564174185
0.290825397098
0.0318841050739
0.754132241444
0.0925821540418
0.350575118752
0.991903646178
2.25614939781
0.0416024782169
2.15320952002
0.21567503115
3.51876295547
0.850959291602
0.377865926213
1.15871494247
0.212334449361
0.23812980665
3.00002532081
0.0674042303331
2.70290220058
0.57376303424
2.26576650349
0.0176563629621
1.76991756786
0.016198113355
3.7782880854
3.62942687666
1.88824588198
0.0255820920109
0.385684464329
1.29423408652
0.0056340694113
0.251101554597
0.925409046489
0.283016158268
0.0986370209935
1.80324968599
0.445061604309
1.59409533333
0.223537736953
0.156273010109
0.322458272186
0.993400864141
0.127865911023
0.340588428787
0.701430873715
0.259171084548
1.37879918431
0.016635595333
3.77117392197
0.062518546011
1.01518370712
0.0362615030469
0.44791553569
1.54337698047
0.0528384695628
0.373540602338
0.0810550875692
1.06382979579
0.0894584693265
0.925501723186
0.0982985441577
1.22848089392
0.228844358937
0.183488751108
0.40060639159
0.0131849219304
0.377284770748
1.10891569925
0.190084413694
0.44399212242
0.0160644982887
1.42119298297
0.00321096700069
0.122803149144
0.942894949202
0.0284961216905
3.7426070027
0.0708337381523
0.908616061106
0.111709013926
0.535373783399
1.52819293712
0.0386849361372
1.55547915905
0.0304517531703
1.20563366501
1.41265317217
1.34930794992
0.098585408661
3.77127088799
1.0397802741
1.62098148744
0.45487636113
1.92386347778
1.2645959825
0.076568338496
0.964679041348
2.27383171925
0.823227354901
2.17800143945
1.08448714945
1.00766804563
0.763836390192
0.33515404276
0.943528501571
0.0181694315296
1.02049993749
1.98257184934
0.0582743777777
0.497904367918
0.290393660096
0.106709382499
0.949406066794
0.0441157685183
0.61766958254
0.00684683286683
0.245631765864
0.415005873171
0.0160648318451
0.449656342045
0.349210484346
0.0
0.059910252814
0.734807168888
0.0225057936463
0.790390823704
0.0155866905661
0.120312130852
0.149464417756
0.260726093185
0.00334310563996
0.495635078242
0.0460740068015
0.269844645118
0.244081780891
1.46852215281
0.272957162766
3.11836127718
0.0
0.652736709198
2.79568287562
0.0217189121954
1.87085910663
1.97320670454
0.515054762051
3.26287062985
0.0024987354532
0.732193311715
2.18667629721
0.0383923470481
1.54389665058
0.0302683350443
0.387966256596
0.0482623861425
1.91044831848
0.0100009703587
0.295585190354
0.428042979716
0.697490110872
0.00117543456748
0.13764789703
0.182600218631
0.272699019758
2.45054544127
0.00537481218933
0.0359610909994
0.0185063507625
0.569105345091
0.00881733032192
0.0210839065446
0.0627184688718
0.286082873631
0.0239540648832
0.0454378262265
0.0254349031746
0.449755997071
1.68463600997
0.0115799160529
0.0105590273702
0.195144813397
1.47939517792
0.0175868184989
0.0236331725174
0.0999741253778
0.536850244839
0.941785035192
0.435661595845
0.856199889716
1.94248958407
0.0797700474315
1.38607891143
2.85702887839
0.00194928070557
1.7048936687
2.0491359865
0.529222407648
3.77117392197
0.10159484186
1.79236794604
0.0161078829411
1.03666051635
0.0122501161298
1.13071500031
0.22299976476
0.00963578483568
0.593046386445
0.248150272055
1.3296665611
0.00684202171107
1.08770475891
0.0183488158975
0.0600158774591
0.0444148538285
0.151015160852
1.91311389171
0.383935431252
1.51219010003
0.150708543934
0.894251583733
1.86766570217
0.818694278918
2.32946959123
1.40359740286
1.86224563088
1.54573528389
0.772623257286
2.60407728718
3.77117392197
0.0746054285257
0.244164555993
2.74682484953
0.747996767193
2.10883319384
0.0499976126715
0.432503645542
0.0847656028659
0.440809046802
0.449996431552
0.305442903256
0.363007710955
0.20062370594
0.518382838598
0.103825467925
0.893261877299
0.00145376176743
0.280113466552
1.50473553765
0.0129359448502
0.140298580679
0.910074886125
1.59361397193
0.00439186908414
0.39299847982
1.64036772845
0.0100048426046
1.39596533032
3.4650626035
0.02948139057
0.0781193820311
1.8350832773
0.0427925301018
1.85197225922
0.0215226633947
0.71319851237
0.0265299274798
0.25045875361
1.54770009535
0.0823863802637
1.04863223091
0.0418002330529
0.164899703091
2.22387292424
0.00363643226265
0.534329601752
0.215638862133
1.68537761616
0.050242607124
0.566328722127
0.0489527332399
0.410580369004
0.537303306026
0.375918663922
1.37655627555
0.061484254048
0.320661182025
1.52545569538
0.866747636429
2.07534650355
0.0614613929414
0.334239195219
2.06061594515
0.0197121065308
0.146413291159
0.665290696479
0.758719802358
0.972977399876
0.489619383485
1.27593316751
0.441966436784
1.83094122644
0.115179955331
1.58943848903
0.622146577866
1.04573273596
0.394337582782
0.216117809308
0.348304701658
0.814091750006
0.00837399355211
0.51241802037
1.11812030633
0.36209888421
1.35025645366
0.32904215448
1.42544366137
0.0155998191069
0.179974668362
1.74759868
0.01494801167
0.799772153318
1.14808580621
0.536150554879
1.40236598875
0.00114349956262
0.547343898306
0.948877484144
0.825571269621
0.519781812085
1.01821726957
0.45331990076
1.20763432514
0.0100602206474
0.591299795785
1.36508694166
3.22991762581
0.0159845325562
0.716846028927
1.1774734949
0.434000937146
1.25202163609
0.0307092327538
0.0757024972786
0.508094752748
0.751060703202
1.29480780705
0.00324598791169
0.335428128608
0.86558362145
0.391721078931
0.0848872811055
0.282903788027
0.799847191238
0.51514115552
0.761999679737
0.0158454106285
0.708885279029
0.472256101749
0.474670582467
1.57219475588
0.0303755466617
0.164055364855
0.170577361441
0.00495679225676
0.424313568257
0.940912176721
0.07779524413
0.425565618892
0.965233284213
0.14414675012
1.52000017319
0.429754719943
0.0
0.248515055226
0.0314492288016
0.290425976734
1.70234546873
0.0364590784244
0.308767916282
1.23449368811
0.853372003379
0.448719390247
2.23432366165
0.501565150848
3.44962220416
0.127560637265
1.65696516598
1.21778088043
1.8403281706
0.704041920878
1.35746124225
0.0337141279339
0.0883540256944
1.50693722679
0.299955837715
2.25777703789
0.0701890322587
0.359447375229
1.7394953449
0.0389544669627
1.73650801561
0.0407513644477
1.63586409791
0.0322498016885
1.41658427361
0.369666846628
2.52216759734
0.0694438827164
0.368048958236
2.11298975927
0.000935873820198
0.574698723227
1.43632066727
0.0284802648966
0.060570550007
1.72557714485
0.0103146214331
0.300574389588
2.46316904077
0.0150609476811
0.555539043299
1.77963625207
0.0425834787991
0.204585222257
0.279029916242
1.49460389727
0.000344748972878
0.53639671953
0.993983274124
1.13598250879
0.881089880511
1.52093447701
0.349572185822
0.0199369114824
0.164799891784
0.940036930763
0.475143847297
0.486381942733
2.93835699636
0.00664013326818
1.37115373996
0.0572100087831
2.34896985795
3.1518035504
0.0041717067343
0.860586318311
0.0422922317482
0.488121990522
0.0144774638311
0.534371953651
0.506609404516
0.0227644305721
1.70293231367
0.00193863379818
0.163334627087
1.10812917176
0.0
0.766137838864
1.03329681386
0.0819131446213
0.533541349695
1.99490903516
0.0325341083619
1.96248343887
0.00325155033411
0.728490124254
2.00960622573
1.62351338677
0.052625330385
2.45607007628
0.0777736566338
2.93681841228
0.00855807614176
0.4136693525
0.0304579372298
0.117786196826
0.180412684745
0.325937251605
0.110739961727
1.00138953468
0.111569718314
0.350950991697
0.371124344444
1.87692564663
0.00109415281888
0.211218771163
1.80067633724
0.0460890539008
2.9791412549
0.0241811026119
1.2362046144
0.00101255414219
0.0600652458346
0.59350559053
0.848190212491
0.0338457037011
3.74796950264
0.0726335153707
1.27074665099
0.338436678455
0.241049839847
1.55870737642
0.00649572825357
0.665414786484
1.97891893109
0.0139065737823
0.0546278693464
0.26823863329
1.66238255382
0.0370283785308
0.0625319743052
0.555135093736
0.0256835026105
1.06707697018
0.0176221454138
0.0665927867306
0.171742367065
0.0440901335152
1.41204336099
0.0263723026179
0.340539204601
0.0457643329821
0.981103790289
0.00512601703485
0.836079243978
0.0899858260882
3.23971961644
0.645263418482
0.528196884335
0.506396694043
1.25965424142
0.0721726402788
3.20592526557
3.77157379053
2.13559779152
0.0949114357817
3.77117392197
0.0329938182717
1.73444431597
0.00757088748553
1.15636088306
0.11358823421
1.61245299182
0.0492704619654
0.519793207297
0.396518393402
0.112539116838
1.65037595948
0.00962131222292
0.57939371072
2.98274750029
0.0349882819342
3.77117392197
1.67621224817
1.14089571794
3.77154913654
2.07912038094
1.42715749289
2.46546538893
0.0144114335125
0.497895915781
1.88799698987
0.00993175634672
0.14160323275
0.244988939095
0.215690094145
2.37752022276
0.0
0.0653413492449
0.00195517628998
0.0388047215898
1.24844497763
0.493104492456
1.92158858291
0.0208257886628
1.03306220573
0.0259591525886
1.19822318824
0.0729404065419
1.54565514988
0.0394361385587
1.79761365887
0.0
0.187718619481
0.00134027008635
0.105375945877
2.63773326389
0.00154826450564
1.10010815926
1.01555379316
0.931072257558
1.21362685646
0.0976653810355
2.13065751574
0.0560692336016
0.246383640107
2.42278701673
0.0366936660287
2.00473772839
0.00655070355254
3.77117392197
0.181377038128
3.03739172283
0.146095420106
2.57209890295
0.020267819784
1.33778599238
1.91280199939
0.0689713722491
1.28288743474
0.00490457047777
0.149491924324
0.269990250894
0.0233281384124
0.239351855668
0.25782660779
0.429340617701
0.489125296896
0.0499980337436
0.284921817539
0.980016658264
0.234472778926
0.46943359017
0.415140013305
0.63716902219
0.444311435006
0.675655806125
0.436362850631
0.848600562376
0.310877112871
0.661037326493
0.193489463896
0.437954641698
0.620332474455
0.504177896816
0.788800766199
0.287127951692
0.822918410979
0.535752240343
0.670760618356
0.474663023782
0.759015275241
0.358686277026
0.766304861152
0.431902491447
0.830104803591
0.371922242766
0.0881222632448
0.479399400928
0.595564837209
0.488836121043
0.68380753398
0.50159376496
0.904774159927
0.346432363432
0.886372096843
0.413447045934
0.501485821177
0.834641031951
0.318244574125
0.511380041108
0.743513665736
0.423148784386
0.826064975288
0.148397542993
0.437384837809
0.667097618568
0.513678856406
0.374420565426
0.42155321957
0.335599926
0.482646309802
0.384068786065
0.449447893689
0.480118399727
0.394411919241
0.382011657758
0.583704371943
0.00278769000197
0.473636369567
0.0219329204027
1.22566372742
0.00545602519892
0.784264901468
0.0144694009454
1.11482722862
0.813779426812
0.827432746878
0.395103586766
0.42896096718
2.34526095439
0.0165108697494
1.52386972092
0.385297020918
2.47754561199
1.67031325414
3.77182747301
1.30972951701
0.502728333694
1.47175745512
0.415173940356
1.41648724051
0.495821042058
1.55410583655
0.335370958488
0.234903856264
3.77220625719
1.66020302114
0.318960378532
1.64967696618
0.458144723825
1.84207939792
0.249081628397
1.57883120817
0.42465189217
1.73274852012
0.31745933791
1.6984917559
0.401127868107
1.57585682754
0.38890837974
1.35262693296
0.522029712388
1.6788570658
0.246817933433
2.45294944508
0.00246104094752
1.5840159436
2.34640736066
0.06616351608
0.907856789433
1.44237598631
0.913832650971
1.28069524382
0.998715979652
1.33850760561
0.830726056724
1.49073594587
0.436786993769
1.72380288854
0.318162269827
1.57022589229
0.332800085251
1.56587050977
0.16134365827
1.02452297634
0.475494809229
1.07509599486
0.443048949871
0.820823450759
0.499971340396
0.923446593845
0.211299179762
0.534737415432
0.472920281586
0.777730036078
0.328888089233
0.949290712018
0.359548028724
1.32418825845
0.0124391258673
0.024575158472
0.311810292968
0.215353328337
1.75659729698
0.00671421774701
0.226160636329
1.82460860465
0.67058771677
0.0372341462886
0.382805490454
1.39519515224
0.207757435652
1.59818172633
0.351732380143
1.79838296004
0.868367923533
2.46913876498
2.3247332764
2.5513342767
2.32718364115
1.87799217685
3.69555522977
0.0127394134789
0.0874360105898
1.98393631342
0.152251394842
2.03922183347
0.0151578385771
1.93140522461
1.09912112413
1.8493338102
0.0404395142895
2.49799595474
0.140566891381
1.73738876186
0.253910323329
1.86295544766
0.055571525729
2.15689953951
0.0128019817028
0.201841309696
0.180654165079
0.018340817652
0.507406774375
0.00897789458908
0.302651207269
1.8998932163
0.027015548857
1.03844080585
1.72281194489
0.0166723189163
0.465163005981
0.401153700578
1.91323109174
0.0164490648149
0.459269921528
0.0
0.215351015178
1.43800308112
0.0448418963922
1.85516109934
0.0
0.150488423432
1.26118738051
0.30451661342
1.48260446346
0.742444955461
0.0216777312123
0.22901724034
0.515248512288
0.0268643490021
1.41709858474
0.0
0.220847567097
1.92703432128
0.404568127741
2.58397396426
1.01837004989
3.30525707074
0.0244875932431
1.9924250107
0.00604955994022
1.38438932031
3.77228341519
1.71853838622
0.370721370038
1.6037556077
0.499858850213
1.83403671102
0.235835974236
1.56538492674
0.44465137219
1.70475406195
0.305399478805
1.510056019
0.427224393412
1.56345182659
0.352693452229
1.54833318235
0.289580516526
1.43052403723
0.274054124985
1.37720537062
0.305515981142
1.1847012394
0.352075890391
0.958467712116
0.115207854707
2.30639208923
0.0318145693046
0.187771020319
1.065324709
0.695174503819
0.848623129797
0.808184899504
0.458935916338
0.977977528342
0.279926616939
0.739747708059
0.348701310213
0.486046712975
0.288443843987
0.452512638549
1.0534586501
0.489240417269
0.87238057993
0.29410990166
0.482287212517
0.808319887037
0.453335285329
2.62380822248
0.042207469972
2.14471617832
0.0071503033188
1.08028119882
1.63209391773
0.018704105041
1.66502203176
0.0124841760656
0.317447161431
1.8425168559
0.0122514105322
0.447712042814
0.0086121918268
0.551727208832
0.028650055981
0.10757069051
0.944060139807
1.03608850996
0.0602979048833
0.911869154223
1.32920538964
0.836097961847
1.23529738474
0.765649162079
1.20658649012
0.425612564409
1.33446932914
0.315703830617
1.27802749493
0.422860465521
1.45492337349
0.260772212616
0.993673624203
0.574023683039
1.28674970549
0.42632687013
0.490632335562
1.34428848517
0.336263845659
1.7820019596
0.0315536911161
2.1755228098
0.0
0.809130971948
0.0714610476347
0.911725918394
1.28242024331
1.43761042107
0.369515046011
2.33948071995
0.375184614768
1.26120253022
0.732282242348
1.88317021335
0.0508600493942
3.1898592957
3.77117392197
logs/alpha_10.0/PGSD_100steps_4.log 804.900199309 0.804900199309 0.474149696675 3.7782880854 0.0 -1
