Policy Parameters:	-0.500685623606 0.728860774661
Control Steps:		1000
Start Time:		1442523340.4855354

-- TESTING STOPPED --

Stop Time:		1442523387.4119093
Duration:		46.92637395858765
Cost Matrix:
0.402700041882
0.527382630828
0.562998660929
0.610321244366
0.73339951883
0.771863173406
0.784790055142
0.768284302539
0.727318860366
0.781943004404
0.578696163415
0.277581018313
0.189934735083
0.167799446605
0.128430686866
0.288498519663
0.340586933971
0.335547861794
0.309301953988
0.281657124334
0.216930875396
0.272995170643
0.212035220781
0.0689640829585
0.0768804366387
0.0685725464866
0.103832544704
0.107181389503
0.0768577357211
0.0999294051549
0.0689564871691
0.0865494319075
0.0696345363554
0.0238812862987
0.0428415159611
0.0300099865864
0.0677430347736
0.105938476825
0.144176310376
0.145705477771
0.163756194977
0.179192518322
0.168979616162
0.164626319798
0.177269961043
0.201037130482
0.181987401003
0.194239119581
0.180263283775
0.187281114174
0.182405692221
0.146868799569
0.113456438076
0.12221340072
0.191542661465
0.136267107749
0.126782744246
0.142623647474
0.157892844813
0.148848198875
0.109142545285
0.158009017824
0.0822191684794
0.0497233351671
0.0455154903118
0.0524048929621
0.025731065814
0.109950422818
0.154391770538
0.145573647085
0.169116443656
0.183584203462
0.24202134062
0.2726374077
0.289291015359
0.298043459673
0.306611682355
0.328520531011
0.34361509192
0.370207511964
0.390258268577
0.399695089962
0.426539397285
0.451678894036
0.495481459168
0.575252248487
0.592019582709
0.547651826792
0.456374774993
0.507562253029
0.41818893208
0.349867084387
0.438050131749
0.384502926515
0.443226241485
0.433357971054
0.383021039917
0.338890930118
0.236220574775
0.180277583946
0.125640861981
0.0665855620857
0.0368251425972
0.0508548090771
0.0755731646527
0.0366663115975
0.0159334753504
0.0399833993651
0.0420140249119
0.0478425549064
0.0439389467184
0.0725494424219
0.0458058553842
0.0461024684674
0.0722810685497
0.078009537378
0.0726850623997
0.0389087835633
0.0329788601222
0.0485213055215
0.0627805761316
0.0767786863491
0.0568996176853
0.0532718697992
0.0843506585529
0.0906988679131
0.107416686333
0.0937636554849
0.0831738914319
0.0919571217848
0.109323117596
0.125043252728
0.0970400572902
0.0956918287966
0.0985760980764
0.108516710682
0.117392482682
0.132651393076
0.126670031221
0.0998764829654
0.0813068182598
0.131510199894
0.125534012494
0.10625965585
0.111131430908
0.073112265127
0.0778887486636
0.0849907245269
0.0595473005228
0.0632893103393
0.0717897195575
0.072559554557
0.07876364407
0.0563139137425
0.0160024126024
0.0227494383004
0.0181699121485
0.0270781962698
0.0339409263019
0.0686252588657
0.0670214404137
0.0735206382889
0.06080268927
0.0680373751171
0.0662483489981
0.0344235464345
0.0516307138638
0.0666258672506
0.0784210345853
0.103127624846
0.142190721623
0.122951346611
0.0940125280262
0.0813868815092
0.0727592792975
0.135114829868
0.167949512185
0.16711405591
0.178215376803
0.213870902945
0.251276390854
0.286122667607
0.312740646948
0.349902964319
0.362065708511
0.380762712185
0.411978947083
0.450648176308
0.484516445002
0.520254768925
0.573204586402
0.567570793495
0.625830571249
0.698582781433
0.58812918563
0.639251934016
0.594576455373
0.49859957273
0.516473401702
0.517148014021
0.367504214302
0.241761417623
0.197390314537
0.248718019136
0.200235248333
0.0760933706856
0.0318270068057
0.0569073371591
0.0278043188665
0.0124272997504
0.0551676451468
0.0787971594279
0.0549987044993
0.0460943090965
0.0268141463146
0.0555017456795
0.0251795243629
0.00787723740645
0.0103698355971
0.0287653740457
0.0301280885757
0.0486454069609
0.0510073337465
0.0840338932125
0.0916448657884
0.0991201485381
0.0986456446987
0.0964050298199
0.096164506585
0.0986285312228
0.114370977246
0.113491053719
0.0904472565391
0.116069008404
0.116899234193
0.116513404813
0.175792895354
0.149244261153
0.125233970512
0.118280961035
0.140499586823
0.134958984852
0.137009291333
0.120933014255
0.134371933151
0.120178855882
0.121597134146
0.104212358905
0.176620527683
0.145654558444
0.116009589269
0.138622667643
0.113174107588
0.112103151877
0.110653324851
0.12774175182
0.116246849351
0.0628799070152
0.0486755460661
0.0599907937979
0.0430423968143
0.0196159741087
0.0237938063182
0.0225655132066
0.013877851396
0.0129103235532
0.00673934179109
0.00479951149166
0.00639221983678
0.0278353658235
0.0433444338837
0.0414399642196
0.0461702159735
0.0511657067991
0.036127887344
0.0144671264838
0.0175737240032
0.0234603945344
0.0210835734986
0.0406845142749
0.0395563052952
0.0438434800359
0.0869673555306
0.0723608938444
0.0224988994612
0.0211519228477
0.0307716642821
0.0228424606789
0.0254452561534
0.0515493388132
0.0282185396833
0.00788380177633
0.013129356485
0.023605337507
0.0398448670374
0.0360921078778
0.0134236055842
0.0380258789427
0.0268576937442
0.00792168362855
0.0441362690874
0.0626216127911
0.0286001621176
0.0147785321855
0.0331115956658
0.0273992386151
0.0203433149943
0.0375036473695
0.0288567724005
0.0270787913277
0.0545074167426
0.070227369655
0.0522436137059
0.0621395955651
0.0380405893931
0.168257908981
0.339154012213
0.329229238326
0.212981116473
0.541789489475
0.430239457747
0.397194864123
0.490607775491
0.648586114108
0.752298937482
1000000.0
0.0
0.0
0.0
0.0
0.0
0.0
0.0
0.0
0.0
0.0
0.0
0.0
0.0
0.0
0.0
0.0
0.0
0.0
0.0
0.0
0.0
0.0
0.0
0.0
0.0
0.0
0.0
0.0
0.0
0.0
0.0
0.0
0.0
0.0
0.0
0.0
0.0
0.0
0.0
0.0
0.0
0.0
0.0
0.0
0.0
0.0
0.0
0.0
0.0
0.0
0.0
0.0
0.0
0.0
0.0
0.0
0.0
0.0
0.0
0.0
0.0
0.0
0.0
0.0
0.0
0.0
0.0
0.0
0.0
0.0
0.0
0.0
0.0
0.0
0.0
0.0
0.0
0.0
0.0
0.0
0.0
0.0
0.0
0.0
0.0
0.0
0.0
0.0
0.0
0.0
0.0
0.0
0.0
0.0
0.0
0.0
0.0
0.0
0.0
0.0
0.0
0.0
0.0
0.0
0.0
0.0
0.0
0.0
0.0
0.0
0.0
0.0
0.0
0.0
0.0
0.0
0.0
0.0
0.0
0.0
0.0
0.0
0.0
0.0
0.0
0.0
0.0
0.0
0.0
0.0
0.0
0.0
0.0
0.0
0.0
0.0
0.0
0.0
0.0
0.0
0.0
0.0
0.0
0.0
0.0
0.0
0.0
0.0
0.0
0.0
0.0
0.0
0.0
0.0
0.0
0.0
0.0
0.0
0.0
0.0
0.0
0.0
0.0
0.0
0.0
0.0
0.0
0.0
0.0
0.0
0.0
0.0
0.0
0.0
0.0
0.0
0.0
0.0
0.0
0.0
0.0
0.0
0.0
0.0
0.0
0.0
0.0
0.0
0.0
0.0
0.0
0.0
0.0
0.0
0.0
0.0
0.0
0.0
0.0
0.0
0.0
0.0
0.0
0.0
0.0
0.0
0.0
0.0
0.0
0.0
0.0
0.0
0.0
0.0
0.0
0.0
0.0
0.0
0.0
0.0
0.0
0.0
0.0
0.0
0.0
0.0
0.0
0.0
0.0
0.0
0.0
0.0
0.0
0.0
0.0
0.0
0.0
0.0
0.0
0.0
0.0
0.0
0.0
0.0
0.0
0.0
0.0
0.0
0.0
0.0
0.0
0.0
0.0
0.0
0.0
0.0
0.0
0.0
0.0
0.0
0.0
0.0
0.0
0.0
0.0
0.0
0.0
0.0
0.0
0.0
0.0
0.0
0.0
0.0
0.0
0.0
0.0
0.0
0.0
0.0
0.0
0.0
0.0
0.0
0.0
0.0
0.0
0.0
0.0
0.0
0.0
0.0
0.0
0.0
0.0
0.0
0.0
0.0
0.0
0.0
0.0
0.0
0.0
0.0
0.0
0.0
0.0
0.0
0.0
0.0
0.0
0.0
0.0
0.0
0.0
0.0
0.0
0.0
0.0
0.0
0.0
0.0
0.0
0.0
0.0
0.0
0.0
0.0
0.0
0.0
0.0
0.0
0.0
0.0
0.0
0.0
0.0
0.0
0.0
0.0
0.0
0.0
0.0
0.0
0.0
0.0
0.0
0.0
0.0
0.0
0.0
0.0
0.0
0.0
0.0
0.0
0.0
0.0
0.0
0.0
0.0
0.0
0.0
0.0
0.0
0.0
0.0
0.0
0.0
0.0
0.0
0.0
0.0
0.0
0.0
0.0
0.0
0.0
0.0
0.0
0.0
0.0
0.0
0.0
0.0
0.0
0.0
0.0
0.0
0.0
0.0
0.0
0.0
0.0
0.0
0.0
0.0
0.0
0.0
0.0
0.0
0.0
0.0
0.0
0.0
0.0
0.0
0.0
0.0
0.0
0.0
0.0
0.0
0.0
0.0
0.0
0.0
0.0
0.0
0.0
0.0
0.0
0.0
0.0
0.0
0.0
0.0
0.0
0.0
0.0
0.0
0.0
0.0
0.0
0.0
0.0
0.0
0.0
0.0
0.0
0.0
0.0
0.0
0.0
0.0
0.0
0.0
0.0
0.0
0.0
0.0
0.0
0.0
0.0
0.0
0.0
0.0
0.0
0.0
0.0
0.0
0.0
0.0
0.0
0.0
0.0
0.0
0.0
0.0
0.0
0.0
0.0
0.0
0.0
0.0
0.0
0.0
0.0
0.0
0.0
0.0
0.0
0.0
0.0
0.0
0.0
0.0
0.0
0.0
0.0
0.0
0.0
0.0
0.0
0.0
0.0
0.0
0.0
0.0
0.0
0.0
0.0
0.0
0.0
0.0
0.0
0.0
0.0
0.0
0.0
0.0
0.0
0.0
0.0
0.0
0.0
0.0
0.0
0.0
0.0
0.0
0.0
0.0
0.0
0.0
0.0
0.0
0.0
0.0
0.0
0.0
0.0
0.0
0.0
0.0
0.0
0.0
0.0
0.0
0.0
0.0
0.0
0.0
0.0
0.0
0.0
0.0
0.0
0.0
0.0
0.0
0.0
0.0
0.0
0.0
0.0
0.0
0.0
0.0
0.0
0.0
0.0
0.0
0.0
0.0
0.0
0.0
0.0
0.0
0.0
0.0
0.0
0.0
0.0
0.0
0.0
0.0
0.0
0.0
0.0
0.0
0.0
0.0
0.0
0.0
0.0
0.0
0.0
0.0
0.0
0.0
0.0
0.0
0.0
0.0
0.0
0.0
0.0
0.0
0.0
0.0
0.0
0.0
0.0
0.0
0.0
0.0
0.0
0.0
0.0
0.0
0.0
0.0
0.0
0.0
0.0
0.0
0.0
0.0
0.0
0.0
0.0
0.0
0.0
0.0
0.0
0.0
0.0
0.0
0.0
0.0
0.0
0.0
0.0
0.0
0.0
0.0
0.0
0.0
0.0
0.0
0.0
0.0
0.0
0.0
0.0
0.0
0.0
0.0
0.0
0.0
0.0
0.0
0.0
0.0
0.0
0.0
0.0
0.0
0.0
0.0
0.0
0.0
0.0
0.0
0.0
0.0
0.0
0.0
0.0
0.0
0.0
0.0
0.0
logs/alpha_10.0/PGSD_100steps_3.log 1000055.47195 1000.05547195 0.0 1000000.0 0.0 325
