Policy Parameters:	-0.405790391145 0.708590486724
Control Steps:		1000
Start Time:		1442525057.0094483

-- TESTING STOPPED --

Stop Time:		1442525092.1577065
Duration:		35.148258209228516
Cost Matrix:
0.232579428972
0.0540273818308
0.0960665086086
0.0756515941481
0.100261991568
0.0377724132349
0.0347005958721
0.0238193074834
0.0630581236121
0.0631611392275
0.0576821400761
0.0674025015902
0.0614720935244
0.0166755177149
0.0251610649917
0.0355569668119
0.0162540372632
0.017823034193
0.0228233997861
0.00279660985768
0.0257377764214
0.00450390797372
0.0580556544408
0.0236664534031
0.030716035839
0.0749334959733
0.0531890607961
0.0214150375731
0.0149515367388
0.0321613669874
0.115412582136
0.079824769421
0.0891609483756
0.0938151322983
0.105505130164
0.150412033699
0.13112247012
0.12717356596
0.103554522797
0.0700540360752
0.0421752468615
0.119611112647
0.14087882234
0.0976687795148
0.113279428661
0.102311244186
0.116389949702
0.141277394391
0.136597120702
0.138850835616
0.132270205375
0.146410275718
0.130346740394
0.0989352212327
0.0947320617752
0.120164563681
0.127793523029
0.137497601233
0.108811300278
0.114771300082
0.127391099915
0.124211255919
0.0769701316961
0.0617161345368
0.0633685590957
0.041765788959
0.0283870002382
0.0258316004915
0.0304974990471
0.0201305762717
0.0363664394251
0.0678897088519
0.0596145170008
0.0815658970519
0.0593683039106
0.0595922309476
0.0701974868413
0.0979681547915
0.0915032505113
0.0857845985472
0.0694651713794
0.0437517622218
0.0480003619
0.0361692049355
0.0381151284306
0.0438530410311
0.0335752986081
0.0311363448753
0.0253377645479
0.0543323985355
0.0396250152098
0.0219029731739
0.0145906151544
0.0173731911669
0.0178080793876
0.0393136395863
0.00872683199614
0.0710478595686
0.0404277853204
0.0535055252024
0.0482183478352
0.040917796626
0.0056729868616
0.0374939696241
0.0206013453681
0.0778730125584
0.050616936528
0.0254413125636
0.0105956644929
0.00394909188026
0.0257603013987
0.0181249856459
0.00624879323894
0.00999853311807
0.0145353437097
0.0465259066551
0.0550247485508
0.0309091498947
0.053773405923
0.0651576487613
0.083235584547
0.0910684875818
0.0622276079253
0.0337999575037
0.0459154359279
0.0617215525842
0.0927727170402
0.0765105401352
0.114379856057
0.107124385953
0.0826096771366
0.116535026018
0.188507960086
0.204207303875
0.192420667243
0.200202941234
0.226705714563
0.245465570558
0.282354093118
0.274601478576
0.290174231407
0.317793864819
0.339762061403
0.342230861882
0.36227405598
0.338796298603
0.314676632064
0.326773475793
0.36072851887
0.387829759963
0.386807016932
0.3737600498
0.389829048361
0.418698497828
0.405250298011
0.350421058462
0.307129282545
0.289887947275
0.276540693869
0.248851663645
0.185123267949
0.111566219352
0.0554114669139
0.0443640611296
0.0473140153755
0.0666250381236
0.0578104776734
0.0690539490372
0.0651095538722
0.0790103953889
0.0651726841736
0.0564872253517
0.0517901228352
0.0297460780622
0.0370671294078
0.0278363491824
0.0164710686456
0.0144340429212
0.0140593874257
0.00974217183542
0.0287961816247
0.0258262620535
0.0441441623916
0.0650097323694
0.0453977029514
0.0332436873698
0.0253960297651
0.0483026613844
0.0468429345241
0.0508712085619
0.0390542309712
0.016947434889
0.0143297110989
0.0262840991569
0.0344483214562
0.014885597471
0.0459524534888
0.0225333582651
0.031979472311
0.0267100434779
0.00926750317769
0.00797475414501
0.0144173292991
0.0054434031088
0.0197548428635
0.0249153531708
0.0150097121312
0.0257734631619
0.0361979587873
0.0154978391845
0.0265666953391
0.0272769985423
0.0272024131535
0.0111584452918
0.022290975725
0.0804740357126
0.0855932163849
0.0769251353296
0.0606285846377
0.0290327391373
0.0913034121697
0.0736280420811
0.0471000676787
0.111308048113
0.141684406487
0.219487151363
0.211245541992
0.234565318162
0.307943021764
0.350509683014
0.366222307579
0.37141256515
0.417835876242
0.448761947967
0.492305766882
0.525814984765
0.53847626391
0.570493879299
0.56320099339
0.673199339242
0.693427570015
0.697386253812
0.61698984297
0.682826698505
0.259614033304
0.0728214728172
0.144548183085
0.0826122671477
0.069529509811
0.123165112363
0.0632598438715
0.0449320484202
0.0231956842267
1000000.0
0.0
0.0
0.0
0.0
0.0
0.0
0.0
0.0
0.0
0.0
0.0
0.0
0.0
0.0
0.0
0.0
0.0
0.0
0.0
0.0
0.0
0.0
0.0
0.0
0.0
0.0
0.0
0.0
0.0
0.0
0.0
0.0
0.0
0.0
0.0
0.0
0.0
0.0
0.0
0.0
0.0
0.0
0.0
0.0
0.0
0.0
0.0
0.0
0.0
0.0
0.0
0.0
0.0
0.0
0.0
0.0
0.0
0.0
0.0
0.0
0.0
0.0
0.0
0.0
0.0
0.0
0.0
0.0
0.0
0.0
0.0
0.0
0.0
0.0
0.0
0.0
0.0
0.0
0.0
0.0
0.0
0.0
0.0
0.0
0.0
0.0
0.0
0.0
0.0
0.0
0.0
0.0
0.0
0.0
0.0
0.0
0.0
0.0
0.0
0.0
0.0
0.0
0.0
0.0
0.0
0.0
0.0
0.0
0.0
0.0
0.0
0.0
0.0
0.0
0.0
0.0
0.0
0.0
0.0
0.0
0.0
0.0
0.0
0.0
0.0
0.0
0.0
0.0
0.0
0.0
0.0
0.0
0.0
0.0
0.0
0.0
0.0
0.0
0.0
0.0
0.0
0.0
0.0
0.0
0.0
0.0
0.0
0.0
0.0
0.0
0.0
0.0
0.0
0.0
0.0
0.0
0.0
0.0
0.0
0.0
0.0
0.0
0.0
0.0
0.0
0.0
0.0
0.0
0.0
0.0
0.0
0.0
0.0
0.0
0.0
0.0
0.0
0.0
0.0
0.0
0.0
0.0
0.0
0.0
0.0
0.0
0.0
0.0
0.0
0.0
0.0
0.0
0.0
0.0
0.0
0.0
0.0
0.0
0.0
0.0
0.0
0.0
0.0
0.0
0.0
0.0
0.0
0.0
0.0
0.0
0.0
0.0
0.0
0.0
0.0
0.0
0.0
0.0
0.0
0.0
0.0
0.0
0.0
0.0
0.0
0.0
0.0
0.0
0.0
0.0
0.0
0.0
0.0
0.0
0.0
0.0
0.0
0.0
0.0
0.0
0.0
0.0
0.0
0.0
0.0
0.0
0.0
0.0
0.0
0.0
0.0
0.0
0.0
0.0
0.0
0.0
0.0
0.0
0.0
0.0
0.0
0.0
0.0
0.0
0.0
0.0
0.0
0.0
0.0
0.0
0.0
0.0
0.0
0.0
0.0
0.0
0.0
0.0
0.0
0.0
0.0
0.0
0.0
0.0
0.0
0.0
0.0
0.0
0.0
0.0
0.0
0.0
0.0
0.0
0.0
0.0
0.0
0.0
0.0
0.0
0.0
0.0
0.0
0.0
0.0
0.0
0.0
0.0
0.0
0.0
0.0
0.0
0.0
0.0
0.0
0.0
0.0
0.0
0.0
0.0
0.0
0.0
0.0
0.0
0.0
0.0
0.0
0.0
0.0
0.0
0.0
0.0
0.0
0.0
0.0
0.0
0.0
0.0
0.0
0.0
0.0
0.0
0.0
0.0
0.0
0.0
0.0
0.0
0.0
0.0
0.0
0.0
0.0
0.0
0.0
0.0
0.0
0.0
0.0
0.0
0.0
0.0
0.0
0.0
0.0
0.0
0.0
0.0
0.0
0.0
0.0
0.0
0.0
0.0
0.0
0.0
0.0
0.0
0.0
0.0
0.0
0.0
0.0
0.0
0.0
0.0
0.0
0.0
0.0
0.0
0.0
0.0
0.0
0.0
0.0
0.0
0.0
0.0
0.0
0.0
0.0
0.0
0.0
0.0
0.0
0.0
0.0
0.0
0.0
0.0
0.0
0.0
0.0
0.0
0.0
0.0
0.0
0.0
0.0
0.0
0.0
0.0
0.0
0.0
0.0
0.0
0.0
0.0
0.0
0.0
0.0
0.0
0.0
0.0
0.0
0.0
0.0
0.0
0.0
0.0
0.0
0.0
0.0
0.0
0.0
0.0
0.0
0.0
0.0
0.0
0.0
0.0
0.0
0.0
0.0
0.0
0.0
0.0
0.0
0.0
0.0
0.0
0.0
0.0
0.0
0.0
0.0
0.0
0.0
0.0
0.0
0.0
0.0
0.0
0.0
0.0
0.0
0.0
0.0
0.0
0.0
0.0
0.0
0.0
0.0
0.0
0.0
0.0
0.0
0.0
0.0
0.0
0.0
0.0
0.0
0.0
0.0
0.0
0.0
0.0
0.0
0.0
0.0
0.0
0.0
0.0
0.0
0.0
0.0
0.0
0.0
0.0
0.0
0.0
0.0
0.0
0.0
0.0
0.0
0.0
0.0
0.0
0.0
0.0
0.0
0.0
0.0
0.0
0.0
0.0
0.0
0.0
0.0
0.0
0.0
0.0
0.0
0.0
0.0
0.0
0.0
0.0
0.0
0.0
0.0
0.0
0.0
0.0
0.0
0.0
0.0
0.0
0.0
0.0
0.0
0.0
0.0
0.0
0.0
0.0
0.0
0.0
0.0
0.0
0.0
0.0
0.0
0.0
0.0
0.0
0.0
0.0
0.0
0.0
0.0
0.0
0.0
0.0
0.0
0.0
0.0
0.0
0.0
0.0
0.0
0.0
0.0
0.0
0.0
0.0
0.0
0.0
0.0
0.0
0.0
0.0
0.0
0.0
0.0
0.0
0.0
0.0
0.0
0.0
0.0
0.0
0.0
0.0
0.0
0.0
0.0
0.0
0.0
0.0
0.0
0.0
0.0
0.0
0.0
0.0
0.0
0.0
0.0
0.0
0.0
0.0
0.0
0.0
0.0
0.0
0.0
0.0
0.0
0.0
0.0
0.0
0.0
0.0
0.0
0.0
0.0
0.0
0.0
0.0
0.0
0.0
0.0
0.0
0.0
0.0
0.0
0.0
0.0
0.0
0.0
0.0
0.0
0.0
0.0
0.0
0.0
0.0
0.0
0.0
0.0
0.0
0.0
0.0
0.0
0.0
0.0
0.0
0.0
0.0
0.0
0.0
0.0
0.0
0.0
0.0
0.0
0.0
0.0
0.0
0.0
0.0
0.0
0.0
0.0
0.0
0.0
0.0
0.0
0.0
0.0
0.0
0.0
0.0
0.0
0.0
0.0
0.0
0.0
0.0
0.0
0.0
0.0
0.0
0.0
0.0
0.0
0.0
0.0
0.0
0.0
0.0
0.0
0.0
0.0
0.0
0.0
0.0
0.0
0.0
0.0
0.0
0.0
0.0
0.0
0.0
0.0
0.0
0.0
0.0
0.0
0.0
0.0
0.0
0.0
0.0
0.0
0.0
0.0
0.0
0.0
0.0
logs/alpha_10.0/PGSD_200steps_1.log 1000029.93044 1000.02993044 0.0 1000000.0 0.0 253
