Policy Parameters:	-10.1016290485 1.48620774066
Control Steps:		1000
Start Time:		1442527269.849376

-- TESTING STOPPED --

Stop Time:		1442527466.3580275
Duration:		196.50865149497986
Cost Matrix:
0.142916935272
0.252217520705
0.32479982891
0.409172850165
0.473327924266
0.526852804216
0.569540153174
0.609071275234
0.660979032824
0.810545690997
0.750607473475
0.714351450911
0.679015864833
0.722354773266
0.635373846224
0.654178859733
0.499108523715
0.523270849847
0.594773055169
0.535310070396
0.492113624563
0.339465336323
0.201072894218
0.214433878324
0.00541741999556
0.19728956596
0.257980155995
0.133404140167
0.382878561089
0.217919429489
0.367560921049
0.0190603714467
0.0343183964428
0.0265881660435
0.0548150435281
0.0852626487268
0.043518127702
0.0330305870336
0.260871041966
0.00964761681872
0.352114253452
0.0356328894267
0.0213591354466
0.000383546280149
0.187186579037
0.203314531855
0.0918385429511
0.0262568527703
0.189948404806
0.491174044242
0.315384722672
0.0654819485542
0.0617060322178
0.435021296089
0.729734029607
0.238944673057
0.440467907247
0.809081827857
0.910924844877
0.264766847013
0.486256613411
1.14089935336
0.488873392678
1.40858224638
0.739638300655
1.71845903929
1.98253320021
2.0012524059
1.6609130148
1.8808101982
1.28521476807
1.80213459613
1.64247904648
1.43069532436
0.160296390372
1.38973361045
0.0114432970216
0.151781243998
1.01333727654
0.852891087519
0.131314540646
0.531642065354
0.800498410792
0.430181332329
1.18282185459
1.54346170906
0.0229877614497
0.428880166201
0.964291893022
0.136808738885
1.0615408857
1.07989387479
0.823652463888
1.48400252668
0.265319637256
1.19049953937
0.355269077854
0.625740157351
0.0854048241159
2.61554515351
0.0193401027275
0.0707316456816
0.115997862203
0.187599832527
0.421802803158
1.64292770586
0.0242410023107
0.478482069292
0.185228203338
0.415958554246
0.324134532347
0.281426563378
0.38758301245
0.0685825408126
0.151873783557
0.254048579165
0.356360751301
1.2185666242
0.271019896797
1.09766788576
0.584022570901
0.494180804094
2.01293991901
0.0373168313122
0.818339951704
0.592262565
1.44653755831
0.507506807884
1.88418227895
0.395348604867
2.09872733426
0.383905896335
2.20429669338
0.0553236924363
1.39791168536
1.44873347638
0.280835010408
0.961289817419
0.48896994838
0.43645029671
0.830415410243
0.327456951211
0.36505254341
0.205517003043
0.342898124793
0.469422619051
0.425572018421
0.651703373823
0.656657628145
0.814104608653
0.200105930688
1.05811188802
0.472963024092
1.85592233255
0.163335424665
1.32155264225
1.02979991583
1.59187086702
0.509278338097
2.32645545666
0.117213385911
2.04672764535
0.00327001379615
0.161650964361
0.179860694611
0.425380022982
0.832256253357
0.202486602365
0.677342702554
0.455128236332
1.39521579149
0.0913873767663
0.252810807328
2.7446902946
0.150654168081
0.183196570768
0.0324770012547
0.401197768841
0.124794443546
0.0162357785297
0.257803480085
1.306076992
0.0606102801506
0.365435077263
0.42756813432
1.0161531758
0.393319719173
0.552951495216
1.18025151543
1.50696006574
1.40584868089
2.58898382748
0.329250627784
3.20934277429
0.11648459851
1.92409582639
0.218391273962
1.92159781354
0.0733128523126
1.09937181806
0.0245708396861
0.28326082578
0.333600159825
0.322086626297
0.287473335447
0.341361932875
0.231111653462
0.37181788594
0.315619747545
0.284419877554
0.312214820602
0.265011761897
0.373849602971
0.320941773792
0.256289160144
0.370934467805
0.346733828237
0.370646377666
0.417030780531
0.274139337718
0.457614817261
0.338848190628
0.372751279571
0.317320174656
0.442884266146
0.452417379401
0.290799289143
0.406300618354
0.418782673883
0.431575176326
0.297328356284
0.500054420584
0.414573452103
0.460999022053
0.433932203335
0.460213843778
0.30724540836
0.442559052576
0.435138060121
0.352148910896
0.257067569549
0.801846640752
0.394624934209
1.0429136305
0.414596964555
0.408692646088
0.378991286068
0.927353944012
1.0187113928
0.61947019581
1.27757923666
1.36910425621
0.745861819849
1.92821815913
2.04443052359
2.26319900825
2.26425971867
1.83328953359
1.55929221217
1.4830748525
0.948914099001
1.84600227187
0.359174858549
2.00150896636
0.0378108053661
0.0585807943505
0.0140170439766
0.175766136876
0.290069912074
0.0156216658862
0.231170442925
0.00860865318471
0.113861306539
0.231723257948
0.388361410606
0.112869828198
0.156390440215
0.235358270787
0.00922678572343
0.0260561498912
0.415411914512
1.24494046647
0.0294373172781
0.336786362485
0.170036402963
0.792975595782
0.130794300193
0.728799242729
0.0149893137254
0.288414605246
0.531281775342
0.753683539112
0.291272409679
0.307087557871
1.41341080236
0.0283358125938
0.460751560486
0.194120078247
0.371572057724
0.97116543394
0.191057511055
1.00245871792
0.115358000245
0.202605312246
0.017258552777
0.609817985221
0.0703892095221
2.46319710154
0.0207360921058
0.347756843396
0.459712222458
0.333634503046
0.534599037272
0.492041209626
0.827550024043
0.153133130148
1.48567139462
1.20710741517
0.807338747495
1.27847192639
2.00124810248
2.1737268408
2.11867773313
2.111027125
2.03927831546
1.69264274908
1.39478730088
1.82343559224
0.396372841383
1.52886775959
0.0352394430877
0.530903661242
0.244662518727
0.346722393734
0.213991686167
0.724609375492
0.504963260406
0.337636650431
1.05493014359
0.37761428141
0.384245476106
0.896078728303
0.636444474239
0.0918518609565
0.348126292028
0.514581996451
0.0637521625773
0.0939854143733
0.782619425092
0.131195190829
0.0
0.0542690990421
0.406684508307
0.0462921292097
0.314295117455
0.269469914872
0.400407903469
0.0292730164156
0.0817444369673
0.0860453097813
0.459674500784
0.0111271934179
0.107446953938
0.389505362602
0.571132651641
0.833550406583
0.00206307659356
0.0395584503418
0.121606079759
0.174142204169
0.517179576429
0.144656965919
0.262051213781
0.303110924504
0.750315188216
0.456250374925
0.442572989911
1.09760560629
0.029209796963
0.428599561869
0.989102827271
0.528593339786
1.10340561014
0.486316154966
1.21843669979
0.815432917354
1.75232252124
1.89415568717
2.92914910506
2.81095520378
1.91499808226
1.65185828934
1.61764902425
1.90884375295
0.380728869333
0.139883621304
0.449570122989
0.741951430095
0.0154698310202
0.771607245692
0.731121194643
0.508373511507
1.58345492086
0.182934715827
0.524504628808
1.34650316873
0.400069604237
1.03021251165
0.453595723886
0.822624047043
0.361018054013
0.776675278636
0.372225476247
0.560544237441
0.506804821318
2.15107156365
0.0277110540139
0.186813939075
0.106773743285
0.121321770645
0.0100644235604
0.36538297517
0.224825168318
0.411741674691
1.67891408384
0.207111055349
0.392467357985
0.494444144549
0.203426924688
0.182083897615
0.137658020152
0.168315561733
0.291433740269
0.339126873025
0.059526157827
0.111621295325
0.0664569440471
0.453668102218
0.827795291328
0.142331398635
0.367949400325
1.25221404686
0.463209226925
1.59585690908
0.16584100831
1.1539390121
1.34051583238
1.31933966857
1.40709658843
0.815682920272
1.60191187771
0.488756566168
1.59333584003
0.0846558432377
0.511825561242
0.869782964914
0.141388124825
0.223498538622
0.258009953466
0.282447948178
0.209300642215
0.0644325410461
0.0463642152934
0.414577903453
0.547210746593
0.387808285176
0.305118572469
0.118308571441
0.0114590179983
0.201222281758
0.557244054281
0.724621757164
0.769974262138
0.805853170894
0.960052951706
0.397658473781
1.6641128366
0.960402987395
1.25280279851
0.780015091812
1.5837313276
0.442686226575
1.05542790319
1.0314359174
0.423776812393
0.32322164584
0.476734447988
0.415557485424
0.462628342351
1.00775963841
0.265625248837
0.367685341355
1.3090249645
0.103955217281
1.26270847452
0.0
0.306852678347
1.57642520474
0.197349600821
0.308195221304
0.139513189702
0.0837352436511
0.590202297904
3.35718915414
0.0068374284588
0.229109712907
1.11068648528
0.294963189817
0.694576678606
0.72548185589
1.10998194687
1.47855095816
1.80021925849
2.51316332254
0.898681984738
3.05980023343
0.139572558883
2.47206449603
0.0521349800072
1.21920059223
0.276167666128
0.960454199774
0.116065794139
0.335571557987
0.288331539568
0.417025183203
0.28478528028
0.358345125436
0.342930410325
0.266523707229
0.323599794128
0.280825636
0.38972212869
0.361830858879
0.246536765985
0.333527989828
0.446699664894
0.342503748718
0.44639409227
0.356140640845
0.477280532402
0.424213758291
0.413546768544
0.390478438183
0.414017820074
0.406875000766
0.335002216154
0.492564023948
0.400740302492
0.332462531286
0.512418049284
0.374806771894
0.480314308314
0.424645304203
0.400504798222
0.303336046383
0.397123786289
0.392100355443
0.313024893956
0.298396279754
0.437023231975
0.434920233198
0.31523333095
0.85697299086
0.0676889805206
0.316635232667
1.05392157433
0.450207084888
0.949268750137
0.502496908237
1.19520899209
0.521186652775
1.89129201342
1.66735177745
1.59388231543
2.58755609987
1.07835249224
2.95275335527
0.164626669776
2.64445389738
0.454389612632
1.82823620688
0.0526396380015
0.85816184502
0.363137812919
0.0287437180094
0.0513125406153
0.155877951531
0.0125326378458
0.770318837996
0.00820403564191
0.0567454654645
0.0395050907555
0.501599101096
0.439234975035
0.263816181177
0.0251647048603
0.421553748429
0.518541147383
0.858806364212
0.07461136976
0.0913065713405
0.0151929917935
0.16709384605
0.289991328766
0.41590814871
0.249487475301
0.984383303497
0.00851280348553
0.278738472486
1.48584133827
0.135116517175
0.380464940617
1.04859370443
0.17153925649
0.907990072958
1.84780849265
0.0
0.0772220213872
0.343645208331
1.04530509939
0.0165633672721
0.0369341439454
0.688826529134
0.204145115099
0.00660250514513
0.258746729006
0.0227515481576
0.353044335513
0.0291662668727
0.312452002685
0.341529275201
0.134300128074
0.225939154601
1.28836226379
0.502593362085
0.849218822604
0.341746770506
1.33171650044
0.176034172337
1.47495300128
0.978791702279
2.6618826535
2.24575350684
2.24381202745
2.18538135734
2.19656606307
0.953166241
2.39308732251
0.506096159746
1.50772454926
0.153785381734
0.270445258152
0.588217676896
0.669172632928
0.139268941787
0.849276236091
0.0389146971115
2.49065170924
0.0202797954779
0.230371471302
0.897796555199
0.00700547612823
0.0915183327974
0.43932486117
1.2093094889
0.255722848624
0.238779250019
0.0710611054757
1.04946018521
0.16851191718
0.164558585966
0.327582684951
0.857272910058
0.0390429977237
0.228377503722
0.0626844266715
0.862117295939
0.0338491484401
0.229826122589
0.0
0.363900615957
0.0452564707241
0.567703115603
0.354602198621
0.432302413122
0.863823153095
0.384079993836
1.17937530973
0.201149206061
0.364199331592
0.0332103539183
0.406227234383
0.140311790688
0.784939521898
0.397357254861
1.066643208
0.0858433093246
0.39221082311
1.37509371427
0.816343309487
1.39075584184
1.80639566091
1.89162400099
1.97701143137
1.13658699693
2.37990912822
0.990876101674
1.6304643544
0.182427505308
1.3297651462
0.0200571450925
0.147029856409
0.285537115239
0.364862200247
1.0180487028
0.202883884069
0.411165258518
1.03080397576
0.202910234687
1.01520422355
0.200512642493
0.450873895416
1.26181369737
0.511220168859
1.21071096855
1.43468101055
0.343562501402
1.35785961153
0.475865351942
1.64627943169
0.0613750424316
3.77117426139
0.0527049912017
0.0479777976177
0.0492124816362
0.477497965498
0.260729685992
0.185022396001
0.0928998435862
0.0738554600372
0.217980508729
0.922836296517
0.396969506135
0.3191160247
0.802010218991
0.218039254351
0.507458713377
0.113822881774
0.310712484111
0.428178096544
0.401648240077
0.778207820237
0.342711792638
1.43189612997
0.0900606883055
0.270241136088
1.24032850299
0.342888528691
1.83350076436
0.0835617496368
0.635567746731
1.73656236946
0.437309595108
1.06129982067
0.988813584044
0.495528705292
0.306269354916
0.859548672187
0.290674948458
0.425361134608
0.743879673554
0.39651335516
0.258718205587
0.322904072698
0.537915970296
0.5444315098
0.501773105795
0.4100241908
0.329559122967
0.0675965669291
0.045440684974
0.432805991057
0.135019795686
0.77506371082
2.7190839126
0.029245927301
0.514782313583
1.06336785091
1.27827604639
0.578111131526
1.26596261206
0.508051195686
1.52950223779
0.19452597125
1.41647342797
0.466491164849
1.11266752008
0.0115330036126
0.400305076293
0.285354904808
0.198600865105
0.0121544381933
0.3619601915
0.364103566426
1.71762461425
0.0761584307813
0.949972421493
0.138827014525
0.26380130715
0.609611656171
0.506409543055
0.499636742925
0.509561062701
1.22982407231
0.0436503613963
0.692136920305
0.00473208252775
0.0685572867422
0.356864885713
1.06269781871
0.104020064635
0.78013673776
0.0422594029404
0.649449163071
0.398675860812
0.875182145432
1.77034663104
1.34338792854
2.20038677592
2.53785704943
3.00080617406
0.315515127626
3.77117426139
0.109039160663
2.13818367745
0.0173970002186
0.432857272321
0.316526746494
0.309105461745
0.358655132446
0.287032254957
0.418765738273
0.431379529319
0.407674230276
0.466537972132
0.348801489412
0.670933552699
0.180381404957
0.361169975842
0.431717250368
0.421572200118
0.379064676616
0.389838131307
0.455691477146
0.391545516864
0.45318369645
0.533566643555
0.377830102068
0.472692644263
0.446518638492
0.389989554359
0.417028257025
0.411357268157
0.387752831377
0.392725459905
0.294190218639
0.36023100045
0.470003547921
0.48722781201
0.40070545778
0.437069171834
0.476212476533
0.38779924066
0.500020593938
0.412314541486
0.421599239363
0.632686033436
0.447645573237
0.778631148171
0.136412930625
0.334776865677
1.11574908054
0.314301969635
1.0700230252
0.923089309195
0.832159748966
1.00396253648
1.61821113875
1.24392619035
1.96207692936
1.678476168
2.68773710352
1.9285119954
2.71119832116
1.23443661612
1.7893829579
0.889291077978
2.93470045882
0.0483608469534
0.0431080510711
0.0877904055755
0.262352834544
0.390231926289
0.448174333202
0.322321711828
1.40107795995
0.0245538618355
0.155100199324
0.103564261743
0.307451124196
0.244624327242
0.503805005365
1.41818507345
0.0394798981196
0.1094300007
0.806101897446
0.00373185780346
0.289360621542
0.672904255541
0.0449796983595
0.618446084769
0.111062350744
0.309657061983
2.10828311458
0.0405975891183
0.0579156785165
0.0316215940218
0.00622530500816
0.082751506869
0.406207817352
0.397957632712
0.326083988034
0.00778538846636
0.261923479917
0.203686974457
0.498255960964
0.262031371484
0.315853350411
0.363274411334
0.078775918895
2.19050701759
0.0134692261989
0.387336830458
1.95862037001
0.109769211363
1.93425469365
0.644610579877
2.18497509418
0.392645801278
2.0499394218
1.2767432128
1.37277970935
0.810599789812
0.335095906428
1.1236560127
0.727576304449
0.14429706448
0.493956807644
0.0
0.0932840821242
0.529025918829
0.427162056666
5.43515505642e-05
0.197731298319
1.38828703122
0.0258454583587
0.749423315421
0.429282130257
0.88960839654
0.503285044187
0.192213496889
0.498800193322
0.379874943196
0.678491944144
0.525608890568
0.412943067167
0.392698603265
0.971443270497
0.445681666196
0.0088245236826
0.0155652796133
0.245203222261
0.450898762662
0.2680330938
0.0233075866551
0.0185469462132
0.15296856102
0.049690567033
0.0617268028877
0.0683860510226
0.0484477831887
0.0284338468252
0.0364877906272
0.199887770013
0.306482656553
0.192984029313
0.463459422689
0.502328107252
0.775752465877
logs/alpha_10.0/PGSD_300steps_0.log 633.425536518 0.633425536518 0.410594724659 3.77117426139 0.0 -1
