Policy Parameters:	-3.5544636922 9.52475936943
Control Steps:		1000
Start Time:		1442479748.3934684

-- TESTING STOPPED --

Stop Time:		1442479933.727511
Duration:		185.3340425491333
Cost Matrix:
1.35354539285
0.0211167390894
0.406284937633
0.17284265336
0.37241762934
0.0301454389606
0.595087783441
0.0570637225392
1.76480021643
0.0
0.187438112187
0.0785586880051
0.180961361775
0.328735863744
0.0865891799911
0.174774597576
0.260939159226
0.112601003578
0.0842419230755
0.101226392858
0.08377239413
0.0937448025197
0.156630134362
0.112262637432
0.204684828687
0.117347109607
0.205342024453
0.0755800126353
0.0864093734567
0.0970641020334
0.0939866564449
0.15530036245
0.310480531549
0.285560446345
0.272170158469
0.0890699601283
0.188338199378
0.233178470758
0.0861511251395
0.221291970552
0.45251902256
0.504022126426
0.446768125423
0.90914751253
0.813000170646
0.96893609717
0.845171852445
0.963653455305
0.83908233284
0.998972018216
0.571354635561
1.02853929954
0.553851693099
0.98533752831
0.485658251371
0.474940262098
0.366938192444
0.285634427865
0.279172326244
0.0254464556174
0.370013115364
0.47868661126
0.828761345375
0.397266755432
0.832544432473
0.526911319725
0.342901266958
0.488429254223
0.299045181695
0.382595309292
0.49743157644
0.373746065896
0.354480110007
1.01014840061
0.249282993143
0.45248892392
0.147995627301
0.326937014048
0.827810742939
0.301736367973
0.469639549363
0.176503700232
0.39155842123
0.364447536361
0.410294802754
0.0685324145001
0.00541727955133
0.220673581673
0.25894379356
0.0115532156145
0.125281213663
0.0664901195174
0.865355625743
0.0173402541853
0.078754463569
0.142045354955
0.0820584726322
0.113934024592
0.2227619443
0.524046367991
0.316590429428
0.0257510065389
0.0172267121722
0.219306790182
0.794435687868
0.256382815213
0.811108981901
0.266150301687
1.13230602857
0.102266612805
1.46972987378
0.774514799377
0.996538537962
0.732381912158
1.55207506723
1.09633999307
1.36777112632
1.74963743499
0.488052586154
2.37959195153
0.0747949395107
1.47898428851
0.824592594816
0.202007531439
1.53438235034
0.0208423525341
0.168938305958
0.892908011972
0.246593694459
0.143601129011
0.234461422106
0.0526511300843
0.213822039972
0.381522725117
0.341581486128
0.28114287463
0.237908102493
0.254376482665
0.276907836558
0.225168180142
0.423377046285
0.204876961369
0.0239303785078
0.0710236347162
0.317954985106
0.178957642609
0.178149189452
0.0934187187037
0.257506377711
0.123728831641
0.395847817943
0.141166249773
0.285006709519
0.491255158104
0.0225926934151
0.262965518419
0.225921942656
0.824873283716
0.040713732377
0.8153397795
0.167043488436
0.310078811656
1.09960389249
0.154292290115
0.66700025982
1.01292424361
0.284098385233
0.741658323623
0.302807781337
0.972390250168
0.430487149643
1.00120690298
0.777934557614
1.02265015461
0.933139842772
1.29116475663
0.526935633603
2.19956466973
0.439232397693
2.04645971072
0.260192659131
1.77219351892
0.438098393851
1.93943066838
0.0287705836953
0.520380554901
0.33747067434
0.0163383871305
0.233927318517
0.118251620505
0.0865850430155
1.47939457069
0.00882080413395
0.110304465563
0.181974848589
0.334602666445
0.321391016969
0.323163625429
0.965486215602
0.626643922737
0.107813179627
0.28193467226
0.267282743782
0.218525567093
0.111134075446
0.144333313132
0.825840432545
0.0507852544866
0.775143325027
0.0128826598503
0.214220611716
0.226450045531
0.311893224071
0.167052082111
0.2600167186
0.0391175324349
0.0565012991141
0.145032492523
0.272302353116
0.367699960536
0.308342598881
0.348399397413
0.46667192949
0.560466205656
0.513579385043
0.449491710297
0.166199259678
0.497265407297
0.393193047126
0.175211436221
0.504767538279
0.228578241776
0.435625671587
0.288042122493
0.337536331866
0.523817429789
0.264663685591
0.0177713024544
0.204682304476
0.0578042014749
0.438440405635
0.180686100724
0.282261706752
0.32290931836
2.50158366473
0.0243704185962
0.270793187316
0.0200167853615
0.0797238227518
0.0817586676485
0.0378070037504
0.0215890351762
0.0340991140669
0.0135656804265
0.0503596605013
0.0621754544905
0.0372221429059
0.0642323046575
0.0887873634725
0.0455197195869
0.0932689212727
0.212634470153
0.104017828741
0.0576297617247
0.126179121241
0.1988888718
0.27940194199
0.147868965333
0.123502230816
0.125556807577
0.278799635278
0.152824754235
0.21951931152
0.184754732578
0.268274179861
0.364955044035
0.375545094819
0.450443509798
0.483287548709
0.860007541188
0.585081848086
0.918897012244
1.12460002988
1.18431100984
1.27220875848
1.34183958827
1.24578495806
1.20384974256
1.15097315618
1.04671421557
0.93248028225
0.983863251545
0.568109064518
1.10734398381
0.414140621596
0.513283662468
1.14351910526
0.0154792267758
0.0783979010085
1.0391346798
0.0130371774846
0.386359728001
0.415933156632
0.645998202337
0.0825584380163
0.504851974731
0.034892998541
0.35067772094
0.457717813777
0.014249542869
0.163992161332
0.187320842667
0.291673707589
0.250799280678
0.514460534929
0.34208961319
0.0187368514386
0.198543773139
0.344859707082
0.291691082303
0.0406165091844
0.428160890493
0.122400848631
0.422725809462
0.0446902106764
1.16898265735
0.14949026601
1.77216105322
0.0649494410208
0.990398685907
1.32548166164
1.71551958989
1.82040676675
2.04853329117
2.24824664831
2.19509519701
1.76225449685
2.26219363173
0.465524934487
2.51642965805
0.0675645424605
0.188203932639
0.277887360237
0.224763513702
0.144679126284
0.0737558409999
0.219905143375
0.187478930025
0.0120299964927
0.274572823276
0.501522975337
0.107175185815
0.316241277536
0.0714410321235
0.298740830434
0.37579152076
0.529797164695
0.34114212391
0.371973867838
0.499013592392
0.680331778086
0.276069767179
0.521894385377
0.303669605784
0.473750221852
0.350035563204
0.245412632261
0.247692519303
0.251242094962
0.459614691293
0.244384020078
0.167910854426
0.230907830763
0.127842602527
0.0434689357278
0.117912908087
0.215087174431
0.186370661978
0.265878077962
0.132034583637
0.117860709572
0.129944839408
0.0949177584681
0.131984456519
0.133770234743
0.111083367793
0.131209613985
0.140248966863
1.0964369748
0.0179582986551
0.0112855850434
0.109032146101
0.189139537416
0.187871592333
0.183695345733
0.169168127438
0.239255052761
0.246297078643
0.102949650982
0.301815858282
0.33537824282
0.233680748278
0.372200616262
0.318052408589
0.350330885519
0.368758296976
0.395711555118
0.403153570792
0.386121670789
0.233079400868
0.40741399917
0.521100310245
0.594842637798
0.481903637006
0.478621809485
0.525288242465
0.500010633612
0.49557936043
0.532283397612
0.756847722767
0.517078313694
0.856276103914
0.505914211491
0.986394624549
0.491409508006
1.02566142533
0.514541874767
1.17246571274
0.53312550404
1.2028711834
0.497800717591
1.36774145425
0.457544324383
1.35756286588
0.527839765745
1.36295413318
0.681840592236
1.26486501915
0.889740897893
1.22958013667
0.810273401034
1.32428599221
0.926659130821
1.26763515794
1.127169038
1.14977330655
1.25769155637
1.01169966973
1.37617699493
1.01916824259
1.31612990317
1.11542544908
1.29389254846
1.11032370494
1.26913655348
0.992685058359
1.41758086197
0.978580200274
1.34237918874
0.862152917808
1.31949965779
1.04050539898
1.12149032796
1.12107131885
1.0107800745
1.16909192079
0.899349324701
1.17880624293
0.899199907946
1.10619578422
0.78711921192
1.09229934913
0.517107977069
1.26062570299
0.467194021022
1.15245760323
0.50063252438
1.01942856454
0.395376320412
0.807482678618
0.359810791339
0.878170480515
0.354941724722
0.459025097319
0.428596837218
0.425839804768
0.342322809395
0.342550889205
0.504777587779
0.34935455384
0.345046024032
0.271093074803
0.335298348613
0.262470141755
0.194367810157
0.152803122497
0.265612227887
0.179806579418
0.312791609051
0.317520232862
0.0775574863055
0.534881949364
0.0870961304721
0.138597236376
0.247893255221
0.319475586126
0.269709996166
0.00693473366361
0.163848414604
0.106134020765
0.335916460485
0.3758970431
0.0
0.0697135395979
0.0592602322138
0.0155062873257
0.0923619869538
0.0302137845425
0.106343730069
0.418435443958
0.121235912621
0.247847492297
0.0412179057745
0.0699831290881
0.120928365742
0.272140574832
0.373987075963
0.396393089346
0.32961317281
0.291782490446
0.453871095571
0.385341703078
0.435537951149
0.225911856163
0.348454704869
0.371945735655
0.264842073916
0.476411662639
0.439964975887
0.409767388572
0.32916897185
0.439149684196
0.202814149041
0.259767056384
0.33940736181
0.314105117749
0.0469608207928
0.0758148246832
0.361254579383
0.617979047204
0.502527613073
0.418684690025
0.313595640405
0.958219354025
0.375468312801
1.06126137939
0.282084569123
1.3152231435
0.332755675584
1.48188231944
1.1580303038
1.89327221655
1.5745078957
1.36007286377
1.88712920971
1.28715711671
1.49523837234
0.349818478228
1.41548904967
0.0906901440538
0.183142843629
0.547409738308
0.50378477521
0.661816200348
0.496157800821
0.501420314747
0.216144101957
0.307999587586
0.232454864885
0.40262736261
0.225771222414
0.205260295024
0.154185138618
0.196653151657
0.313572596365
0.244937614953
0.274539444366
0.237937189985
0.154926262046
0.201022452098
0.263125559616
0.360309179412
0.198620377827
0.162675862891
0.206570290506
0.325872075308
0.277729328655
0.129275636356
0.17935614879
0.100004059252
0.169201761233
0.171170322419
0.283980839819
0.275678179252
0.330076216006
0.21063912739
0.258131355529
0.329504186429
0.370453316705
0.308521643156
0.343678620679
0.445082212049
0.456511551206
0.545473822617
0.726053540421
0.723082478339
0.834823498414
0.575936539243
1.21802423274
0.721233567948
1.06936344561
0.519246625784
1.30538227372
0.426147242568
0.909440386422
0.454860368622
1.12658086674
0.267210081058
0.36176096062
0.491319692017
0.688073229464
0.143261381527
0.173366094112
0.120620831771
0.317570801547
0.234324235639
0.288583531287
0.140023322601
0.107563336485
0.192147761738
0.159769021378
0.227375815734
0.00258876259043
0.126110820756
0.235003753888
0.28131778883
0.44144438058
0.33645021303
0.482685865142
0.0286979994214
0.328780238024
0.736371483342
0.225621476005
0.419537332584
0.281005199003
0.455087564168
0.491939053868
1.2025573763
0.372833854584
0.744298315633
0.857634947138
1.38819069076
0.415462243593
1.46402079347
0.146020126803
1.77546685971
1.4908078311
0.19217906857
1.86210090121
0.324774068408
1.17395943613
0.377136008712
0.0284078955024
0.343974645944
0.00741511195535
0.335743399313
1.11989724199
0.492824962465
0.960531175057
0.334822422547
1.23259431668
0.0203646078761
0.263113175563
0.599119481285
0.46258867094
0.870236737612
0.358739972322
0.977311112459
0.583914694988
1.34349601246
0.402010989657
1.77181530264
0.612628124465
1.81764690943
0.443455071283
1.84795129092
0.00412027367065
0.38703929164
1.20917605194
0.316559387221
0.478535937609
0.556307047144
0.0555676426391
0.127056387719
0.962564456502
0.0350371129905
0.371553408127
0.863294946785
0.00416057802216
0.269699534945
0.452304311764
0.642742008599
0.077276958086
0.420367580808
1.03960703569
0.337596113489
0.577006872496
0.306437822824
1.04239479884
0.777533531922
1.3646942775
1.62826703757
1.8179949958
3.77331031276
0.46003801973
1.21633523645
3.77147843565
0.556544506838
3.61660686203
0.0148059248585
0.170530731884
0.289081621125
0.288246511818
0.104729964467
0.079366225885
1.17426606774
0.01628426667
2.14857129312
0.194803425113
0.236603759469
0.154212406347
0.240109826656
0.367924086246
0.293322831614
0.264067657472
0.407458410547
1.00554533368
0.0176957376521
0.201419610269
0.0672586239842
0.15623492032
0.395771357638
0.433421017879
0.335027431119
0.461852130017
0.318818949165
0.315552080288
0.200818471702
0.135170569701
0.193106374045
0.227541519305
0.186942113977
0.0342166600342
0.375539547977
0.845247703505
1.1619894
0.980272891129
1.7799124758
0.750377973358
2.3640838385
1.01573380872
1.82872611749
0.915186633811
1.63421589301
0.907256620726
1.143128725
0.234094456841
0.91017490476
0.500173869258
0.0981564702596
0.215138717273
0.549669721064
0.573354211251
0.479631057127
0.688410631315
0.275497258531
0.487006790536
0.340245889792
0.29936000216
0.273139524676
0.0715387952804
0.262342488827
0.907363583038
0.0189807321709
0.0330979376812
0.0464628596387
0.0369572620079
0.103370426144
0.693559372635
0.250238482913
0.313132210442
0.0308045163756
0.505874683292
0.261546004745
0.511767150734
0.324859297332
0.192766216662
0.704862345104
0.0567974101346
0.174254650057
0.186984841796
0.102330206672
0.024649731835
0.421407181415
0.129495215011
0.178799586431
0.0135423154432
0.0335645248323
0.517689223887
0.0226436647592
0.155287793115
1.03889316851
0.0843286692411
0.345712583125
0.405502957916
0.364489900604
0.283196184669
1.19056614549
1.50258203892
0.894537089424
1.93542734126
0.871776714002
3.46023561823
0.261353961856
3.43623836211
0.215420891985
2.9109006318
0.856997937964
1.17006495
0.111935675291
0.0157329681769
0.102872718483
0.0260471708054
0.130645941409
0.110013025905
0.487783336867
0.438113866426
0.0514623294989
1.46567839421
0.030611117302
0.115405053701
0.07370892653
0.172226009932
0.0762382784715
0.0793043384504
0.142629511272
0.038943447665
0.0438049545893
0.144937083746
0.157302069323
0.0526970426236
0.464930510912
0.414943481013
0.0327980003622
0.356015019866
0.283003669799
0.0300023307297
0.112354962072
0.0142643549984
0.0171901028365
0.0514966933972
0.18138287129
0.307541989124
0.345609234315
0.281202946933
0.201610760695
1.20986465927
0.00644263618536
0.343516697445
0.463677481228
0.677578504616
1.05703133386
0.391972815698
1.5552126914
1.52222984008
1.87348617441
3.106891208
1.81230008249
2.44523248632
1.74479811083
1.21522779234
1.70952411287
0.288887432482
1.51368328286
0.0801378612507
0.226811234296
0.373181132094
0.455781686786
0.598054887579
0.656879975792
0.734941519137
0.710045892435
0.53762421939
0.798473046347
0.833091981424
0.437719223482
0.722740717875
0.627866551854
0.671598979413
0.404105967617
0.439296181881
0.356783468471
0.173160082126
0.192134907101
0.420496848699
2.03682425201
0.0310462887909
0.463467647512
0.0198567936579
0.0636126768934
0.067097309484
0.0956569594854
0.141155751257
0.117506473708
0.122930855924
0.113095320782
0.090864282588
0.122239450664
0.102937505516
0.0921778251641
0.129693567787
0.114222334958
0.109115275746
0.132397343794
0.118244999001
0.114344444048
0.0792455243759
0.155222022491
0.0202805828587
0.0533546361514
0.132222710656
0.126956374504
0.142520604741
0.136412031773
0.155665812053
0.129019308935
0.135722941112
0.149342042834
0.137097445563
0.149022532365
0.135741552463
0.164163172101
0.135053095119
0.145186790123
0.164055475377
0.180137351365
0.17433833409
0.168291759487
0.177603047778
0.204620968827
0.144970048937
0.154161211887
0.162575612821
0.156807445499
0.153880074067
0.172714350511
0.192118637779
0.150148070385
0.1725930869
0.151783736084
0.219816867246
0.183769927452
0.156843393036
0.159611859086
0.171860933238
0.0788808617937
1.29328514776
0.510030066504
2.08403622963
0.964917197021
2.45294016771
3.77122862905
0.244040540117
1.84426500634
1.20302508079
0.185835457678
0.505082814843
0.588038165505
0.402931780118
0.520184515153
0.445457979444
0.478002418932
0.530701225055
0.516311919547
0.532131844684
0.738389793681
0.50672999096
0.90621874858
0.499128957921
0.907634721448
logs/alpha_8.0/PGSD_800steps_0.log 510.522645215 0.510522645215 0.328974604937 3.77331031276 0.0 -1
