Policy Parameters:	-0.960951128823 0.762530269134
Control Steps:		1000
Start Time:		1442472724.09199

-- TESTING STOPPED --

Stop Time:		1442472750.2257063
Duration:		26.133716344833374
Cost Matrix:
0.0683861083665
0.113028868067
0.114256558052
0.0845894270089
0.0348458418556
0.0136691264319
0.0820184381954
0.0645846059711
0.0738463748068
0.0916490680985
0.0748204864706
0.048782514746
0.0287793567983
0.0408246435198
0.0466851075108
0.0330896887939
0.0665544054471
0.0823466745671
0.0534920737883
0.0302694636007
0.0134270985283
0.0112054493062
0.0403417978098
0.0493662739322
0.0598368401186
0.0781389667618
0.0950915945026
0.102812085432
0.091980404676
0.122456827775
0.18732358176
0.211153198057
0.206616981924
0.33347697789
0.368013508274
0.285384875087
0.29132172737
0.327696692263
0.30029541986
0.269114776171
0.279490531471
0.2843743559
0.297504533255
0.300430959756
0.310244605281
0.325052753637
0.315212218906
0.327062494635
0.319537324173
0.297839249025
0.348542045846
0.357529345603
0.285819838407
0.246745521889
0.34777153182
0.293971095861
0.0503162325368
0.0549822825988
0.0544524417469
0.026949732173
0.0448486398744
0.0400052919095
0.0201525518766
0.0587104893752
0.0452517699597
0.0118076587973
0.00430388527884
0.0528609229179
0.106341514861
0.123070160577
0.0895294762405
0.050281598604
0.0682249407496
0.0786529766152
0.0976015029943
0.100476825725
0.163265161501
0.164520975755
0.13505376402
0.133433996749
0.132095810595
0.154880610522
0.159352219458
0.173547238981
0.194805822843
0.185237043951
0.219922405135
0.268249662439
0.286992837581
0.318887866729
0.379596523334
0.422484228771
0.460969637546
0.525154635313
0.540290197774
0.608480548695
0.681163873842
0.679001509792
0.634609062593
0.635753838018
0.72527542256
0.748529550861
0.827086060245
0.902313301099
0.585105421693
0.58051507671
0.578785450669
0.544204777414
0.467453505927
0.342041266786
0.0959329833446
0.0620152863389
0.0508048484419
0.0545639072488
0.0399573272484
0.0223454026729
0.013664539234
0.00666059147523
0.00395768875594
0.0248058886023
0.0224033043285
0.00965274678844
0.0360412967961
0.086790135205
0.0724628117376
0.039879693641
0.0249278213991
0.0513846577396
0.0394655472411
0.00342651427186
0.0159624899118
0.0301844235819
0.0434877800369
0.0154326748732
0.0460671214994
0.0331969681579
0.0340431350255
0.0290546476403
0.0321042320404
0.0169171856925
0.0227540711599
0.0341106424103
0.0513823258456
0.0388827201081
0.0253816450997
0.0312603942553
0.0478181728397
0.0615678535994
0.0900896022871
0.101693931787
0.0855423207207
0.115930956706
0.132068948256
0.146987537041
0.197609486968
0.256114296646
0.325022961705
0.360327881465
0.447262871285
0.573496178587
0.67993539883
0.773612291582
0.944215257573
1.04782445503
0.86211069387
1.14708280383
0.91367974052
0.868134044139
1.32741121988
0.462589644746
0.330276163848
0.287961736961
1000000.0
0.0
0.0
0.0
0.0
0.0
0.0
0.0
0.0
0.0
0.0
0.0
0.0
0.0
0.0
0.0
0.0
0.0
0.0
0.0
0.0
0.0
0.0
0.0
0.0
0.0
0.0
0.0
0.0
0.0
0.0
0.0
0.0
0.0
0.0
0.0
0.0
0.0
0.0
0.0
0.0
0.0
0.0
0.0
0.0
0.0
0.0
0.0
0.0
0.0
0.0
0.0
0.0
0.0
0.0
0.0
0.0
0.0
0.0
0.0
0.0
0.0
0.0
0.0
0.0
0.0
0.0
0.0
0.0
0.0
0.0
0.0
0.0
0.0
0.0
0.0
0.0
0.0
0.0
0.0
0.0
0.0
0.0
0.0
0.0
0.0
0.0
0.0
0.0
0.0
0.0
0.0
0.0
0.0
0.0
0.0
0.0
0.0
0.0
0.0
0.0
0.0
0.0
0.0
0.0
0.0
0.0
0.0
0.0
0.0
0.0
0.0
0.0
0.0
0.0
0.0
0.0
0.0
0.0
0.0
0.0
0.0
0.0
0.0
0.0
0.0
0.0
0.0
0.0
0.0
0.0
0.0
0.0
0.0
0.0
0.0
0.0
0.0
0.0
0.0
0.0
0.0
0.0
0.0
0.0
0.0
0.0
0.0
0.0
0.0
0.0
0.0
0.0
0.0
0.0
0.0
0.0
0.0
0.0
0.0
0.0
0.0
0.0
0.0
0.0
0.0
0.0
0.0
0.0
0.0
0.0
0.0
0.0
0.0
0.0
0.0
0.0
0.0
0.0
0.0
0.0
0.0
0.0
0.0
0.0
0.0
0.0
0.0
0.0
0.0
0.0
0.0
0.0
0.0
0.0
0.0
0.0
0.0
0.0
0.0
0.0
0.0
0.0
0.0
0.0
0.0
0.0
0.0
0.0
0.0
0.0
0.0
0.0
0.0
0.0
0.0
0.0
0.0
0.0
0.0
0.0
0.0
0.0
0.0
0.0
0.0
0.0
0.0
0.0
0.0
0.0
0.0
0.0
0.0
0.0
0.0
0.0
0.0
0.0
0.0
0.0
0.0
0.0
0.0
0.0
0.0
0.0
0.0
0.0
0.0
0.0
0.0
0.0
0.0
0.0
0.0
0.0
0.0
0.0
0.0
0.0
0.0
0.0
0.0
0.0
0.0
0.0
0.0
0.0
0.0
0.0
0.0
0.0
0.0
0.0
0.0
0.0
0.0
0.0
0.0
0.0
0.0
0.0
0.0
0.0
0.0
0.0
0.0
0.0
0.0
0.0
0.0
0.0
0.0
0.0
0.0
0.0
0.0
0.0
0.0
0.0
0.0
0.0
0.0
0.0
0.0
0.0
0.0
0.0
0.0
0.0
0.0
0.0
0.0
0.0
0.0
0.0
0.0
0.0
0.0
0.0
0.0
0.0
0.0
0.0
0.0
0.0
0.0
0.0
0.0
0.0
0.0
0.0
0.0
0.0
0.0
0.0
0.0
0.0
0.0
0.0
0.0
0.0
0.0
0.0
0.0
0.0
0.0
0.0
0.0
0.0
0.0
0.0
0.0
0.0
0.0
0.0
0.0
0.0
0.0
0.0
0.0
0.0
0.0
0.0
0.0
0.0
0.0
0.0
0.0
0.0
0.0
0.0
0.0
0.0
0.0
0.0
0.0
0.0
0.0
0.0
0.0
0.0
0.0
0.0
0.0
0.0
0.0
0.0
0.0
0.0
0.0
0.0
0.0
0.0
0.0
0.0
0.0
0.0
0.0
0.0
0.0
0.0
0.0
0.0
0.0
0.0
0.0
0.0
0.0
0.0
0.0
0.0
0.0
0.0
0.0
0.0
0.0
0.0
0.0
0.0
0.0
0.0
0.0
0.0
0.0
0.0
0.0
0.0
0.0
0.0
0.0
0.0
0.0
0.0
0.0
0.0
0.0
0.0
0.0
0.0
0.0
0.0
0.0
0.0
0.0
0.0
0.0
0.0
0.0
0.0
0.0
0.0
0.0
0.0
0.0
0.0
0.0
0.0
0.0
0.0
0.0
0.0
0.0
0.0
0.0
0.0
0.0
0.0
0.0
0.0
0.0
0.0
0.0
0.0
0.0
0.0
0.0
0.0
0.0
0.0
0.0
0.0
0.0
0.0
0.0
0.0
0.0
0.0
0.0
0.0
0.0
0.0
0.0
0.0
0.0
0.0
0.0
0.0
0.0
0.0
0.0
0.0
0.0
0.0
0.0
0.0
0.0
0.0
0.0
0.0
0.0
0.0
0.0
0.0
0.0
0.0
0.0
0.0
0.0
0.0
0.0
0.0
0.0
0.0
0.0
0.0
0.0
0.0
0.0
0.0
0.0
0.0
0.0
0.0
0.0
0.0
0.0
0.0
0.0
0.0
0.0
0.0
0.0
0.0
0.0
0.0
0.0
0.0
0.0
0.0
0.0
0.0
0.0
0.0
0.0
0.0
0.0
0.0
0.0
0.0
0.0
0.0
0.0
0.0
0.0
0.0
0.0
0.0
0.0
0.0
0.0
0.0
0.0
0.0
0.0
0.0
0.0
0.0
0.0
0.0
0.0
0.0
0.0
0.0
0.0
0.0
0.0
0.0
0.0
0.0
0.0
0.0
0.0
0.0
0.0
0.0
0.0
0.0
0.0
0.0
0.0
0.0
0.0
0.0
0.0
0.0
0.0
0.0
0.0
0.0
0.0
0.0
0.0
0.0
0.0
0.0
0.0
0.0
0.0
0.0
0.0
0.0
0.0
0.0
0.0
0.0
0.0
0.0
0.0
0.0
0.0
0.0
0.0
0.0
0.0
0.0
0.0
0.0
0.0
0.0
0.0
0.0
0.0
0.0
0.0
0.0
0.0
0.0
0.0
0.0
0.0
0.0
0.0
0.0
0.0
0.0
0.0
0.0
0.0
0.0
0.0
0.0
0.0
0.0
0.0
0.0
0.0
0.0
0.0
0.0
0.0
0.0
0.0
0.0
0.0
0.0
0.0
0.0
0.0
0.0
0.0
0.0
0.0
0.0
0.0
0.0
0.0
0.0
0.0
0.0
0.0
0.0
0.0
0.0
0.0
0.0
0.0
0.0
0.0
0.0
0.0
0.0
0.0
0.0
0.0
0.0
0.0
0.0
0.0
0.0
0.0
0.0
0.0
0.0
0.0
0.0
0.0
0.0
0.0
0.0
0.0
0.0
0.0
0.0
0.0
0.0
0.0
0.0
0.0
0.0
0.0
0.0
0.0
0.0
0.0
0.0
0.0
0.0
0.0
0.0
0.0
0.0
0.0
0.0
0.0
0.0
0.0
0.0
0.0
0.0
0.0
0.0
0.0
0.0
0.0
0.0
0.0
0.0
0.0
0.0
0.0
0.0
0.0
0.0
0.0
0.0
0.0
0.0
0.0
0.0
0.0
0.0
0.0
0.0
0.0
0.0
0.0
0.0
0.0
0.0
0.0
0.0
0.0
0.0
0.0
0.0
0.0
0.0
0.0
0.0
0.0
0.0
0.0
0.0
0.0
0.0
0.0
0.0
0.0
0.0
0.0
0.0
0.0
0.0
0.0
0.0
0.0
0.0
0.0
0.0
0.0
0.0
0.0
0.0
0.0
0.0
0.0
0.0
0.0
0.0
0.0
0.0
0.0
0.0
0.0
0.0
0.0
logs/alpha_8.0/PGSD_600steps_0.log 1000039.21431 1000.03921431 0.0 1000000.0 0.0 172
