Policy Parameters:	-56.1454062889 50.3275002392
Control Steps:		1000
Start Time:		1442487370.9023855

-- TESTING STOPPED --

Stop Time:		1442487672.4748654
Duration:		301.5724799633026
Cost Matrix:
3.77123982691
2.01009803733
3.7711928316
1.10135071676
0.0539380890785
3.34214896375
0.0275022959372
2.8506048981
0.218315180696
2.61019098531
0.0
0.242294094462
3.02753050435
0.0472445871262
3.5612998876
0.166841283252
3.77117392197
0.0
0.0402130086985
2.02847834894
0.0592072377864
1.27549682091
3.77137606973
3.09308923501
0.0120988232577
3.62850658299
0.0772191610198
0.134680848241
0.100923688542
2.71704006851
0.0401157008555
3.15345505533
0.00168193783864
0.190675604209
3.62937916869
0.120666157513
3.77117392197
0.0123109345737
0.847845537116
0.0179266931583
1.4014094557
0.0207643505075
1.89235551318
0.0061951677768
0.335079328939
1.11554710517
0.0439417997761
3.36344618481
0.0374820032685
3.00311365422
0.0162772878705
1.72091886077
1.84375035974
3.64044866779
2.83179228192
0.0810020588282
3.77605563157
3.77161342328
3.75214276072
3.52979324258
0.0410779238725
3.28825036497
3.35842094993
0.0824147342613
3.77117426139
0.226027131869
3.77117392197
0.0625309425945
3.77117426139
0.174050963267
3.78357740372
3.77117426139
0.232489803128
3.77117392197
0.0207889212497
2.17862522911
2.18124495316
0.0462621862703
3.04383138908
0.0205594696489
1.36485909693
3.21561500964
3.77117426139
0.041766700687
2.96490636873
0.0218507235448
2.37234359231
0.0731593426407
3.77117392197
0.117642976327
3.77181994007
3.77117426139
0.021087678885
2.13211815763
0.0
0.310462135342
3.77117426139
0.0751098662176
3.77117392197
0.0242504114544
1.72350828379
2.7235227033
0.138964995668
3.77151981199
3.32058289272
0.0804132349518
3.77117426139
0.0385541825383
2.68070934371
0.0119520780229
1.28400841993
0.34557924362
3.76925657356
2.36203798155
0.159847962329
3.77117392197
0.00459756037136
0.182241120324
2.5391737152
0.0646023917777
3.77117392197
0.107388655491
3.77117426139
0.00400228549506
0.159115662846
0.931394980782
0.01126010161
1.06732126106
0.0364982569841
3.07533218237
0.00934079840776
1.13992898304
3.07435506975
0.0205762613401
1.42640679452
0.0243266905865
1.75527594494
0.0
0.0981829505113
3.7713202484
2.74829571921
0.0478876229561
3.01255317123
0.00963457133469
0.362718598161
0.0123600735976
1.40813856941
0.017099360463
1.42158276043
0.031722643015
2.24228207547
0.0229998791251
1.37840228957
0.0159307826467
1.94656669606
0.0566149852789
3.68372328068
0.0271863188726
2.61051648677
0.0
0.347639728937
3.77117426139
0.0107341205086
0.668941851274
1.33966814184
0.045077719011
3.16047625625
0.0237036629907
2.37190969552
0.0367632787907
2.63224170699
3.77117392197
0.093982911082
3.77117426139
0.0150651854871
0.784323957666
0.0196930181298
2.11286178017
0.0725324958994
3.77117392197
0.0982513426495
3.77117426139
0.0122776577399
0.731667986047
0.00747566718946
0.152722518054
3.77117392197
0.0479823100267
3.72366345871
0.0186735516189
1.50375894041
0.0112257653342
0.858210696381
0.048597616276
3.7742552252
3.77117392197
0.0393706573127
2.86405142786
0.0138747490348
1.44891754452
0.0206668295414
1.69985935265
0.0123549470506
0.726276355607
0.00225578321735
0.33883519
2.06148942312
0.0413739043479
3.44402291605
0.00923123404317
0.388505108724
2.61014773712
0.00726056356116
0.390599588073
0.514777273538
1.11763415358
0.00982253088964
0.417556807617
2.54420763502
0.00857969406897
0.392534500844
2.02239006862
0.0138807468275
1.11676167376
0.343725695577
3.77380018146
3.77117426139
0.0142204857184
1.03476495925
0.0
0.238463602946
0.454499985044
2.50944274551
0.0152563022168
0.509938356093
1.88851540507
0.0336753907451
2.52191180927
0.0351762867022
3.10898214536
2.28441012704
0.0519924169591
3.49581521789
1.23628024363
1.05250042783
0.00962194596244
0.439882564452
3.77117392197
0.0419066906018
2.86641723301
0.0810318896356
3.77243681178
3.77155095238
3.77117426139
0.00866243029906
0.169107349699
3.77117392197
0.00536948081529
0.415859446126
2.24473800062
0.0152024760586
1.78717457424
0.0276532652654
2.53409918294
3.77117426139
0.0451450568426
2.71252709801
0.137313120603
3.77117392197
0.0248461881291
2.47693385982
0.0177933756883
0.777095731561
2.096026971
0.000678087074719
0.0195492217667
0.280993347843
1.6678461731
0.00242498076775
0.144976375568
0.046628996091
3.47182883632
3.77119770663
1.25237780264
0.0832306193071
3.77183069713
3.77117426139
0.112677840876
3.77214193173
3.77117426139
0.0737357884891
3.77117392197
0.00431849120692
0.516609884649
3.5414680808
1.24395036639
2.70067275896
2.84058760743
2.28065717191
3.77117392197
0.0670549212055
3.7712234858
1.77939042276
0.0328797239528
2.45998664387
0.0060879561189
0.71529029728
0.00139100454673
0.0513219257533
3.65528611069
0.0
0.236614811578
3.77117426139
0.145541507085
3.77117392197
0.0
0.285754161729
3.77117426139
0.0529441687789
3.54024518905
0.146901830677
3.77139861427
3.21212794544
0.500764858921
3.77355421899
3.77117426139
0.130341117901
3.77117392197
0.031523952504
2.21769841238
0.0600232458979
3.7993963651
3.77117426139
0.0613691175927
3.77122179148
1.7525414369
1.71596039102
0.0189209707545
1.26597724949
2.61843903959
0.0130227581428
0.514855206507
3.77132994265
2.81480505237
3.10766107391
0.036919321656
3.27840191703
0.0617713507852
3.77117392197
0.0553446846629
3.77145722104
3.21779827662
0.0176337284571
2.11757117495
0.0178339189491
1.04779535076
3.23959419841
1.47374098352
3.77320481835
3.77117426139
0.0734960584956
3.77158078954
3.65381710401
3.7754413124
3.77117426139
0.0614389617025
3.77117392197
0.0735280222703
3.77117392197
0.0488457136172
3.77117426139
0.0578355051971
3.71046784868
0.0346135818271
3.19462014854
0.030220579636
2.10917514426
0.0411928911215
2.79517219985
0.038565262865
3.39314877811
0.0290310792757
1.95995143075
0.0146863218214
1.92741429924
0.0193493482415
1.12112179825
3.67291481644
3.7712923065
2.53698071688
0.0775370804142
3.77117392197
0.0251024934161
1.77125610238
0.00139532630938
0.511111746589
3.77117426139
0.0493727536855
3.20016866155
0.0503566492828
3.35310987366
3.77117426139
0.0228583156533
1.38186941458
2.8532897266
0.00655590405721
1.24671651262
3.77117426139
0.0676383461061
3.77117392197
0.000364292505567
0.295576333736
3.77117426139
0.0857909117415
3.77117392197
0.00169437566302
0.202529764602
2.69584336206
0.0130277680725
1.8659704975
0.0539746557789
3.42881920655
0.0176048803924
0.998038812166
3.03486958034
0.0109219270211
1.47575241769
0.00610060850478
0.963779192974
0.025564500824
1.89514688704
0.0525744011762
3.77117426139
0.0431703099899
2.89717597085
0.0157457986325
0.815469377851
3.40012116201
3.77119613755
1.20699003164
0.132528145164
3.77117426139
0.10042077624
3.77117392197
0.016928213315
0.777909573634
3.77141755886
3.30543513145
0.23919128671
3.77117426139
0.072873875096
3.77117426139
0.0675595312561
3.77117392197
0.0705142260606
3.82183781526
3.77117426139
0.105250647925
3.77744757343
3.77117426139
0.0673893260364
3.77117392197
0.0538036116345
3.45552871095
3.79734212593
3.77138937749
3.16449100979
0.491997970603
3.77119442053
0.997045699012
5.02291388502
3.77117426139
0.0938194821688
3.77117392197
0.0595891026338
4.05407968372
3.7712359509
1.96594858936
3.77117426139
0.106704872758
3.77117392197
0.0617466005607
3.77120083087
1.33715330967
3.77412979787
3.7712574954
2.01255487289
2.10364168047
2.01501293728
1.67998550987
2.65888846911
0.0634164838208
3.77117392197
0.074761766222
3.77344452646
3.77786372011
3.77117426139
0.0593579905667
3.44127140348
1.29181056161
3.77117392197
0.0400508727676
2.72318680725
0.0100342977099
0.381101144055
3.7715232582
3.74611510112
0.0262063879551
1.462296999
0.601154586163
3.77118550912
0.797416966721
3.77124967742
2.1275363681
0.0592386265408
3.77117392197
0.0446539974841
3.72783493968
0.443758031651
0.492679990327
0.038412005104
2.70643339805
4.37988542813
4.11687506766
3.77117426139
0.0718785573612
3.77117392197
0.0860798493524
4.01869790717
3.77117417776
0.391539018607
0.00758982724422
1.15863980528
1.70244063335
0.0791078543437
3.77117392197
0.0223669245368
1.57914885034
3.17574595055
0.0472882117089
3.80681316906
3.77117392197
5.85112657141e-05
1.07505078453
3.7713002432
2.38674267595
3.77117392197
0.0363178865657
3.40708836823
0.0868386909315
3.77117392197
0.0436572528373
3.638391199
0.102131516806
3.77117392197
0.0390282332674
3.3602312217
3.77119524472
1.18259243575
3.77117426139
0.082395334849
3.77117392197
0.0692319668863
3.77174981976
3.7739125657
3.77179890412
3.7728705941
3.79359423893
3.77589027753
3.78325188715
3.77121937692
1.53751483772
3.77211366527
3.77117392197
0.136493302027
3.77117426139
0.0314159663762
2.30355778633
0.102584192386
3.77973544451
3.77117392197
0.00207768373751
0.0776598222702
3.77117426139
0.0352304138395
2.1038967479
3.77117392197
0.0203483467465
1.94864611014
0.0320179402065
2.73197487114
0.0379157758318
2.68104740314
0.0134065264373
0.761511901387
0.485359712134
2.19457493583
3.42386631134
0.855788961341
2.8455607331
0.0462594092658
2.88167304837
0.0160243599165
1.73842216191
0.482154621311
3.43789325673
0.0864792540604
3.77197864703
3.77117426139
0.018916847264
3.77253210855
3.77117744235
0.339869171905
0.240045210187
0.0423064478837
1.46374641934
0.00688184151682
0.52476391911
3.77502067413
3.77169286732
3.77117426139
0.147284768342
3.77117392197
0.103945143965
3.77161599485
3.64807227993
0.00305936676734
0.216657499244
1.72796336238
0.054724099414
3.77117426139
0.0238871118077
2.241505437
0.0416639202164
3.37935614308
0.0590942045525
3.77117426139
0.218445197908
3.77117392197
0.0622486190585
3.77120953392
1.5319703458
0.252623504832
3.77403705635
3.77117426139
0.273187719665
3.77117392197
0.0100520762908
1.39887615975
3.25440460311
0.232908929897
3.77117392197
0.0258861901144
2.52826142318
3.77117426139
0.289797172586
3.77117392197
0.0131593571806
0.494712138423
3.77117392197
0.0951563643545
3.77117426139
0.0238702439381
1.68877364789
0.0336341468524
2.42879972386
0.0175450688771
1.99497791642
0.00627769027491
0.192532265735
3.57315455072
3.77117426139
0.0274325220154
3.77120766564
1.85551126523
0.0558822234675
3.56801657651
0.366980828363
3.36255807695
0.0535613805272
3.46022376964
3.77117426139
0.0434454945314
2.83437991216
0.500584161447
3.77117392197
0.0349291192804
2.48138445521
0.029012273733
2.17796802846
0.0148976166958
0.990143027637
2.22736858632
0.0672605724563
2.0386141022
0.000467898736399
0.164627003962
3.10235571771
0.0102745808776
1.3266470503
3.21107692941
2.02716641338
3.77117426139
0.0579453306367
3.65567135183
3.77117392197
0.0
0.322288601693
2.52034093534
0.0105890471877
0.396005298399
3.50546835785
3.77162787784
3.77117426139
0.0316386806342
2.14842350258
0.391727334317
3.77117392197
0.000906647501323
0.451107647938
3.77117426139
0.037999333831
2.55513390736
0.00503106748264
0.0465005295977
3.08749343739
0.040591538714
3.45526416695
0.0318900346933
2.17608695522
0.0324082154158
2.27082999954
0.0182767636906
1.18251939918
3.33104462404
0.965264957367
3.77117426139
0.0251350757822
1.7423246308
1.8040068171
0.0805282890644
3.77117392197
0.0
0.172119845695
3.77117426139
0.00616757683976
2.41639610752
0.0196531769193
1.30827915292
3.06657712607
0.0121344810563
0.445226329581
3.77117426139
0.0177274523897
1.01201043353
3.77140686516
3.25345990522
0.445599878143
3.77117426139
0.0201704181451
1.15127135379
3.77117392197
0.0093673997389
0.337830007631
3.77120526518
1.27497367919
2.67944276404
0.0469306125164
3.78718770952
3.77117426139
0.00999859284338
0.288439939549
3.77117392197
0.0160594635597
1.0656593826
2.08534054101
0.035358917042
3.20199361781
0.00257881991271
0.483833714121
3.77117426139
0.0333392994873
2.11947263696
1.29966318253
3.04516981335
0.254893692274
3.77161519089
3.63749367323
0.111383151787
3.77242448743
3.77382748851
3.77333701038
3.7913660217
3.77263364225
3.77117426139
0.059621480637
3.77244915197
3.77117392197
0.068445162649
3.78698268451
3.77172284377
3.77168993073
3.77398520254
3.77342409086
3.77117392197
0.0435043513108
3.63488167071
3.77261256792
3.77320371333
3.77160244399
3.71920933159
0.0632588999029
3.77119091434
1.0320883982
0.196911435558
3.77288377818
3.77117392197
0.0633883649048
3.77117426139
0.0674159486763
3.76742988464
0.0641448415074
3.77117426139
0.0571944485041
3.39161526901
0.0981407478284
3.77117426139
0.088240040269
3.77117392197
0.135181301489
3.77117426139
0.0688453621766
3.77149762273
3.64918849728
0.0089602405236
0.215983138657
0.207934690739
0.0729125130367
3.77117426139
0.117224042972
3.77117392197
0.0485800237948
3.60667261582
0.0846782912869
3.77117392197
0.0659938206313
3.77117426139
0.0425363421611
2.81018001864
0.0426313737841
3.29256645836
0.265031855287
3.77117392197
0.00564433330398
0.458724160994
3.49204649678
0.0
0.0335172924076
2.68239527063
0.0279031347163
2.54809941771
0.037457549646
3.19063745295
1.5837589271
2.81372026878
3.58632317105
0.0493040919065
3.77130798211
2.43537930338
0.0178220556714
1.04727256881
2.08449583752
0.062853858211
3.77117426139
0.162472599143
3.77117392197
0.0549412520846
3.77117426139
0.0391185566826
2.8254458779
0.0243704854217
2.50656655908
0.0543830313138
3.60677107578
0.0383992447433
3.26938252187
0.00776432660509
0.26270930667
3.77117392197
0.089793370525
3.77117426139
0.0508624829718
3.44252694223
0.0541118755317
3.7712530556
1.96671359545
0.0440869336621
3.08106344298
0.0415348646436
3.4544872371
0.0296015092008
2.13460374775
0.0
0.20609961864
0.0533608495379
1.92047494946
0.026261008172
1.90686101472
0.0363546704988
2.64376803189
0.0270960470728
2.58499279072
0.0361712777437
2.68121281296
0.0105971005402
1.32967715336
0.0314348349822
2.41358309917
0.0559815004997
3.77117426139
0.046509891536
3.23187644899
0.0122318785942
1.50199885464
0.0476713172294
3.28898734244
0.0259764694502
2.40882391204
0.00264969757504
0.428521095588
0.0300229225133
2.32750837211
0.0177356176814
1.47350767471
0.0215809534422
1.76682616914
0.0143437824792
1.49376982166
2.21498201883
3.77117426139
0.0483180339682
3.3204940086
0.0533813149369
3.77121845631
1.69720997824
0.026156952678
1.87283392659
0.0430460582644
2.96846453699
0.0396388503754
2.8713793809
0.0232269271008
1.82276781813
0.00939662542854
1.1257322382
0.0105834527689
1.28166460184
0.200702827331
3.22137250836
0.00363586185497
0.0309905970578
1.3799450942
1.69545944604
0.0418054175526
2.9678870006
0.00323456672752
0.096527442119
2.0384280913
0.000359415157724
0.283250530011
3.77183592588
3.77195170831
3.77117392197
0.0
0.304508613684
3.77118639709
0.661487029103
3.77117392197
0.00292522997812
0.0686480070763
0.286087720726
3.77120098862
1.33971682642
1.1101016111
0.00967994591934
0.39900081358
1.92145131891
0.028545823633
2.61210613307
0.0240950339623
1.8272462822
0.001904417855
0.0468719363235
1.95516399208
0.0168842487479
1.35512409895
0.0389731467888
3.194641584
0.0137700790976
1.66883172815
logs/alpha_8.0/PGSD_900steps_3.log 1689.15284742 1.68915284742 1.34742046269 5.02291388502 0.0 -1
