Policy Parameters:	-1.67406366284 1.30257771145
Control Steps:		1000
Start Time:		1442469889.8131843

-- TESTING STOPPED --

Stop Time:		1442470038.5737064
Duration:		148.7605221271515
Cost Matrix:
0.0783349050217
0.0811096890285
0.102854720816
0.138222305638
0.0284546390569
0.0283065299413
0.0636305096702
0.0724072331897
0.0302509815907
0.0607266647625
0.0540699067542
0.0262400627951
0.0547158778571
0.11299320385
0.118512033773
0.101699316362
0.159714414315
0.0733873953174
0.118414346265
0.0328220240154
0.0627448225375
0.0326605165615
0.0316441686977
0.0226099473344
0.00716072722895
0.0581654947206
0.076048996137
0.0837127407559
0.10122024146
0.0500811936524
0.0694146105292
0.0946903633136
0.117259532245
0.116111950198
0.104391587649
0.0912210685552
0.0570152846081
0.083014312822
0.0918610244376
0.0967485955805
0.0605636721637
0.0264950633842
0.070060116965
0.0899716302066
0.0592240708635
0.0805741055597
0.060558341609
0.0460882226728
0.0680700633874
0.0960459369388
0.138078974086
0.070649123865
0.0903266927872
0.146235334372
0.20164835571
0.232107936634
0.271223576777
0.367932337057
0.508909361761
0.670329778765
1.00484205688
0.911619077811
0.985091824031
1.40529240149
1.27939540062
1.49327370904
1.07970333964
0.988378576362
0.304576418591
0.426216795523
0.433623055551
0.447337985979
0.48987780382
0.535849967083
0.588149012372
0.600539021382
0.585741680881
0.524068449443
0.325172383118
0.311924169274
0.19259720326
0.1250948624
0.1927934423
0.2145122935
0.234084615138
0.225907561166
0.249733746571
0.218628373526
0.17927093572
0.198011812986
0.208392725021
0.15991136376
0.134322490633
0.177474945772
0.180242155679
0.101665559935
0.0745190329279
0.0136637832011
0.0138811769198
0.0118319282726
0.0135109288732
0.0461379881596
0.0587825942779
0.0554102359506
0.0913596710895
0.0319439789426
0.0421625103647
0.0316076390007
0.0196762808522
0.0288590929649
0.0314037437009
0.0679739874631
0.136216065297
0.113825293823
0.133914816102
0.0684559599595
0.0802966991341
0.112643640175
0.147818374057
0.0712693239622
0.114295413589
0.1695490164
0.161493362231
0.157973175209
0.11344484986
0.118524072233
0.216935938221
0.244557685374
0.183932568256
0.164335255607
0.205265797445
0.168293645482
0.199948334924
0.177313271298
0.24190559747
0.157734644936
0.196813124442
0.197163854364
0.194933247873
0.137442957559
0.165632340021
0.244368589762
0.260912634394
0.16312559594
0.177047872752
0.124490412962
0.106122156951
0.0957120524479
0.11566936565
0.114901063941
0.0541673401527
0.0439989208383
0.0443828318715
0.0223173481014
0.0153672631577
0.022405784329
0.0793296482242
0.111295225258
0.0787651031687
0.0675943681161
0.0619742806396
0.0486182370961
0.0857302803859
0.0440384302246
0.0547082576821
0.0868522969774
0.10387495927
0.0822330904293
0.107790608626
0.132480269267
0.106047278288
0.111231294493
0.10524478674
0.140475170689
0.158152603302
0.197355247198
0.229720449708
0.230212472515
0.296455168816
0.416547280857
0.540825405274
0.612056594724
0.664132677148
0.748670823131
0.815467352828
0.804174866001
0.740019902764
1.16101647981
0.894302278892
1.29034917589
0.836304408647
1.20789254515
0.784648966718
1.11932105896
0.486212753382
0.546760625756
0.226544267801
0.10197700909
0.00917716358073
0.0101224130934
0.0292062264619
0.0194954746796
0.0172389794093
0.0296616601133
0.0466001225346
0.0529823788025
0.0398417599171
0.044248902809
0.0173652460327
0.0161873234178
0.0238433578271
0.0194988110831
0.0511840756931
0.0794663046976
0.108304885493
0.104634420943
0.117836182712
0.138270695226
0.142795647075
0.129339865142
0.104913217115
0.061579695624
0.014202700039
0.0083712441273
0.0466045336116
0.0742198505153
0.0615255924157
0.0455030367516
0.0326318637731
0.0240604569352
0.0143467200857
0.00783797137866
0.0825947057831
0.188929700643
0.233540074419
0.269792841395
0.320874068694
0.388942355057
0.469060703896
0.553581793604
0.735075377453
1.05188668228
0.96771528097
1.21164952423
1.12024842364
1.49833606296
0.739087292887
1.47473841998
1.63830888034
0.870946924458
1.33031326578
0.0794914399873
0.203464637075
0.201488543298
0.18676896378
0.153135366864
1.04663049607
2.54415010811
0.0178611086852
0.0795602357636
0.0862758527538
0.0883362875973
0.0886823165925
0.172553770974
0.276427442859
0.31030471877
0.323074291888
0.351785074181
0.37209766261
0.372550019481
0.378110193224
0.396402498061
0.411975643948
0.383529919656
0.364644675531
0.372768750129
0.417075691963
0.391496747233
0.384689385744
0.367534965161
0.31950931779
0.321292905166
0.27156734698
0.309618744249
0.276030360339
0.149012457134
0.0266079858899
0.0327874761152
0.10042698458
0.206490012513
0.323092706292
0.340717251249
0.370610009879
0.421291479027
0.429512136048
0.365312477409
0.407429281455
0.493783830999
0.528480880141
0.528319353542
0.525391338337
0.499001965898
0.451353752456
0.426960532254
0.430382344993
0.370935471338
0.290541256561
0.258671163238
0.283398257574
0.195304241368
0.247900621147
0.176628965945
0.150168014649
0.105973830821
0.130640141999
0.12072450667
0.0969536815556
0.098144723275
0.0578699715683
0.108624416865
0.148795954585
0.181278143215
0.216351906378
0.241309614314
0.254990961818
0.277880348123
0.320456029876
0.371428150667
0.429697753419
0.464934732605
0.501125504234
0.547389724368
0.607802318128
0.693307019379
0.801367121533
0.617378945866
0.837449389373
0.622649784149
0.567619843038
0.626075231386
0.702044688337
0.48081464951
0.425333591033
0.515000683613
0.511644117244
0.375696174033
0.254028279501
0.152320392316
0.0698617741767
0.0228532405397
0.0196543125471
0.034321804864
0.125119810293
0.193849496211
0.139962843833
0.111693629995
0.090189347438
0.0746277076007
0.119829900875
0.104381225904
0.0442443206318
0.0803182200353
0.0407394404466
0.0512353948591
0.0307435841126
0.0516461549771
0.0899562383752
0.0564117657546
0.0956987529367
0.139760842881
0.206045317258
0.217603742666
0.224516160927
0.189317165548
0.213951370447
0.245386037214
0.20791685957
0.226030013709
0.267341652421
0.346633034582
0.408283336962
0.484275775979
0.520567392685
0.563217377643
0.612797556206
0.651017142081
0.651768528145
0.612846578872
0.862178363078
0.657950110942
0.827579119163
0.501776591999
0.802263911377
1.58248498618
0.278527583666
0.369067916586
0.291327833088
0.259291968496
0.193400139063
0.102271461087
0.0801804848182
0.126320908684
0.165901179203
0.197631669175
0.212663764531
0.225066113707
0.245167489495
0.247281821753
0.259017885549
0.273561930591
0.261983667087
0.222735835666
0.243726459781
0.282266546897
0.287334403959
0.276390354194
0.246626134273
0.241984768281
0.286316999458
0.298038143523
0.245934158518
0.241661227954
0.226221164987
0.239933169995
0.239319118395
0.162565842363
0.0850737234833
0.0235056637017
0.0569296845014
0.130370095247
0.197547988011
0.267008223587
0.290332378618
0.312276723964
0.334125393211
0.355714932349
0.371304391958
0.396396229923
0.407977474666
0.413003991603
0.46023691455
0.508323009573
0.560699379902
0.601368452265
0.62892879779
0.718479356869
0.663607474229
0.977028379888
0.666731480823
1.13469280602
0.88709205616
1.20883128222
1.22374400143
1.34913773052
1.42442564735
1.49497569096
1.74139617086
1.50821455237
1.85086239762
1.83913378211
1.33846243977
0.944241498302
1.51408451517
1.64760021664
1.57299254617
0.833509561399
1.37775930296
1.40040251519
1.01044455627
1.16113308774
1.75295054934
0.34897589305
0.709690407283
0.997076094303
0.567440616977
1.45344037776
3.12127365099
0.352327073136
0.788767019955
0.679522106058
0.741999096019
0.7018353449
0.635457105904
0.89748275358
0.460582649815
0.569824736104
0.555774688324
0.519656501788
0.476670511736
0.463721377726
0.403712308229
0.382318891218
0.35965261064
0.28062916086
0.312200244518
0.313262494465
0.276587274973
0.23753326523
0.243220003369
0.247224837818
0.185043752662
0.18242291956
0.217904063219
0.197232066044
0.168119369939
0.155505223786
0.172444346194
0.177277466374
0.130240932481
0.119174462537
0.142682356836
0.160242354562
0.107014157863
0.132231461553
0.130021028522
0.157945600178
0.13904586993
0.177417881487
0.167006653976
0.0721667149994
0.072856347511
0.0463043503033
0.0263733807919
0.017023358488
0.0537736364743
0.0670368800753
0.0568126323621
0.048254413582
0.0576093208721
0.0443610958317
0.0379482165095
0.0541681578284
0.0262107821943
0.034117099233
0.083615787045
0.0994982354545
0.118465379428
0.0481417712453
0.0522149312889
0.0211424987912
0.0473779294755
0.0970112964126
0.130830713378
0.138285073176
0.17695148161
0.228535920849
0.287908904382
0.304389251656
0.367239104623
0.495920158429
0.602862409769
0.647495524911
0.64997087011
0.655986009977
0.627087838773
0.79222013633
0.680779591682
0.801458779498
0.590533285105
0.591464982818
0.591066697983
0.555383889893
0.555866574214
0.552845462225
0.536724296111
0.0730981839313
0.0529109345807
0.128123365011
0.170625810894
0.166325774443
0.125566545076
0.153004667315
0.190915072548
0.146272177051
0.136826984411
0.16771578939
0.179960624562
0.109171209014
0.117237619025
0.156010459778
0.217066603438
0.196039914872
0.168295487785
0.13363664211
0.107657352243
0.106753893194
0.132158972969
0.125904074145
0.126811071072
0.137771536712
0.165029885765
0.180264502236
0.0914265467293
0.0550880234516
0.11077391266
0.140383412066
0.175354781767
0.112446583575
0.165054308566
0.175176301961
0.114299222661
0.114481631145
0.143969019071
0.167322765626
0.201130319174
0.222527680329
0.22423492259
0.230215192536
0.260475409257
0.272644660527
0.288566401858
0.313565650885
0.345982324803
0.448915964663
0.451874151255
0.464739961437
0.476532328525
0.469729654317
0.444206393062
0.456339511797
0.456781651693
0.447240647705
0.406156437739
0.382815711611
0.346644745541
0.323132540656
0.274804527992
0.218109153582
0.149066863326
0.164800476272
0.0775097607817
0.0550860216446
0.0299291584923
0.0359761087269
0.0688129301026
0.0799609878494
0.0540265309686
0.112480634553
0.165784380661
0.189537164686
0.215248828291
0.208130162176
0.228784394429
0.201151604913
0.187005737238
0.170587016835
0.196655422352
0.19690184455
0.21303740066
0.205559221365
0.2474673592
0.216116910466
0.198805188944
0.233554863314
0.190779480072
0.190747611237
0.224242172012
0.226885917792
0.19420042861
0.182449415958
0.199882305732
0.234870252985
0.22787882236
0.173793252034
0.113871510255
0.0425210125411
0.02724113798
0.0755015754646
0.100727614572
0.121490058942
0.143888880319
0.139718820434
0.139475978349
0.150802755389
0.138565519034
0.140366943964
0.142897965136
0.141294320908
0.151094783046
0.165848327815
0.173226797719
0.152659532531
0.158536464807
0.159101963589
0.164799057615
0.169134770684
0.177521538573
0.18744252519
0.193683967355
0.192293496539
0.202322997908
0.206256656569
0.215028797435
0.212091760766
0.220973463503
0.22647936185
0.225527610586
0.234491102778
0.243354428213
0.244691277025
0.254864911369
0.257428029637
0.278692850583
0.299225519945
0.301652068639
0.311350904958
0.293172180635
0.288594394193
0.286120518773
0.302801017746
0.342993815015
0.356246361179
0.362703910267
0.372814726183
0.387412124461
0.406323329094
0.409836674525
0.400806289397
0.428908535655
0.466808051519
0.507053862316
0.500153414173
0.518710739827
0.530868293227
0.579298908648
0.588357405803
0.584393841005
0.637543593053
0.813176896184
0.655337265322
0.898174348699
0.712557796824
0.891200795953
0.911343779828
0.778439922299
1.00467700548
0.926588094284
1.06134832844
0.984128228623
1.01886313942
0.883039160182
0.967025176466
1.19326423926
1.11762261273
1.02623075846
1.04496685558
1.05760789664
1.18924750223
1.5042488078
0.862288574919
1.284427604
0.847175826048
0.998838207855
0.902407387762
0.955680938938
0.959610186645
1.14030659757
0.726878576855
0.890972432514
0.738438144221
0.834862186511
0.676021585845
0.691829281449
0.576791750615
0.589263327127
0.581528596679
0.536603005288
0.506341349443
0.478839461278
0.474156967152
0.428508075754
0.409737247394
0.392731996188
0.386493543095
0.328267509042
0.317190728591
0.305301804569
0.288361103031
0.268312608037
0.275684715786
0.248190251347
0.225703242894
0.191448670757
0.196904403899
0.191853471674
0.190456038738
0.169907807846
0.153250574404
0.167947687531
0.168306681309
0.149075551447
0.156886618394
0.146508022765
0.151043160224
0.151293053036
0.132393523742
0.157997646668
0.173344383573
0.126076979444
0.121617165442
0.102128680054
0.0836941643116
0.110117756754
0.107184218096
0.090597214243
0.103299585261
0.113019555888
0.105790333278
0.066614379973
0.0754887266037
0.0573228597286
0.040821747764
0.0396935499085
0.0408619739198
0.0157076987771
0.0392803360288
0.0704042965417
0.075097590385
0.0313088489172
0.031603112973
0.0347869510965
0.039987119808
0.0323802953768
0.0233317190589
0.0514215586213
0.0552890565201
0.049680032447
0.061593613317
0.0762056235708
0.0303398943244
0.0259193561197
0.0224256151995
0.028696952869
0.0243220300567
0.023352507535
0.0125036513567
0.0410770549249
0.0287627966789
0.0383362458256
0.0547949847002
0.0409917845801
0.0440022920927
0.0195385542546
0.0380597873523
0.0487442543953
0.0481393799075
0.00486175400222
0.0747407563587
0.0888490181174
0.00726940553202
0.0276736831081
0.0347855821751
0.023690906317
0.00216898646424
0.00576280960608
0.0189800286557
0.0210335964333
0.0188426466994
0.0377801435218
0.0604607510555
0.0621424761825
0.037292342771
0.0252726775307
0.0130915032873
0.00579387142727
0.0128933203687
0.0216293427595
0.0271089159772
0.0511297636401
0.0641562280723
0.0595461833882
0.0286805295779
0.052690026097
0.0933484077356
0.104466998594
0.0551619102876
0.0568848677256
0.104308782636
0.126531822998
0.0925791739334
0.100067279119
0.0838841709411
0.0350070446994
0.0389317801909
0.0439731236282
0.0665891203939
0.017073568418
0.0283067722554
0.0278468448387
0.052755466399
0.0761863206096
0.0810306716249
0.10797928675
0.12924734532
0.160327704678
0.285941803318
0.501853987677
0.876587216374
1.40696815641
1.43768528442
1.26495393794
1.31485006157
1.56137013018
1.4534225667
1.11437694881
1.20403408222
1.27488237465
1.62937537768
1000000.0
0.0
0.0
0.0
0.0
0.0
0.0
0.0
0.0
0.0
0.0
0.0
0.0
0.0
0.0
0.0
0.0
0.0
0.0
0.0
0.0
0.0
0.0
0.0
0.0
0.0
0.0
0.0
0.0
0.0
0.0
0.0
0.0
0.0
0.0
0.0
0.0
0.0
0.0
0.0
0.0
0.0
0.0
0.0
0.0
0.0
0.0
0.0
0.0
0.0
0.0
0.0
0.0
0.0
0.0
0.0
0.0
0.0
0.0
0.0
0.0
0.0
0.0
0.0
0.0
0.0
0.0
0.0
0.0
0.0
0.0
0.0
0.0
0.0
0.0
0.0
0.0
0.0
0.0
0.0
0.0
0.0
0.0
0.0
0.0
0.0
0.0
0.0
0.0
0.0
0.0
0.0
logs/alpha_8.0/PGSD_500steps_0.log 1000295.38711 1000.29538711 0.167164709801 1000000.0 0.0 908
