Policy Parameters:	-5.57843024079 6.76928277511
Control Steps:		1000
Start Time:		1442130190.6452434

-- TESTING STOPPED --

Stop Time:		1442130379.9977984
Duration:		189.3525550365448
Cost Matrix:
0.0354734937955
0.0828104203631
0.133229887217
0.250381513492
1.06300401532
0.320325047817
1.07913770961
1.70415633815
0.109612943391
0.701596317573
0.914158699124
1.1194689348
1.02959985882
1.10041269023
0.603180906437
1.64303082933
0.296798718576
0.795377384043
0.4227418809
0.930168105864
0.336861435344
0.298245187058
0.502737640196
0.358719943426
0.241259451996
0.0319583194194
0.232896147899
0.206938955122
0.250252646331
0.2119852082
0.0369113385798
0.253394680562
0.254265937635
0.12362894286
0.213442218275
0.16461406938
0.22450690861
0.0316943298377
0.0664664589495
0.199767671069
0.0113126157969
0.126001029981
0.0872988947723
0.537580013843
0.381303030151
0.447563383866
0.360287443081
0.504708832579
0.72034717851
0.405407641766
0.725753224882
0.929180413288
1.30883013596
1.03044454754
1.13681067051
1.4271090135
1.00464482497
1.51993754134
1.02780061844
1.17198841888
1.21562815231
0.357517965498
1.81139674027
0.282757736957
0.454932777476
0.434341323811
0.663134362685
0.0860558290686
0.37813201847
0.137584921251
0.435849407109
0.218052619144
0.242462681918
0.407618414941
0.332422770737
0.349304327412
0.24221365354
0.477477312531
0.236448584539
0.288015139805
0.41443870259
0.415222712015
0.199233103236
0.387333488861
0.274675187
0.225392339509
0.190024846099
0.0771234026099
0.0889168541612
0.208041409142
0.312474929288
0.20463282194
0.290275986362
0.246939188263
0.438273609367
0.410532269368
0.192203709241
0.141953328189
0.0549707668212
0.0319480222824
0.199395531268
0.071557246924
0.0866369030976
0.325268454434
0.173416863074
0.0441005462279
0.0445768571089
0.341905491241
0.00795277362277
0.0652664488066
0.339495439872
0.431442612873
0.426623520633
0.418093573477
0.196320502396
0.278769089006
0.478013741437
0.392840863309
1.05034359299
1.31339836257
1.39962502119
2.03495160705
1.82679538975
2.18638232468
0.961464128406
3.02287996996
1.06641099481
1.52352351669
0.849947726286
1.77448618979
0.221624633634
1.10935469878
0.742405243638
0.172829997051
0.102555348416
0.68981325447
0.476738025754
0.77906109449
0.271244382294
0.734914315007
0.674589300154
0.468741359736
0.531710166756
0.36594455289
0.242918610423
0.474062292786
0.169495224015
0.305335631611
0.136022739463
0.0580176448108
0.0666374760291
0.0232639947192
0.116555840981
0.303728169787
0.0376222232208
0.101306685876
0.0364086253563
0.0651147639212
0.272315815313
0.590184751269
0.364420354517
0.296161963671
0.358855093809
0.150166526687
0.603657441231
0.23479567933
0.381735605671
0.343579592443
0.793315063852
0.277768870732
0.441833917484
0.184486288212
0.289195512373
0.216867901068
0.118745650571
0.247206394659
0.17690061299
0.339134089652
0.061621180893
0.179417694701
0.341547349575
0.171179231517
0.0583875347751
0.0259165822001
0.21059964335
0.505197253984
0.0488897039424
0.27919553736
1.25200479735
0.11627262428
0.221309180076
0.526823001491
0.980571200215
0.550680839897
1.95278371896
1.45701223716
2.63566225348
1.3876653702
2.62595831765
0.149375806374
1.72782277422
1.53866480263
1.05716813884
1.34104771887
0.455696252406
0.956659250911
0.488031356356
0.142531882763
0.160936550323
0.841491677725
1.27255831394
1.1765097281
1.41839435483
1.19421251965
1.41703182196
1.16751423014
1.12353880809
0.851243345107
0.846714572222
1.38556357465
0.455356042598
0.400881066209
0.895642830971
0.293713896673
0.0819842619995
0.0665882368563
0.143465678225
0.0678654723097
0.143536026636
0.445026463732
0.205207620738
0.274039291687
0.406480096663
0.0268500990338
0.12329139093
0.170337955241
0.259737461182
0.530226897028
0.351995822631
0.551970088261
0.478620375847
0.867840375089
0.501729594152
0.999894786783
0.217714100396
0.484981095837
0.393326417155
0.509770072186
0.387455797589
0.332471364567
0.706441852181
0.0312562820191
0.236148168667
0.274732199743
0.466762293006
0.345764421898
0.186866019251
0.0898962327519
0.13096800496
0.203837296175
0.108838070617
0.023054604115
0.0413767104499
0.29976597738
0.0598939977621
0.322817232711
0.176594895557
0.714921782299
0.103456606187
0.483242332186
0.0825670708102
0.170098687293
0.244724488202
0.315652621964
0.269710817209
0.0400393850735
0.19330581391
0.208083187986
0.0178169655834
0.136093587894
0.15341407791
0.362973970283
0.291264187487
0.345823668352
0.299930808127
0.0803328104834
0.315689022577
0.117066417596
0.0874780323925
0.0271855078103
0.122077021785
0.402936633921
0.516038850637
0.317988788397
0.349375761799
0.0596250598007
0.253307461611
0.450267091974
0.323552613939
0.669408061093
0.34008795902
0.440052142328
0.78128203278
1.17846251786
1.32799893076
1.81427107242
1.99926748813
1.89279339957
2.22643740337
2.10889698284
1.74334268636
2.52091856128
2.66801643598
0.0144880693255
0.0878131278573
0.0415496587179
0.198989649999
0.222166978243
0.478287543486
0.424125129673
0.449440235745
0.370049895751
0.330560894802
0.354195686563
0.645129448304
1.51308074646
0.0305504195951
0.267985684103
0.603033759554
0.35403686227
0.528675507839
0.538850216818
0.878560916407
0.377099772231
0.512233586927
0.493645875662
0.948520716681
0.181587289727
0.516351119819
0.697493163271
0.445709897205
0.592277654062
0.3128974683
0.674793797365
0.354560671229
0.477164572782
0.319284898438
0.4639005472
0.703105285064
0.394066358063
0.742313592089
0.991226795389
1.08933684506
0.757045042712
1.38908584163
1.04293488069
1.90137288878
1.44985305605
1.46649099235
1.47936855297
1.55281904633
1.18976388913
0.46324163899
1.49938569155
0.15028177486
1.17147496019
0.315347986712
0.450844015628
0.319134014259
0.0
0.0326141558192
0.104146150026
0.156658910152
0.292267877238
0.187682090316
0.299287433726
0.359771990142
0.115942762767
0.148225270491
0.238618068744
0.302804951348
0.215162980379
0.0593842033753
0.444988237067
0.200255354519
0.0583959732498
0.232307031507
0.333201662273
0.179197765449
0.108180837255
0.176027498813
0.429861754695
0.293950811838
0.237622619215
0.485324729032
0.349076230044
0.139849927606
0.433097517217
0.0451324020652
0.211660185074
0.200303523832
0.476266635996
0.441543507886
0.491391626175
0.152377951988
0.247810577855
0.442826873232
0.303284888711
0.509777885997
0.493474087133
1.03420641181
1.19318886599
0.959789197898
1.15429914089
0.838487434253
1.12291374379
0.717393898104
0.475512892359
1.26187197806
0.118745396965
0.45625700697
0.544787296766
3.05945099803
0.0100540774013
0.181716941126
0.182887261261
0.0745700852049
0.410192714765
0.576112878734
0.746202984014
0.215081971716
0.317630030264
0.0823941694996
0.0591083901871
0.181166899373
0.316330774763
0.0114143196652
0.136141127703
0.381419846027
0.241669999823
0.328859452595
0.346533561701
0.44586936468
0.25362078158
0.451409114042
0.0395212790596
0.295438154069
0.320524452549
0.248030654064
0.177532406917
0.0423163290372
0.338226514654
0.0111403834647
0.044273493537
0.268341770074
0.233080768857
0.325764753094
0.320817631489
0.313486524497
0.466369577155
0.699375166748
1.06871765103
1.29448031404
1.45576611308
1.65088184208
1.73836824982
1.36769847447
1.66631136567
1.33704253333
1.03755580719
1.01045501918
0.913061275384
0.975457159619
0.128703416696
0.275911976837
0.187271513376
0.0762310557371
0.170875755526
0.258210096076
0.178464634296
0.0269655200153
0.1491007271
0.038186452722
0.19153727886
0.14137440065
0.00478255717102
0.0500319687638
0.104605701772
0.253291175809
0.153063052811
0.307370697464
0.416388993936
0.322889963738
0.0717554345399
0.0770888923263
0.078406864073
0.42431254411
0.031584359349
0.0739358783459
0.281327401603
0.372638281986
0.440249494084
0.444495041331
0.499012017294
0.73473640623
0.740567858511
1.67273963675
1.47749444814
2.08307993595
1.83178955631
2.15181511441
0.32684840514
2.48713948831
0.112365319465
1.29674944579
1.09264534131
0.993031928724
0.0936448623297
0.517662823382
1.07695647882
0.442326134523
0.876589311231
0.450230805254
0.111879832361
0.368107091907
0.720003402084
0.423717504817
0.350382727154
0.236929511959
0.207381237436
0.228798811533
0.258885039327
0.211339202252
0.254446830454
0.347682560359
0.0683609027716
0.101543040567
0.348229145145
0.216016781442
0.199915242643
0.191179430355
0.148496126709
0.0933018265002
0.200667133805
0.385017145778
0.0452492519997
0.0859579306604
0.0940249299217
0.0725554153337
0.141543940086
0.0
0.0343134051951
0.268721650378
1.00217971273
0.0851382859542
0.00779981318964
0.092763097181
0.415903584646
0.127640131906
0.137366986107
0.49259239534
0.533859743953
0.218740382233
0.283057754729
0.284154876444
0.502019491558
0.251058985529
1.05858224098
2.42067232767
0.0470455299188
0.408764455461
0.835500693249
0.85965793556
1.01511870443
1.5620631714
1.8329742014
2.36060541685
1.90249035047
2.07057778391
0.508837216332
2.9630733576
1.23728769975
0.983301959708
0.274779516
0.320087795758
0.279427299061
0.429295664731
0.180776544429
0.276109215324
0.000938750334492
0.0191160746796
0.0566391471482
0.0680203910737
0.291546899889
0.367270966539
0.336837697916
0.481516408251
1.12272649131
0.626430305289
1.42441172283
1.41316130643
0.999106956947
1.50507265966
0.525706482033
1.20998384717
2.00782859275
0.860485106869
0.0958634673227
0.425314118733
1.65988429491
0.0529363388825
0.26838850617
0.367625669697
0.0707675429152
0.170236101132
0.115921139294
0.135432916574
0.0670079481062
0.229277782357
0.43533410115
0.233163700724
0.234159577304
0.270175754019
0.260664838403
0.470860404966
0.378106495943
0.348192919609
0.759075473886
0.288886206723
0.760332040631
0.0843844458444
0.0934224254161
0.030438475319
0.150364775764
0.0945890465115
0.16737794438
0.296722473178
0.0467002927705
0.251911194496
0.0315072547142
0.0768859284076
0.433808157907
0.00056897644386
0.012113376668
0.0194830749126
0.0286171663335
0.000843684967485
0.0319948393258
0.143495780191
0.172472652103
0.0569219411928
0.0431912023855
0.303204314785
0.000779768771317
0.0165544019779
0.125297371742
0.106585516559
0.452869546208
0.0348101346597
0.254450486648
0.157941563054
0.425823005476
0.0230334728247
0.173708316939
0.300739697531
0.0779901622391
0.267153305601
0.239827811952
0.111376713637
0.247960876606
0.198141817108
0.288098644741
0.389600327038
0.442772325694
0.514923965276
1.35330506505
0.991062085678
1.20361043175
2.03608151307
1.98006465157
1.94478432374
3.01857021582
2.80090952706
1.24658491225
2.37267943386
0.759608600256
1.85362576886
0.0935947244194
0.865123792222
0.419911273372
0.820046202491
0.48533886914
0.745137159574
0.74513819751
0.432832255745
0.996675781382
0.343317149604
0.13558961172
0.0228045049312
0.176158524916
0.0117635551089
0.0842453375061
0.439905185706
0.198513865147
0.529152205489
0.368053873182
0.313858211521
0.469333683769
0.410842476575
0.362627865779
0.037279957671
0.205659812589
0.34610273234
0.356165227207
0.438565345841
1.35608579281
0.52845598819
1.17026140458
0.755763995813
0.6346038484
0.814568898825
0.501142578054
0.559081925935
0.661285487748
0.779673142074
0.452477154522
0.495115576428
0.419192003873
0.289671365512
0.522971373745
0.170574456171
0.356566490816
0.129492471656
0.107458073381
0.240798309999
0.163650140401
0.240665220416
0.0252093307561
0.234659299756
0.575088181778
0.278583825143
0.0176386825963
0.0794502749788
0.201134760054
0.1234039081
0.295069925391
0.35554156427
0.183592635551
0.177402513368
0.273876560753
0.26912795159
0.230256179925
0.235444539131
0.166806808107
0.26833472894
0.917370009363
0.0737799231542
0.250102782291
0.509858394191
0.181077815876
0.469712963948
0.316841424679
0.268821243337
0.459925486007
0.271618854399
0.86266617837
0.414839405116
0.922533354698
0.0412384872846
0.167565768598
0.20304558768
0.467095432173
0.203926744193
0.778949017548
0.00889414457295
0.101761039695
0.266646773246
0.301158356181
0.21802871355
0.269850941115
0.1979910043
0.253662446405
0.259780996774
0.025993067304
0.149857684316
0.0253893322795
0.165311340838
0.391105585847
0.196149994005
0.25026075404
0.0517351533911
0.165550281448
0.426893141104
0.326549184937
0.354358087688
0.390152464314
0.536964182236
1.07351718443
0.746721083498
1.53669856433
1.55682156056
2.10930204804
2.17862756942
2.3033252596
1.39697754368
2.72698947039
0.277967882472
2.1721355605
0.340385667745
1.8918752269
0.379456892477
0.376562220939
0.356118515546
0.278347367803
0.401371208782
0.35315288232
0.324240527507
0.532185546669
0.805639017522
0.249080191284
0.352737002385
0.591140952198
0.27878478737
0.415746168166
0.417494114133
0.184073260578
0.36038687346
2.0353462156
0.646179700034
1.82742030276
1.14257228032
1.3259712476
1.00732633061
0.662644546286
0.775172033795
0.1264091457
0.220338804174
0.493312230054
1.03350435748
0.390316238901
0.467555905947
0.460185910928
0.749119143354
2.23432217303
0.00856861317656
0.0595600180493
0.295817729933
0.28315294918
0.366811101477
0.314510480115
0.396741881591
0.0568671738141
0.0400280616591
0.0294529294086
0.12084433349
0.333695702125
0.441831215291
0.321582002675
0.616094252616
0.158941372242
0.132857840279
0.327543916076
0.268623841615
0.299018968773
0.410971969218
0.198373162744
0.319312605617
0.202404854935
0.29204842013
0.340577522716
0.747300046013
0.355221768929
0.880338177939
0.455162508228
1.01956441499
0.723692486738
1.49619514209
1.29430413405
1.42255436239
1.35003919752
1.6932657262
1.04905573302
1.27228857361
0.827384714873
1.10542665332
0.944231080178
0.39017957244
0.517822688547
0.638376794372
0.210561659686
0.323134344445
0.383003705365
0.433764436001
0.156212050451
0.700093972117
0.062635480617
0.0383918225228
0.116535106161
0.421017630683
0.379252366508
0.417519985675
0.362107224198
0.33986900613
0.660486752168
0.426671271995
0.638182998521
0.48948133216
0.879181833675
0.484497543439
1.03504699346
0.868341082561
1.16115784579
0.765366459341
1.18859159257
0.534534475052
1.35095237593
0.743593600233
0.697420409268
0.692352702282
0.677098691813
0.816182419685
0.341695922751
0.422051634357
0.487525292411
0.46510047634
0.464211067383
0.402195103355
0.492349658651
0.422186441178
0.444608700091
0.413220901396
0.480660352284
0.479257542401
0.349972613186
0.416899715229
0.458819883743
0.509221159001
0.441668978576
0.443981174315
0.414186649318
0.419449392736
0.459179164436
0.746739317171
0.49634343546
0.866373155616
1.17616935956
1.11657258802
1.3185746585
2.83249889029
1.27846214478
3.26515743204
0.686078811848
3.77117392197
0.502573391055
3.77117392197
0.0307639419303
0.166055271863
0.476019359584
0.692489022568
0.412188227133
0.318546231361
0.456202813327
0.525169257899
0.306645524736
0.226006191661
0.519962598912
0.0168085304694
0.197424854864
0.452036257703
0.155341063278
0.398555262659
0.340485705153
0.502226745193
0.462875645024
0.882698770047
0.433674210024
1.65284349214
0.405805841043
2.15492195181
1.51691536771
1.58707076832
1.47680016794
1.63695497298
1.33506426375
1.00065622764
1.02776481499
0.903687438534
0.387765701929
0.17655474962
0.0859030197046
0.443214327401
1.38661261065
0.402829568138
0.932374198415
0.433534047782
1.46517657153
0.197436104228
0.990658567476
0.443608629428
0.120921170861
logs/alpha_8.0/PGSD_1000steps_4.log 550.924191423 0.550924191423 0.359313541975 3.77117392197 0.0 -1
