Policy Parameters:	-5.57843024079 6.76928277511
Control Steps:		1000
Start Time:		1442130004.630469

-- TESTING STOPPED --

Stop Time:		1442130188.663702
Duration:		184.0332329273224
Cost Matrix:
0.0853934653589
0.0564068388824
0.00390500609886
0.0268166441411
0.0282629104036
0.103974192739
0.115184566224
0.0305329824761
0.18082475581
0.147348101672
0.234722022235
0.0732907549556
0.0475942457995
0.139241566967
0.314917747943
0.347956417479
0.310874239857
0.241851123329
0.39498854256
0.389831997051
0.292303536318
0.307524789308
0.459852227895
0.284332103699
0.215992292667
0.363927560662
0.478251051703
0.383887791453
0.687128416819
0.286792010093
0.142677610331
0.269617205472
0.283664896535
0.118891265211
0.203909906191
0.223817117265
0.20190550108
0.27317950396
0.151250336979
0.496439607522
0.400815099114
0.029655937073
0.15978119698
0.0814703897559
0.463974997729
0.141140534371
0.187181320251
0.0264392799462
0.0865707674821
0.128068925933
0.457717939783
0.286174244746
0.055304965901
0.284417747038
0.290628223489
0.623708158417
0.876326488942
0.480797773665
0.955684950267
1.82106502613
2.05199947457
1.76197837279
1.77118067021
1.75435612751
1.54063290981
1.43543004791
1.40668656668
1.23431099922
0.787495259992
1.04610910345
0.370112997506
0.324895867353
0.137659782547
0.24049625767
0.0308301786882
0.163139701621
0.417352830849
0.516748921599
0.378160946064
0.245229507743
0.222744287401
0.143573925099
0.0668700316114
0.280430151098
0.312377012622
0.167214490652
0.337768092604
0.201248956699
0.284102014553
0.191657360224
0.149329791982
0.14308736622
0.2560666695
0.179793206088
0.182172861172
0.074688305035
0.153835663065
0.227931933047
0.195548639588
0.420514991477
0.20838916616
0.446706420176
0.399544389987
0.395827933996
0.384448402822
0.497951701998
0.866901276962
0.525259304608
0.813241506316
0.632131399048
1.1563271092
0.872539241926
1.08770466852
1.05038781655
0.995968961813
0.618515286206
1.40078621574
0.41278563318
1.17185906644
0.476823464482
0.9529245962
0.478524191183
0.490291060371
0.337272738674
0.221364543933
0.286909062464
0.180000235509
0.285633790579
0.710304806858
0.459104784772
0.719473338708
0.139697725491
0.134051511666
0.702004402547
0.0161075849759
0.167278583311
0.511875971206
0.485346589828
0.676821267638
0.201836235733
0.178090662942
0.660760466631
0.126137972064
0.30046900804
0.333878729877
0.252601683983
0.353860296904
0.0859838149588
0.0678452743975
0.265771916979
0.271358245424
0.366076607591
0.340856805364
0.494294546285
0.244926856241
0.133534399849
0.120946575958
0.229978124396
0.612476030732
0.128101327755
0.156288087667
0.185738928722
0.170720804765
0.950960553585
0.543252679841
1.16803739467
1.22199230039
1.46854836301
1.13149261119
1.16408364303
0.911517043853
1.10725807967
0.775818118805
0.764736635498
1.8481347793
0.00663309770931
0.0541363419793
0.0200170011314
0.0175662366404
0.0185356621167
0.0520983661501
0.328151221228
0.179883706901
0.243896469313
0.531639739277
0.0510850407242
0.303183600658
1.54891124556
0.104447673365
0.669256855287
0.380895323082
0.380970999676
0.42087506457
0.817545076367
0.132861346992
0.124231309825
0.55255644462
0.113725570509
0.0773862011489
0.124585829635
0.311805266014
0.0316313510403
0.00595585015101
0.0471957951233
0.0704128804291
0.087670530167
0.131855479013
0.483035900752
0.0127402970635
0.126987634884
0.389454284235
0.0379956417839
0.223366376872
0.20967697597
0.452365744507
0.318471667351
0.288301391884
0.225235980566
0.421806990166
0.334881214703
0.36420554112
0.458618378623
0.630189017268
0.199218533308
0.651342797346
0.965495254367
0.94761161398
1.18981802028
1.92372661303
1.46355568917
2.03947202861
1.49665090754
1.38212891965
0.46993911664
2.26316456717
0.347182393741
1.53788273402
0.0281523750521
0.161908351057
0.307246264732
0.268041970825
0.147583214412
0.195232959761
0.433590643848
0.0429738693225
0.231536510405
0.0101593330845
0.129963215382
0.0722002444468
0.217748587587
0.179096215389
0.237725015817
0.321467934512
0.743064091531
0.206508555119
0.999997990157
0.328161834004
0.0123358838933
0.132506015627
0.468492434273
0.381801704787
0.247492575064
0.517010129336
0.13009342984
0.198791727281
0.215791453612
0.0624796893903
0.0363782607349
0.189637463395
0.188085302383
0.104008033349
0.336327088038
0.0792389274886
0.378229822885
0.689209766806
0.0165638856426
0.0650391282774
0.0550169201555
0.314317890281
0.443825360518
0.718063215839
0.869422615116
1.08838559521
1.22865057627
0.388245505154
0.658926133413
0.545787556898
1.17422670955
0.253441325524
0.370946609142
0.381472241873
0.23367609904
0.87161026849
0.143070296496
0.306604088945
0.256302856419
0.236580740026
0.294880931669
0.279305638283
0.269407356149
0.287767076365
0.28689758357
0.428216569754
0.349962662513
0.439187814427
0.418055359535
0.427687080713
0.456294760393
0.497711719385
0.455853797249
0.487328079501
0.509978922305
0.538258979875
0.535219575893
0.527946009828
0.644055416417
0.618710669181
0.517030447419
0.9864213562
0.522800473142
1.03115877109
0.493971294904
1.12592079872
0.491058300432
1.25118595703
0.4695414651
1.19039015303
0.528487908365
1.39214591829
0.540617961159
1.35833451453
0.5163544104
1.52637730241
0.454578245094
1.46858977641
0.526130710885
1.53177276976
0.572112626614
1.61263227143
0.59819443456
1.64811674737
0.484515008469
1.29706113964
0.955864758597
1.34889664763
0.890170233469
1.33957717718
1.11829236631
1.06872988843
1.00852761224
1.07438278089
0.935010494149
0.732008848598
3.77273362435
1.08033256982
1.43058107097
1.13475347654
1.23250407854
1.26813757426
1.07675454988
1.35808073533
1.05428443768
1.20482221247
1.13323745859
1.0782914101
1.35669762102
0.702600183007
1.64078232052
0.309913694213
2.13603178537
0.111519098732
1.16119069531
0.96541574796
1.00442245948
1.06655637143
0.744280705004
1.0754729094
0.723739070208
0.975498768546
0.359569578437
0.998085203213
0.434223165576
0.981692639126
0.401390146403
1.098380565
0.443804140986
1.01760459761
0.353258909098
0.424069429927
0.264947481958
0.288425219329
0.339694698805
0.411373771814
0.536483272414
0.49402491398
0.523047633725
0.400797652529
0.981510980971
0.065842792618
0.186807344609
0.240858228138
0.107245144642
0.0912126971783
0.175139973627
0.496818486207
0.529397002923
0.871639676425
0.391095803878
0.370839003175
0.513205954003
0.483774483789
0.448244870217
0.437507964553
0.900206938242
0.00845565864999
0.132983559912
0.352758609028
0.432210232106
0.466400803213
0.307197915457
0.466270257452
0.201810512269
0.461674469726
0.207843798188
0.455364483965
0.0276892338901
0.0281400483958
0.0181346089546
0.127242643822
0.667592039866
0.378900296733
0.278520225646
0.0124937400696
0.144206571775
0.49614801825
0.105889310277
0.467439534989
0.246659598443
0.285188815443
0.261072459919
0.263395013125
0.165845821133
0.167969847743
0.35019600398
0.345848775165
0.0203159925639
0.113040324637
0.351393043868
0.343439032034
0.710970755699
0.802972524868
0.913620322184
0.411384275035
0.96852367941
0.882450025738
0.5514261215
0.690771710651
0.560634911054
0.570108215078
0.840540852928
0.364164304586
0.20733765448
0.472977807314
1.05965441683
0.354379996153
0.497556986717
0.0994460463654
0.0679782520772
0.179261096994
0.4563229528
0.498319964548
0.484341438462
0.677401666331
0.660293798974
0.551936165474
0.268504287895
0.417378136535
0.885455993353
0.388878702094
0.968205019738
0.417552761835
0.739249475345
0.440234856444
0.624332160271
0.595589729731
0.528815133654
0.769452048783
0.857976402526
0.932776931856
1.00277223274
0.907236855148
0.632837072276
0.983771556878
0.680640512868
0.829312722165
0.648450906491
0.487111574985
0.604918454981
0.506755429177
1.21717164885
0.000714722653696
0.0417635531615
0.21672607114
0.123710650982
0.841093103396
0.0143364949062
0.0915699031888
0.309883257264
0.182281240766
0.129386850705
0.114868056029
0.266677013659
0.285255288038
0.0901523085125
0.328982136927
0.210283985025
1.42759913673
0.00803078858098
0.0623789587923
0.224243278113
0.415064807068
0.228646618737
0.00220291313415
0.0422091894122
0.0992168707771
0.0659765777042
0.380954750378
0.257217265926
0.245189116304
0.222145871012
0.0141555296115
0.0863385381544
0.218848890206
0.198277208122
0.0891686215371
0.260993683906
0.221505554341
0.0788612238762
0.402848272152
0.0308652675396
0.242794646703
0.167741347418
0.242201982443
0.434873903616
0.397185874119
0.454087773024
0.506631286504
0.519879046301
1.04285731169
1.36512557834
1.35803928192
2.16190401448
0.943744569688
2.46527179062
1.15165983712
2.09655824966
1.22816644325
1.3316313442
1.07841298197
0.281347891298
0.808546541884
2.08236318927
0.00589888264018
0.0694191434405
0.281056735545
0.534048666675
0.373114418422
0.335441382586
0.0768881276144
0.0432065818895
0.118575429225
0.36246783493
0.309188588892
0.505551929524
1.64759956709
0.0590552327635
0.439236157205
1.37448711164
0.222849595207
0.604881435917
0.511732059453
0.649231884535
0.445895094007
0.236196918394
0.50209705469
0.247102398195
0.0696633527818
0.302895081355
0.287597251121
0.175683875334
0.118943972956
0.0310814525628
0.113025535823
0.0109477881171
0.0258891451279
0.154654816973
0.120926626826
0.0293767088767
0.211304482736
0.187306147794
0.0116111874357
0.0737022882519
0.0293169420283
0.200864081733
0.00807935989719
0.0554875900406
0.118920546567
0.167551366958
0.289387342654
0.483701986146
0.0162920391775
0.106836125963
0.221972779357
0.0916632575353
0.11163853707
0.295655268006
0.252565633465
0.374863166653
0.412286048751
0.3409131254
0.370981038599
0.0895320935452
0.280276132253
0.187471219843
0.482861108738
0.477848725382
1.03606231562
1.40553495498
0.477279172048
1.5725291567
0.383505454108
1.47037474967
0.533905421803
1.09136808461
0.340441237196
1.09037278303
0.474455410548
0.574278577229
0.224148072879
0.278688869377
0.297471450617
0.356975985222
0.00798467074767
0.0487660112434
0.200689580372
0.0799678405968
0.208910166837
0.100282727115
0.277587031255
0.287607781822
0.444951129258
0.0
0.049061592165
0.07734747967
0.059208303782
0.169079476003
0.125401628969
0.148300585577
0.00164620801349
0.0314581766048
0.168956403619
0.0625969896025
0.0506441690268
0.0237744841061
0.0281518004029
0.0494209465874
0.0178159131867
0.0853101394845
0.162816720921
0.0133453642224
0.124251927411
0.166950711658
0.282437225924
0.197300741871
0.220818245169
0.386759730851
0.194165542939
0.171110044011
0.158025420913
0.0973331017655
0.159028258184
0.120568736296
0.441147328603
0.0757776488044
0.233562704847
0.226434919879
0.15686908644
0.389873593091
0.414569884596
0.221575587302
0.319060447199
0.430358326315
0.464682132769
0.483400996281
0.333113293098
0.597691799341
0.85392021155
1.02239327328
1.15774404269
0.992894916955
1.41589772633
3.12215118505
0.267553934813
1.65459078392
0.482324401151
1.84365162759
0.0773854855404
0.501895031162
0.585034170519
0.21663210295
0.31424990702
0.230616164399
0.0924796653304
0.350715178572
1.14663860791
0.406672565081
0.530662622504
0.305449876127
0.41629939226
0.34331753636
0.322384678507
0.254479244643
0.341863131122
0.527499140178
0.433981631285
0.522723636297
0.495791198127
0.508166987682
0.276215664891
0.530370720897
0.449049170087
0.277723118567
0.702556351791
0.173379221374
0.842103439686
0.0822183182962
0.452750054381
0.219673878078
0.220242717865
0.240088939461
0.302749953349
0.398052406779
0.0825128054538
0.222687578346
0.0262336682873
0.076982657605
0.175710193052
0.150612908412
0.197593080466
0.292009811306
0.218247682346
0.163397608174
0.418475908109
0.0147826968779
0.0679577835018
0.0936599435113
0.234979430155
0.816083905899
0.281275568653
0.303470412767
0.154277668596
0.273689307029
0.627731665503
0.480781190085
0.321621246864
0.604530817879
0.557056907613
2.18881516731
0.112317781706
0.57042269077
0.313567067198
0.462986618632
0.281531650079
0.442345806016
0.364673280227
0.421982002976
0.106468429907
0.131856995275
0.0689628902749
0.0387799375835
0.187571798018
0.322973801946
0.385061619414
0.425414052074
0.353450739427
0.384561683309
0.38678428361
0.419558575885
0.403063327122
0.382155168787
0.384039289973
0.474032837931
0.454424985557
0.406319941956
0.412635003606
0.383586727949
0.355518488018
0.377328395414
0.417022048426
0.353726385229
0.53388996789
0.223619002202
0.298479163984
0.298615999734
0.801785157988
0.421718938724
0.673243534706
0.497167784595
0.687425184688
0.527018223156
0.910654092079
0.493724118625
1.10777940283
1.1014219409
1.22731048484
1.2848924358
1.43506479516
1.63032284605
1.29420814793
2.09167728092
0.849818892109
1.73590067304
0.388037831162
1.58248605004
0.118311186468
0.46125370371
0.74345297332
0.200612894886
0.0536671313846
0.312745641611
0.844683514394
0.345564869617
0.385639903565
0.52147663238
0.510546959301
0.746239465393
0.658331561557
0.232042566614
0.360084365691
1.00249486806
0.522209986076
1.08300761429
0.569160207923
0.927523129302
0.508560271746
1.07389276459
0.542302900323
1.03317065475
0.358852074843
0.717089820891
0.311196230356
0.266293072184
0.336660004883
0.503658705412
0.0917554000551
0.0238955775307
0.110492418276
0.220895837681
0.169229130002
0.160994945626
0.123500663485
0.226162500911
0.0741197003435
0.120674298157
0.0972593233719
0.142958440634
0.103079973651
0.251166581112
0.260117371792
0.0937125840111
0.39149769858
0.299891685992
0.114435373116
0.145945949934
0.261833881438
0.149483136253
0.242393633668
0.0860125822121
0.0558826417402
0.403012096829
0.28976615764
0.13874876574
0.160641340836
0.15447876193
0.19629943538
0.154345359301
0.169261659661
0.444935355897
0.310092991716
0.0936096466275
0.252908670213
0.175417728518
0.459214903833
0.365075947696
0.25156839711
0.590691320696
0.960031216596
0.118014349946
0.333329369146
0.194024385022
0.397822208193
0.868458587115
0.34848125558
0.601028273226
0.636680971342
0.62475746854
0.433307377175
0.504527674404
0.954003451762
0.310278476893
0.531722588307
1.05727883805
0.271962980065
0.211998911105
0.281571624586
0.507940545004
0.313623702388
0.410947479123
0.471939551509
1.12351700292
0.202396142247
0.291910698471
1.16484743825
0.364582733879
1.23447808289
0.01596066127
0.0842614338961
0.43730603868
0.401636095585
1.06196666517
0.699251730433
0.265731168358
0.457751989016
0.607728845582
0.322559801395
0.814915941733
0.491721449478
0.068290703407
0.0384725017892
0.0610756980917
0.145285672317
0.263373047843
0.366324526951
0.152185355266
0.358397932546
0.922830859162
0.387307597829
1.1600413112
0.703002372142
1.29823665452
1.83715299338
2.2880108818
2.04289268491
2.02338327472
2.18530177739
0.914506047088
2.12689003882
0.695969794331
1.56224742415
0.158072104129
0.257192323982
1.52505680748
0.763275511828
1.34372261085
1.07471778418
0.96061404734
0.789915897432
0.42927634297
0.976515463636
0.261196343048
0.177028442458
0.0291441462932
0.0675605378409
0.345488562098
0.484986901696
0.517503729903
0.457777915688
0.307648974594
0.164030790883
0.250294607022
0.433941972658
0.485237274989
0.13825721383
0.212379028368
0.126732730681
0.215883364271
0.0150520683273
0.0389067630151
0.112908233469
0.186984452014
0.344449236118
0.22087653717
0.265887863162
0.369157271781
0.302310288282
0.309637600072
0.164169474176
0.300116167655
0.442359292655
0.496033479518
logs/alpha_8.0/PGSD_1000steps_4.log 486.359906477 0.486359906477 0.353793341066 3.77273362435 0.0 -1
