Policy Parameters:	-183.923812938 179.991881377
Control Steps:		1000
Start Time:		1442484867.6884887

-- TESTING STOPPED --

Stop Time:		1442485221.6479797
Duration:		353.9594910144806
Cost Matrix:
0.00879857300783
2.54846437529
0.0804004544122
3.77129316248
3.77117426139
0.102618462507
3.77117426139
0.105658213287
3.77117426139
0.0238802651516
3.77117392197
0.0983433415206
3.77117426139
0.0352573267212
3.77117426139
0.010283047692
2.8100003269
0.0102984024296
2.69770034412
0.0605149585921
3.77129621268
3.77259946451
3.77141852473
3.77117426139
0.0491067054186
3.77117392197
0.0140118219404
3.41664166354
3.77302640167
3.77416442278
3.77117392197
0.11709095614
3.77117426139
0.081704015722
3.77166723728
3.77230746017
3.77117426139
0.0363884856321
3.77239383657
3.77265449036
3.77132943924
3.77117392197
0.000851313511228
0.522620724491
3.77163471109
3.7714983359
3.77117392197
0.0150314931707
3.52775642242
0.0187635149619
3.77117426139
0.0387303235357
3.77117392197
0.0302034626251
3.77482740561
3.77408109755
3.77117426139
0.0169393087812
0.696503526414
3.77117392197
0.0140503010474
3.40217245398
0.0501394511298
3.77117392197
0.00485434754
1.71082395256
0.0
0.0675063164419
1.7396837585
0.0453978666201
3.77135849924
3.77117426139
0.0304919119687
3.78675136715
3.77628227192
3.77117392197
0.0133067533224
3.35497409517
0.00787834997982
2.33299902198
0.0333978150637
3.77123862527
3.77117426139
0.0144294466745
3.77117426139
0.0371489282365
3.771177909
1.95698768473
1.52826270702
3.77120493571
3.77117426139
0.108758617051
3.77234300824
3.77117426139
0.128377775
3.77117392197
0.03881309865
3.77122722264
3.77117426139
0.0593375494064
3.77128348697
3.77117407126
0.490358215222
3.77117426139
0.280066722362
3.77117426139
0.151097721592
3.77117392197
0.170622324718
3.77140070318
3.77117392197
0.0363635434346
3.77117426139
0.0383399977691
3.77164538627
3.7711912915
3.15945097943
0.0471787704859
3.77117426139
0.0804988768081
3.77117392197
0.0156361984744
3.7718502188
3.77274686693
3.77276741632
3.77117392197
0.0028217435202
1.43366624776
3.77117426139
0.0572551238074
3.77117392197
0.0281881652409
3.77127705406
3.77312554688
3.77259611504
3.77118292659
2.35358227194
0.0108666077763
3.03184678743
0.0191298099982
3.77361541712
3.77154927549
3.78932857445
3.77187689632
3.77190487617
3.77168670833
3.77324183373
3.77117392197
0.0203079220583
3.79657054712
3.77117392197
0.0571720034213
3.77132767072
3.7712011783
3.5604200213
3.77117392197
0.0329602647246
3.77380989
3.77117392197
0.0771123243022
3.77117426139
0.02524095579
3.77117392197
0.0645228236687
3.77117426139
0.0838545047191
3.77117392197
0.0280894133124
3.77169285796
3.77117392197
0.0233244015596
3.77117392197
0.175943256605
3.77117426139
0.0215017198263
3.77117392197
0.117610818539
3.77117426139
0.0110715264824
3.27165175704
0.0745173121749
3.77117392197
0.0298884154637
3.77117426139
0.0662873163242
3.77117392197
0.00257852266452
0.69515722645
2.80212210852
3.77242721007
3.77257078989
3.77117426139
0.20963002207
3.773652015
3.77117426139
0.153175026953
3.77117426139
0.0524118138933
3.77139549546
3.77139960856
3.77117426139
0.0201414864136
3.77117392197
0.0484241079209
3.77117426139
0.000725305301299
0.532824667938
0.0353963212012
3.77117406086
0.483365771733
3.77117426139
0.0339813074449
3.77117392197
0.00991703329294
3.0004423124
0.0
0.0618606249074
3.77117392197
0.0105796214643
2.90916491463
0.0276195852953
3.77117426139
0.0197685815422
3.77117426139
0.010488486682
2.94277532539
0.0212108266703
3.77117426139
0.0562029401069
3.77117392197
0.0258351496063
3.77117426139
0.035029312962
3.77117392197
0.03397937853
3.77117426139
0.0347344900063
3.77117392197
0.0725027143262
3.77337868786
3.77347236039
3.77245058477
3.77117426139
0.00811167849322
2.3943956244
0.0154678939293
3.68895425862
0.092827487915
3.77117392197
0.00505062098848
1.70648750532
2.04876244358
0.0024549357813
0.841626355159
3.77117392197
0.00857095854698
2.77159764589
0.079841025627
3.77118691949
2.92096601391
3.77117392197
0.00522867693385
1.96778876409
0.0582169449816
3.77117426139
0.00680827212121
2.00378063012
0.0
0.0548008905576
3.77117426139
0.0544292254099
3.77117392197
0.0252681557453
3.77117426139
0.00706241026244
2.68611539911
0.107441624556
3.77117392197
0.0491921413667
3.77238619016
3.77117392197
0.060277632993
3.77158979457
3.77117392197
0.0
0.372403449221
3.77178383007
3.77117392197
0.0
0.0303140821485
2.59584613911
0.0127776588529
3.32266269284
3.77122830217
3.77117392197
0.263458491664
3.77121390013
3.77134885593
3.77171431771
3.77118488401
2.76101609836
0.0582928594174
3.77117426139
0.0168458603351
3.77246326943
3.77470549167
3.77150577117
3.77117392197
0.109651514055
3.77122461256
3.77117392197
0.000870210826418
0.189520580929
3.77117392197
0.0435468024876
3.77117392197
0.022132306458
3.77118460237
2.73729100512
2.84711987034
3.77117426139
0.0322506249396
3.77117426139
0.0749712549967
3.77117644447
1.66413707084
0.0418961652515
3.77117426139
0.0671918294044
3.77117392197
0.0107278242306
3.12852058632
0.0156499964927
3.77117392197
0.0257174499153
3.77117426139
0.0298547977593
3.77117426139
0.076479590608
3.77117392197
0.00662842104953
2.1143423409
0.00859064758739
2.81015104988
0.0178641144192
3.77117397333
0.417195932247
3.77117426139
0.0107792002271
3.15845319872
0.0422602772435
3.77117392197
0.0863111416263
3.77117593302
1.6198953564
0.0337725076093
3.77156674296
3.77117392197
0.0255540588015
3.77117426139
0.0299960309008
3.7712209471
3.77118655191
2.84563455853
3.16122979286
0.0279961434796
3.77117426139
2.40255337083e-05
0.0668129234143
3.77117392197
0.254683115331
3.77117426139
0.130446358204
3.77117392197
0.0534109614052
3.77117426139
0.0453691635684
3.77117392197
0.038399992161
3.77144586298
3.77117426139
0.04751413067
3.89632881359
3.77117426139
0.025682424745
3.77117426139
0.0170620149092
3.77117426139
0.0871655772706
3.77117426139
0.115463957713
3.77117426139
0.0728960873244
3.77151133555
3.79138143495
3.77117392197
0.0393739577383
3.77172956147
3.77117392197
0.115369844933
3.77117426139
0.0346617397886
3.77122612863
3.77629113372
3.77117392197
0.0793973947375
3.77493159212
3.77117392197
0.0484243083716
3.77117426139
0.0132767213615
3.31166170135
0.0612156427258
3.77117426139
0.149652664592
3.77117392197
0.0168176435209
3.77117426139
0.0210235821557
3.77130519476
3.77117426139
0.065482008029
3.7713381581
3.77117392197
0.0882058573881
3.77117426139
0.0143231649029
3.46447240367
0.0661888106513
3.77117426139
0.0219056628474
3.77117426139
0.0
0.406212336319
0.0173906852811
3.77320025345
3.77117426139
0.269687147631
3.77117392197
0.116001177428
3.79330270381
3.77117392197
0.0174518117011
3.77117426139
0.0702457559075
3.77117392197
0.0507740562591
3.77117392197
0.00622651920411
2.4009330506
0.0485836017649
3.77117426139
0.00585307477521
1.91288404122
0.0113026962295
3.04191385669
0.030472186408
3.77117426139
0.00995365446504
2.80600777822
0.00670018088274
2.43086969731
0.0214349308619
3.77117392197
0.0455824252007
3.77117426139
0.0159695040119
3.77284882353
3.77117392197
0.0313322133821
3.77117426139
0.0431554286019
3.77156041608
3.77117392197
0.0330801750407
3.77183344063
3.77117392197
0.0149773802686
3.77498995123
3.77117392197
0.241080831881
3.77131636364
3.77403661829
3.77117426139
0.031040531868
3.77119222531
3.12085515416
0.047556938551
3.77117426139
0.0169599987055
3.77288613733
3.77117392197
0.108126622194
3.77117426139
0.0414598569679
3.77506283855
3.77140356743
3.77117392197
0.139481160875
3.77117426139
0.0195482438681
3.77431652701
3.77179963265
3.77361388856
3.77118028995
2.25860658196
0.100131044458
3.77273388073
3.77117392197
0.123620829857
3.77222194645
3.77117426139
0.00467817525246
2.09938565538
0.0670114970715
3.77124996751
3.77117392197
0.185054175786
3.79066506857
3.77199823088
3.77119648586
3.49251581317
0.180927621164
3.77117426139
0.0963367258769
3.77290273358
3.77117392197
0.20736614044
3.77231789894
3.7712971424
3.77117426139
0.0412736237309
3.77125210544
3.78545577364
3.77119382422
2.51713114809
1.63329835997
3.77305364513
3.77117392197
0.214559691899
3.77117426139
0.0456115678987
3.77135121405
3.77253344331
3.77117392197
0.183866986994
3.77873459413
3.77117392197
0.146486964492
3.77480030608
3.77117392197
0.123120279051
3.77134733545
3.77117392197
0.0960436794174
3.77117426139
0.0481217325402
3.77117392197
0.0457634893485
3.77117426139
0.0
0.09889317274
2.91227798509
3.77134488529
3.77117392197
0.401466329981
3.77117440287
0.866240137866
3.77117426139
0.0274597700618
3.77117392197
0.00862130848334
3.07106851626
0.0367652752225
3.77168041399
3.77117392197
0.396973619102
3.77151546749
3.77117426139
0.0281966206427
3.77167472369
3.77150133583
3.77617294129
3.77117392197
0.0895421099017
3.77117392197
0.0439152872543
3.77117426139
0.00965787103112
2.61701067671
0.0536628283425
3.77117392197
0.0552848414238
3.77117426139
0.0263796444485
3.77117392197
0.0583435101184
3.77117426139
0.0321910650447
3.77117392197
0.0418141520666
3.77117426139
0.0217778297796
3.77121253926
3.77117426139
0.174884979702
3.77117392197
0.0342942093261
3.77117426139
0.0417805511521
3.77148341874
3.77117426139
0.0618317750096
3.77399629057
3.77117392197
0.0488878510309
3.77392989129
3.77117392197
0.0187916723155
3.77117392197
0.0271656514808
3.77117426139
0.0356155738373
3.77117392197
0.0572490701401
3.77117426139
0.00802600268137
2.29762878739
0.0180468225996
3.77145974553
3.77117392197
0.000124160220654
0.24328845509
3.53223807117
0.0793484591783
3.77117426139
0.0688891334424
3.77117426139
0.0580305399762
3.77262947562
3.7817269386
3.77117392197
0.0106632255305
2.81941471863
0.0288856384671
3.77117426139
0.0124021821236
3.53446608754
3.77117426139
0.0828148063195
3.77117392197
0.0393626530361
3.77117392197
0.0421889074468
3.77117426139
0.0197142568964
3.77117426139
0.0774955487711
3.77117392197
0.0304880949308
3.77117426139
0.468956594857
3.77117392197
0.00445340574931
1.46225701666
2.25886576508
0.0247694881379
3.7744474326
3.77117392197
0.0166654567412
3.77117426139
0.0478011179313
3.77829221205
3.77117426139
0.00179917538797
1.06898186836
1.53152712529
2.59920479004
0.0630499693019
3.77117392197
0.0672831085099
3.77117392197
0.0406402021179
3.77117392197
0.0467573295614
3.77117400363
0.15419501338
3.77143830307
3.77117392197
0.0368982580646
3.77117392197
0.023163060946
3.77572556486
3.77117392197
0.0174008362007
3.77745243397
3.77117392197
0.0250119983407
3.77117426139
0.00562528705887
2.15508262078
0.0150512364852
3.64341894824
0.0206708688092
3.77117426139
0.00136134516238
0.379736678993
3.77117392197
0.0117210534772
3.38033770501
2.91709373034
0.00609940715992
2.26751448808
0.00499176072852
1.50700597436
0.00652740887258
2.38887672228
0.036218452459
3.77120216197
3.76005092388
3.77117439947
0.854854076813
3.77305717307
3.78767697527
3.77117392197
0.0
0.167143513848
3.77279041154
3.77135569484
3.77124927136
3.77153736691
3.8038838697
3.77117433923
0.800358486592
3.77117424081
0.691279912108
3.77185884858
3.77118111798
2.35516665096
0.0260142615072
3.77117426139
0.0319497247145
3.79510343557
3.77849951614
3.77184851608
3.77117392197
0.139732199725
3.771240241
3.79176686526
3.77117426139
0.129370958974
3.77117392197
0.167286154896
3.7716097087
3.77117392197
0.0135609119103
3.40953563901
2.07345475622
0.013550430059
3.67874854995
0.0111138882797
2.94545266757
0.00404087571272
1.75997506637
3.80183541067
3.84019803962
3.77117426139
0.238547121295
3.77225747227
3.77117426139
0.209782066542
3.77117392197
0.0794946430474
3.77139624202
3.77117392197
0.0471440474482
3.77158324794
3.77146466115
3.77117426139
0.0947027398545
3.78975868874
3.77177525921
3.77117392197
0.0917889247705
3.77117426139
0.265443857881
3.77117392197
0.0182716774039
3.7716594682
3.77164725226
3.771186529
2.84928695322
3.77514286942
3.77117392197
0.398312654906
3.79536090845
3.77117426139
0.0106323053315
3.20864654685
0.0592215913138
3.77117392197
0.0433264789284
3.77117392197
0.13992499338
3.77117426139
0.0548189404685
3.77185884605
3.77117392197
0.0328874480426
3.77117426139
0.0507229366866
3.77117426139
0.190779687765
3.77117392197
0.0
0.113507574915
0.0973372845988
3.77117392197
0.0615336229056
3.77117392197
0.049734987118
3.77117426139
0.0
0.182456658666
3.77117392197
0.066103756976
3.77134774799
3.77117426139
0.0635339493934
3.77117848501
2.0123721829
3.77330420661
3.77184772019
3.77153897966
3.77205654059
3.77323867164
3.77465703776
3.77368308026
3.84468603285
3.77340264394
3.77133772709
3.77118411983
2.69552710454
0.00528475911641
2.24498771781
3.77117426139
0.0182269387151
3.77117392197
0.109185707499
3.77117392197
0.0544080865959
3.77117426139
0.0814997317198
3.77137612305
3.77117392197
0.246998725356
3.77120640069
3.77119615794
3.42237852681
0.19941593434
3.77117392197
0.182745955583
3.77117426139
0.0546664701366
3.77117392197
0.167095981146
3.77117426139
0.0985322336682
3.77117392197
0.208540196576
3.77117426139
0.150585199349
3.77117392197
0.140160622644
3.77117426139
0.125926861952
3.77117392197
0.209292458968
3.77117426139
0.103491374212
3.77117392197
0.160856193484
3.77117411605
0.1421076149
3.77117392197
0.0369389925469
3.77117426139
0.0953481871365
3.77117392197
0.00968285427476
3.00277856612
0.00662131278204
2.01656552804
0.020273968675
3.77117426139
0.119693402752
3.77117392197
0.0400396134948
3.77118750679
2.91499076618
0.0931716246276
3.77117392197
0.0396414621067
3.77117426139
0.0281865256824
3.77117426139
0.148990829585
3.77117392197
0.0184574338212
3.77117456716
0.955220935121
3.77117392197
0.021801837757
3.77117426139
0.116193368343
3.77117392197
0.0251575202176
3.77117426139
0.0895589178444
3.77117392197
0.0115758474743
3.03527048511
0.0220470649594
3.77117426139
0.0134092598739
3.3877905309
0.0462643468014
3.77117426139
0.0115530139275
3.2712343098
0.0300773059338
3.77117392197
0.0266328095735
3.77117426139
0.0
0.172646229516
0.0
0.0577992030618
3.77117392197
0.0197085306296
3.77117426139
0.0823650439841
3.77117392197
0.0295731274131
3.77117426139
0.0758246518428
3.77155734948
3.77117392197
0.0144452300767
3.77117426139
0.0211838766057
3.77117426139
0.0325700294698
3.77117392197
0.00314787548009
0.985288437542
0.00981202846181
3.04262199616
0.0223895649837
3.77117392197
0.0350086284172
3.77117426139
0.0188048910489
3.77117426139
0.0153884515804
3.77117392197
0.00700848910575
2.36877086414
3.77117392197
0.00928988049747
2.89761987099
0.0010580144662
0.629534094161
0.0301993673256
3.77117392197
0.0
0.317292086989
3.77117426139
0.0289468984851
3.77117426139
0.00250734378556
1.19796094423
0.0157555042037
3.77131469129
3.77117392197
0.0818292928803
3.77117392197
0.0247221102339
3.77117426139
0.01594044346
3.77117392197
0.0027606528113
0.864029056602
2.32383874285
0.0123705123729
3.42131554265
0.00281973701159
1.00672763475
0.00311423822383
1.31385809706
logs/alpha_8.0/PGSD_900steps_0.log 2143.99353609 2.14399353609 3.41308865127 3.89632881359 0.0 -1
