Initial Policy Parameters:	0.0 0.0
Learning Rate:			8.0
Learning Steps:			1000
Start Time:			1442065911.4944038

-- LEARNING STOPPED --

Stop Time:			1442066081.202055
Duration:			169.70765113830566
Final Policy Parameters:	-1.20865991577 3.01711004707
