Policy Parameters:	-33.4745055516 26.7359417466
Control Steps:		1000
Start Time:		1442466486.7507932

-- TESTING STOPPED --

Stop Time:		1442466736.544305
Duration:		249.7935118675232
Cost Matrix:
2.27688940107
0.0348410357265
1.34589040852
0.0186844164059
0.572573275429
2.92528912572
0.252519984284
3.75089295846
1.75194326094
1.97629915874
0.70842668263
3.45032567098
0.0690299630544
2.49497306181
0.0284529768998
0.609564955016
2.17904890478
0.0654156660017
3.06721694928
0.0291375993523
0.431383308865
3.4442664573
0.0129601566687
0.326657734952
2.79252530101
0.0113598591303
0.346494038751
0.00134030937899
0.0787358567779
1.01886563412
0.421323760222
2.71770296907
0.00862990026543
0.153339733146
1.62096126501
0.0222503838652
1.17348973854
0.19755535271
3.33467667096
3.77117392197
0.00947011892151
0.626299397587
1.96215739736
0.0716812418405
0.038731022619
1.38383848266
0.0419232038998
1.6572258842
0.31958046021
0.215378620342
0.020648099516
0.421639936133
1.99368961855
0.060637366369
2.9765377249
0.0
0.0793763970246
3.15413414664
0.00897879998949
0.0635271787883
1.60750964255
1.84420937971
1.71947335634
2.91301073332
1.39470730382
0.626678239772
3.77117426139
0.0242407281691
1.55113276167
0.0166989973679
0.257824104889
0.0440365403247
2.24897701795
0.0347362408694
1.93596786056
0.00324367971663
3.27257099313
0.0308492004187
1.07924168556
0.00120381655978
0.172180747393
1.61998680204
0.0753485940621
3.77127452134
2.27764060176
0.00488611112524
0.70943986511
3.7711744152
0.142439225102
2.93995946115
0.207859271827
3.21911440248
0.0572823116681
2.76597000269
1.56737108395
3.77258993068
3.77613653349
3.77117392197
0.175142997078
3.77117392197
0.0291650992549
0.464913526585
2.0980646687
0.0230093820344
1.48384246349
1.85421407178
0.141783880718
3.77117426139
0.110729076413
3.36642248744
0.0609835317728
2.32497068651
0.0457649822076
1.73021478416
0.0435532443497
1.80793927464
0.000975614997032
0.294985241506
2.22399269709
0.0105228917102
0.260966897349
1.69378477473
0.0361278130567
1.95146174401
0.0277763589247
1.68326200879
0.15212600359
2.82097390889
0.00565709014017
0.118232094375
1.00484851167
3.32236116454
0.0155823809453
1.24151937711
0.00804961703647
0.0452172638369
1.96236489031
0.000191486361834
0.308226721688
1.83721243608
0.0145805115919
0.815010377449
0.122664024209
0.0142384455021
0.754711127664
0.0055600740645
0.0358135443935
0.743477113145
2.06259501971
0.311361396025
0.257313036785
2.52193771531
0.0163841152934
0.152223881568
2.89726556002
0.026844407344
0.787574687468
0.495373822897
2.5243826324
0.028564433886
1.62265995221
0.0120019856152
0.742886462038
3.58240784193
1.90035980413
0.0412706597023
1.24516490326
2.56471039013
0.0275342613122
0.614085929079
2.66728464277
0.00904415489401
0.476031410157
0.0521171244877
1.91512401347
0.0140041392694
0.789276648613
2.63845147387
0.055503346634
2.21648683049
0.0436211237682
1.53012101855
1.88522524262
0.00840782642998
0.437502351864
1.36030523066
3.77140515034
1.75627536454
0.0216438233061
1.44509775238
0.0225796823665
1.38846638518
3.77124790911
2.20899110846
1.49556420563
3.45135357992
3.7730184906
3.77322608107
3.40667323575
3.77217098411
3.7324982182
0.00812626599503
0.773619635248
2.69501989469
0.18126569438
3.77153832093
3.54953199236
0.242819419824
3.77154527441
2.60311644248
0.180783387236
0.505558846666
1.90236551733
0.0335235680118
3.77194248162
2.8852973035
3.7712947827
1.6155786401
0.166788647613
3.77941132966
3.77117426139
0.107828400875
3.40817458776
0.0821629662844
3.70440135415
0.970459684895
3.77498436902
3.77184140197
2.73156740515
0.159743509882
3.77117426139
0.0581060218995
3.7861017517
3.77122977377
0.722504699739
1.23421483232
0.1547827369
2.80984689873
0.0725194466254
3.39121773129
3.77124497571
0.897556481653
2.35462909605
0.0440310505028
2.24875102816
0.205123372652
3.25524042151
0.723894946471
0.172768859578
3.77117392197
0.0443625701254
2.71633567132
0.0494217134255
2.64965531272
0.0615843852457
1.98996145337
0.131924408118
0.272794286109
1.76103488653
0.00984528268589
1.17743678924
0.155949927388
0.362488850956
3.77119960312
0.523755139779
3.11041667792
0.207282534619
3.77161446807
2.7790745875
0.0118003445293
1.0234737951
3.35474944585
1.88296987467
1.93039549421
0.397798783042
3.77117406064
0.0937355795494
3.20965756423
3.77289587613
3.77117392197
0.276574951768
3.77117392197
0.0795768771573
3.58404105423
0.0310790648007
1.66232404931
0.00515629732122
0.226164897683
0.14850952244
3.39739494409
0.0196994624073
1.32985957314
0.0097463153086
0.594566603917
2.3005372595
0.760460128399
1.54170726152
0.0275106493339
1.72918835913
0.00708229052916
0.145635781853
3.50351737008
0.0051980745789
0.27967567666
0.0163868291
0.403696846922
0.532157459831
1.65508225854
0.00207894609323
0.475908564045
1.25142179462
2.21541418376
0.00539469105086
0.256045179392
2.74656823261
0.0259999135362
1.65412201002
0.0313414951156
1.67333741803
0.235328885232
3.77117426139
0.0538744912532
3.08663102336
0.109088513036
0.47626314523
0.0156613985506
1.11920129723
0.0240836734799
1.46630459294
0.031908548959
1.83393911349
3.28692249823
0.493832755101
2.9163641334
0.0635229078371
2.41132240969
0.0
0.277100699912
2.82725921354
0.0698341002821
2.65035347078
0.0519504862605
2.12388128153
0.0
0.114790933748
1.36248500689
0.00528041687447
0.101314586762
1.23838391088
2.24613006782
0.0107857476025
3.62011745715
0.0274642156301
0.989065708206
2.72040757396
0.0318304980066
1.30130865601
0.398277040577
0.0270760700132
1.49142544606
0.0566498869067
2.76898808787
0.0244632358651
0.76789539287
1.5569289614
0.0111059576919
0.271921528905
0.884384412259
0.0186125978262
0.474064803155
0.0
0.363891209116
2.28441652355
0.00720128473565
0.391153137803
1.29105054899
0.0
0.12264583965
1.5506163639
0.500587615752
0.227618442542
1.29573173243
0.296127830971
3.2972031905
3.79008498601
3.77119402733
0.372011972933
0.0677818880178
1.98705269513
0.0398960046644
2.41210227376
0.00681170768766
0.625588164964
2.73710573182
0.00194697921958
0.35826456139
2.3258524816
0.0681413910354
2.54250364612
0.326691552088
3.75628666765
3.77406758738
3.77117392197
0.0235108392443
1.26184657742
0.0104481956465
0.445520328879
0.00029284350142
0.117416118661
2.76838303849
0.0123738845591
0.5134959173
2.63084259166
0.0105925660743
0.844729788201
3.03636993474
0.027616613803
2.02680269565
0.156668694787
3.71984142188
1.00164055296
0.238333887661
2.77480020283
0.00880201380873
0.733308652288
0.0
0.11039297651
1.63751419591
0.0811853679179
3.06909319605
3.77117392197
0.143585925216
3.77117426139
0.00456376346105
0.0801034437695
0.930427294605
0.0660783897896
0.148216018158
0.519756012013
0.0661895447896
2.38638786393
0.0826505438884
2.97411418741
0.0431511581576
2.43581418334
0.0207581692545
0.498076780312
2.2345088777
0.0108591794133
0.448839595763
1.53842797486
0.00149267708061
0.0428435116867
0.875301530836
0.0132363742026
0.324960868223
0.020998013073
0.214164061365
1.353815501
0.0106489558915
0.17712427078
0.461631525058
2.52371682947
0.00798135658228
0.0911471173058
2.99985602342
0.0130552710469
0.243678796331
3.50543054652
0.300170303263
0.365253891963
3.81268192996
3.77117392197
0.00472027883801
0.388427939564
3.77201081177
2.97489589457
0.50550212287
3.77160056596
2.74548253883
0.0584334638961
3.20841848318
1.54736486744
2.16184332162
0.0189109077383
0.327982576968
2.4063380533
3.70468521778
0.198126881611
3.77117426139
0.0236663890602
1.40382064692
0.214590522033
2.77268970196
2.05221299895
3.77117392197
0.0166587020017
0.226064590723
2.25341914231
0.0103377489987
0.052775168476
1.43170690057
0.61081727912
1.34692912514
1.14010132619
1.06959295871
1.29656081958
1.27601333866
1.41862010058
0.883418224949
1.98152825845
0.317954658821
2.72655615629
0.00361435845474
0.210165464403
3.11959174567
0.0133353542249
0.158815955053
2.52005482533
0.0356985748044
1.26422714605
1.86302035146
0.392729564759
2.98117801477
0.0403448830547
0.486402704803
2.49149365995
0.00166500895203
0.661568563614
0.0370540371511
1.30243740916
2.20729897805
0.109141051627
2.95089311094
0.240166427415
3.29469085017
1.47167818123
1.54986380438
1.3224623349
1.78160986958
0.414996457984
2.55524900363
0.0462241973197
1.89484921847
0.0153067876083
1.23077729725
0.165117367845
0.0275524613663
0.882696565987
1.32505683655
0.318772450723
1.97732593974
0.0249650096859
0.844368761163
1.89824354406
0.375715443388
1.9764799834
0.251476588493
2.97414251151
0.53651682011
3.67186861714
0.113352957348
3.77117392197
0.0360307372644
1.93466657981
0.00244857079223
0.108972517225
0.379734120666
0.411726144318
0.0240522736513
0.949062490612
0.020904280293
1.11888041781
0.0288893389757
1.20436358534
0.100801838678
1.59326082074
0.0129798401284
0.671590472889
0.00170648316266
0.111034213024
0.349430147499
0.453890282952
0.00118805219433
0.211786754512
1.40701081508
0.0
0.00536871104397
0.272365578569
0.00827551559212
0.231489331834
1.52254555933
0.0202980048519
0.508958078183
0.0128678933281
0.38681656907
0.096352527029
1.59083008577
0.0659451519937
2.47301255487
0.0068973070045
0.154661361008
2.6181468155
0.0217716992151
0.461347480534
3.18869468532
2.37686036879
2.93254399666
0.135817598741
3.77129319168
1.25742116299
0.0391010026988
2.08660220034
0.207732662424
3.77117426139
0.0932196082154
3.1441086112
0.167998110587
1.63629592714
0.00919186813502
0.0272585461086
1.59592587647
0.235613338496
3.77149756978
2.46685003465
0.230944063061
3.77117392197
0.0104205262888
0.189769216839
3.37503896688
0.157641388699
3.77117392197
0.0611078314336
2.90356469309
0.0205090882512
1.35572382209
0.0304221615627
1.2776877734
0.306345392734
1.38750084633
0.263612342823
0.0571706172711
0.324749407599
2.19410213576
0.0482416282671
2.42057901215
0.00447717266757
0.167129666023
1.65373062438
0.0321573970529
1.7136360504
0.033622886647
1.42260733395
0.0372323900591
1.48077771945
0.0202303477811
0.612053184142
0.013603895936
0.619895121793
0.0135809340205
0.936926721846
0.123145445411
0.0434038058187
1.30799504031
0.0
0.19378898651
1.97955728493
0.000629609670599
0.110528802097
1.79066007387
0.261664062615
1.22978496665
0.0374171683329
1.8746690475
0.0046035027546
0.300860156698
2.06368013965
0.0456156304573
2.37967018501
0.0259859435424
2.06866714691
0.165715745708
2.04405657129
1.22836759425
2.610043108
2.17639447581
1.74598875223
1.53007930237
3.18474662471
0.0122328367867
0.605477387036
1.8985668944
0.00358520927068
0.0550609838117
0.336505133914
2.16240299244
0.191834006038
3.77710620563
3.7818475812
3.80488066507
3.77117392197
0.00562052922887
0.826954895577
3.7723178986
3.33457840155
2.17115185089
0.0392982635003
2.33536851475
0.491120585808
3.77264958991
3.77120702617
0.646477816324
3.77117392197
0.252409267019
3.7713366883
1.85171105298
0.104408453481
3.77202768745
3.0259314366
3.77117496066
0.120306476116
1.35575078078
1.43214493853
3.78289047781
3.77258686309
3.77117426139
0.00902858547044
0.20670350825
2.8413958947
0.00544979089675
0.142429436459
3.64861343753
3.77117426139
0.00674303055919
0.104043836189
1.19707821869
0.235876961901
0.424904314397
0.0902523481271
0.352463213011
1.4363132851
0.0227865057559
1.49702874451
0.0089552222202
2.15298462868
0.00835413376598
0.433526280824
0.013756373996
0.724561663619
0.0689648892171
2.59234657094
0.000958329449215
0.0792221338228
0.153146803348
1.19613702102
0.0
0.174791760324
2.11065595008
0.00383428373182
0.0624679471226
0.405020385124
2.19473633797
0.0
0.187448685851
0.655747764903
0.00679577675669
0.495421039378
0.389590451419
0.0451546068448
1.39136419355
0.969616340899
2.69126472924
1.40439250622
3.47619559692
0.085666521654
3.01143727347
0.0340168371071
1.2388325017
0.00219191142007
0.219083659938
3.23196813533
3.58383813562
1.54173571597
3.27546614589
0.0705290145068
2.49115983945
0.00253103496933
0.0533721069497
1.65411646586
0.0740582380919
3.44768528964
0.0122844371274
0.0686336806368
1.78760667035
0.0
0.522406693901
3.77156296666
2.20406733919
2.59962003301
1.0416129544
2.48546662838
0.0555819122926
2.86462900424
0.197898632728
3.77382914208
3.77118343751
0.337647753547
0.922559465095
3.79809764683
3.77117396825
0.306814014037
3.77121980642
0.63773970234
3.77117392197
0.186297238652
3.78139042083
3.77117426139
0.331061585278
3.77121153163
0.532528376418
3.77117392197
0.0311579822975
3.77117392197
0.0970462413595
3.43979073599
0.0223002474359
0.578054345186
2.14955502575
0.0199560916334
0.467150818457
1.30716208166
0.0661102233353
1.4338272345
0.0242099232988
1.58735544773
0.0200436207748
0.48709205045
2.21239626376
0.00869570654895
0.587288458863
3.77147144184
2.38571328323
0.0176590312562
1.43191051942
0.0418702836357
1.76045699017
0.0426729460566
1.76414431387
0.0467642632123
1.94366358459
0.0247501213462
0.674581523856
1.85052444181
0.0250283017608
0.737377130342
1.79472848197
0.0107994084055
0.927938879721
0.40784030119
0.253122374552
1.74524225207
0.0714180986548
3.53231493571
0.892481942324
2.00596615422
0.0488719964039
1.96411601802
0.0508355894081
2.08863620369
0.045454941304
1.89515541875
0.00921523020309
0.0640054994885
1.29715766947
0.811331711921
1.75216508957
0.00456529346929
0.508598519323
2.31828409509
0.021621946586
0.452492012036
2.75749139253
0.043925852931
2.56191977702
0.00505123018835
0.140341068481
2.67289821474
0.041104103418
1.60155175748
0.987688517184
1.9922524343
0.0392454774301
1.53831237008
0.418456677821
2.85201538869
0.000204175268327
0.352257917176
2.37753146619
0.00122398873768
0.254527058675
3.77117514096
0.146018340131
2.91603838517
0.0880196334506
2.36125582577
0.0562027948422
2.27105359213
0.021198091217
0.457042493286
2.42930459785
0.0
0.352510166288
3.41931797995
0.0434411410656
1.70088690326
0.21195443901
2.71517966109
0.0158065009191
0.25231462609
2.1653501345
0.00278955422558
0.146965199544
2.60817565793
0.0418332499853
1.7590285174
0.0
0.36422998537
3.64959155253
1.85576325431
0.35765644122
2.89550881767
0.04624241624
1.84684251271
0.0949555705699
1.98231248449
0.0389849002999
1.57965135765
0.26679706487
2.34440331094
0.00748732790992
0.594990267087
0.0686184261531
1.36394641674
3.77117426139
0.0581626947472
2.32405198508
0.0514633716004
2.05845334908
0.013779840397
0.19073772491
2.12579496581
0.00561830824473
0.0498185641659
2.39220706082
0.0263984989654
0.684940721652
2.34325127185
0.0102649008594
0.0930736667273
1.65004470368
0.017538119478
0.383843847953
1.21506969583
0.375942059845
1.35866197661
0.0300003794152
1.25777107108
0.150409414708
0.490951483995
1.0855179321
0.526732148446
1.52566911431
0.00986239804936
0.233528828271
0.469625266299
2.19348284241
1.32717543402
0.0295023069017
1.19766876067
0.219875299435
2.14656146338
0.0146973924511
1.09847568821
0.00421193156961
0.436094803222
0.100351149077
3.45423305753
1.85378081316
0.00594962527307
0.152098346944
0.327945957863
2.49089023914
0.0307673816509
1.16166893969
0.00757018652247
0.226990910704
0.189480501655
0.161564940138
1.48829319539
0.0184842921305
logs/alpha_8.0/PGSD_400steps_0.log 1212.19751137 1.21219751137 0.582671402025 3.81268192996 0.0 -1
