Policy Parameters:	-5.28319134813 5.10082915255
Control Steps:		1000
Start Time:		1442506356.6292632

-- TESTING STOPPED --

Stop Time:		1442506542.2450755
Duration:		185.61581230163574
Cost Matrix:
0.30918888184
0.241939710224
1.36610611237
0.385849525962
0.139484759245
0.432960178898
0.155128006555
0.47638044015
0.321951829773
0.237155701702
0.0891412987119
0.282424320921
0.0998475408408
0.376762131858
0.362154722281
0.281261993806
0.22148386856
0.478904921405
0.419549511837
0.65834912361
1.2424843427
0.62911962551
0.576560286185
1.02557800404
0.953113601162
0.560975429529
0.841332935155
0.893379376094
0.482866996811
0.439140566096
0.879995820374
0.110410849665
0.303838415681
0.192828621755
0.16851657845
1.29731387932
0.0279881374246
0.164941124553
0.270694711388
0.261988984139
0.305918781067
0.180710428803
0.11921173032
0.351516905258
0.417176999688
1.15201170103
0.486345358877
0.984815967622
0.679433779575
0.925558522985
0.645924120452
0.45125828651
0.900430044816
1.08174130125
1.07226858496
0.473063129209
0.463128262448
0.448101972014
0.545733362898
0.333964359368
0.581438437983
0.138074742137
0.354848972808
0.232820384916
0.520635309534
0.918773175881
0.149963703808
0.286694913172
0.299124416308
0.367656890392
0.276243135913
0.216136763461
0.195779823832
0.312181618908
0.148314281948
0.272788235495
0.280149170025
0.249668183299
0.351464735619
0.415038760088
0.46288267427
0.25476678359
0.377450827716
1.01722054762
0.515540394682
0.845078543648
0.472752987753
1.21720491961
2.21095705486
0.025403519169
0.163920945418
0.303969636975
0.233756921812
0.325029546643
0.240426167562
0.0
0.0590952903149
0.323748816372
0.284467745469
0.167049410947
0.307465196728
0.0936898581128
0.510071089677
0.0518584591604
0.282450326713
0.384010851146
0.0887461040186
0.252911770172
0.344444716067
0.299780327251
0.389933032
0.264449671867
0.185239090765
0.133248604132
0.026003086704
0.0949251526005
0.0541747930259
0.0636718524331
0.300551424624
0.198497417945
0.00480114832111
0.0547613473389
0.236948307503
0.814165854625
0.404236460373
0.30380039307
0.432065334254
0.51313947353
0.451450563672
0.41358535134
0.0894020178237
0.488045177054
0.0273828106543
0.162206480873
0.175395115919
0.113977770545
0.213264216901
0.00528588698453
0.0472763747067
0.19623376269
0.189587254653
0.236077153796
0.18657647913
0.232506657665
0.0465526926624
0.263680039203
0.202535791317
0.250596722427
0.247744403406
0.343759736706
0.300128656243
0.34706356907
0.964724453424
0.0595110802161
0.2247314924
0.394518653211
0.466647765833
0.703170012097
0.85142281159
0.545160864818
1.0249902895
0.375420078096
0.373230392284
0.423221543109
0.370232047736
0.280458269834
0.331954768666
0.434079565439
0.314132838445
0.216750827928
0.271528773976
0.186376682121
0.240299479921
0.158537565732
0.106689983575
0.174114986068
0.0221683410983
0.141190748252
0.302418372545
0.417205354172
0.349717423305
0.365536855125
0.49492569992
0.208172041739
0.334541389129
0.328746890976
0.12559416955
0.238863421288
0.295270171584
0.276419204857
0.448682132841
0.278811010989
0.416479729661
0.29138854271
0.243181783165
0.235945370276
0.447482338934
0.420554259634
0.385376824654
0.541769170846
1.02456111562
0.543668640629
1.04723857113
0.679462745254
0.97965534511
0.426452353233
1.15161820731
0.439615047815
0.451399925307
0.462284855713
0.377887907611
0.276655580974
0.445708333335
0.378355699355
0.256515074568
0.0224124902265
0.132456630415
0.209678163429
0.0367016875856
0.19551318091
0.130166738885
0.0618397088276
0.166136171822
0.237458511052
0.341873832321
0.011533804135
0.0654082921493
0.0142693683606
0.0962873744992
0.280982106359
0.210342395857
0.010236202186
0.0653890597701
0.108863393123
0.302842722698
0.125736275306
0.182678627801
0.19226177682
0.171531101122
0.174691463381
0.257143257188
0.126443524057
0.365982364976
1.67132142857
0.0
0.022447410233
0.141620623633
0.498118937179
0.517358978933
0.281529810659
0.432803694561
0.233801619385
0.787386513163
0.331232198408
0.612449330427
0.551321709101
0.545212866
0.737049371092
1.40373522364
0.733533316184
1.64888954874
1.2649499648
1.35814859744
1.32271072172
0.955916294135
1.60229984478
1.28081613797
0.911135877792
1.49826770066
2.42417423201
0.530189512633
0.0747634077585
0.135766522843
0.197291417423
0.124245398925
0.134702092557
0.185013781776
0.100742197313
0.0200315897338
0.0658159352086
0.129541284063
0.22276972355
0.250570718505
0.488682310076
0.119629901054
0.179666401717
0.49658805413
0.146296101594
0.31547704393
0.33778330801
0.356037329767
0.969731336547
0.443135737675
0.698621355074
0.653676016436
1.20397326719
0.681645785132
1.21106090054
0.559106215218
1.35991685433
0.729491591371
0.782830855795
0.464379436737
0.522500426277
0.829803249709
0.273050846286
0.628481369952
0.225245613592
0.0505546123997
0.0647056845839
0.113046303084
0.0833284609733
0.108401336809
0.129486979976
0.11646840162
0.122971723312
0.147255811826
0.123439976961
0.109244801302
0.219764969224
0.1891404049
0.21118108019
0.169684869492
0.168393132045
0.117328896082
0.157679162721
0.25009379555
0.176773776169
0.176598179603
0.157943325695
0.190866454192
0.199515271164
0.318041098664
0.237622741483
0.257567911056
0.318928855487
0.299994393522
0.268483915092
0.240466181231
0.300382381295
0.294991549725
0.274952913962
0.334495494693
0.336042822434
0.317601010229
0.341287289749
0.343398631896
0.393367563793
0.405385243761
0.412793921015
0.39924346881
0.448029198325
0.430779440987
0.447782118082
0.501375923066
0.501889089344
0.499130164968
0.504866738767
0.54203571966
0.53984752259
0.76190751132
0.502557517436
0.757439423592
0.513234804098
0.870351459417
0.542018566511
0.957497398517
0.584254781253
0.9825100413
0.655753402295
0.993737514347
0.819203613783
0.938968233717
0.864771150137
0.882317181608
1.04818506596
0.886105871486
1.08056651144
1.02839463448
1.09468746853
1.06872678768
1.06660976808
1.17424882728
0.956530213908
1.24513225373
1.03302417369
1.16011211121
1.13766840289
1.11305348069
1.19001244221
1.11605836704
1.18513706913
1.10846531375
1.10907843358
1.21970127429
0.931137080878
1.22217173575
0.861085710362
1.24722696112
0.873884082667
1.11694145627
1.03189646754
0.969049308123
1.04267674505
0.855608639143
1.0457258573
0.700864407421
1.03496658475
0.681129052286
0.910179196416
0.546250430326
1.05789102448
0.463087848908
0.89840284258
0.407695864057
0.669663192274
0.471730222276
0.595051378548
0.376482480427
0.42455950206
0.426074226364
0.41360968689
0.322675484246
0.324954386767
0.340054521354
0.337982906335
0.289405090454
0.327694517609
0.289218756538
0.251323562144
0.279996874733
0.192765130768
0.229897527756
0.0832032623014
0.0530565682248
0.314690741016
1.30379819453
0.395851225516
0.469407350034
0.804557737261
0.316110567306
0.399251190823
0.21051117993
0.207217490333
0.0226752755797
0.145116714153
0.318959667979
0.431751688124
0.216896070228
0.253135379556
0.217519259002
0.394534991687
0.270132668743
0.256502111939
0.366179442306
0.178586840547
0.205057308828
0.320986216774
0.223271841477
0.390748682417
0.247719754934
0.086244360002
0.0640053473774
0.163570659084
0.19846698846
0.149191249606
0.279011390342
0.0281005681231
0.126295279704
0.106672345468
0.142708305644
0.144873321824
0.0785084967556
0.134750535598
0.064827498155
0.137987246294
0.118232594701
0.165304307169
0.152211253149
0.0545473800361
0.0588867822483
0.194369894878
0.0231183456575
0.0515760704726
0.022012809637
0.0646671256557
0.352669955937
0.362004093353
0.220139772033
0.0372042403492
0.0340419095491
0.203430360575
0.416574139879
0.183614004893
0.184910504828
0.356992032761
1.07868233271
0.407526508643
0.994180418129
1.323145885
1.84745653438
1.94218922853
1.97203993874
1.56897969846
2.27452872393
1.5416377336
1.83572879339
1.08290462261
1.25996516809
0.493940144829
0.205400870323
0.327243345295
0.481232275267
0.0499696631774
0.286775117676
0.418426229492
0.147231070908
0.326345979588
0.0445797199354
0.255462209415
0.647533393964
0.260672827462
0.461189120051
0.974744518146
0.586390861514
1.03653061117
1.12878288742
0.487900563125
1.16912656289
0.232691433416
0.886247587711
0.445605870507
0.175472817737
0.393467528031
0.380434699057
0.295387896414
0.161793980379
0.0541944693199
0.303682107902
0.440467877518
0.32416641087
0.307557164577
0.811510314648
0.161787076511
0.263816950753
0.0515830079037
0.0631176930314
0.304554936339
0.351208382286
0.0470991661059
0.109041514326
0.150637301612
0.00645425139865
0.0556733374604
0.217122250479
0.269004356012
0.0719858429443
0.0679238232063
0.136299694981
0.131621691747
0.000598675381929
0.0133884566973
0.0687227097666
0.149786286239
0.124738888262
0.333036969746
0.429302554894
0.042645246673
0.221001741966
0.146561693056
0.220276234533
0.257700835866
0.454805108773
0.455157178193
0.437248434163
0.377889654439
0.355265600894
0.33798908793
0.16512995074
0.441323970101
0.467693309559
0.366109631344
0.473462701642
0.638700169939
0.449137593893
0.857967227192
0.368692486653
0.918541709642
0.193792758598
0.417234891847
0.183076561137
0.464374278809
0.513407794253
0.31990894133
0.0693844950425
0.289728522939
0.148352700695
0.191788376166
0.239608699061
0.237099850451
0.208829857103
0.218939305137
0.157437064469
0.172006978147
0.370400354545
0.0440897353902
0.248120999463
0.500029253118
0.326035217048
0.434738464167
0.246888388883
0.458701047299
0.407507617499
0.672332955686
0.287974508818
0.244025771711
0.327139897458
0.279826665861
0.314844355267
0.353298372875
0.180644347696
0.310809031344
0.196508913725
0.122897095415
0.328177841334
0.329705192317
0.0188703245117
0.117068907491
0.214120094986
0.184506396057
0.288503506036
0.169559155118
0.436827725802
0.178740710422
0.115351607207
0.00608664018156
0.048708140006
0.111482211009
0.311451533139
0.296782457508
0.389342301892
0.40120025078
0.214316285682
0.286775790432
0.210425067142
0.420496865798
0.538949123008
0.708872872362
0.938160656398
1.3769696157
1.31995054564
1.31836150957
1.24273966252
1.31603377339
1.1797289443
0.905601228442
1.36280757552
0.38650564804
1.11339408966
0.539492972628
0.460538467066
0.362647144215
0.0839082885879
0.0906920429923
0.310689493632
0.357529437082
0.314066710019
0.387048639554
0.217778585197
0.207400706341
0.00671720725503
0.0584409001221
0.200636408883
0.205158627432
0.145458545021
0.0348797804999
0.18132433588
0.264205165843
0.278983832508
0.532250445431
0.733864411327
0.419101711934
1.19339921426
0.92052123499
1.19932011098
1.05576032638
1.05308686756
0.962636912807
0.922496976733
0.879301594067
0.747252282969
1.10842108251
0.437463186692
0.919065500151
0.257976079135
0.201816795571
0.248754103689
0.718800370214
0.0341855162248
0.17620848802
0.232508882103
0.277503466642
0.28371642416
0.234195290338
0.0621157347505
0.165207581188
0.17657342514
0.139846580289
0.172373901169
0.0508058553067
0.164746329298
0.233183850613
0.400959534743
0.340864925126
0.31905415257
0.340387396833
0.545621741964
1.97112889389
0.0
0.00871583551087
0.0481242933972
0.135671687719
0.269107965828
0.179835492367
0.174883215774
0.169973035762
0.284080084558
0.29316274511
0.268156956281
0.176574410333
0.277967251995
0.214927131863
0.290957490793
0.309757523774
0.215772815309
0.206640482711
0.396324931513
0.181266770019
0.40406420141
0.322101748693
0.204535447958
0.156634711714
0.197129162865
0.21736967481
0.329929583812
0.212040694915
0.207214309801
0.307274410133
0.427853486397
0.408248896738
0.388004901803
0.411631035809
0.415547736213
0.369404692942
0.447437965731
0.422035987871
0.56441538266
0.778623538641
0.382686647873
1.1930979272
0.911755038864
0.963252204736
1.02013440167
0.945022697352
0.978101887902
0.885301345259
0.776194439578
1.19848447352
0.351591447375
0.697340008996
0.78402939047
0.462888669695
0.470394214244
0.503758576026
0.509265092491
0.522122158421
0.539713227712
0.633541520808
0.588475627274
0.712447804957
0.639931272263
0.857111912052
0.590988948707
0.821352933154
0.817881607289
0.800163024951
0.744028789962
0.942253779045
0.858042699294
0.96625162218
0.903774846163
0.927892256243
0.951207140592
0.992305849726
1.10148802956
1.16820868673
0.94492173433
1.11628577036
1.06241676582
1.1626499677
0.947276385072
1.25473672142
0.843049307713
1.26029819949
1.00590805742
1.15339470135
1.15144986157
0.9947076591
1.15904880288
1.02645491343
1.08032290405
0.937846114833
0.982357735252
1.1215790398
0.655456906799
1.3143163279
0.628253318803
1.25279680914
0.982347805259
0.857163826673
0.877552225306
0.869723272551
0.724417569759
0.702102512904
0.622549574613
0.719424040953
0.496417001554
0.774512568299
0.950908707258
0.468413252636
0.769371142221
0.312078825727
0.543673419946
0.641190488933
0.517245572962
0.508765997499
0.312066336389
0.293733470373
0.291850751038
0.463577891579
0.531814561411
0.141297154446
0.23314192832
0.390581328317
0.323444328573
0.319924564737
0.126684747851
0.0947537624515
0.469789609718
0.964303535382
1.29432082946
1.43022644107
1.69649460234
1.7402552397
1.17818397008
1.88417572558
0.57228213061
0.974788653229
3.2061504359
0.700086653263
0.0815760135497
0.293393890393
1.15785503556
0.721724760752
0.913080051645
0.818340758719
0.943640054026
0.637652234259
0.938386958035
0.535038174586
1.05860702513
0.460614201809
0.629212982496
0.894200621597
0.725121760277
0.518360905017
0.751141178395
0.42014468906
0.473082801149
0.514822798431
0.629087980733
0.562239371665
0.492816085722
0.449108695023
0.37329981212
0.544028756038
0.518287037081
0.515638381796
0.459577157567
1.01550020175
0.640698139012
0.575313275548
2.64137560394
0.380122042591
1.2940427931
0.852853116272
1.03833607339
0.459466153412
1.19220719583
0.574342287868
0.535679086286
0.448379247888
0.334060643754
0.257023698004
0.36685151416
0.245403246403
0.0232974552944
0.0340533635992
0.097958113153
0.524073103608
0.0342325209997
0.0783452684564
0.409140389968
0.245810216361
0.323832878451
0.22543075335
0.537305098532
0.538274689824
0.364598270719
0.345620355416
0.108761227626
0.248213721584
0.169934593021
0.358963224083
0.229325604444
0.0910626884203
0.284277061244
0.182887794945
0.234270823778
0.18073967164
0.284272925462
0.376581300206
0.2020537171
0.456157510232
0.313477423697
0.155877253402
0.397741824286
0.161398608075
0.179075523235
0.386876147965
0.180337367804
0.316929533611
0.154988665758
0.199465365151
0.171495561486
0.169090510285
0.309284304701
0.320287384038
0.223441722435
0.321187284115
0.534482776955
0.436809250737
0.710545907126
1.24352352244
1.23310003523
1.86734176746
2.1448282693
1.1038222522
2.56870485119
2.96138038879
0.229873979028
1.77098591087
0.845614312109
1.20815329311
0.973080550113
0.508197397267
1.01440224183
0.296983901928
0.294888785988
0.444626536365
0.100033292639
0.231498145765
0.377794515752
0.260291643736
0.39491965381
0.285530931847
0.227249554846
0.233482413322
0.253025435162
0.0331887815024
0.217301456101
0.607742306284
0.742358258432
1.04592651311
1.15975816502
1.32869079287
1.86858884102
1.82320070638
2.14206189263
1.35540502514
2.70610709121
1.61123088038
2.39614996815
0.43271028557
1.29798928333
0.388164754911
1.3439054154
0.00282187704811
0.0638359565481
0.0713270599024
logs/alpha_9.0/PGSD_600steps_0.log 503.076243129 0.503076243129 0.360483658718 3.2061504359 0.0 -1
