Policy Parameters:	-1.81611807033 5.38087018212
Control Steps:		1000
Start Time:		1442496064.2159913

-- TESTING STOPPED --

Stop Time:		1442496170.0357313
Duration:		105.81974005699158
Cost Matrix:
0.281297464461
0.0986404782928
0.157567319931
0.0534346006249
0.126916288767
0.461384725192
0.0575079134979
0.267229411073
0.267048652331
0.228283321935
0.114969670494
0.240235342295
0.267912563307
0.0165932696297
0.145193677594
0.233290055967
0.474631355969
0.338962731949
0.397394724354
0.374147092452
0.359407178758
0.375360688128
0.461688199131
0.550200699983
1.05078642639
0.308966174084
1.37725317121
1.17614393239
1.44144047891
1.04449823516
1.45252372493
1.14512799779
1.54871147253
0.970193553807
1.22731192752
1.05262070293
0.731023715624
0.700336671452
0.820551655414
0.00903320477947
0.105284453679
0.124343618921
0.178774320698
0.145014516232
0.0249098010571
0.053073771632
0.0250001399417
0.247228264615
0.0130762672296
0.033456879538
0.0966754591927
0.138307259876
0.114454158587
0.0399294400449
0.0132839067309
0.108323990501
0.215000057913
0.332497550718
0.278298015374
0.235346130392
0.173388664461
0.248765067024
0.464251410804
0.357716862855
0.37167700061
0.389140263011
0.492963092138
0.547503340606
0.940321958535
0.503837969376
1.46309472171
0.502897566596
1.91549787993
0.900328984247
2.03798664186
1.49196227785
1.95357373072
1.62728536446
1.97992833042
1.42759110109
1.78638877183
0.498633546388
1.33110202688
0.0204609741442
0.130002014753
0.308232487609
0.304659118248
0.0420264063
0.0885260744964
0.0721818692912
0.0753422409166
0.130665880537
0.124830257074
0.167220938143
0.152864217573
0.190960963906
0.161714139841
0.118603189868
0.164270287844
0.166175226227
0.185169852539
0.23484114075
0.262874894702
0.274567728215
0.289323659947
0.326998103921
0.392676676034
0.42425911528
0.556119490653
1.29616757739
0.529409076016
0.847372011956
0.6437648056
0.984391860158
0.641682192902
0.640569352913
1.12177410847
0.623427669434
0.883806525392
0.638588189936
0.586531044761
0.622894692984
0.339631551396
0.360829334463
0.0953089034831
0.0560902075478
0.331589813719
0.489442247231
0.171597386671
0.223912034087
0.0561827965931
0.301464111645
0.0252566415541
0.0443488018712
0.189479844286
0.214825591952
0.294693451594
0.148286701743
0.33480852781
0.379817502939
0.251428768105
0.226865845889
0.245724440542
0.172276897662
0.289769540444
0.360748898395
0.116300386674
0.0974191112095
0.505776094056
0.415942016332
0.0183921369131
0.0913483940707
0.101100971763
0.176291575406
0.284255290964
0.255148519572
0.0321643213786
0.0804854007584
0.362712683681
0.0102597414049
0.157740800083
0.30148800731
0.300868357452
0.217025013467
0.386825009385
0.019915820636
0.358060107445
0.363650427015
0.326932797416
0.370539604167
0.286742384619
0.301071933039
0.245458849859
0.447981155314
0.346866502553
0.455874956362
0.858898119149
0.194105014488
0.211638559633
0.427125525004
0.285995770785
0.23545493158
0.278897405626
0.12926238353
0.0863676796873
0.0913446003041
0.0699709881917
0.0473234580016
0.0905604393237
0.0993096105369
0.110921139895
0.237827204308
0.268815653928
0.27535003738
0.278774135705
0.287187219369
0.287461616486
0.290801506628
0.29437727297
0.298264563652
0.324807674878
0.339571526009
0.326810586134
0.320779199097
0.337086673386
0.350110994151
0.345376999438
0.345779087618
0.363705703967
0.378594493009
0.355653457172
0.375976598757
0.388322187316
0.378668059247
0.38015015108
0.415244789971
0.406088105886
0.401453453029
0.411666253688
0.447556701121
0.426541332919
0.40549728507
0.404834566135
0.0966643230862
0.282825663699
0.109228514921
0.158666906441
0.221661890511
0.417216755673
0.480854586306
0.492021501251
0.474376439986
0.511837025572
0.521075464271
0.510757171964
0.528835527314
0.531678881728
0.516729328212
0.538860458097
0.534086509411
0.444468461313
0.497931518515
0.508719534367
0.522027147461
0.546840080722
0.559216666777
0.520790974808
0.514452842679
0.511980751649
0.488950869211
0.515505358845
0.471422893233
0.486837601548
0.488894424119
0.463658760896
0.449848428169
0.450992036529
0.433219335285
0.442484102268
0.421552382995
0.402091202632
0.405729959219
0.387389652171
0.381659598066
0.176916558858
0.329269324084
0.359813148948
0.355582614125
0.335770189056
0.340149220005
0.321626768467
0.304261852915
0.303426805215
0.301876893653
0.286752620014
0.263852331592
0.256594845863
0.270888058694
0.221998713397
0.257631261692
0.256360382617
0.26564226122
0.243930998557
0.178766285093
0.207159507576
0.214284536438
0.180868037716
0.193945223227
0.204566866825
0.205615494278
0.17147855866
0.0166068136566
0.268097608754
0.376756665547
0.145257340771
0.705005632045
0.0725717134606
0.108254835051
0.10567829759
0.046122054715
0.354508616327
0.201120583079
0.703590384104
0.287032047672
0.240661452308
0.637235723661
0.434240326481
0.133247651925
0.125844069898
0.335394016992
0.269409782463
0.0807165984493
0.0915996808341
0.0758359774054
0.0804481371368
0.068446853266
0.0204703622802
0.286855349921
0.164952817457
0.096619281102
0.34008567814
0.0833878749515
1.07569933388
0.0663692318313
0.0874370406703
0.137335232354
0.161205873756
0.227041671938
0.242783125197
0.0777167746113
0.131573343587
0.260199385339
0.271067056352
0.258357364833
0.26890352213
0.264820664823
0.249823005204
0.235178084654
0.245063494883
0.259526955672
0.239459977011
0.233417569235
0.243298798406
0.214758455238
0.212905387805
0.204123724825
0.149613669102
0.191657490815
0.182450801469
0.182984051384
0.189527489984
0.18260248765
0.176364475697
0.163348870366
0.167012365834
0.165099808397
0.142083271362
0.0660016325579
0.131622051553
0.0600543640009
0.124993035369
0.157968341232
0.149455900904
0.139280627927
0.136751233194
0.12378165103
0.109689955963
0.185083961967
0.153676641348
0.142588464221
0.122909630238
0.126017687163
0.125416300238
0.118980982509
0.11320322648
0.133782903723
0.164772990412
0.123121515614
0.0961107814892
0.126531803102
0.108482264707
0.0986050166561
0.121401217623
0.124346171242
0.0970722934297
0.134226997685
0.103284223349
0.0901006131467
0.0908014951486
0.0989138317621
0.105281401899
0.0835819956239
0.0579488125642
0.0643808214055
0.0851323139093
0.0695188435263
0.0789281491354
0.0490735947215
0.0599365629806
0.0196634596289
0.0206691989658
0.046252915706
0.198752471728
0.118238642898
0.264749432472
0.0893937223669
0.0261980163067
0.0179504010161
0.23568656606
0.239086424874
0.224939504542
0.0854065551222
0.244647784138
0.502493729212
0.428210901976
0.0614424742482
0.211177509884
0.241904320929
0.274335443359
0.430942027286
0.0393426676729
0.180856083371
0.249645030885
0.482596136902
0.193754958569
0.523585577994
0.0420726025225
0.30139993014
0.0386612940685
0.0132038945392
0.101435722477
0.0333835640432
0.100855392533
0.908563761842
0.00484712767739
0.169443221262
0.266695909882
0.0959606524644
0.327160558235
0.0866741313612
0.0500436577194
0.0948327823896
0.138694505305
0.137909911455
0.130784572659
0.224225236459
0.274867763482
0.0497301542333
0.0643293851808
0.054105493714
0.0749060308622
0.161720643971
0.175474551571
0.152099903224
0.0382400387341
0.0389354305198
0.440147572287
0.0384062177028
0.0316429736939
0.102753504533
0.0910809531361
0.143234204499
0.1583597165
0.18947845629
0.154744939165
0.148674651324
0.13041553655
0.188807661402
0.166158586698
0.194771694195
0.140447429428
0.137425569878
0.0755964292119
0.122139439938
0.149333794901
0.136752934402
0.137834015608
0.123297966789
0.137103128164
0.146065849779
0.179296202213
0.121497204167
0.115551028516
0.0430465613334
0.167192460073
0.45385659719
0.61078624583
0.616215477863
1.02914142463
1.1236091297
1.06081908874
1.33060070662
0.99347245991
1.00157787453
1.1391325264
0.728351930227
1.19114949375
1.12397140161
0.487284236211
1.46130944817
0.24687298638
0.756318830354
0.486613182579
0.152613868296
0.0921198941909
0.105487787333
0.0981250125848
0.116284562351
0.193191008569
0.328330951169
0.349658427926
0.349685501751
0.373143290032
0.375341667673
0.362892569218
0.380432245512
0.376577946207
0.375174879395
0.389562450043
0.395702026998
0.376785649732
0.389751860591
0.403676689174
0.391302592624
0.375405333669
0.394031122288
0.390555342524
0.380927306466
0.379110842245
0.364598231497
0.382056822277
0.378223869709
0.362260998265
0.366943972281
0.375182227544
0.361554793357
0.36711385242
0.369877394308
0.346381861901
0.332762605955
0.349416699176
0.328341867018
0.323939150461
0.33339627173
0.382939752072
0.324495686693
0.360966029767
0.342596155171
0.310384232091
0.333834844391
0.320781759978
0.308257355811
0.297781155328
0.281159055635
0.288577134791
0.259020700066
0.303532871782
0.262423226543
0.306651482595
0.28684060303
0.271542797946
0.271213519984
0.268675699094
0.281980157654
0.293771935281
0.279360464383
0.279792812282
0.284846580042
0.286911906603
0.282632536363
0.278329004628
0.284787781866
0.313901843554
0.312058749083
0.3369876911
0.35432575505
0.35962928995
0.380999532723
0.391726757766
0.387893453741
0.443318504001
0.493298290343
0.503247213585
0.511709771841
0.55251307517
0.594444437315
0.671329069318
0.588874812673
0.734099265059
0.709407162969
0.852171862366
0.681763872091
0.997897098255
0.694341686736
1.15642690589
1.03164515254
0.846518858602
0.579531616286
0.91841386373
1.08775417332
0.397960793297
0.201307134454
0.22317792416
1.78094864195
0.239110166382
2.21519072463
0.240066149291
2.08966327506
0.270391904604
2.19359424815
0.142272575586
1.26397557316
0.268273804959
1.58238095691
0.144419246415
1.24163639587
0.318673764188
2.48842006051
0.74009303816
1000000.0
0.0
0.0
0.0
0.0
0.0
0.0
0.0
0.0
0.0
0.0
0.0
0.0
0.0
0.0
0.0
0.0
0.0
0.0
0.0
0.0
0.0
0.0
0.0
0.0
0.0
0.0
0.0
0.0
0.0
0.0
0.0
0.0
0.0
0.0
0.0
0.0
0.0
0.0
0.0
0.0
0.0
0.0
0.0
0.0
0.0
0.0
0.0
0.0
0.0
0.0
0.0
0.0
0.0
0.0
0.0
0.0
0.0
0.0
0.0
0.0
0.0
0.0
0.0
0.0
0.0
0.0
0.0
0.0
0.0
0.0
0.0
0.0
0.0
0.0
0.0
0.0
0.0
0.0
0.0
0.0
0.0
0.0
0.0
0.0
0.0
0.0
0.0
0.0
0.0
0.0
0.0
0.0
0.0
0.0
0.0
0.0
0.0
0.0
0.0
0.0
0.0
0.0
0.0
0.0
0.0
0.0
0.0
0.0
0.0
0.0
0.0
0.0
0.0
0.0
0.0
0.0
0.0
0.0
0.0
0.0
0.0
0.0
0.0
0.0
0.0
0.0
0.0
0.0
0.0
0.0
0.0
0.0
0.0
0.0
0.0
0.0
0.0
0.0
0.0
0.0
0.0
0.0
0.0
0.0
0.0
0.0
0.0
0.0
0.0
0.0
0.0
0.0
0.0
0.0
0.0
0.0
0.0
0.0
0.0
0.0
0.0
0.0
0.0
0.0
0.0
0.0
0.0
0.0
0.0
0.0
0.0
0.0
0.0
0.0
0.0
0.0
0.0
0.0
0.0
0.0
0.0
0.0
0.0
0.0
0.0
0.0
0.0
0.0
0.0
0.0
0.0
0.0
0.0
0.0
0.0
0.0
0.0
0.0
0.0
0.0
0.0
0.0
0.0
0.0
0.0
0.0
0.0
0.0
0.0
0.0
0.0
0.0
0.0
0.0
0.0
0.0
0.0
0.0
0.0
0.0
0.0
0.0
0.0
0.0
0.0
0.0
0.0
0.0
0.0
0.0
0.0
0.0
0.0
0.0
0.0
0.0
0.0
0.0
0.0
0.0
0.0
0.0
0.0
0.0
0.0
0.0
0.0
0.0
0.0
0.0
0.0
0.0
0.0
0.0
0.0
0.0
0.0
0.0
0.0
0.0
0.0
0.0
0.0
0.0
0.0
0.0
0.0
0.0
0.0
0.0
0.0
0.0
0.0
0.0
0.0
0.0
0.0
0.0
0.0
0.0
0.0
0.0
0.0
0.0
0.0
0.0
0.0
0.0
0.0
0.0
0.0
0.0
0.0
0.0
0.0
0.0
0.0
0.0
0.0
0.0
0.0
0.0
0.0
0.0
0.0
0.0
0.0
0.0
0.0
0.0
0.0
0.0
0.0
0.0
0.0
0.0
0.0
0.0
0.0
0.0
0.0
0.0
0.0
0.0
0.0
0.0
0.0
0.0
0.0
0.0
0.0
0.0
0.0
0.0
0.0
0.0
0.0
0.0
0.0
0.0
0.0
0.0
0.0
0.0
0.0
0.0
0.0
0.0
0.0
0.0
0.0
0.0
0.0
0.0
0.0
0.0
0.0
0.0
0.0
0.0
0.0
0.0
0.0
0.0
0.0
0.0
0.0
0.0
0.0
0.0
0.0
0.0
0.0
0.0
0.0
0.0
0.0
0.0
0.0
0.0
logs/alpha_9.0/PGSD_200steps_4.log 1000223.24327 1000.22324327 0.118420916383 1000000.0 0.0 619
