Policy Parameters:	-17.9431177124 29.4590421528
Control Steps:		1000
Start Time:		1442515356.4234657

-- TESTING STOPPED --

Stop Time:		1442515590.9734688
Duration:		234.5500030517578
Cost Matrix:
0.599037645921
1.11542363646
0.375790605339
2.86857069132
0.00643651434879
0.825545668111
2.55155876491
1.6917294086
3.13504859959
0.191720810549
3.77123227172
0.903408362361
0.258689060289
1.33393872965
0.16939944101
3.78199109331
3.77117426139
0.0534468728453
0.850602858275
0.787590032892
0.0513628050011
1.17017843989
0.0245307434388
0.0999002037409
1.60623663221
0.452955600465
0.00620003503344
0.320202834435
0.644334818468
0.493511810284
2.63234467789
0.0222408485491
0.124018447293
1.08844351031
0.00717916456186
1.07223985838
2.82992657701
0.0110372896238
1.53728075569
0.205565317322
2.39891385252
0.0394146581773
3.77381630548
3.3725133408
3.75844671729
0.00868096752445
0.0921213020701
2.96357657673
0.048225793807
0.878352290681
1.43989355986
1.62513928438
0.00390719649096
0.374043121805
2.08810855623
0.047564366905
0.835648777336
2.60362161113
0.0452553425307
2.06035005438
0.0604822982047
2.79482166478
0.0657729342442
1.21830376264
0.21889844412
1.06599459214
0.529119399607
0.0135562600594
1.28446248332
0.0190184091528
0.181307698497
1.34154211997
0.0393058519117
1.04771849778
1.63394471712
0.0094611192164
0.346756864705
1.04386554719
0.0165514068072
0.097952738868
0.914210295059
1.47964941884
1.04457579194
1.66884192037
1.15952441158
0.0228023645698
1.4606983026
0.038386886519
2.28619642719
0.0204729973059
1.33361082402
1.0562825286
2.70352986751
2.25534118343
0.820253594554
3.19629167483
1.52635554434
2.57175270059
0.103668724821
3.67808081947
1.84089216816
2.92194239372
0.479160275021
2.40028889853
0.10073849903
3.77173727575
1.81282998272
1.38850417411
1.19494348053
1.06553655772
0.324404578439
1.03790252869
0.899952946817
0.567687336178
0.744283296822
0.95723287448
0.791378627957
1.54445468846
0.158698068275
2.7047736384
0.284646456994
3.77118310962
0.178209814155
0.152779329622
0.384003275801
1.3538103506
0.0104871421706
1.43546468027
0.00423948436429
0.0868301163306
0.899334711542
0.0135425614981
1.03299187653
0.0267519768397
1.78437060845
0.0291696826942
0.431396268399
1.32166815094
0.1920146501
2.37335077336
0.000304225056723
0.690251851467
1.31893238279
0.00181201532727
0.0967945162523
0.00882073906822
0.0336037157581
0.33586278226
1.45943053889
0.0153871464199
0.589027270237
1.17911182707
0.0200752737888
0.841743865166
0.00118362094208
0.0511311143161
0.0747850722588
1.78100281707
0.00595873399417
3.5577298404
0.065254573906
1.39390546567
0.387322100789
2.06169213766
0.0
0.455033689212
0.993659654126
0.0079595290549
0.222611970845
3.25946038497
2.52225295071
3.77500268859
3.77302041271
2.11134763052
0.317469991909
3.10700500541
0.18893534541
3.70966693471
2.05088509573
2.95999843542
0.0737865708228
3.37604134159
3.77133907026
0.896252851408
0.0158043014219
0.710457599001
2.18702982646
0.0347191991158
1.81949286587
0.0530084339607
2.49807028213
0.136080219889
3.77117392197
0.101818013479
3.77212008676
3.34638807701
3.43072366892
0.0237575168316
0.0954320202006
1.52624417963
2.95799892788
0.294108454606
2.43447329339
1.01461043511
3.45048150139
0.0685607923215
1.59886494848
0.442788212277
1.23908384192
0.387814409265
0.156986498255
1.74798813269
0.276302142833
1.56953454485
0.0114905357737
0.52203598928
1.43781223146
0.0539443349157
2.47759867798
1.72837540174
0.060020300434
0.537680455677
2.10866074345
0.0348606074749
2.05952093805
0.271223741272
2.43630269265
2.59051181519
0.0078727684206
0.440468746015
3.4252692879
0.0278810869304
0.355662065362
1.93001786942
0.602913484482
2.38904363371
0.781596384996
1.18555736845
0.774127007713
1.84444512863
0.038522402383
1.83099869261
0.00615928088066
0.6634009788
0.426329567974
0.0277821591657
0.412016759576
2.26751567952
0.0195689097372
1.17454067695
0.0256693488161
1.26766381707
0.00229949028747
0.137372182573
1.99112057058
0.0662069240531
1.17965134515
0.481383712511
0.934595737378
1.54993185893
0.212119542165
0.378554785107
2.34300380267
0.00270006072292
0.412258490338
2.68683724888
0.00585381895595
0.909213895381
0.011683220146
0.381573480552
1.11236307477
0.0431919508151
1.9454143937
0.00563792612381
1.02532484314
1.61612644622
0.0106006007793
0.831527546989
2.00205512891
0.0209025009635
0.224307040054
0.916034445905
0.370448671029
1.70959111061
1.49277667722
1.59397562722
1.9088586187
0.341816256282
3.13978565158
0.57815251447
3.32294422056
0.0344431166883
0.378607285434
1.56121381038
0.00863461926715
0.447297288886
1.97849755789
0.00885108489467
0.846822452713
0.470061809768
2.77997914536
0.0785994727313
2.56179642433
3.77121233985
0.335821174386
0.821544178562
0.00327473401472
0.151832268238
3.22584380096
0.0325543822686
1.67652502832
0.0151621712883
0.742006057153
2.18462065771
1.06310799032
3.36499067366
0.00276061135334
0.604179293511
1.73181984783
0.0698390444307
1.34899489674
0.881120158723
0.113797060061
0.316612265192
2.41285406991
0.0387893766828
0.263683983145
1.9079486032
0.0
0.27528596328
0.410949631977
2.01066477021
0.022022275746
0.312921255307
0.31231751974
0.181602468372
0.418960266637
0.0403500708071
1.52410277872
0.00178137387076
0.214213843653
1.20765610862
0.0134171716294
0.257399800895
1.04310326638
0.668914344661
0.00133341134758
0.144381845309
1.07788207228
0.0201353900629
0.345528912573
0.0190191828968
0.92059554226
0.0640450241845
2.97604264179
0.0278650544016
1.76529339273
1.63458980811
1.96015484679
0.843352283731
3.55711518899
0.446773739052
3.77117392197
0.058065108003
1.23248883672
0.803890358984
1.57895377053
0.73374105116
1.65438785034
0.0269376405447
0.164894329222
1.31424036074
0.0268814068652
0.0540379109508
0.0385324622149
0.272007949829
1.84145574015
0.00617731129848
0.315450702086
1.96943270259
0.48032294461
2.58109287974
0.0216669835469
0.0304523264739
0.055911230502
1.14600543572
1.15268484157
0.792721321123
2.3354661141
0.0525877929469
0.961834713756
1.71538000987
0.450134532523
2.02803500445
0.0051042764031
0.307308872878
2.22364591546
0.0264336425632
1.79813841365
0.0572682648352
1.43919165609
0.592726237005
0.501840631631
0.837538951726
0.0133802567784
1.03091463185
0.739671589577
2.6851454073
0.019679107225
0.0596760196066
0.985047680396
1.06341916742
0.0039968812572
0.487606239986
1.72377925963
0.0226485079613
1.35106775081
1.32270530885
3.28039253505
3.77127349526
1.27700302257
3.12267512506
0.245023102364
1.60623139431
1.90676718158
1.79483115235
2.10190639574
2.61551893809
1.48261077506
1.92797068655
1.17225925068
0.716086754877
1.505638311
0.301768897424
3.77398205714
3.44272502761
0.618845169354
3.77117392197
0.0967776850093
1.80358114712
1.58070911248
1.03006837037
0.875328426472
0.199816365983
0.509517930264
3.77117392197
0.143207121818
2.84895977689
0.0428112495925
2.03398601444
0.0270728315726
0.0701604261542
0.259042567891
3.77129278059
0.714119674372
4.13888487852
3.77117392197
0.172740634959
3.18983984436
0.168275170186
3.77172514728
2.73908856939
1.03658799796
0.446403712097
3.77287741188
3.77117392197
0.440672481165
3.77282399644
2.83251402509
2.97292547491
3.77230504355
3.6174898479
0.340752400452
3.77136408919
0.198968114661
3.77455557374
3.67961616278
3.28356545028
0.0691772269309
3.13782942192
1.40399699401
0.0461076544377
2.09320688566
0.0437280013525
2.04152766208
0.0
0.0661951242972
2.32148103838
0.0673856185051
1.06087891539
0.0872581599442
1.43518345157
0.0312819842721
0.357409374201
0.510818170079
0.0
0.244292974069
2.51444345246
0.00568251355216
0.93426940041
1.77916286102
0.120895624989
3.2734764448
0.00474129998498
0.402628285085
0.511289529624
1.31804820618
0.598331729053
1.25760380433
0.0529930987977
1.03351372111
0.243255106752
1.79402842793
0.0585743402546
2.70386407366
0.070520689718
3.20844880698
2.46546581989
0.0171865728118
0.288039539046
0.438293703365
1.0503976473
0.00627813985688
0.424570606136
1.31175243243
0.0159499003187
0.188669062954
0.722730200462
0.695440422771
0.0254680963832
1.17166384312
0.0
0.0811486180848
0.991177342078
0.439146880191
1.55463258807
0.0124889413039
0.365538605007
1.12955436353
0.897786283172
1.7369666661
0.37539129616
1.79988370153
0.626713808854
2.88315283497
0.332864877477
3.4443325015
0.00699506339555
1.42153828358
0.257841002825
2.84655975523
0.66737189387
3.25536621994
0.0167860456446
0.28644107997
1.93308688052
0.0424795956776
0.531965188446
2.92234682242
0.824759117979
1.37581983331
2.03641880725
0.0449866826667
2.60286031991
0.0270030291046
2.16610859641
0.00810111146366
3.77268641209
2.09690691029
1.19767163733
2.57974156262
1.36038172177
2.27155088413
0.5792454685
1.98742909755
0.0132548664369
0.994555476016
1.19035644328
1.42603869639
0.0333693459173
0.479303919442
0.42347931993
1.81700760777
0.769569119444
1.63401036972
0.0699928616582
1.75907546573
0.0534081873117
1.25718844143
0.0377304045105
0.808123517905
0.542247790679
0.541153124388
2.22275299192
0.0279715364348
0.457715538918
0.260549839006
0.286573120857
0.421048567592
0.222447699353
2.829743822
0.0751638959558
3.77117392197
0.0351477837634
1.66406447087
3.77117392197
0.0398775428891
0.296001464218
2.74446133962
0.00692129860281
1.15428705878
1.0307756731
0.0
0.740729349536
1.94029838207
0.0652339136489
1.31354546691
1.21609077851
1.98204478165
0.452836196455
2.05946815975
0.0517466147869
2.52647481863
0.00768865236948
0.653147661802
1.90711745558
0.0949387294844
2.39815848501
0.0500918750474
2.62085781214
0.079135233157
2.01604760352
0.0576946770354
1.50536372753
0.0925903589322
2.44629402291
0.0581804182364
2.33394280107
0.203313358119
0.0878991674972
0.361975442177
2.856281693
0.0272963420218
0.0366650247318
0.0898864415478
0.458380697576
1.28897838558
0.0594269859566
0.305558481522
2.57083233776
0.0368497882438
0.778668382566
2.06543356808
0.00250741271622
0.289888744563
0.286583708678
0.353022302679
1.3118170182
0.0
0.0743227141824
0.680280388019
1.98668975982
0.0241684218625
0.431836965699
2.2376607751
3.77117392197
0.0239569866644
0.136795022699
1.68440434644
0.39929491125
1.09745399825
0.0157224026733
0.00865169819498
0.916278131047
1.78460620472
0.0296999993152
0.219041797329
0.371829131254
1.75442399908
0.0155805792982
0.870040741815
1.68853241613
1.30857828345
3.36713180223
0.118742828441
3.77135782142
0.972939705698
0.197342527926
3.77117392197
0.0444457607838
2.41488369615
0.0265822141247
0.271815534315
0.45551573438
1.39861573317
0.38938153096
1.308778064
0.153515915755
0.405418702419
1.44594312719
0.0209107610659
0.258103062756
0.241190115119
0.514537348956
1.69701932876
0.00677995736809
0.0707992200349
1.43823366387
0.0066121687756
1.1607382495
3.77117392197
0.0141708322129
0.013167857325
0.108694191963
0.206685571793
1.2586493386
0.0120272991251
0.251345159563
1.62859665587
0.0139602481643
0.764627892094
0.0179495122703
0.217492899247
2.04854671146
1.54447297842
0.029063856607
0.506362594737
1.93004145766
0.0398857096575
1.07028759502
0.424598727528
1.35006851631
0.133573390605
3.77117392197
0.0306212742779
0.475517183351
2.0901505051
0.0100386536194
0.628493299903
0.001488883072
0.295981291677
0.0623658916764
1.73951117099
0.135035197334
0.0411506186916
1.88851594105
0.0289270342304
1.73800500617
0.00785610869768
0.0361825775065
1.69640300853
0.257786588582
1.9603594854
3.00772528933
3.77117392197
0.0263802394404
2.67396643483
0.565399011415
3.77121226276
0.33867460779
1.59709250746
0.00607505147862
0.459525393761
3.00006629945
0.0647834270651
2.89871205545
0.0404692369261
1.89712540746
0.939999398077
3.77133260672
0.869123998083
1.48056761265
0.0918817642808
2.79907581884
0.0290446376151
1.87705676893
0.0125531688554
0.158034177396
1.72604204786
0.0344800066332
2.09511723353
0.0330349357826
3.77159747384
1.58462448657
1.98039115237
1.11670840008
0.707916592034
2.0742410103
0.0195584706494
0.0275764768025
0.17144985
0.472587754
1.70227716935
0.0109238230049
3.77117392197
0.00687982122756
1.14243297157
0.0
3.04884014779
0.11495241986
2.79873089061
0.0943332687284
3.77120251015
0.365336870275
3.77117426139
0.0509597075027
1.235976436
2.81323947943
0.00478937685921
0.64083987701
0.408731513363
2.82817874217
0.0588433159145
1.06467454186
1.02313153326
1.89451823754
1.02827046598
2.05480010205
0.11626565013
0.953637616255
1.1856460579
0.406081232693
2.12893578869
0.19352276895
1.88715514267
0.0165060335055
1.48317111109
1.41529930589
0.477469151553
1.3732417552
1.93190292989
0.0495594705963
2.27538405706
0.00419518031124
0.155480587526
1.8781979806
0.00950336568767
1.37943518543
1.23749105068
0.0462913502951
0.850752260493
2.58561986846
0.0108920809777
0.0962383750345
1.4996975437
0.0526089712885
0.20620295156
2.51090099139
0.0328334559741
1.70057899473
2.68154187031e-05
1.04191559749
0.0291859739812
0.351912586657
0.201138167979
2.21888877039
0.111175890133
0.522643304847
1.07251116908
0.96038274889
1.45350779085
1.96159612876
1.08427354042
1.29506737367
1.5106795467
1.53102648031
1.2449836176
1.93319604484
1.78994598027
1.55681277949
1.3645989452
0.468816731671
0.511998815422
2.77436752317
0.0309233389342
0.699743114327
0.128897108746
0.21476750476
0.217461247764
1.23246708091
0.0140285467085
0.190120120046
1.88042820641
2.0716084019
0.00626149349423
0.897302727408
2.13398054694
0.00680913953704
0.141431395538
1.80721343412
3.77167624301
2.90368050475
0.0438952681709
2.22270512061
3.77117426139
0.012811013162
0.995719942672
2.67905349937
0.0845086370138
3.18854882106
0.0538359284701
0.304119162866
2.37065343624
0.0462603084603
2.3979978656
0.0172400757325
0.0475327064645
2.13717130025
0.00453187414995
0.379950695451
0.531005295159
0.375419812533
1.16414696377
0.100748238082
2.40083896144
0.0254406320888
1.17015965337
0.0161653225829
0.705896011378
0.436810479346
1.94582989621
0.000200406187996
0.37247347635
0.000706950189426
0.254349771236
1.28619721947
0.0161349179533
1.01043176208
0.00155865012884
0.149744739004
0.331600111544
0.837968585673
0.0124105219326
1.28084134449
0.0335916695374
0.369180293788
1.90113071029
0.00582318651762
0.155091551304
0.32779907422
1.51019301266
0.00150552766948
0.618345394934
2.11247114178
1.42812483737
2.11191136368
0.0684147957967
2.62348761242
0.014034372677
1.57733172408
0.000365847042029
0.127801491612
1.78332594477
0.00749571018489
0.0332603891293
0.300600566251
1.83895178455
0.205795930238
0.402804563212
1.57746626946
0.228486677052
0.33850301136
1.5584512146
0.114905430226
1.90771058696
0.0108642233535
1.55585343219
1.18998518173
0.0165299216409
0.177540606397
2.10466400768
0.00732114922292
0.329466841813
0.626358798945
0.0408173302508
0.717043390455
2.70630067546
0.0694111711555
1.86557782401
0.0196283950765
0.171696721459
0.750891631158
1.77429015363
0.02301882342
0.0308154740396
0.282546670668
1.5333225336
0.00495876832972
0.251054068355
1.90955170635
0.203639025112
1.6006213721
0.0668389714914
1.37476870164
1.30931952349
0.350110989216
1.08967589819
1.2267860086
3.77118460897
0.198144150689
logs/alpha_9.0/PGSD_800steps_1.log 1072.69307091 1.07269307091 0.709187095517 4.13888487852 0.0 -1
