Policy Parameters:	-5.22986182171 7.83601250758
Control Steps:		1000
Start Time:		1442509771.986658

-- TESTING STOPPED --

Stop Time:		1442509958.8059568
Duration:		186.81929874420166
Cost Matrix:
0.866686680518
0.796521105361
0.16841844734
0.105153632404
0.454313219618
0.504999032889
0.380684475619
0.44845929958
0.291118613163
0.369387431754
0.365493171852
0.404327080019
0.340082714673
0.252291272203
0.30059890702
0.0334120946881
0.128890864871
0.19642966544
0.131478708841
0.218361102146
0.30131095075
0.231921827269
0.308925993256
0.259113802457
0.139366402202
0.134125116521
0.0494458287645
0.239124588253
0.404738095862
0.195460828588
0.47529397896
0.273386539707
0.398519236303
1.28352685816
0.148126273361
0.587792636011
0.698701585785
0.908127732369
1.04424422032
0.881381585713
0.848380808701
1.05540041891
1.03751256515
0.243618346931
0.452583256701
0.0363010599513
0.400447557002
1.15794866388
0.490657657201
0.269558188864
0.302128341852
0.0192497652952
0.0358219961101
0.158340982871
0.267159620186
0.501335703624
0.206142643314
0.447437813715
0.197215306969
0.370723970121
0.233333146033
0.0369528294344
0.18925659616
0.243757612075
0.0881939051513
0.109595081535
0.319605890554
0.265121514695
0.170629434254
0.240161915225
0.275492533814
0.211567171737
0.299592997247
0.136684173225
0.222797897304
0.139041429171
0.146094449772
0.175172763157
0.0366562524634
0.310318881938
0.24450308365
0.211232972907
0.882834871947
0.260477734357
1.22353779726
0.267693767662
1.1720015597
0.715048022193
2.06801082445
1.40405731227
2.03834119331
1.70425821718
1.59972692553
1.16988989075
1.81008830916
1.08111440632
1.15900370475
0.649064715337
0.7854913851
0.124613947643
0.242881390785
0.408543455631
0.332906257293
0.52560758972
0.417880130573
0.392524328947
0.0378440422222
0.176390081139
0.219471570598
0.336651252792
0.709958345068
0.0266212092599
0.0166075387708
0.223644615444
0.345138377849
0.327010242826
0.266597787207
0.451640937845
0.0726305359084
0.510480937251
0.0579908991506
0.34775179776
0.189011750895
0.124211645767
0.255723160233
0.0217253818983
0.145453847488
0.42267429793
9.78547870412e-06
0.0325844711754
0.107182385589
0.17431755161
0.0713961423814
0.0618200622737
0.085237130694
0.991799552744
0.0128779666733
0.0642508253274
0.339302000926
0.487697071064
0.862676549014
0.468185705071
0.968846218098
0.997139458379
1.29810618367
1.30987320434
1.28432067883
1.09255134256
2.3473685264
0.332839218025
2.46432176221
0.058328775019
0.318508166013
1.68513080841
0.0161480802358
0.207152978411
0.391559389883
0.383854334819
0.297102570094
0.118493048504
0.302128359433
0.387838321538
0.040096626177
0.343767245544
0.945359550318
0.0746407051812
0.191066784758
0.326031280491
0.351725712477
0.0379245313963
0.271934105457
0.167965595548
0.106701814087
0.0628244873991
0.240647116234
0.0888000466662
0.145022918977
0.19244674942
0.0681493349335
0.217800546868
0.297863823746
0.390897190558
0.242116531747
0.170896955499
0.409918799653
0.524114338727
0.192474067699
0.174322769231
0.0230569118282
0.199932582518
0.2648693677
0.230676150918
0.0
0.0423456672686
0.130103937413
0.132815663142
0.200374968952
0.284851752775
0.264496539738
0.0447332942839
0.0212618179866
0.0691064709319
0.113381338271
0.111962151302
0.293095550019
0.014283065033
0.0611684528246
0.27061544468
0.085357581789
0.114328138665
0.0791670853717
0.193554364648
0.10336743442
0.300871414135
0.147448467717
0.410840618725
0.0221654961168
0.200429834953
0.236919449434
0.409997423165
0.199445008991
0.235908561878
0.0956081556863
0.145807124674
0.319761516165
0.268651319055
0.406367148586
0.380710254273
0.883190873213
1.11376399934
1.01849892086
1.64529298171
1.50005940602
1.65249479313
1.48510070295
1.48374094736
1.45538456168
1.39200297057
1.00264988895
0.548893119882
1.38583063068
0.0488405259763
0.213303827489
0.0959786384224
0.00239869667284
0.00790150731501
0.0181284509924
0.108841744624
0.0949916379511
0.242391872839
0.397665671347
0.290295491415
0.274233209234
0.256924007407
0.689469770874
0.297017003593
0.314774352885
0.210147665848
0.267081219597
0.224232138558
0.480702981775
0.311372234887
0.33842651957
0.223946631958
0.344471089116
0.365672394753
0.0616260388855
0.523295500462
0.260277567867
0.461192534537
0.2124298547
0.734806016332
0.476075468762
0.450343810971
0.323684464346
0.143102679951
0.08571544638
0.153076033531
0.429194017875
0.460085893322
0.710371593008
0.887324357511
1.61188187459
1.62069193343
1.97771466686
2.20941782846
1.74471207915
2.19425661087
2.46480903013
0.473473362579
2.7886588502
0.0821615050779
0.344935466262
0.598648570464
0.384084148349
0.0965252098349
0.170591166236
0.0040085589855
0.0967052481511
0.357754492742
0.135714068973
0.951075162598
0.0121461643401
0.0718905498879
0.0307924090065
0.261064354523
0.441444072989
0.190429875471
0.10428107405
0.379102218279
0.0280261812524
0.0832641694849
0.218963794353
0.368440003768
0.0828063743632
0.0401744417381
0.212527831822
0.0240819609319
0.123979631128
0.0429129279739
0.100724914944
0.0359312592998
0.137219090924
0.291037152664
0.016775070052
0.225018613437
0.409582701487
0.185124603565
0.240451195655
0.462254725643
0.20606139607
0.586630788227
0.128283456303
1.06497748626
0.364265798432
0.359858718022
0.964562708462
1.51750377597
1.29331492469
2.25185144986
1.43788959533
1.9731817291
1.76981410642
0.956556699467
2.43267979439
0.0793238831413
1.15348824581
3.18971495553
0.00115000197716
0.0784239011497
0.195099423477
0.206258654283
0.227438309672
0.149864801143
0.163833788201
0.199654090222
0.0833587815925
0.134868642673
0.133823761103
0.210107708398
0.243668075319
0.120724717634
0.290435437859
0.256628755845
0.305635958012
0.275438162434
0.217040819728
0.212224315399
0.272294474026
0.172380680393
0.0966350611236
0.145661324181
0.0873017947087
0.403128309518
0.658108031608
1.23893951978
1.00482593171
1.41696124671
1.20885984746
1.6120889075
1.05398064216
1.37196870445
0.55127220891
1.40977285782
0.468676194092
1.31749019605
0.29430095015
0.903301713095
0.268235497806
0.0427165163372
0.0224825132768
0.115244470043
0.313676470063
0.367820992884
0.407145275423
0.370039726626
0.359818980177
0.30805974889
0.423960991977
0.383432133368
0.383268572454
0.378518247285
0.477456020083
0.448397005115
0.457659666157
0.497267622762
0.569633673716
0.487625499814
0.638928834764
0.487923865707
0.524426838814
0.647501472611
0.506097793805
1.01338050875
0.381476480446
0.864648037474
0.421306572029
0.821733072558
0.522941737436
0.850901250522
0.50829127684
1.04322892831
0.445123427105
0.913084668559
0.513448714839
0.960998301471
0.490489199732
0.967821834151
0.526275453087
1.04523187591
0.488867635001
1.02565705076
0.576382903555
0.900565673363
0.511571113318
1.11249047935
0.504363199274
0.96639536272
0.690923150681
0.895759621679
0.661983255806
0.741101645937
0.50234469889
0.987097366679
0.465376423696
0.998061098036
0.443783560206
1.00667166611
0.494903785798
0.972345511462
0.472408400475
0.895944377731
0.483473231566
0.69781861247
0.500414497603
0.728937558093
0.487216329691
0.527693021199
0.534691396348
0.466124339629
0.522871506153
0.406192155321
0.438325871337
0.457353224493
0.686186375935
0.44300520567
0.888351722278
0.487913296431
0.96890950861
0.535264692942
0.845008455159
0.598264386986
0.950570946469
0.77166687767
1.27760820157
1.30518726292
1.39129723453
1.7519638396
1.96485025583
2.17491401419
2.08462250436
1.55280918425
2.16834162723
0.499515453771
2.20617337182
0.0888702664443
1.08348622623
0.0647181344468
0.320575451593
0.239272967933
0.282091127641
0.303042048034
0.261555764203
0.33562169413
0.286084981984
0.216988681939
0.294639853207
0.296093500195
0.383699085427
0.52307297127
0.12900243196
0.293532318971
0.39622016924
0.341646538692
0.2961426774
0.268946733797
0.417199683019
0.438486547702
0.380306544116
0.294124863172
0.887771609031
0.326523765471
0.242831484502
0.258948703607
0.76511845363
0.382553734652
0.702124422489
0.551961657272
0.947104894771
1.2275912985
1.27733510735
1.55710317957
2.00130874173
1.99472591362
2.24508092391
2.53636946416
1.47636524498
2.40608381885
3.07170717261
0.356761126882
3.14014738864
0.00122252544661
0.097827703965
0.0928756134442
0.0697807667596
0.202512837899
0.157634403007
0.0313535293358
0.080151211885
0.130804414688
0.295213790656
0.124966964644
0.0105167337126
0.116126259786
0.321526742083
0.0818554486832
0.21155062091
0.0549596352536
0.163173348994
0.122749486106
0.118292586127
0.176360297308
0.191853307488
0.142185417898
0.28768107772
0.127139547237
0.257031533759
0.147321191621
0.194837749806
0.159417145612
0.253086334319
0.0942387486123
0.117534261499
0.168625786785
0.334772232167
0.222647941763
0.0247783339981
0.143322632417
0.21851732899
0.302804184978
0.394699893943
0.430927728101
0.375934749254
0.222039203173
0.272759331453
0.397594270852
0.329178202095
0.400515001004
0.337329311213
0.0286682150423
0.143506093505
0.284543018635
0.134923649786
0.0826827953454
0.393036378077
0.21097601552
0.175536860389
0.386491900254
0.0335043706161
0.371746019512
0.228637416235
0.248201434157
0.417258133328
0.278709801201
0.301469253211
0.182474022746
0.179286110646
0.114440282027
0.0555009592707
0.183435436585
1.0666314532
0.295481611899
1.03663817791
0.375786074934
2.5982085061
2.06651742114
2.98445252009
1.33367188555
3.49106105292
0.269551961824
3.17538530922
2.09894482291
0.273881776771
0.957486024363
0.197524288554
0.289475030802
0.345616284338
1.06947382027
0.0070687453714
0.0833956386658
0.257595802079
0.380007713031
0.62630175253
0.0997348752099
0.43063379731
0.000539348917533
0.0649422610602
0.407197148116
0.37212074703
0.155617436176
0.319695723088
1.10763679454
0.022484823467
0.24715385695
0.430268433722
0.523716535522
0.801890687627
0.446198400271
1.52973512522
1.14845396767
2.02332361233
1.6642697087
2.17046868029
1.21110738832
2.66328190678
0.197038076108
2.33015769634
0.60308863195
0.769450239921
0.534281219904
0.649179799833
3.68632940017
0.127135205391
1.87563105293
0.108599379823
1.56100904193
0.736929583656
0.347211936264
0.00839232637194
0.113161587238
0.167910724409
0.401312214176
0.340297531577
0.508386914752
0.0427075227686
0.143557706183
0.0451261761366
0.367676122659
0.00974444120623
0.0693765037595
0.241958886091
0.172207913588
0.0674326971757
0.100004028974
0.256047631957
0.293761061451
0.238434285609
0.289661152765
0.39496057911
0.336411232156
0.0206670181454
0.108752345028
0.00916609951977
0.172003224533
0.299325855434
0.101187648049
0.376166252213
0.247653737254
0.310238134226
0.355266819591
0.216336011471
0.112475684073
0.681924066234
0.477806409094
1.16523380294
1.03355145163
1.12179074601
1.22434341987
0.950800040226
1.25544895688
1.18210909606
1.28395213491
1.00324349602
1.16145457472
0.844378370722
0.753672644538
0.895252230065
0.646572881825
0.934997476523
0.203329066911
0.168919629853
0.300427450522
0.420233161786
0.123189836832
0.398244939453
0.43432344642
0.119600621496
0.00690965383671
0.100959355134
0.520858474195
0.0507819810411
1.02253169593
0.00919246239192
0.0354316227478
0.157449044439
0.0807811079099
0.366691553716
0.204500416337
0.406487825008
0.366578722305
0.292273532956
0.431997569997
0.0279046780481
0.333047602508
0.841588481732
0.319904570642
0.447274312539
1.2621879015
0.510392251186
2.05784169259
1.12227141948
1.77793315534
1.16986122966
1.12444906494
1.22335997496
1.50091938544
0.767898204621
0.711133083872
0.546795759007
1.28212069104
0.000345679038834
0.0274837386343
0.205646217668
0.0595560624353
0.331354443655
0.679050035554
0.946454833101
0.452496193601
0.453769367452
0.355448737453
0.455092301762
0.622109091723
0.401541486108
0.471792320721
0.305204121175
0.295751785326
0.118239242018
0.420177071232
0.0177125976188
0.0299151349036
0.0812602517729
0.261412731128
0.122432801941
0.187435798014
0.170802799387
0.185443580035
0.0864188105359
0.0253516297039
0.106044672869
0.250306196123
0.378290325888
0.288577365331
0.402875216704
0.423468093398
0.249324293795
0.911860804707
1.67204798742
0.319849009979
0.985716073689
0.319167243406
0.69868647815
0.860769817397
0.473630030269
1.80987970444
0.0968904984345
1.07278158273
0.516279794744
0.700529233232
1.07161686363
0.0878533373266
0.403709780114
0.497443517229
0.309314303983
0.309782710948
0.346328078689
0.22277393425
0.0102113791221
0.0499571406061
0.197741358456
0.175057383256
0.179953347308
0.248690246176
0.247715083897
0.230173059031
0.25190092351
0.197289260921
0.271035114318
0.303145039673
0.235522769274
0.19124634712
0.360650171393
0.23082978574
0.264030088352
0.385018452444
0.200793455151
0.383510410538
0.184730189362
0.223786289899
0.199475568439
0.218581395806
0.186249740523
0.234144438625
0.225748137594
0.481526541625
0.426650156057
0.427441781295
0.423242142544
0.27984988473
0.243959267173
0.323507317552
0.641527143368
0.499270555971
0.824533237683
0.50183411507
0.874046781397
0.585247161004
1.48979556144
1.27707885965
1.27228007226
1.37708633363
1.293056413
1.45213749838
0.70134713808
1.64640601099
0.364426814071
1.03087045511
0.260748731988
0.466613841559
0.36241200325
0.0762569678052
0.0859825718576
0.167452369826
0.131897387076
0.11874353006
0.11170468995
0.0902797482023
0.148611747251
0.0586703210182
0.16121137413
0.0758143178146
0.0743125449497
0.140639235902
0.083412829068
0.219254117948
0.12675736287
0.0919375069692
0.0785171004335
0.0739404204594
0.103339030234
0.403490972456
0.044990278202
0.08483483685
0.06545264257
0.376416857448
0.458770188485
0.247568261827
0.0424658477289
0.396482794667
0.208675236727
0.873013989308
0.418968008568
0.769695350987
0.538100332239
1.39759362927
1.10349350776
1.54718959131
1.55190493391
1.42036963835
1.59209710769
1.12990248637
2.96467759107
0.25237177654
2.22633122779
0.046204935148
0.235461662831
0.436731226161
0.467381713001
0.441029943356
0.478740969974
0.447410691981
0.442125884676
0.430721607222
0.425149312341
0.41954737232
0.431296553848
0.41990864116
0.43871956147
0.16070849445
0.372519546768
0.420799188377
0.40712689394
0.409431649321
0.456013558226
0.460761668506
0.45231399665
0.440504705358
0.445723012252
0.415001718572
0.497871218021
0.422958550758
0.454862998806
0.432376704848
0.424287215841
0.408514097092
0.414157012185
0.41882230627
0.450081699529
0.416963845642
0.370452245091
0.389517748334
0.429490478652
0.419884241257
0.373800231824
0.385487899249
0.38678015338
0.315177402084
0.319980545966
0.321676132401
0.380806570543
0.263472768101
0.288250740387
0.2564361771
0.222741721063
0.29029886208
0.224516179877
0.257689594383
0.0525744356482
0.103092217097
0.0817921530269
0.351523813386
0.318676094195
0.526445618251
0.374956531106
0.518991721594
0.0323717247532
0.065010591902
0.277709462225
0.28609338901
0.511304244411
0.448567907096
0.411589225442
0.387061193657
0.463401247687
0.45999908679
0.267715591209
0.329471475129
0.348024162247
0.484575183951
0.654095448857
0.439616282166
0.581764310826
1.03661490057
0.490673784327
1.3445277476
0.55368949724
1.11281726594
0.670024159356
0.815168284149
1.00335327446
0.78265700558
0.47366539606
0.542433389865
0.470917358777
0.921472258281
0.0342697524425
0.148117264587
0.384348643002
0.439769657141
0.100940801925
0.201601870938
logs/alpha_9.0/PGSD_600steps_4.log 521.008501595 0.521008501595 0.345972181514 3.68632940017 0.0 -1
