Policy Parameters:	-1.72613962567 9.22220950481
Control Steps:		1000
Start Time:		1442491977.9163141

-- TESTING STOPPED --

Stop Time:		1442492163.1752253
Duration:		185.2589111328125
Cost Matrix:
0.059304332455
0.145496242109
0.409235262253
0.254427200357
0.0461244271313
0.444584079987
0.294040209337
0.427427865325
0.248397002627
0.23794850818
0.2412623808
0.29205635046
1.21296738195
0.254708449681
0.505895935977
0.502748202234
0.327086278771
0.206145794974
0.478023540617
0.877838873965
0.175935947046
0.687900417156
0.392132131703
0.377937799375
0.349813390051
0.0266791873152
0.127891547627
0.0243905385554
0.476199880885
0.250911249904
0.751055718032
0.500463721401
0.935327416249
0.668868956399
1.47714886055
1.10232485809
1.33066709831
2.04918345211
1.79633626333
1.7932974429
1.5609382595
1.84646434289
1.13775270357
1.46592106248
1.05954451564
1.07549307012
0.438067628341
0.0858498988474
0.0944486351646
0.84788931124
0.164849173596
0.0207947673114
0.0195162600838
0.0752443291417
0.118662192374
0.0618692358185
0.0941724615755
0.02530947595
0.122154683157
0.872938221548
0.137724724342
0.0544225622694
0.330320079906
0.0106114771662
0.015124937744
0.147773354007
0.0740574556793
0.163660661418
0.315392749037
0.511858578464
0.100563700706
0.530382122585
0.456173026202
0.293683067073
1.26145081498
1.0291160882
1.70867027005
0.391791121862
2.57013614459
2.93255828
1.18198597272
3.71702096802
0.323546732948
3.69648737323
1.02856610365
0.0237084615889
0.378257131824
1.11547343901
0.444553428055
0.965335140801
0.102343764403
0.172691208967
0.0906827979745
0.445260019189
0.78244799656
0.819553817614
0.73458845625
0.465450463278
0.308703773364
0.299455590286
0.995883351757
0.344850258782
1.36716386153
0.689486518892
1.35815210158
1.66935011176
1.4628662209
2.19487338683
1.92600860943
1.92228391379
1.4648502822
1.3363224634
1.32401876075
1.03118336643
1.1332805962
0.287264177796
0.696548468295
0.00333426390233
0.0857374582347
0.0164680646648
0.0519412505936
0.526745985348
0.162466464993
1.7660001155
0.0589193541391
0.622845161579
0.0
0.0218691732754
0.218872901778
0.293248974259
0.40936849421
0.0824895411093
0.231276153489
0.683825547231
0.43751964643
1.79724477096
0.0470166126036
0.613059542252
0.579156158746
0.483752866237
0.516059907127
1.12681687612
1.05474741471
1.48231964271
2.57028542961
0.371428777057
1.72920145892
0.131173796184
1.16443836563
0.698048092292
1.43786137404
2.23671503373
0.0224750473098
0.410189468807
0.281813124071
0.160378118552
0.0536690136061
0.316459852907
0.792511413768
0.0916173514981
0.439102179398
0.0636653950464
0.300855121359
0.103492002779
0.206678939222
0.265826782844
0.22714009352
0.223034614724
0.25010546446
0.32975549585
0.299273336221
0.282951432924
0.273436591945
0.288590541974
0.315045993409
0.349014692933
0.287353722653
0.1439007374
0.0545393212232
0.131492447612
0.240106264299
0.357621246945
0.21305081485
0.289133075245
0.00695227472733
0.261113833227
0.0328846859942
0.447260095836
0.528744144837
0.15948190778
0.26637816232
0.383868965231
0.111875795989
0.2507139255
0.269976299016
0.610275334169
0.126277478532
0.738519257666
0.118499855048
0.339007406473
0.303838112158
1.12425515746
0.0635178262382
0.295272724627
0.50275602558
0.141260183126
0.840287002907
0.0926129642403
0.11923682173
0.0112510529941
0.225115048457
0.0262604379282
0.0374448231323
0.185291969395
0.0186051553425
0.261871431298
0.211861639788
0.612329067428
0.0700745356416
0.0956379416479
0.105201083168
0.128592433036
0.0777637311771
0.0100428457141
0.228168925726
0.492200921765
0.0228015870816
0.129877963857
0.820364002895
0.00268471195814
0.259356106555
0.220836562284
0.219657383232
0.239867897621
1.14691202875
0.0120704375579
0.195194720094
0.494323891805
1.25531691198
0.255773754948
1.75630517381
2.29367870653
2.80678949386
1.77047366739
3.3421259823
0.23420331672
3.20889671681
0.105057949395
1.49477171489
0.0736546895062
0.966642521811
0.0464191667922
0.561061981585
0.0699659645086
1.45969668622
0.0415286588539
0.524688354172
0.38701044019
0.436781979345
0.428868629003
0.192764930197
0.508840536298
0.0489995562909
0.79937048913
0.0679694753903
0.0565990873196
0.309662120238
0.00443430487989
0.17807210952
0.652945072619
0.405131013728
1.22145381253
0.127873462681
1.29645923095
0.640522994802
1.41975602169
1.44763473151
1.72973800198
1.56831961163
0.335415122722
1.95475270395
0.201478536225
1.70145254919
0.0428517151895
0.940066986013
0.493137184696
0.790044749804
0.00365602246727
0.389640571447
0.942530704035
0.0447445375604
0.070484462003
1.0819496953
0.0118653825009
0.20063827118
0.205115286025
0.292964644321
0.0817038669433
0.124930718343
0.0727007465979
0.0814669353367
0.130933991141
0.0585540070223
0.106203629961
0.130805903981
0.061728213623
0.0255141995547
0.122572875885
0.307837371262
0.522098732861
0.0145600116624
0.304269439034
0.414392760492
0.358499813562
1.02395364031
0.25072868067
0.329285226677
1.28343479842
1.14144694244
1.16703090324
1.11584056306
1.03741798208
0.976499316577
0.97966656772
1.09414951946
0.924292630517
0.837287836321
0.522185287284
1.45442795443
0.0891471602396
0.0877945633609
0.324192354878
0.279849720457
0.820817387583
0.452589592738
0.685643905493
0.131350374983
0.24956822791
0.145365849031
0.387523952939
0.720803905525
0.199475659873
0.404689156326
0.403368964618
0.219597178515
0.124280188738
0.093520616345
0.143438656954
0.203456767661
0.334461985912
0.371547709736
0.326802895681
0.335528585652
0.258760112752
0.3146296865
0.308344546902
0.216096683805
0.134267905593
0.113208994187
0.111205650278
0.108082348698
0.158338464495
0.0172384836664
0.0384450421357
0.0361792299338
0.0656040689071
0.106145402184
0.115703374635
0.127706890516
0.0669319180607
0.281390958593
0.322145893923
0.0404767414668
0.0623468912843
0.0943347167343
0.0703370978201
0.0328847005747
0.155273677665
0.616415320327
0.295288421109
1.12468646299
0.269703413948
0.064655921493
0.049696241084
0.123005894412
0.133072712665
0.11678056017
0.171211450978
0.172204851229
0.188183866791
0.199726551416
0.207611519105
0.230885427281
0.256258531252
0.182804049475
0.205845398496
0.251341713648
0.256057626362
0.24695940527
0.276193150988
0.273918331955
0.211670660286
0.185677078157
0.230421456765
0.257446740085
0.197760902181
0.168614933298
0.216631632676
0.173341455128
0.102319928511
0.0698431157133
0.320022520132
0.869354490568
1.06136811034
0.752968716731
0.530173195874
1.88668296436
0.0417560130655
0.476030310951
1.69948340899
0.411800610938
1.45147167644
0.205202988169
1.03235373729
0.158661650617
0.210603936816
0.254609361006
0.30293746456
0.0631707738164
0.941036862864
0.127832476866
0.334772177284
0.000402588573096
0.0135438370986
0.0449512782663
0.449254892344
0.162354562946
0.0183709453068
0.0717197436045
0.16349285339
0.235133571233
0.398234946702
0.0663375770912
0.132913394064
0.0511294783668
0.0312973416979
0.13711170788
0.109313914886
1.3216973231
0.0277202837508
0.420965221814
0.380155368479
0.328502752947
0.095503913731
0.0664444539152
0.387869572893
1.11837347945
0.0332499541719
0.997515696538
0.0140787909576
0.0690467992617
0.204463190774
0.220269620058
0.391248662264
0.840360487661
0.329195231294
0.846524156009
1.4541366619
0.43038246973
1.08359174798
1.27590860062
0.540406644832
1.51807015673
0.382660158199
1.56578217216
0.268739807501
1.1728482596
0.256529531603
0.883370945258
0.66305905933
0.636532478226
0.0212363159929
0.0916954354015
0.461017276182
0.353132201039
0.913199535828
0.153410300734
0.214238050836
0.258267533232
0.447630239416
0.113375922073
0.0989030309661
0.0940277361338
0.0584236953566
0.0735513426844
0.0513893918692
0.22422773078
0.93577663383
0.171277766176
0.389875315562
0.655252936829
0.4683418278
1.45693118489
0.317252952065
1.76555179
1.16272450396
1.79985999989
1.66635348189
1.26114783371
1.61033303065
0.695934094966
1.85978970765
0.129362735342
1.37131708259
0.089164614546
0.437853185255
0.229108419772
0.812592028027
0.0600276570141
0.173404781163
0.0712777642714
0.210067236043
1.40359642143
0.0340122927367
0.193468441123
0.206907451988
0.165021270444
0.217454293189
0.0563925365301
0.0714446813872
0.0808326140086
0.096671190524
0.0597878003245
0.0352201416529
0.069235350372
0.0674836228822
0.0520782630741
0.0477804288208
0.0705079343589
0.0826728601158
0.839736463124
0.160432534662
0.311372218435
1.09974032767
1.13893836839
0.544781563832
2.64049146451
2.33886160781
3.71531838951
0.35105742093
3.77117392197
0.143674205752
2.54053643438
0.0933706878624
3.64956890552
0.503670220417
0.0816377120107
0.0979376708216
0.0521927662579
0.0803790573901
0.15242256724
0.202924107834
0.240639966319
0.220731432628
0.252802151263
0.300635521949
0.334314466686
0.348309388756
0.364681721562
0.351055686137
0.349778696173
0.351632449502
0.375690904613
0.410786803705
0.367891629201
0.372493016312
0.12511704984
0.199424280883
0.320334777663
0.296858221718
0.116330944536
0.120065553134
0.0577198609386
0.203461028184
0.252751022436
1.18857592567
0.307549815209
0.498040645472
0.800542509034
1.36914509087
0.611119791051
1.55061054016
1.05961995782
1.48692527435
1.32741746075
1.22518980831
1.61597427364
0.607023289061
1.32737068907
1.07412574368
0.240332986817
0.461227234172
0.561258297314
1.48404548642
0.358373807008
0.587421339074
1.1456730406
0.861734629913
0.493488817095
0.414233070801
0.078268017993
0.138227025498
1.14108636644
0.312895773863
0.1535787678
0.798995540114
0.0595352810106
0.403614446232
0.732151983352
0.105624481819
0.208264376314
0.192169662011
0.0511088671544
0.728695347699
0.00790564197647
0.106764712374
1.23925144423
0.00437844005487
0.176479049445
0.0462526759536
0.20226871906
0.336325857129
0.0928823272911
0.833342468594
0.189704225108
0.242314651208
0.807311640253
0.33721816113
1.11587254417
1.15353375183
1.22756744132
1.61035086739
1.85797842352
2.00828523938
1.62335770583
1.97549697938
1.34725204073
1.25619427073
1.74235321376
0.227147905153
0.536971179352
0.606049845993
0.285418493064
0.727719060975
0.723202372627
0.169918398334
1.12195997609
0.28449248918
0.899552928765
0.674026885294
1.14770266718
0.50052979929
1.43676259212
0.157451499142
0.28526751014
0.680667914474
0.361087696392
0.403796666068
0.801477570707
0.259886329864
0.145697777744
0.237292521463
0.365931750016
0.337603148149
0.415369889276
0.409748169405
0.394675109162
0.39369074823
0.431340849265
0.406998774775
0.369755884143
0.334847905669
0.37780281462
0.332576246717
0.2559226179
0.213064252739
0.14715172146
0.149385547222
0.119325307666
0.0776564145497
0.0239135557801
0.183475846599
0.533661663771
0.0528221198088
0.0474908229936
0.115285353514
0.39836729843
0.268587840734
0.0859308071489
0.46982014745
0.518410178524
0.299762037949
0.0798398424451
0.198421038634
0.422120301437
0.0690259435097
0.168126925284
0.0996485730566
0.0539851010121
0.133864339288
0.176284384658
0.0882992502691
0.119567992317
0.179818963646
0.200234199087
0.238787515465
0.169124529196
0.235787449405
0.273431121474
0.312018881844
0.167863168775
0.174858331692
0.0965914758414
0.190181770571
0.23198841449
0.189453202357
0.0930619750083
0.024070030003
0.208654795286
0.41692831629
0.00961236079543
0.120972960072
0.436493108234
0.0335102293562
0.141617737681
0.104650007151
0.160442975513
0.405777788223
0.406393101802
0.588731023042
1.01386021192
1.00189878539
0.831557993883
1.63787385188
0.295783563455
1.9383301648
0.00215773965606
0.884397154549
0.716549220966
0.489584488273
1.62680135204
0.114173313616
0.227612299413
0.503975267812
0.294978068125
0.141459991309
0.227368353442
0.300442511538
0.469070716651
0.433367075908
0.267005782135
0.246304777568
0.240083853425
0.302665028015
0.257359803816
0.175565979336
0.184998597013
0.142776166149
0.195213500828
0.503102487305
0.056319468321
0.0574023591147
0.117176756943
0.820888749083
0.0460994651654
0.117591120805
0.171999620217
0.101287851659
0.183072613838
0.0819904147086
0.106970777841
0.254429954947
0.112904815243
0.174391278623
0.106102015636
0.213103680599
0.220602085008
0.172679181555
0.204130835122
0.199956893185
0.162135094602
0.178160582936
0.321416451013
0.243404101159
0.264778968712
0.212692371067
0.124839137544
0.188443477865
0.285578750011
0.258590839295
0.206153440168
0.259892801978
0.241237387383
0.25899318505
0.126176680442
0.203138920724
0.303919705076
0.152940804646
0.488509787112
0.471410757184
0.125221988888
0.195936360554
0.325089254293
0.453965762582
0.688479518508
0.461411580547
1.16325884258
0.542211166664
1.39448032597
1.34638759676
1.64786508562
2.2473499653
2.01043242134
1.61960177599
2.11783832606
1.29967003394
1.63852356855
0.76691203939
1.13672280594
0.248886920461
0.32915656299
0.236551757729
0.26475063741
0.323342867486
0.276119572002
0.323046031473
0.254072890672
0.273875396211
0.328945955544
0.278009076231
0.306255451156
0.256237222618
0.223517117616
0.171797034337
0.273333530303
0.288028106156
0.297303970423
0.290133907913
0.240192615588
0.270745987475
0.245569957586
0.38674598159
0.280773499
0.338492173033
0.206590654901
0.249042982826
0.199972718127
0.325962685908
0.189989243307
0.145191080027
0.426326026923
0.0633821807319
0.208137475348
0.675828895097
0.0193900768444
0.156429650676
0.0729778555809
0.136053430739
0.202799851608
0.815642873932
0.197867955943
0.401014821277
0.157552323716
0.592142760759
0.0974429384223
0.506448426718
0.597652743712
0.129476540242
0.282274856992
0.359997936298
0.201417416588
0.441680626244
0.495567844289
0.417711899368
0.365020812709
0.451199808335
1.00843714578
3.03116748915
0.0254232128193
0.333836790978
0.359446353634
0.38663355059
0.783349947689
0.235225673418
1.50799795162
0.0472722653587
1.0372761133
1.22074812906
1.08855163502
2.57524333009
3.77117392197
0.468239272651
3.77122125429
0.479898408131
3.77117392197
0.0767800614722
0.0884012216045
0.0473153403331
0.487895193659
0.689746434349
0.138927252349
0.689424195708
2.8525310071
0.0337588931814
0.430616855989
1.19236184727
0.305370750944
0.964611910333
0.20602332996
0.436014418509
0.469674550423
0.239940640453
0.28531481778
0.175791392157
0.41057739176
0.821720630941
0.565529607094
0.72093815867
0.665302720422
0.851252476423
0.893019900867
0.874640810083
0.969300989248
0.856033975274
1.12851225477
0.57213117497
0.949688015646
0.533648273699
0.273867527165
0.436181303387
0.378661755219
0.370068930549
0.282801142726
0.158308711133
0.0602214055932
0.0226271844584
0.238947932541
0.473662118673
0.979345544378
0.339001121732
1.04522257092
0.246969943078
1.09339958406
0.171390601029
0.860446759106
0.532796246471
0.453300881696
0.810557656095
1.10109633434
0.766822392729
1.04247392168
0.505247432457
1.84062057947
0.998688507951
1.59801984445
1.31137247572
1.18046984447
0.999451931399
1.27158742445
0.772776618558
0.943555496902
0.344943463823
1.49447185986
0.00980237989302
0.187788886593
0.0195024078987
0.112737970316
0.634380684058
0.060679096815
0.0427798513104
0.0636512127079
0.0971288231128
0.0975979436516
0.119229437193
0.129590948831
0.0723501193236
0.131540888384
0.122406331391
0.152202217187
0.0650938517076
0.107860231365
0.0415231479304
0.0728871199732
0.215036411122
0.419187750043
0.482383543859
1.72805585356
0.0265801681919
0.255790869091
0.454046185256
logs/alpha_9.0/PGSD_200steps_0.log 523.94148882 0.52394148882 0.294509138731 3.77122125429 0.0 -1
