Policy Parameters:	-346.656263042 300.860806053
Control Steps:		1000
Start Time:		1442140975.2263002

-- TESTING STOPPED --

Stop Time:		1442141347.2813172
Duration:		372.0550169944763
Cost Matrix:
3.77134270111
3.77119952258
3.77233293127
3.77165560382
3.77499835736
3.77161384928
3.77177467189
3.77124722126
3.77119979131
3.77143411371
3.77117392197
0.0167123180055
3.3618160179
0.00374973961509
0.147774677373
3.77117392197
0.156132555749
3.77117426139
0.0291068212192
3.77117426139
0.0464236659695
3.77522458093
3.77117426139
0.0245780481081
3.77117426139
0.0519749150683
3.77117426139
0.115619607682
3.77117392197
0.0028332932925
0.535519425457
3.77117392197
0.0425350349099
3.77192140735
3.77176432769
3.77117426139
0.0826733326662
3.77117392197
0.0220613236271
3.77118015003
3.70913481299
0.0318083667933
3.77117392197
0.0789063590055
3.77182175027
3.77117426139
0.0947423076287
3.77117392197
0.013211177233
1.40549491296
2.94653658242
0.0934407726388
3.77129213914
3.77117392197
0.103175702701
3.77122463381
3.77119619483
3.77156509063
3.77117392197
0.0786125100129
3.77117426139
0.0289651869491
3.77160505462
3.77117426139
0.0235782730138
3.77159890123
3.77117426139
0.0576059384955
3.77117392197
0.135187782277
3.77117426139
0.0586611452239
3.77117392197
0.106314158357
3.77128007536
3.77125240831
3.7711799041
3.66684777377
3.78918688834
3.77117392197
0.138736425291
3.77117392197
0.0303822633155
3.77117392197
0.076356014147
3.77117426139
0.0264678269639
3.77117392197
0.112153386564
3.77117426139
0.0463017191024
3.77120246499
3.77397605975
3.77192995043
3.77145947482
3.77534291659
3.77117392197
0.0250721122477
3.77117392197
0.0760683774319
3.77132127974
3.77118078189
3.7713213087
3.77287739026
3.77174002562
3.77117426139
0.0979867996225
3.77151495032
3.77117426139
0.102928612747
3.77135769575
3.77117426139
0.14978777645
3.77117392197
0.0268366257587
3.77509480016
3.77125328892
3.77117392197
0.190329554378
3.77117392197
0.018746949724
3.77226955913
3.77117392197
0.0061984964063
3.77117426139
0.135029370003
3.77117392197
0.0656646343571
3.7718287946
3.77117392197
0.0385232960267
3.77117426139
0.142632061335
3.77643893613
3.77117392197
0.00625130378457
3.78320477219
3.7714798934
3.77189910318
3.77192342177
3.77117392197
0.033071107821
3.7711949425
3.79714961353
3.77117392197
0.0094197618588
3.77147318941
3.77353485896
3.77121284054
3.77117392197
0.0118117164272
1.60825997298
0.0176628923587
3.77486892171
3.77119564157
3.77197865497
3.86800339309
3.77430978822
3.77150679363
3.77487358316
3.77119708448
3.77282529886
3.79207348296
3.77192695932
3.77141421343
3.7739797181
3.77176036957
3.77117392671
0.576724578801
3.77132678945
3.77120541357
3.77121066764
3.77117392197
0.148560238178
3.77117392197
0.0694149455953
3.77132483349
3.77117426139
0.381372224139
3.77117392197
0.365562064618
3.77194230819
3.77147697693
3.77117426139
0.0750150868316
4.15040898336
3.77814421316
3.77135122374
3.77117426139
0.0452892124371
3.77117426139
0.0365673380024
3.77117482192
1.90555030315
0.0201291882054
3.77117426139
0.0656889776883
3.77117426139
0.0
2.55417564282
0.164273787984
3.77117392197
0.0406949689129
3.77117426139
0.0674302182211
3.77117392197
0.00815812691241
3.77117426139
0.0143978823899
3.55465635731
0.0225061330121
3.77117426139
0.0231446753943
3.77117392197
0.0109416289574
3.77257663212
3.77117392197
0.0495434739499
3.77117426139
0.00369965791492
1.00687620417
3.25067038359
0.0184963392675
3.77117426139
0.0245353226554
3.77117392197
0.0108699661186
3.77117392197
0.00945250833816
3.77117426139
0.00892335177675
3.77138057496
3.77117392197
0.0685408974396
3.77117392197
0.00978759681898
3.77383306507
3.77123108425
3.77117392197
0.097731326725
3.77122326022
3.79084244495
3.77117392197
0.0107501836621
3.77253651435
3.7714617035
3.77117426139
0.0657793486982
3.77117392197
0.00638524307704
3.77327485104
3.77146902304
3.77127795483
3.77117426139
0.057822390105
3.77117392197
0.0115408182077
3.77117426139
0.0240924399323
3.77117392197
0.0
0.0535119840969
3.77276325152
3.77117392197
0.00329331638069
2.93732241846
0.011980240827
3.77117392197
0.00253618737326
0.0139596322286
3.77117392197
0.0379868412139
3.77332466203
3.77172446964
3.77117426139
0.0901972522159
3.77118725153
3.7711953795
3.77117426139
0.0677205618698
3.77121827274
3.7726043394
3.77117392197
0.072661985583
3.77166290154
3.77117426139
0.0660907057391
3.77117392197
0.00843277252002
0.337955090711
0.000764340563699
0.542357112797
0.0140069506523
3.77509535262
3.77149627262
3.77122028094
3.77117392197
0.0648615646363
3.77117392197
0.0851038071605
3.77117392197
0.0358312160892
3.77187343934
3.77117426139
0.0474297126893
3.7711953538
3.77161293703
3.77180197269
3.77185257773
3.7716612767
3.77180992703
3.77322946315
3.77126487167
3.77162416885
3.77117392197
0.0481227035782
3.77118109655
3.77117426139
0.123408426278
3.7722109228
3.77117392197
0.0204673743656
3.77117392197
0.0459769717874
3.77117426139
0.0013296473679
2.2409521959
0.0275241321912
3.77117392197
0.0132170244869
3.77121250356
3.77218266345
3.7744168247
3.77130955423
3.77119456905
2.94690416377
3.77117392197
0.104814437457
3.77117392197
0.221188331639
3.77117824564
3.34184443952
3.77280398156
3.77117392197
0.0309556261504
3.77730507315
3.77131419398
3.77178807438
3.77117392197
0.016095319804
3.79945906423
3.77154848445
3.77117392197
0.422698658262
3.77126695439
3.77117426139
0.0340039123482
3.77133355271
3.77117426139
0.222196405129
3.77406912686
3.77153781285
3.77118279551
3.73239550228
3.78019736771
3.77117426139
0.136035561699
3.77136203895
3.77132025748
3.77139839542
3.77117392197
0.0154166014856
3.77242375096
3.77137492596
3.77125466726
3.59158928014
0.0335885364921
3.77128405409
3.77117426139
0.234920796755
3.77117392197
0.0143214100827
3.77117426139
0.251482718044
3.77117392197
0.0238735977985
3.77117392197
0.109854336558
3.77755108287
3.77137585507
3.77117426139
0.0117377068971
3.77117426139
0.140148285585
3.77117392197
0.00188836064715
2.91116975909
0.0
3.83931549661
3.77200984795
3.77117392197
0.199860523856
3.77117426139
0.0
1.82062413177
0.0140022410718
3.77117398106
0.423926769467
3.77117392197
9.42444932672e-05
2.22162797112
0.0560659704359
3.77117392197
0.00978765419025
3.77117426139
0.012291550273
3.77117392197
0.00514744368895
3.77117426139
0.0278794241595
3.77117392197
0.0323835384556
3.77117426139
0.0262337623311
3.77117392197
0.00186616655732
0.121808260276
3.77117392197
0.114103436658
3.77117426139
0.0121717649873
3.61030085695
3.77117392197
0.00721616808866
3.7711905249
3.77117426139
0.0162367978335
3.77117392197
0.0637145976853
3.77117392197
0.0268097214832
3.77117426139
0.0581779433926
3.77117392197
0.0192503569213
3.77117392197
0.120529501147
3.77120165275
3.77117426139
0.0628316960419
3.77117392197
0.0149800946121
3.77118165482
3.77117426139
0.0316880487553
3.77117392197
0.1262105909
3.77117426139
0.0388750092179
3.77174425417
3.77117426139
0.0298498664125
3.77117392197
0.0187852447322
3.83589654874
3.77128196325
3.77117426139
0.0259822728916
3.77118506202
3.77117392197
0.0212470631808
3.77117426139
0.0567447015465
3.77117392197
0.00659071392282
3.77117426139
0.0603273807338
3.77182434634
3.77117392197
0.0384939441023
3.77117426139
0.0598279808913
3.77117426139
0.0174610408317
3.33170139503
0.0435272001303
3.77124570226
3.7800482686
3.77117392197
0.0418755818004
3.77117392197
0.0152681717712
3.77117426139
0.0509175118448
3.77117392197
0.036562729498
3.77117426139
0.0594657063204
3.77117392197
0.0333097493304
3.77117426139
0.138573134601
3.77590575657
3.77117393394
0.670081963874
3.77551153514
3.77117426139
0.0227067677512
3.77171847444
3.77149801482
3.77117392197
0.115146805227
3.77117392197
0.0
3.35664028792
0.117867576628
3.7718880173
3.77117426139
0.124150133834
3.77119999316
3.77117426139
0.136622638573
3.771799142
3.77117426139
0.135039627588
3.77117392197
0.0240340460608
3.77714159315
3.77117426139
0.185551549736
3.77270489671
3.77117392197
0.0663343659884
3.77250176758
3.77117426139
0.197944697516
3.77117437635
1.57682936948
3.77124462186
3.77236597453
3.77313984279
3.77118674084
3.77117392197
0.0494172842337
3.78653359726
3.77117426139
0.240994909077
3.77117392197
0.0380890810261
3.77117392197
0.0220186216902
3.77176802682
3.77121218467
3.77366308255
3.77117426139
0.234540038878
3.77117392197
0.00746396028747
3.77117426139
0.237049548433
3.77117392197
0.0
2.97357843742
0.0609928464073
3.77117392197
0.0148608425786
3.77117426139
0.0384516156362
3.77117392197
0.00824004229465
3.77117426139
0.0388543352195
3.77117392197
0.0164839514698
3.77117426139
0.0382139679
3.77117392197
0.0245352013313
3.77117392197
0.0171794903997
3.82233527651
3.87365390476
3.77117426139
0.0224513649203
3.77117392197
0.0133127596998
3.77117392197
0.0428175039011
3.77117426139
0.0238999714323
3.77117392197
0.0407374621406
3.77117426139
0.0289925186764
3.77117426139
0.0375777126883
3.77117392197
0.0893895233641
3.77117426139
0.0243252379344
3.77117426139
0.0544040779647
3.77118944464
3.77117392197
0.0147299417651
3.77117392197
0.00478738227783
3.77117426139
0.025053387552
3.77117426139
0.0435532184776
3.77117392197
0.00658140147696
3.77117426139
0.0498637251282
3.77117392197
0.0348372680774
3.77117426139
0.0453011867316
3.77127319232
3.77117426139
0.0322981346845
3.77117392197
0.0330268060666
3.77117426139
0.0117266952263
3.1478065919
0.0110518007362
3.43670557085
0.099888234451
3.77117426139
0.0062214398047
0.627938179329
3.77117392197
0.0263070065266
3.77117884749
3.468113066
0.0269692510016
3.77117392197
0.0309980878719
3.77117426139
0.0416073268944
3.77117426139
0.030563992102
3.77117392197
0.00417704424209
0.415290346281
3.77117392197
0.0262313534542
3.77685594236
3.77117426139
0.0433372447904
3.77117392197
0.0376051008809
3.77117426139
0.0387550171773
3.77117392197
0.00913208739411
2.95729390256
0.00200224286172
3.07802893732
0.0339497953819
3.77117426139
0.0498257561032
3.77117392197
0.0196473950488
3.77117426139
0.0430070991304
3.77117392197
0.0397054409479
3.77124669461
3.77117392197
0.00171155879774
3.61816104797
0.0533861419854
3.77117392197
0.0173839333738
3.77117426139
0.0501831244173
3.77117392197
0.0353147971385
3.77117426139
0.0493146645131
3.77134830146
3.77117426139
0.0443399971211
3.77117392197
0.0386899628802
3.77117426139
0.0127204494169
3.1377556423
0.0143048947685
3.77122443901
3.77117426139
0.00385592289798
3.77159463677
3.77117392197
0.00246801224723
3.77130881732
3.77117392197
0.0182343293839
3.77117426139
0.00870199416337
3.77117426139
0.00500641217932
1.6535279505
0.0409387823298
3.77117392197
0.0496188810492
3.77117392197
0.036253477031
3.77117392197
0.0436478249996
3.77117426139
0.0380254024338
3.81590860991
3.77957770594
3.77117426139
0.0490995416573
3.77117392197
0.0412124676841
3.77334395756
3.77117426139
0.0170646562311
3.77117392197
0.0162239763902
3.77117426139
0.0320124354634
3.77117392197
0.0572365823134
3.77117426139
0.0203733768894
3.77117392197
0.0634211738548
3.77117426139
0.0349403409185
3.77153269459
3.77175449379
3.77121698422
3.77630190861
3.77117426139
0.0381628868804
3.77469810617
3.77439089486
3.77117392197
0.0144125879681
3.20724104034
0.0446560682388
3.77117426139
0.0372376363992
3.77117392197
0.00621088499334
3.77121918863
3.77117392197
0.0348460431835
3.77117426139
0.0227358284643
3.77475530117
3.77117426139
0.00228910938192
3.77117426139
0.063815822632
3.77117392197
0.0384938894247
3.77117392197
0.0117876207935
3.51300773864
3.77117426139
0.119739462579
3.77117426139
0.0454528607095
3.77117392197
0.0148970445654
3.77117426139
0.0545791224452
3.77117392197
0.182480910489
3.77217708752
3.77117392197
0.0234810571441
3.77117392197
0.0351333047246
3.77117426139
0.0489125919852
3.77117392197
0.00627575395414
2.55152352254
0.106078232615
3.77124072307
3.77117426139
0.0567294131327
3.77117392197
0.028458330919
3.77132240601
3.77117426139
0.0359136745266
3.77117392197
0.0435833377663
3.77117426139
0.0358530580022
3.77117392197
0.0
1.92439318319
0.0120207920841
3.77117426139
0.0174524501119
3.77117426139
0.16298182381
3.77117392197
0.00462849933737
3.77117426139
0.0403461859713
3.77117392197
0.0108914494344
3.55141201321
3.77117426139
0.0151259180068
3.77135062329
3.77118008335
3.69767602144
0.041388475764
3.77455281851
3.77118371699
3.77117392197
0.0
2.63852732162
0.0307912091409
3.7723635279
3.77117426139
0.0398985589386
3.77117392197
0.0193720226919
3.77117426139
0.0143095432427
3.77117426139
0.0304551150884
3.77117392197
0.00079049229482
2.4274580914
0.0449474892857
3.7750166467
3.77117426139
0.0462828714385
3.77117392197
0.0222648435101
3.77117392197
0.0564114835027
3.77123896895
3.77406420882
3.7797598955
3.77117426139
0.0147786115661
3.77117392197
0.119410700229
3.77117426139
0.0112329956304
3.78945376368
3.77117426139
0.00817466932527
3.71833937389
0.0741526339452
3.77117426139
0.0200714342092
3.77117426139
0.189119939206
3.77118782845
3.77117426139
0.0507533399137
3.77117426139
0.0288220294383
3.77146166664
3.77117426139
0.0242753695451
3.77117392197
0.0514326254666
3.77117426139
0.0334065079993
3.77119962428
3.77117426139
0.0352384441007
3.77117392197
0.0192202432082
3.77117426139
0.0351727329407
3.77117392197
0.037863410557
3.77259736898
3.77117426139
0.0157256728981
3.77117426139
0.0199119150882
3.77117392197
0.0252046736612
3.77117392197
0.0714210940813
3.77117392197
0.0879849189568
3.77117392197
0.00453358830638
1.82474878239
0.0265106642735
3.77117392197
0.0378226660396
3.77117392197
0.038388468978
3.8692248158
3.77184813982
3.8320317854
3.79978415916
3.77117426139
0.0172772981293
3.77118639742
3.77117392197
0.156501922309
3.77117426139
0.0509082428099
3.77230372922
3.77117426139
0.035837371306
3.77117392197
0.0313279456714
3.77364692166
3.77117394243
0.418490920603
0.0912566385928
3.77233652511
3.771443422
3.77117426139
0.027880311638
3.77117728604
3.11193978872
0.0339263262327
3.77117426139
0.0308065287192
3.77117392197
0.0176449967641
3.77170168864
3.77118082202
3.45353259007
3.77117392197
0.0298931777076
3.77117426139
0.0339901446972
3.77117392197
0.00963403833287
3.36856868838
0.00974118350448
3.77117392197
0.101218528361
3.77117426139
0.00123602507101
1.48951537246
0.0666431930123
3.77117426139
0.0444690732959
3.77117392197
0.010379565237
3.77117426139
0.02630757582
3.77122299725
3.77151123785
3.77117426139
0.0770353648855
3.77117392197
0.416042255308
3.77167477685
3.77550614209
3.77117392197
0.069024762393
3.77320680337
3.77117426139
0.0646724441255
3.77117392197
0.0288161794606
3.77117392197
0.0170127595106
3.77143374375
3.77117426139
0.00340399127664
1.19959672003
3.77117392197
0.00327829323402
2.44750466473
0.0151234272588
3.77117426139
0.0343534914542
3.77147983353
3.77126749169
3.77117426139
0.0515401831424
3.77117392197
0.0824549883617
3.77190654992
3.77119972204
3.77117426139
0.106155637337
3.77117397851
1.14125157417
3.77324136976
3.77117426139
logs/alpha_9.0/PGSD_1000steps_3.log 2299.02613815 2.29902613815 3.77117392197 4.15040898336 0.0 -1
