Policy Parameters:	-1.81611807033 5.38087018212
Control Steps:		1000
Start Time:		1442495567.8718834

-- TESTING STOPPED --

Stop Time:		1442495693.817622
Duration:		125.94573855400085
Cost Matrix:
0.194912021793
0.00476329423066
0.112639399862
0.0354266511261
0.0348050620794
0.00973099440654
0.040020414762
0.0992696780356
0.179600268063
0.0746657812956
0.0742203705583
0.0669239915236
0.120439589857
0.180525409759
0.196634227407
0.220563539479
0.269617119916
0.243691447945
0.19568266382
0.272630561086
0.202123751125
0.131759538287
0.182697263148
0.216537895181
0.132742210572
0.234952599168
0.20899243657
0.0704754699412
0.127489596446
0.0678907247046
0.0682535041718
0.0268220127314
0.257005852556
0.366528690877
0.210156204294
0.482434643682
0.310633024981
0.390114745903
0.41445573798
0.447976901474
0.206699803346
0.498386523996
0.287831055542
0.380283763504
0.405876034696
0.414851915224
0.536122961622
1.05493731261
0.266347482224
0.906802695865
0.537714836451
0.534049343471
0.638504985142
1.1619539531
0.538912504689
1.31808893569
0.381031931081
0.912349529924
0.52361909813
1.07130806638
0.803306287314
0.489128711893
0.65649302481
0.155515944499
0.211811793848
0.166599170536
0.106516623491
0.1577818566
0.478410511373
0.24101625436
0.437180391016
0.508118027788
0.390894065928
0.428201214399
0.387047445806
0.181774783996
0.189984199204
0.183214574821
0.326006793939
0.492092912835
0.0791749779687
0.033167002811
0.0893465375839
0.39649524059
0.309135186717
0.0942490683524
0.168788836285
0.318720679845
0.249949565542
0.279231392106
0.430117986414
0.0895021159658
0.0772655095146
0.0867042900615
0.183116133547
0.273044574867
0.311303257376
0.367060078789
0.419757870292
0.493087839628
0.697591052567
0.619107383226
0.852945634637
0.776098525001
0.989665683402
1.06470538605
1.15763919878
1.25207381598
1.11914066869
0.976923422188
1.17068180795
1.13819968928
0.753519498942
0.739775253942
0.959253532083
0.372442559987
0.322916958157
0.0758806646605
0.278841926034
0.334110216447
0.144651658822
0.116183257289
0.0342232085085
0.251521275912
0.0369644544907
0.137498245924
0.0373453760055
0.347784884033
0.102317527164
0.0736286660129
0.112164381428
0.126785910126
0.100013818875
0.117513202021
0.129939491041
0.089396399098
0.196422760489
0.227106864348
0.225578800172
0.153666889893
0.128160641962
0.163313778919
0.176386344694
0.19938229725
0.185356319762
0.168308399015
0.205997720052
0.188009878016
0.173349067753
0.184618798431
0.258748275021
0.204835933333
0.20572229935
0.195522507425
0.144579694373
0.150400120059
0.162566923079
0.153381006986
0.169345758228
0.181584770939
0.127040782718
0.149767374812
0.199526520049
0.143870341184
0.155485520025
0.183783680004
0.149405758619
0.144300190444
0.0505223842721
0.235087947036
0.0515652727394
0.0158862439965
0.197285355992
0.217081201784
0.212192326828
0.386092281843
0.501415210088
0.628744313634
0.483557828797
0.605813947329
0.427645929631
0.61036509286
0.415070641323
0.684066715648
0.336561607141
0.428943071425
0.412843884286
0.476313774316
0.626345911381
0.300329263533
0.731087796552
0.321010705491
0.319461527972
0.4507309749
0.0706879321705
0.467541211874
0.0101220001666
0.0363696615159
0.170939802127
0.310076265818
0.0315386803862
0.0291167444254
0.199841486513
0.0160354890029
0.0234915614834
0.0644481260856
0.0415577152254
0.192948309226
0.248643616279
0.356472429667
0.244295275163
0.289813532322
0.0458073668122
0.0941476344144
0.00178050491371
0.0495210797433
0.226399652033
0.196141880973
0.1993899649
0.00171462437272
0.0577175469654
0.123053962735
0.16169402189
0.0502993708585
0.192672909107
0.282187709225
0.345181867644
0.321369148754
0.0139114902352
0.131443353015
0.411578249664
0.356982328995
0.19036208872
0.178680436398
0.185272492731
0.403877085821
0.41710168009
0.63946816422
0.0824790227673
0.130147727033
0.210457661948
0.292496200293
0.387715370908
0.516718099825
0.575461137853
0.664211486486
0.789695855777
0.821966308666
0.909053500812
0.995143440878
0.854644387493
1.03179905347
0.910957305467
0.980150908307
0.591829756922
0.870755455619
0.602962841519
0.611944654887
0.349024616506
0.453832690958
0.40533106402
0.359570218747
0.0304049265415
0.371868225098
1.0151175481
0.432019849154
0.399454647543
0.750403543306
0.744866107025
0.588082431086
0.564032811663
0.908681246218
0.46273697226
0.844336095378
0.0725640657402
0.272364609057
0.253953969397
0.48513116368
0.264718309112
0.121631809317
0.1893164301
0.257832972599
0.0529444579893
0.0506372719156
0.0819528032418
0.0297438954437
0.182892729012
0.296994934954
0.503763212022
0.187090857378
0.362768710319
0.259416552643
0.319759954628
0.357376682053
0.11528557719
0.277463061219
0.321475214124
0.339036617411
0.190426745529
0.318326168641
0.369268583725
0.385684283495
0.524417351971
0.461240836135
0.599308306309
0.259624794853
0.348778388773
0.343961083516
0.32662163827
0.334906121468
0.287466812517
0.366808498238
0.1509404649
0.25074800782
0.246162457365
0.400776112768
0.219041144782
0.0459788939259
0.0769340961667
0.112962143823
0.158381721264
0.0958181556968
0.0657420434232
0.0758005522591
0.121825302881
0.164702104852
0.183312031032
0.0860459486805
0.0758848205558
0.118831446883
0.0973899272131
0.128323617709
0.185898992756
0.221175344966
0.223912092938
0.236348085372
0.225063036704
0.170616209581
0.0993612879087
0.08255604527
0.0589634403378
0.119257499498
0.239326012593
0.0937495439682
0.191651409788
0.347527103958
0.362194003425
0.282381299501
0.363945427967
0.291895643778
0.146256372256
0.161055650041
0.26908209842
0.35443791595
0.369373425831
0.353801472999
0.205209001083
0.266663485218
0.340036309455
0.311066358709
0.267472241764
0.192822472654
0.190045725317
0.229908822358
0.305335744785
0.515358772371
0.031730675418
0.299221614839
0.403334130064
0.041436176842
0.110825692141
0.0983410709069
0.00600009094043
0.0715733779548
0.0224604628261
0.0457802258986
0.0282535989016
0.126505495459
0.0699564641916
0.421063686397
0.0939115987049
0.255511265008
0.0366404033947
0.020729916684
0.0326731635405
0.0186504914425
0.0151748451146
0.0184748611346
0.00640483931339
0.0127423359703
0.013755145448
0.0448050874721
0.1855299003
0.268971102169
0.088607173838
0.155713217871
0.0867147635458
0.15763423575
0.0229870710451
0.0673339709847
0.293464594536
0.530815036361
0.359916194697
0.135796867314
0.630890991752
0.538190556336
0.673138524519
0.533688031144
1.12487352687
0.946558722756
1.50265933505
1.8649147511
2.20137884841
2.12540112486
2.10947326014
2.19721437001
1.88455071661
1.81811558369
1.73899824251
0.746161707749
3.68719958059
0.0455894341145
0.0599077730196
0.102640980091
0.179219110377
0.0183374641983
0.0987298245409
0.184190119414
0.207848622249
0.131088749735
0.0999837009894
0.046358672835
0.051313316873
0.0574252257854
0.0794847750428
0.1482271087
0.225385690698
0.203615219647
0.138535295079
0.184006497656
0.198638515981
0.216103106362
0.194632363068
0.229054536973
0.169914788161
0.210348083267
0.197898855547
0.240400781173
0.182741052051
0.203006423608
0.247450592898
0.216239564795
0.209936818693
0.22942383761
0.270681637091
0.226576623457
0.204114825215
0.202352338917
0.197222233999
0.14823587395
0.134891994473
0.0730914136558
0.111083999091
0.135332751915
0.0826017253303
0.0754215200418
0.0760722069781
0.0874612820036
0.076032484191
0.0762798404871
0.0789189526562
0.0718946880497
0.0853469067045
0.0900564131337
0.0855391814863
0.0758448566755
0.0878629801332
0.0987360146938
0.085325752179
0.0924540942662
0.0905456797326
0.0927086011132
0.0915805729909
0.0878777667445
0.0848725272448
0.0976696533211
0.105582577717
0.117320069786
0.117561283898
0.116656315284
0.121987405546
0.119939269236
0.110628521948
0.103311075806
0.113565850275
0.129329398745
0.138303533166
0.12160804575
0.120807680689
0.132512735364
0.135289779806
0.147078163163
0.142178716684
0.132087623467
0.134422638118
0.138001091369
0.144043446352
0.13661333953
0.142614395022
0.141118606795
0.160657889518
0.157168362728
0.148585722397
0.161589606472
0.161140403209
0.165025561184
0.173657929073
0.171311324208
0.182915800127
0.185624523926
0.183568725119
0.190644506329
0.188287689934
0.202296757637
0.199406188627
0.205291150651
0.204841185449
0.216439015869
0.22090803361
0.217677729615
0.225693772484
0.241810562067
0.242942011472
0.244683114826
0.261302113056
0.258102260312
0.264179661125
0.276975823591
0.285184188114
0.29117975649
0.297538784998
0.304293039174
0.306609295406
0.321621455002
0.3243120669
0.339177577855
0.360426041943
0.367316167576
0.362421501537
0.377060733412
0.412322814963
0.421042714858
0.420589939693
0.444132373127
0.478576865659
0.475222384911
0.478946669999
0.498764147361
0.524737212724
0.541647057583
0.551771077227
0.580525410371
0.608710163064
0.782437300896
0.582669786559
0.785601192676
0.640618142824
0.833792858943
0.626978400332
0.900918982444
0.642021665421
0.979143844567
0.822903849913
0.874487216387
0.841338111298
0.919334010053
0.884310698166
0.998682784757
0.950483265711
1.01109336182
0.977395566748
1.05717141085
0.916445598153
1.00396072145
0.990673439655
1.05719866046
1.13653666974
0.925923078533
1.10338711551
1.24067039171
0.781926596288
1.10506025352
0.775762166023
0.981542865839
0.767255075098
0.754985261893
0.821241475115
0.75708253694
0.804554893132
0.64155691837
0.944926666468
0.53293742838
0.599834883758
0.568502559371
0.525938281852
0.493297243996
0.468954491382
0.499867020891
0.489018657177
0.460648672934
0.419882216471
0.385324064778
0.318129430146
0.316817353346
0.285404926981
0.0868497330419
0.257380139245
1.16670067063
2.12101518857
0.110102881332
0.20261752186
0.404467771122
0.392724872053
0.347597692068
0.381360320766
0.329056438079
0.362353574974
0.314386677228
0.281351130031
0.270053718349
0.266963861067
0.264386017218
0.271293849815
0.272097946252
0.243431131878
0.271014380428
0.26273886838
0.238697308896
0.207967527758
0.227702248349
0.182272058606
0.227009276492
0.220605632161
0.181868789561
0.18033449965
0.161734451033
0.158048726509
0.168887243915
0.140611413747
0.0363909589659
0.0609219175949
0.0427672953188
0.325686891481
1.10810841699
0.111613804854
0.344817039961
0.372233279486
0.295020726057
0.495503625182
0.302393675572
0.393713676198
0.261707424705
0.286144915209
0.318429974919
0.274799692494
0.357121526596
0.332049637554
0.375847308607
0.376055809862
0.389476773126
0.416414855079
0.433887241481
0.466155974725
0.42645599478
0.533275741194
0.652956895235
0.474809754581
0.775885243039
0.521280985994
0.888280874686
0.545036225256
0.975204609708
0.747286833953
0.952232001092
0.923490093163
0.94337216326
0.822811868194
1.10422615306
0.932821813103
1.16094705186
0.935138004444
1.24228759405
1.0604699813
1.16657499369
1.10197390821
1.39516985658
1.13776307195
1.40970951859
0.965569273134
1.47633233393
1.20113965184
1.42031793448
1.24914122822
1.45959999548
1.50776328668
1.49760301007
1.75325287177
2.44417635801
1.65424953836
3.00485748128
3.77288268638
2.26408502691
1.61232317847
2.12299108773
0.0781612194169
3.1481738236
0.00484180012268
0.793644929195
0.401700293185
1000000.0
0.0
0.0
0.0
0.0
0.0
0.0
0.0
0.0
0.0
0.0
0.0
0.0
0.0
0.0
0.0
0.0
0.0
0.0
0.0
0.0
0.0
0.0
0.0
0.0
0.0
0.0
0.0
0.0
0.0
0.0
0.0
0.0
0.0
0.0
0.0
0.0
0.0
0.0
0.0
0.0
0.0
0.0
0.0
0.0
0.0
0.0
0.0
0.0
0.0
0.0
0.0
0.0
0.0
0.0
0.0
0.0
0.0
0.0
0.0
0.0
0.0
0.0
0.0
0.0
0.0
0.0
0.0
0.0
0.0
0.0
0.0
0.0
0.0
0.0
0.0
0.0
0.0
0.0
0.0
0.0
0.0
0.0
0.0
0.0
0.0
0.0
0.0
0.0
0.0
0.0
0.0
0.0
0.0
0.0
0.0
0.0
0.0
0.0
0.0
0.0
0.0
0.0
0.0
0.0
0.0
0.0
0.0
0.0
0.0
0.0
0.0
0.0
0.0
0.0
0.0
0.0
0.0
0.0
0.0
0.0
0.0
0.0
0.0
0.0
0.0
0.0
0.0
0.0
0.0
0.0
0.0
0.0
0.0
0.0
0.0
0.0
0.0
0.0
0.0
0.0
0.0
0.0
0.0
0.0
0.0
0.0
0.0
0.0
0.0
0.0
0.0
0.0
0.0
0.0
0.0
0.0
0.0
0.0
0.0
0.0
0.0
0.0
0.0
0.0
0.0
0.0
0.0
0.0
0.0
0.0
0.0
0.0
0.0
0.0
0.0
0.0
0.0
0.0
0.0
0.0
0.0
0.0
0.0
0.0
0.0
0.0
0.0
0.0
0.0
0.0
0.0
0.0
0.0
0.0
0.0
0.0
0.0
0.0
0.0
0.0
0.0
0.0
0.0
0.0
0.0
0.0
0.0
0.0
0.0
0.0
0.0
0.0
0.0
0.0
0.0
0.0
0.0
0.0
0.0
0.0
0.0
0.0
0.0
0.0
0.0
0.0
0.0
0.0
0.0
0.0
0.0
0.0
0.0
0.0
0.0
0.0
0.0
0.0
0.0
0.0
0.0
0.0
0.0
0.0
0.0
0.0
0.0
0.0
0.0
0.0
0.0
0.0
0.0
0.0
0.0
0.0
0.0
0.0
0.0
0.0
0.0
0.0
0.0
0.0
0.0
0.0
0.0
0.0
0.0
0.0
0.0
0.0
0.0
0.0
0.0
0.0
0.0
0.0
0.0
0.0
logs/alpha_9.0/PGSD_200steps_4.log 1000291.35461 1000.29135461 0.164863833018 1000000.0 0.0 719
