Policy Parameters:	-1.76564830137 1.09032647736
Control Steps:		1000
Start Time:		1442516723.9980862

-- TESTING STOPPED --

Stop Time:		1442516806.46993
Duration:		82.47184371948242
Cost Matrix:
0.0928734220184
0.0023456786724
0.00329265667339
0.0500059075961
0.030158838554
0.0325060787241
0.0327823499363
0.0680668787231
0.0485745554485
0.0269285428309
0.0563416233273
0.0810486229159
0.0801655857933
0.0993569176243
0.0629063334004
0.125795418317
0.158310834361
0.184346414189
0.164022315291
0.0814710777019
0.0713013893271
0.0462934866544
0.0929140210805
0.12725782726
0.121496878593
0.170252255807
0.209023343742
0.149234523049
0.170175767878
0.204483081415
0.260371067127
0.207510802032
0.286443130267
0.355708293835
0.561749418657
1.2598564019
0.302408480923
0.416081959723
0.445589802617
0.488941910963
0.481902446735
0.465332189321
0.561544465355
0.7489917199
0.526801615594
0.589835031339
0.601880060332
0.520272993033
0.528508909444
0.433055696724
0.122797485503
0.0912085235453
0.0729058721403
0.10412097198
0.139574275928
0.132658877346
0.128818214064
0.106370292028
0.10102006195
0.146613760564
0.0819805002697
0.114394640535
0.0857191460736
0.118354890991
0.0152592660416
0.0166723219996
0.0148994138637
0.0146707459427
0.0365210301494
0.0463743771472
0.0779380652926
0.0245291630462
0.0550252912358
0.0619810806126
0.042635832402
0.0636272495847
0.0613598772649
0.0117944193921
0.0294122473437
0.0173260102868
0.0512030242789
0.0452523652587
0.0920921329248
0.0208977774417
0.00394099433456
0.0429731896142
0.0553854006965
0.0893225169721
0.117195078828
0.00629958002981
0.0520817368737
0.0707244891435
0.0596791572053
0.0258596964614
0.0424063208051
0.0527530808122
0.0375633797644
0.0994053497517
0.0884160116225
0.0975441804695
0.128069721779
0.130677537231
0.137413183521
0.160675763542
0.207980378591
0.336219480635
0.413697570443
0.445129346527
0.54577315765
0.816447245091
1.17952118287
0.805425117581
1.05549818368
0.705710451831
0.909994611934
1.18663842815
0.807658431525
0.87263570395
1.02329291421
0.689269597734
0.828739143315
0.970293668755
1.07182189797
1.01011101323
0.538610783606
0.344290786451
0.13627609947
0.0799586861334
0.0683406108627
0.0761672398318
0.0730223665976
0.0736701882112
0.0997525804078
0.0899257095466
0.0236423668612
0.0474041875192
0.0857152951381
0.11375214083
0.0851114399354
0.122589366936
0.120632934361
0.100318231172
0.0155154018299
0.0525048969154
0.111567992739
0.0644146146288
0.064709082143
0.0456418440155
0.0797445252517
0.14710745812
0.216266655234
0.165651477022
0.210835075158
0.164198585711
0.208240372326
0.187019614575
0.222275836864
0.18518615149
0.238516970304
0.270334554118
0.326756873708
0.502382421628
0.76956234375
1.1279729662
0.879168831805
1.16784234484
1.01194817307
1.11718800465
0.967099599942
1.0125397226
1.27033161921
1.33777319643
1.14174087057
1.34671870907
1.24217906297
1.01048479567
0.689381861928
1.05276832767
0.0980536248316
0.249743771707
0.0248739333339
0.0644050817449
0.145285862592
0.205195274757
0.165640398258
0.0469126438701
0.0850245830795
0.115903905199
0.163829244775
0.152468510413
0.15572184142
0.166621826585
0.138083643538
0.144076705094
0.188299819941
0.259512452264
0.220145692951
0.226902076906
0.278070470061
0.46815045209
0.891841808568
0.312697663128
0.373993118195
0.422108582481
0.492234645482
0.482757382744
0.469120404584
0.459823268948
0.438746494466
0.425582614553
0.426637636173
0.421462203747
0.467445061247
0.43884980333
0.348816779941
0.27849720355
0.286640874711
0.302366799051
0.186831751508
0.0334152783397
0.081295165319
0.0297359632635
0.0426885269997
0.045027285872
0.0211801915716
0.038708377612
0.00467338627255
0.0311848939772
0.0295083183321
0.0258793841151
0.0340287303254
0.0602599242273
0.0989862979066
0.109200266691
0.0785728003726
0.0594791311836
0.106321067158
0.115279240237
0.122860107716
0.124587120137
0.0864852354603
0.08377156491
0.102075715896
0.0900881763595
0.0758690415986
0.12424924661
0.187245200857
0.193775338639
0.171519341604
0.182920272331
0.165846501916
0.177317799233
0.216216283753
0.214169740734
0.18881544014
0.155652065538
0.140965658362
0.15042693572
0.170540542881
0.168407620386
0.157215010511
0.136573836946
0.115435321875
0.127306724265
0.12891352241
0.139037011422
0.195105995834
0.177430188215
0.100894015237
0.0502112538605
0.0799844773131
0.0129124427924
0.0100059697717
0.0269427039853
0.0601683753473
0.0648700894404
0.042442048022
0.0682200968974
0.0683752553738
0.0591897604346
0.0494418805023
0.0594196659372
0.0534867283069
0.0489888157781
0.0586323396719
0.0496838299917
0.0459234577674
0.0203879799064
0.0619541076335
0.0633176536081
0.0724502932218
0.10890050782
0.167428202267
0.182089911975
0.239920230105
0.157722458663
0.205983619374
0.266377147032
0.292036519532
0.322916466477
0.330989329466
0.368331602956
0.471456180771
0.49743547937
0.501045607373
0.478136590763
0.538830367401
0.551701286499
0.578663897579
0.679477625114
0.436115585305
0.498968046319
0.531595228121
0.419728934249
0.367107437784
0.369011046787
0.354266313348
0.305570049387
0.248078443002
0.174731545618
0.122608285465
0.0340073355958
0.0448100040344
0.0147235295398
0.038175813454
0.0246119686324
0.0398704256053
0.0162227468348
0.0370390386132
0.0394733391388
0.0287892032745
0.060575313826
0.0697890970331
0.0560641130065
0.0459726627487
0.0448689451629
0.0320119647621
0.0259234807022
0.0113366754592
0.0463246328167
0.0702468996375
0.033212235348
0.050525974077
0.0528748817216
0.00445609043181
0.0153990968033
0.0230386610974
0.0343752945228
0.0378906691221
0.0622213733159
0.0955206972578
0.132220962501
0.142389885511
0.14194621405
0.145744781722
0.145683550932
0.181668225936
0.216973315781
0.269435834487
0.321310295751
0.335781373626
0.341065566015
0.369363505785
0.374593556454
0.386554737222
0.42523667166
0.436741516015
0.454442133907
0.455798490397
0.437925758948
0.434501747495
0.454497329269
0.482915827116
0.478302567308
0.381616144569
0.325416962877
0.386090280903
0.307454919051
0.206871184702
0.153076942367
0.099648850362
0.0440180943889
0.0306520788416
0.0335474098728
0.0484434041353
0.0769442138864
0.0750646446692
0.0374471928853
0.0504318487086
0.0356436847681
0.0131421911523
0.0512777211231
0.0518258024699
0.0349553515952
0.0474423750199
0.0778610338227
0.0832955224676
0.033391625177
0.0457810477242
0.0160293659106
0.010778173886
0.0343570874846
0.0270660657835
0.0345054489351
0.0678957757374
0.0290462522071
0.0504741305659
0.0390794129037
0.00874318643319
0.0232526120807
0.00707864702102
0.027545007096
0.0595833954419
0.120579874777
0.102077692518
0.0321359583591
0.0424558049319
0.0600593345422
0.067647562795
0.0270114276944
0.0503361103026
0.0435660565994
0.0899046304259
0.088752562758
0.0356879591106
0.0799508905943
0.0951943460698
0.0466778861655
0.101049445992
0.0667463515689
0.109269366081
0.0606810399786
0.120329505429
0.0916330412001
0.089101108268
0.0553602047449
0.0901304618757
0.111615843313
0.155125478035
0.214796643916
0.242958584851
0.230730459496
0.30862598859
0.403342765941
0.388878443733
0.472959528588
0.502959991043
0.621608243432
1.04081071279
0.664707450495
1.08223572961
0.605691317662
0.66344727726
1.03767318393
0.680963951349
1.15034968572
0.529312590597
0.735801664511
0.534615961314
0.585690569827
0.580742727029
0.283297125208
0.0882731693369
0.0863033959458
0.0224177507562
0.0474436318855
0.0127786087627
0.0178833247389
0.0235583257568
0.0323135028399
0.0369326038792
0.0310468222329
0.0495137861675
0.0520225016041
0.0483148112548
0.0461690868248
0.0398263729436
0.035651884762
0.0316154676354
0.016863284705
0.0204197040766
0.0166267038713
0.015296720706
0.00339906356834
0.0137757433514
0.0305590093905
0.0232574488829
0.0130285865383
0.00367716718101
0.0134134031776
0.00786579091179
0.00193679621536
0.0332180800134
0.0835014533036
0.0534259077173
0.00335301352631
0.0307852742877
0.0524810040735
0.0922606846469
0.10433997399
0.0697188274097
0.0889296802835
0.107668915509
0.136693408845
0.109119548349
0.120925176126
0.136532270172
0.16422582131
0.17875711085
0.219939380135
0.249368365138
0.284051966711
0.393699731813
0.482604994864
0.632280440045
1.03660541856
1.23124940111
1.33554767213
1.49819937317
1.47373622806
1.54485122824
2.06219952308
1.01325572293
1.36893759184
0.0393835475514
0.0111091327172
0.0223596569302
0.071480465275
0.0394806889288
1000000.0
0.0
0.0
0.0
0.0
0.0
0.0
0.0
0.0
0.0
0.0
0.0
0.0
0.0
0.0
0.0
0.0
0.0
0.0
0.0
0.0
0.0
0.0
0.0
0.0
0.0
0.0
0.0
0.0
0.0
0.0
0.0
0.0
0.0
0.0
0.0
0.0
0.0
0.0
0.0
0.0
0.0
0.0
0.0
0.0
0.0
0.0
0.0
0.0
0.0
0.0
0.0
0.0
0.0
0.0
0.0
0.0
0.0
0.0
0.0
0.0
0.0
0.0
0.0
0.0
0.0
0.0
0.0
0.0
0.0
0.0
0.0
0.0
0.0
0.0
0.0
0.0
0.0
0.0
0.0
0.0
0.0
0.0
0.0
0.0
0.0
0.0
0.0
0.0
0.0
0.0
0.0
0.0
0.0
0.0
0.0
0.0
0.0
0.0
0.0
0.0
0.0
0.0
0.0
0.0
0.0
0.0
0.0
0.0
0.0
0.0
0.0
0.0
0.0
0.0
0.0
0.0
0.0
0.0
0.0
0.0
0.0
0.0
0.0
0.0
0.0
0.0
0.0
0.0
0.0
0.0
0.0
0.0
0.0
0.0
0.0
0.0
0.0
0.0
0.0
0.0
0.0
0.0
0.0
0.0
0.0
0.0
0.0
0.0
0.0
0.0
0.0
0.0
0.0
0.0
0.0
0.0
0.0
0.0
0.0
0.0
0.0
0.0
0.0
0.0
0.0
0.0
0.0
0.0
0.0
0.0
0.0
0.0
0.0
0.0
0.0
0.0
0.0
0.0
0.0
0.0
0.0
0.0
0.0
0.0
0.0
0.0
0.0
0.0
0.0
0.0
0.0
0.0
0.0
0.0
0.0
0.0
0.0
0.0
0.0
0.0
0.0
0.0
0.0
0.0
0.0
0.0
0.0
0.0
0.0
0.0
0.0
0.0
0.0
0.0
0.0
0.0
0.0
0.0
0.0
0.0
0.0
0.0
0.0
0.0
0.0
0.0
0.0
0.0
0.0
0.0
0.0
0.0
0.0
0.0
0.0
0.0
0.0
0.0
0.0
0.0
0.0
0.0
0.0
0.0
0.0
0.0
0.0
0.0
0.0
0.0
0.0
0.0
0.0
0.0
0.0
0.0
0.0
0.0
0.0
0.0
0.0
0.0
0.0
0.0
0.0
0.0
0.0
0.0
0.0
0.0
0.0
0.0
0.0
0.0
0.0
0.0
0.0
0.0
0.0
0.0
0.0
0.0
0.0
0.0
0.0
0.0
0.0
0.0
0.0
0.0
0.0
0.0
0.0
0.0
0.0
0.0
0.0
0.0
0.0
0.0
0.0
0.0
0.0
0.0
0.0
0.0
0.0
0.0
0.0
0.0
0.0
0.0
0.0
0.0
0.0
0.0
0.0
0.0
0.0
0.0
0.0
0.0
0.0
0.0
0.0
0.0
0.0
0.0
0.0
0.0
0.0
0.0
0.0
0.0
0.0
0.0
0.0
0.0
0.0
0.0
0.0
0.0
0.0
0.0
0.0
0.0
0.0
0.0
0.0
0.0
0.0
0.0
0.0
0.0
0.0
0.0
0.0
0.0
0.0
0.0
0.0
0.0
0.0
0.0
0.0
0.0
0.0
0.0
0.0
0.0
0.0
0.0
0.0
0.0
0.0
0.0
0.0
0.0
0.0
0.0
0.0
0.0
0.0
0.0
0.0
0.0
0.0
0.0
0.0
0.0
0.0
0.0
0.0
0.0
0.0
0.0
0.0
0.0
0.0
0.0
0.0
0.0
0.0
0.0
0.0
0.0
0.0
0.0
0.0
0.0
0.0
0.0
0.0
0.0
0.0
0.0
0.0
0.0
0.0
0.0
0.0
0.0
0.0
0.0
0.0
0.0
0.0
0.0
0.0
0.0
0.0
0.0
0.0
0.0
0.0
0.0
0.0
0.0
0.0
0.0
0.0
0.0
0.0
0.0
0.0
0.0
0.0
0.0
0.0
0.0
0.0
0.0
0.0
0.0
0.0
0.0
0.0
0.0
0.0
0.0
0.0
0.0
0.0
0.0
0.0
0.0
0.0
0.0
0.0
0.0
logs/alpha_9.0/PGSD_800steps_2.log 1000129.69224 1000.12969224 0.0154572493166 1000000.0 0.0 529
