Policy Parameters:	-1.81611807033 5.38087018212
Control Steps:		1000
Start Time:		1442495695.9115953

-- TESTING STOPPED --

Stop Time:		1442495879.062906
Duration:		183.15131068229675
Cost Matrix:
3.50555723196
0.0820489047545
0.0814546448858
0.152531880106
0.423061907576
0.408588870718
0.330893034438
0.387281140972
0.0541536748392
0.0695434974624
0.0461297624973
0.0764733336396
0.0854569192105
0.20034179579
0.352344174178
0.416957125755
0.415252501698
0.437908311707
0.434439092647
0.407826573075
0.41367368492
0.370221758745
0.407657879429
0.414531775898
0.488389411362
0.333469752623
0.312605240003
0.457285538646
0.418966959263
0.276221352456
0.254185979774
0.195824989018
0.0934496307085
0.127284220982
0.0488169698813
0.0389998643861
0.0598343583196
0.284974395885
0.183164160167
0.0132666345287
0.104580498254
0.069240043368
0.237694665133
0.129221374844
0.195678535264
0.0
0.199668529371
0.277192422059
0.315435877561
0.0325861280529
0.0692549467754
0.0705005412021
0.120935034658
0.0653124625807
0.0438814940752
0.0863451682686
0.0974436359438
0.0598323915672
0.0451259714782
0.0644376289419
0.0250010304822
0.12425337148
0.0337541775905
0.228363765531
0.00970296774036
0.0321809913966
0.0500323729311
0.367154356036
0.0345039842833
0.0580266347943
0.312824646248
0.128172934256
0.251085350453
0.0264447449439
0.0901384521556
0.0648479075414
0.0672140405291
0.0921809335981
0.296296701678
0.446708627848
0.342064850232
0.0828956585728
0.141657428168
0.154158215426
0.0514265538765
0.152798086696
0.246858547774
0.173873584144
0.318927384993
0.20094624544
0.276586581393
0.455800067713
0.973138711686
0.484233149773
1.27534294694
1.51485922809
1.69318688515
2.21794363439
2.1889102596
2.35978003883
1.75997415619
2.79344522342
2.84270659669
0.528229868948
1.00551060144
0.366815393765
0.705325836164
0.20351228609
0.450897256908
0.159620124767
0.240988938638
0.289504041339
0.115489024174
0.148572902937
0.14187787156
0.478303159457
0.386369894167
0.336033163648
0.42927360271
0.229082517871
0.292682487767
0.298059960534
0.273699433152
0.00782743160348
0.119157224116
0.112136985746
0.150637328556
0.0192211580836
0.249452189298
0.120617728746
0.0393310852086
0.134350278275
0.0324022696654
0.0361305789259
0.0421616229998
0.0647281371326
0.328990485491
0.101386825384
0.261006275565
0.254390920816
0.375624825165
0.138054429536
0.409108667515
1.40247376217
0.464559297884
1.81088041802
1.85422688548
1.82284362895
2.57729199788
1.2801322499
2.83824575608
0.530422475832
2.44577130876
0.489467511779
1.68966900287
0.0875732807031
0.112746667048
0.193979726044
0.176788903213
0.250237458981
0.490112877548
0.335971352966
0.384111218108
0.41257630086
0.210053942408
0.131878437295
0.216174935119
0.441436510857
0.608516756343
0.817518937996
0.673643000533
0.899589018322
0.821488235574
0.981782831282
0.941125897439
1.11170044684
0.918882300636
0.911500401202
0.990456093553
0.682120011865
0.726061247332
0.421186070161
0.448239616617
0.294484031023
0.146129514522
0.105328754698
0.489610732859
0.587732636996
1.02674862697
0.815159444239
0.405950497559
0.5184488254
0.506573375498
0.481674091709
0.627368266387
0.15614814253
0.399941823625
0.594852661291
2.66233860977
0.0105757204214
0.164126635003
0.109865245873
0.0847412346267
0.0550269732539
0.299889935873
0.0311295473387
0.0922633583325
0.301787979257
0.24214767245
0.0644752097577
0.111455011964
0.16018535746
0.1680982194
0.288421410919
0.280795708979
0.294653639031
0.328917462422
0.363155743812
0.420600755169
0.443277685341
0.511125243659
1.11302327401
0.873539230787
1.08844616853
1.38370758874
1.877188805
1.26781332427
1.63507643358
1.15543396882
1.9144199768
1.06558978965
1.55857208172
0.944223588824
0.823560479652
1.12443903126
0.925334109693
0.442951929842
0.480955737846
0.415815485322
0.420753935869
0.46594520502
0.46518894728
0.473959389827
0.501067247909
0.478414573195
0.496606822415
0.559676998861
0.659347093496
0.454441044662
0.560660206639
0.502688262017
0.648570646029
0.48672043317
0.697315213357
0.519348423756
0.764374667253
0.498928278802
0.726012670983
0.52068358119
0.787242738495
0.532581781297
0.884287138694
0.489631752719
0.767362430593
0.519207963383
0.795068303978
0.689820437053
0.65844768502
0.644905866922
0.686041953632
0.587099542386
0.597371961868
0.640153929525
0.54293063163
0.845920288882
0.548207755872
0.927010413884
0.468243480359
0.763580585318
0.545936612381
0.746171203274
0.518287591067
0.755760660962
0.486281862734
0.775011783642
0.508203283252
0.516360124745
0.645477672731
0.466003612311
0.532313275892
0.481383672991
0.454545065293
0.441929506008
0.476174090123
0.435719059724
0.411047245932
0.392578463313
0.373622932172
0.516644216342
0.479786147574
0.487576746613
0.52901624881
0.536949545964
0.74583479041
1.60221455793
0.541233988765
1.40989093813
0.272557659676
0.351420415365
0.333233850881
0.270304141699
0.296142057239
0.301898279475
0.264753303715
0.246380237863
0.313618162904
0.208797578013
0.190266638597
0.123956663633
0.135546892219
0.596154219172
0.760586932402
0.543511654564
0.813385253199
0.540529027723
0.853198398848
0.439587970876
0.612690013238
0.512401215738
0.688398637213
0.435182815476
0.583569981588
0.466888390736
0.510713790266
0.536597423936
0.484043786951
0.362952480134
0.361305830091
0.485587849105
0.359762321237
0.41189158594
0.338666470493
0.359829738375
0.31706331212
0.431989239561
0.39118361074
0.262812211522
0.346634809159
0.222714213396
0.272150907652
0.223544670655
0.165454605827
0.122013705674
0.121399065997
0.193332244943
0.345706120872
0.364357048783
0.394112987561
0.410012398836
0.357303895948
0.388371167524
0.341546694649
0.372485042983
0.374255345991
0.301516465832
0.382631811637
0.306748943593
0.27664085131
0.149565728979
0.21813699045
0.208720187845
0.210493076801
0.193176330913
0.0446343999208
0.230545822151
0.290250574323
0.340189502087
0.389951851103
0.366208430263
0.318973350812
0.349139651093
0.314596060734
0.382689634345
0.394390823596
0.346195671951
0.356115649611
0.342362866421
0.397739372036
0.384229448477
0.341089646403
0.367744955974
0.336469318008
0.370885944515
0.367566627127
0.382350223393
0.372657094133
0.37622517521
0.419413160703
0.445071329852
0.461428447866
0.446270378558
0.439994397939
0.446073137229
0.403004460611
0.446734114966
0.492644809967
0.516807875764
0.484222535444
0.51330943598
0.497230405419
0.592090154599
0.517231043335
0.625113987914
0.5388280526
0.615461026038
0.657175665582
0.51386568389
0.80835491124
0.533963827838
0.786064178907
0.546345182911
0.940206153178
0.531728737064
1.0786860114
0.532720253093
1.8034736863
0.521947064346
1.30835377126
2.93129197875
1.86925817345
2.63720682387
2.98316020819
0.779830955577
3.62915334267
0.201819121054
1.85480280182
2.09176319244
0.747970230815
0.0172221959476
0.0965926847394
0.168941909486
0.236837809259
0.294471479139
0.242779974304
0.225747291631
0.270211008746
0.18311787615
0.00373338005969
0.218876143934
0.278926703598
0.414513209198
0.349135943593
0.245629115437
1.21733206141
0.0601485613852
0.061582470183
0.0258242375674
0.153680464281
0.429866249638
0.425995810586
0.402154689344
0.461127852379
0.277145588213
0.452115458108
0.389341026095
0.37104787465
0.904639924114
0.350742042345
0.360219078125
0.518996262563
0.530244324449
0.440506175603
0.740610681897
0.410384264101
0.461524692564
0.814947382338
0.253060357452
0.253600133344
0.89962344577
0.385827814284
0.216913765176
0.487330628933
0.899227515407
0.935882711354
1.08998234996
1.30133701759
1.03727962879
1.3404371592
1.45022021406
0.583065842154
0.859657435626
0.0896357574907
0.219065084184
0.296936594124
0.35602478365
0.482589598657
0.385779741021
0.257116091372
0.144185814324
0.122273199772
0.106894191309
0.0560119927446
0.092957835958
0.364514040795
0.221943891181
0.116346549043
0.173207204194
0.268783694528
0.357366568829
0.326829361452
0.241742096407
0.249239502164
0.287037567474
0.215673485936
0.237201689523
0.297721216576
0.165516585815
0.213072028905
0.223261282975
0.220579400107
0.233092770427
0.27021582399
0.27018093828
0.270372946609
0.212560858707
0.226727153602
0.170528579618
0.212812696963
0.222482272416
0.218987959336
0.152350057488
0.140225316291
0.095847451345
0.154643972884
0.47060771132
0.349165906714
0.379835903996
0.480329890425
0.799474613254
0.290347669302
0.698871244781
2.00585229514
0.450474103114
1.47160850456
0.689508084328
1.55117260396
0.530087513058
1.92242351676
2.0804864193
0.95545515193
0.928613745408
0.31994797791
0.385673428317
0.533060370782
0.00977003408997
0.190145912446
0.372616569141
0.201445426601
0.0718691167331
0.166816993013
0.517568012031
0.421785915361
0.034020535418
0.0304410434765
0.287732062338
0.376985360567
0.226090049713
0.313950481618
0.211266881363
0.33432801566
0.388629443577
0.348992170029
0.462312428609
0.483386172079
0.2855691091
0.145454145414
0.334408820279
0.306198173002
0.321413209929
0.159204360483
0.234948149101
0.293601943231
0.155389282404
0.366124685999
0.47992063057
0.200303516489
0.0957912540001
0.130883002941
0.259739693638
0.45363541954
0.63330806051
1.00716366439
0.903042393165
1.05278670848
0.803881799155
1.26813382814
0.686946098194
1.3173831621
0.832402613015
1.34434186446
0.982301069264
1.23849113994
1.10680079458
1.17203948889
0.789831235692
0.531520568334
0.459795469818
0.136425504034
0.100323857172
0.0909313652665
0.331870622591
0.772487027955
0.0821316031619
0.0860030647512
0.182395390098
0.0273732672001
0.162937878796
0.291733818561
0.0274270793116
0.183062236984
0.241093145495
0.41896380456
0.343269192663
0.229279229352
0.505868664571
0.284741998779
0.462195097837
0.413712330281
0.535673564577
0.495003526946
0.34160195236
0.401012491677
0.850024487844
0.0534822448559
0.0055321772111
0.163745386841
0.336123497618
0.321978454797
0.358828422023
0.251632834097
0.139578279876
0.334035258045
0.288433912647
0.643301401279
0.418622574532
0.664130090167
1.08494531749
1.95658837527
1.91875258698
2.36430760455
1.72671539429
2.37583943048
0.514812555997
3.1368254643
0.596762347109
2.30109845149
0.0423511243659
0.283057182169
0.29515430632
0.241132714795
0.304127782655
0.0302273820005
0.215299520906
0.361619430271
0.127647548928
0.292638775156
0.2513753724
0.0226978779686
0.136825751723
0.135853645431
0.135447323379
0.25011048513
0.373108276263
0.155141852503
0.337371784418
0.0528366625725
0.247281207294
0.206862104673
0.318683271266
0.213991964062
0.276394812764
0.347447072298
0.358521022203
0.26367007283
0.812724416186
0.550245762544
0.573607413816
0.314406808634
0.428798479718
0.539525729157
1.1031854179
0.391550376913
0.725334279066
0.27197558747
0.423214873395
1.04384973344
0.251903799842
0.499029566749
0.2593495819
0.456618687579
0.2726433217
0.383271798062
0.193009725717
0.490337738206
0.192740558311
0.219533066723
0.019637873963
0.0533103067906
0.0208836725386
0.0712578865933
0.185669727868
0.256006352345
0.364297465745
0.0998697117019
0.0741746949435
0.0155876181308
0.0916411599047
0.121881266564
0.110745047734
0.130435552596
0.224820936957
0.253014005395
0.281211903208
0.101918331158
0.0231855922598
0.0163104176129
0.227218127266
0.490688222736
0.233102722422
0.0170000289154
0.0240640549205
0.0307146765713
0.0276429455903
0.0264963117754
0.0521582749091
0.263437722184
0.321200530909
0.232229310299
0.236215430956
0.397502868695
0.442785065497
0.351650933419
0.198385674225
0.339389001155
0.0419912561142
0.0920147963304
0.0970230607293
0.00730756228844
0.0148918711163
0.0344432302048
0.0492331881876
0.0641355937586
0.139033414972
0.471162590316
0.922746339031
3.77117392197
0.0138044328616
0.181219882126
0.211972030698
0.60032957699
1.01091481732
0.872960717236
1.32520071432
1.96925150199
0.421055128932
2.56515793326
0.554611223923
2.54513314699
1.68458371663
0.568562175406
1.80809903736
0.127498694181
0.842032965817
0.224847443482
0.384194797343
0.228488066729
0.23169134688
0.271923039939
0.417184060844
0.107914655191
0.298080702541
0.119950045108
0.289071176851
0.168898591197
0.154953443047
0.211389201012
0.151550050977
0.106770913133
0.0333273381464
0.129334125478
0.276960012129
0.214141232568
0.0349360248633
0.0718554227706
0.123961658357
0.281385321731
0.410530863064
0.45954323771
0.557323969099
0.863569638118
0.939108901717
1.01869338681
1.07480437142
1.04041741455
1.45630033862
1.15838916524
1.71646013242
1.05163643327
1.58082212574
1.43840411509
0.57097811598
0.506313529215
0.385221959781
0.523503551528
0.935410250771
0.0324003139896
0.170082494689
0.511404883132
0.363731803739
0.2619252317
0.339553860615
0.319062199725
0.00176382771959
0.0486603365625
0.0957215176545
0.0686062590351
0.058357932815
0.120095384684
0.101782662364
0.0223032442087
0.0396894106262
0.0465488397961
0.0520995933542
0.109920541634
0.13494400596
0.0132577717033
0.0852609593772
0.193814687045
0.228073707869
0.118977903221
0.132182703875
0.206303449245
0.213414416849
0.0508616434701
0.0743325738659
0.117560415637
0.184979869136
0.205896556437
0.130890272342
0.183963910673
0.11473962708
0.131653469668
0.177890449743
0.161475726192
0.188218395198
0.226497588265
0.212244976863
0.220087796881
0.295593038055
0.342898190027
0.373479383299
0.446419049499
0.582975665179
0.997458058268
1.0778294033
1.11891381882
1.17455348657
1.24542680052
0.960125891372
1.27606440731
1.13313689796
1.5830221171
1.3529057722
1.02500629481
1.08297138784
1.22927468709
1.00772923492
0.54897659288
1.4623260913
0.0
0.0728510767756
0.0887735412734
0.0118455827714
0.0268063146235
0.00853297552762
0.0792350160435
0.152743572904
0.0349522108287
0.0217857834814
0.0235715015986
0.110473697911
0.0218712550324
0.200523115516
0.105768587247
0.0112500547215
0.0946346835991
0.00330138863484
0.0629586064428
0.116168258322
0.119155490456
0.330652874
0.00493194339572
0.0401244440175
0.0338487601134
0.0511932043036
0.0767614403131
0.0680687862795
0.0712213198116
0.0667241216925
0.0535374996001
0.0680927702783
0.0647348442406
0.0716778994693
0.0835690597069
0.064327191051
0.0308061738973
0.0693482355258
0.063398895191
0.063323866349
0.0365809135619
0.149213299834
0.211115778738
0.14007306703
0.157404702965
0.226941490679
0.119307830851
0.0814630368128
0.114628493318
0.40775906593
0.157548720997
0.110347744689
0.212035840732
1.47384014131
0.0373910277506
0.331578227841
0.466644528811
0.511082631773
0.734391886857
0.642590818536
0.917330518182
0.797296323341
1.29520192213
1.40258478522
1.62305802372
1.25596754058
1.34736503335
1.28304169698
1.06757505901
1.14055057821
0.47970944845
0.776404862505
1.92772081329
0.025019406528
0.0744412735581
0.141072584121
0.249147498771
0.265661387323
0.165630174891
0.20013402308
0.15829916338
0.224527443156
0.316802671041
0.342155336972
0.294761632179
0.322900199812
0.281406014813
0.375872229481
0.362169335121
0.303137013712
0.340854833964
0.378228585951
0.355925953094
0.356422416506
0.360319697331
0.378809730604
0.407461521447
0.453340769598
0.447483508027
0.457462642277
0.481367193725
0.532964022984
0.607318791876
0.56051251188
0.619036110554
0.670155652007
0.687062096275
0.87122766951
0.774279810984
0.881972435022
0.851589513328
0.997967585686
0.987060441635
1.08145643426
1.03412801483
1.19532835178
1.09896818235
1.29966233249
1.1327236898
1.38115206224
1.23153839493
logs/alpha_9.0/PGSD_200steps_4.log 487.878773384 0.487878773384 0.346415240555 3.77117392197 0.0 -1
