Policy Parameters:	-7.12429329548 6.87175499119
Control Steps:		1000
Start Time:		1442513231.3506563

-- TESTING STOPPED --

Stop Time:		1442513422.166138
Duration:		190.81548166275024
Cost Matrix:
0.18419166591
1.99583961999
0.339514248488
1.0474784885
0.466496900187
0.0696471146121
0.00243003417071
0.0338019743576
0.237979311081
0.412191304671
0.504224668751
0.299628389501
0.312848372704
0.0334203240558
0.0535169337865
0.376052822308
0.0129410487112
0.102307469257
0.354048944509
0.387069191489
0.221984641991
0.143675370152
0.0440628914537
0.0221928414482
0.153349223828
0.307377205495
0.0329084578189
0.248297453471
0.591372196365
0.398549413209
0.980851492255
1.34406376672
0.0677850194707
0.401086600378
0.364038907143
0.850163164979
0.363711697359
0.723244775698
0.517962555391
0.513442773988
0.911202351908
0.31757939863
0.71650166323
0.225094966012
0.213776055073
0.561338125628
0.133193049901
0.299645243504
0.120557923348
0.0164714742427
0.0432434923388
0.242676999373
0.471746426459
0.290767728828
0.250071082766
0.252444236545
0.185113591878
0.217558593501
0.211931849949
0.281592180988
0.27848701338
0.35528847406
0.153725111197
0.438689369152
0.160135855482
0.129920434985
0.122518256739
0.202706736682
0.699002647416
0.471580952112
0.161486663477
0.0962662962763
0.120209291664
0.0675626894834
0.0303675522825
0.0477814731043
0.318574387655
0.706236470724
0.452810672363
0.504210074408
0.983652892395
0.0203845801856
0.0615241767828
0.136074546941
0.136088213753
0.312841145311
0.27839229835
0.370961487534
0.347750672608
0.568101339033
0.8334496782
0.405119723025
0.720976692619
0.715999266714
1.26507685317
0.540120412423
1.25999484038
0.758188570315
3.12721409004
0.200939441005
1.37373384296
0.186064932506
0.61407178298
0.392087327448
0.624620587647
0.316826194794
0.428619549825
0.438840036003
0.0054760787718
0.0598575322734
0.0235025192915
0.178800061948
0.352116147401
0.0394475357166
0.118646795928
1.15977200787
0.295630688099
1.19208096513
1.00819247311
0.754877375447
2.21579163317
0.340366456055
1.62488736364
0.413687427757
1.61532798315
0.369178264047
1.61507157695
0.266864533482
0.175917406964
1.06768079813
0.174951490099
0.0892540437353
0.237978257494
0.00247306230192
0.0330447678454
0.17437433618
0.0413756985913
0.295631101024
0.104397203588
0.0392719904269
0.296574755399
0.413485353005
0.22300434394
0.00519358612949
0.0482494299743
0.108627432894
0.226741328099
0.31653820281
0.371619184527
0.353526148753
0.123216105018
0.0126485659151
0.115162435765
0.368622156886
0.347026201328
0.819633081616
0.192020629615
0.16820584954
0.449358179287
0.520654844824
0.491544701659
0.685525298211
0.514461687531
1.07125522887
0.279725704992
0.873929698308
0.490058739817
0.417990542073
1.55984716705
0.378020366813
1.45468563456
0.268099720898
0.88459511755
0.952078438199
0.442177915404
0.487210779428
0.435179941331
0.434398815525
0.233152669925
0.328402168294
0.438543875037
1.10819236847
0.500931109984
0.385636136693
0.118785800157
0.216685942023
0.284381241201
0.0967836633817
0.856289069433
0.015472865901
0.0772852190648
0.398725510745
0.366450410409
0.0497592390264
0.171890086792
0.272829313479
0.364364927444
0.496182647155
0.400995193011
0.5111788573
0.511663617429
0.302774022326
0.298869749927
0.364830964247
0.742165168327
0.501967027522
1.31976391145
1.03021706575
0.871348794812
2.52360382048
0.0643102292804
0.0803473357477
0.136779814147
0.975663256963
0.364566200418
0.615090364938
0.424994280135
0.204536193601
0.171069702587
0.0613364295534
0.0618798309257
0.0862886724457
0.466598034872
0.00848517336664
0.0751279987751
0.129155952828
0.0652692773097
0.146011737274
0.357070747705
0.243856839064
0.538271146487
0.520657981507
0.368696436423
0.319472590355
0.506649465007
0.343397151755
0.476128755146
0.478317507017
0.309655867055
0.463357148932
0.420445164245
0.2940984684
0.494601524541
0.00322202324639
0.0210991729669
0.0573999699376
0.129177733849
0.187924087605
0.37659835384
0.354299501102
0.179157906822
0.199279570871
0.134341288396
0.0146043333905
0.128867658984
0.514691619987
0.17664756914
0.385034023124
0.250829381795
0.0920172226307
0.190678217862
0.387304771446
0.158370616967
0.150677483315
0.0174155618746
0.121674608176
0.0110271624995
0.0971017556023
0.427598002451
0.283051922381
1.01387892005
0.469256367905
0.398562670298
0.911951883525
1.37072116571
1.36683827635
1.5223449348
1.80953590094
1.89454455023
1.73643425363
1.81797167543
1.86568300031
1.21837649816
1.30019729274
1.51701453329
0.49859396094
1.32089390339
0.170153242323
0.418682437132
0.289995819751
0.41732099982
0.368152073593
0.120746573658
0.366108254414
0.1666435751
0.161247166163
0.435777934958
0.134390191308
0.170465420916
0.271111579762
0.254529465146
0.107747847316
0.180056859077
0.452035330758
0.0190127787504
0.105264180436
0.140848906804
0.158421162483
0.694950342852
0.0481071307775
0.218638519835
0.167492029181
0.0483026060676
0.362502056092
0.251808374699
0.0170906744333
0.141283993898
0.171562322337
0.353519899195
0.0535843729909
0.391985880288
0.357816074283
0.434606668664
0.461272694626
0.468658529245
0.403933280849
0.371393369501
0.398077652712
0.489146514321
0.438074961809
0.512110963972
0.368101393977
0.343386416844
0.542937878071
0.363810208645
1.3873023551
0.460610950113
1.69058118067
0.859249142737
1.66782924495
1.09048816405
1.4537935777
1.18192413049
1.21016548699
1.14964548781
0.733869953074
1.08124756205
0.546600544282
0.271683757938
0.415098304562
0.134784134614
0.294473778975
0.517867855607
0.87419081172
0.441776875363
0.296368606862
0.305296924679
0.308576313505
0.317936709021
0.347876398995
0.311068859857
0.379933116707
0.311597161324
0.498026630858
0.653743650297
0.153131409576
0.190899997952
0.236604463919
0.3957769846
0.336522818467
0.321347535703
0.396190338127
0.0809614296045
0.215551299521
0.230152461503
0.00752596575594
0.0685832599503
0.153251128372
0.21376002254
0.0316857680654
0.24597917735
0.379241441442
0.178767202696
0.191980255469
0.221117247813
0.656471039181
0.319356679562
0.207093819359
0.105053838301
0.136563862392
0.0180918568087
0.172450063974
0.956207965416
0.0402001823968
0.303485058353
0.0774433685018
0.0799577094382
0.0182986378828
0.143779466674
0.457220727797
0.379481568438
0.408754664185
0.3305938053
1.33177904245
0.0630813666559
0.251371345771
0.272009487225
0.381025441922
0.426261106822
0.82820851611
1.07568342773
0.704103575794
1.56389400094
1.29348232887
1.93593180947
1.92515185894
2.28304229004
2.53688617735
2.01372485094
1.45915096779
1.92057447399
1.43348090073
1.31033640625
0.73721890202
0.731738104741
0.19639420599
0.186296918175
0.0859293177505
0.690139781631
1.36083891524
1.86840500576
0.466998720494
1.64633103694
0.65162758891
1.25546974227
0.32835383347
1.39232314819
0.379469094624
0.456091330562
0.290472066948
0.192927287832
0.166292205518
0.151939040907
0.14512319703
0.298901289114
0.0775861774048
0.661150082177
0.902846372766
0.271467044765
0.270520685454
0.982549910347
0.23063255149
0.23983105296
0.30490413663
0.193991622369
0.0792975674739
0.139859708456
0.0724600740034
0.5285993372
0.23919203186
0.342926601601
0.303829656139
0.409621228323
0.288674141307
0.131945506794
0.201463848171
0.466245775352
0.412986947625
0.154280441592
0.345983574275
0.0759507519529
0.100439424251
0.259664642315
0.283683748929
0.0992622238565
0.240472076974
0.289292664402
0.0654587890997
0.366305336774
0.0522524286938
0.0376469239498
0.123872897837
0.0355296544135
0.222762764529
0.147430449097
0.137914840514
0.0735815046181
0.285934862176
0.396643676583
0.105541251386
0.0295397099507
0.233516749386
0.483590558261
0.171927752718
0.175264984598
0.480168254135
0.0203141231422
0.161476762757
0.309686710212
0.390868055515
0.433940342065
0.273826756688
0.531008188514
0.297066234191
0.454805638886
0.917588503279
0.802825597757
0.99278397569
1.1981183939
1.18775944187
1.52212023076
1.57430703267
1.45257525313
1.58888393676
1.47676002187
1.43440629579
1.1737849393
1.43255448983
1.26454238816
0.908271731541
0.985986234899
0.524216800254
0.350817124408
0.254245830467
0.694559648886
0.853933474506
0.629237294331
0.535896542366
0.243001982138
0.228538758457
0.388733471142
0.411907205113
0.62532954658
0.491909701799
0.589674440261
0.270837593333
0.48117788981
0.589545175472
1.03809412739
0.215617433149
0.562393821251
0.469146097549
0.404952874341
0.909118696891
0.283056932566
0.337782341159
0.210200804505
0.428575798382
0.337545261797
0.608829757292
0.443583949337
0.131967064819
0.339530468375
1.38079843528
1.32507096625
1.87186971974
2.36228209146
2.207032564
2.21206159301
2.07042581178
1.58189984454
1.86704915916
1.39123768611
0.83199332733
0.479640404073
0.267674674742
0.331214536911
0.497875748564
0.501362142647
0.342683325707
0.46964905752
0.454825616772
0.191265758512
0.378209902898
2.58150795941
1.31924516653
1.69693839825
1.34790569709
1.51273756897
1.29076153815
1.11416936068
0.707418993188
0.238961715359
0.384905162365
0.733304833076
0.262191072004
0.194426318056
1.15459503861
0.0642572089882
0.264190305461
0.0128479963268
0.140591583429
0.815696153769
0.287622369685
0.248450016749
0.485664214504
0.272153451263
0.315479379038
0.445569331423
0.193954935838
0.375848518144
0.664130349936
0.352437049855
0.749348209742
0.482366801715
0.572376237729
0.363389997817
0.423861240044
0.468398933687
0.286409768034
0.359168205154
0.071174417728
0.171933585015
0.259761819904
0.246559334506
0.0820522130403
0.67358757465
0.349196406166
0.867535774373
1.62576720447
1.3563239517
2.32595780163
1.75095605795
2.08344478491
1.11989634233
1.93107891865
0.455751992821
2.37470842896
1.12420165525
0.084235664287
0.785483458484
1.39762383279
0.902001929665
1.36631331033
0.526896221058
1.57001796127
0.25369172239
1.37580498675
0.0755595337624
0.618863558287
0.403668460134
0.854344285964
0.250929586249
0.275641239981
0.127982107001
0.152118910447
0.135787923992
0.203371672929
0.092709077103
0.157100221179
0.172228369628
0.161072080798
0.24279643789
0.129940243367
0.203858246536
0.184902117404
0.148955772821
0.154573597635
0.236242193146
0.172624052877
0.0690103193645
0.21156765826
0.176393317947
0.123680139901
0.211884143451
0.210365607853
0.216175668493
0.226067780634
0.169450217729
0.247621168502
0.218319809562
0.197224904462
0.219047110557
0.331423331614
0.21459625856
0.224148278725
0.301229586397
0.238497890757
0.255570320673
0.303404705944
0.242502470642
0.273301443634
0.186156772624
0.32354144419
0.30389934825
0.300954020487
0.29556136177
0.17758547078
0.222944567645
0.139797660978
0.199155434144
0.203399504214
0.238944931557
0.541954921856
0.188499670434
0.745591716874
0.335460000443
0.444126996041
0.406473005174
0.521055570752
0.459683235303
0.571908764182
0.792878803913
1.25611383617
0.908033559389
0.973235906315
1.6844047595
1.54354676051
1.70873118995
1.5703638516
1.51927455149
1.79773586167
1.04892188301
1.59441814494
0.302769403526
1.62959353509
1.48856794815
0.0225230469019
0.17644915331
0.239981405354
0.0525422704251
0.382617052023
0.807891950997
0.0813506846896
0.310657532898
0.497956910878
0.423733900222
0.272721400166
0.409067521302
1.10345983922
0.311061770475
0.603915828986
0.253784789269
0.146227394832
0.304518458906
0.345595393971
0.185487383959
0.370946501879
0.474115487616
0.128594207314
0.0682061768617
0.255919089512
0.28169360282
0.220531316076
0.371336928031
0.0173627958039
0.128683979795
0.158869946215
0.0553617821944
0.211272946795
0.0
0.0218684862217
0.152366010026
0.0184958335595
0.135296341053
0.0843901373404
0.621167529161
0.00122098840676
0.0244780399193
0.0593945360814
0.0666989176527
0.171420595604
0.0235022635645
0.170139969603
0.187753524924
0.276154009295
0.149628661048
0.0112399652843
0.0938352814695
0.0906847484535
0.423253955002
0.117774458734
0.138360554572
0.0822020686135
0.168569661464
0.464438118225
0.151136725703
0.0789302194856
0.60713472738
0.0337976835133
0.258959006468
0.0951696382765
0.49486810877
0.27221293195
0.088715201685
0.143377553085
0.865650578311
0.0022720869516
0.0340854792472
0.135011724866
0.814993761504
0.0123418133182
0.0990865477713
0.268662655216
0.22116472451
0.212520331537
0.697513549267
0.131273501255
0.500416680892
0.277717248508
0.511995097366
1.48171580489
0.445718416364
2.05219153377
1.48437020759
1.31552453304
1.37494713637
0.796303279917
1.57044467575
0.356045538116
1.65985668968
1.40194989911
0.0332549518539
0.220797494522
1.12177414398
0.0323251196236
0.251535503153
0.441033747892
0.487552617094
0.458008302483
0.46206289054
0.468900669656
0.475897816496
0.488790273923
0.523032012667
0.455377324717
0.468770433955
0.514206259388
0.42698053557
0.47444945551
0.489894128579
0.495159542979
0.485330502927
0.487725433004
0.438742398637
0.482687559416
0.439294668462
0.4874160537
0.438400477675
0.447637915312
0.405410918977
0.450498245969
0.42445157901
0.46549047566
0.436855387481
0.423872341518
0.335889398616
0.346116151107
0.540447068998
0.617009013171
0.521690518394
0.749909337143
0.507620729185
1.07503642657
0.48811553289
1.5254841153
0.47870458987
1.90886393867
0.906455170009
1.97213412253
1.62521692699
1.63041472486
1.7497925578
1.43842704842
1.62295308722
0.611972743143
1.48008620705
0.361284253487
0.473262420265
0.359210185172
0.445197237204
0.176284216592
0.2040805443
0.220010709492
0.383091025573
0.273771756368
0.239274622776
0.243272667084
0.212664715065
0.23683849954
0.890402900094
1.02224364083
1.03205410553
0.895988960714
0.418300168615
1.20217010647
0.295749445294
0.941480531783
0.0378581810806
0.217120130534
0.278353957314
0.483587160492
0.404004131585
0.837927267187
0.285725592478
0.319773806132
0.823453139142
0.524519037349
0.434539706161
0.518858567281
0.507155403844
0.693563012637
0.524197274015
0.387150580092
0.48576426285
3.00060477463
0.00453099562045
0.0356486531085
0.115436077141
0.364465254629
0.504863081866
0.500356283833
0.519411155241
0.49867722665
0.526229576671
0.529150844557
0.636479473164
0.505543630756
0.73559221898
0.480886571321
0.906722327988
0.525374563062
0.955297098094
0.631145080791
0.916744332723
0.540870069204
1.10207821031
0.476006268375
1.05851135026
0.737447414006
0.95226140555
0.856958979104
0.839024113152
1.04524385066
0.845324522317
0.981179818088
0.949081848816
1.03204395851
0.86730884548
1.17325134628
0.898046000552
1.23594530919
0.953452416135
1.08600519998
1.15807353206
1.04041455459
1.09713289903
1.40765755774
0.93553119251
1.44905161453
0.650287403063
1.43169548384
0.719763331334
1.30379166225
0.794293064438
1.27241632168
0.901202983751
1.16493476278
0.750379443221
0.825258550925
1.03620635678
0.97487996706
0.885377943559
0.97603838488
1.25275049904
0.792816545934
0.712182056861
1.37073982724
0.801557749029
1.3901584909
1.10669648615
1.36945865722
1.08519919213
1.30278955816
1.45767717566
1.4859605575
1.43195418746
1.69894870382
1.38484656303
1.7150440473
1.54278891848
1.61811533552
1.96493045169
1.35125074158
2.05370226854
1.58407611968
1.83996747298
1.56054844077
1.70225464299
1.62378839243
1.68509153686
1.46940679919
1.60968742005
1.54099405857
1.43143152559
1.46015473592
1.32945608923
1.38085876037
1.18985054224
1.34158431759
logs/alpha_9.0/PGSD_700steps_3.log 568.069426286 0.568069426286 0.38710988579 3.12721409004 0.0 -1
