Policy Parameters:	-17.2144815253 14.3852460649
Control Steps:		1000
Start Time:		1442137558.3294609

-- TESTING STOPPED --

Stop Time:		1442137766.5738924
Duration:		208.2444314956665
Cost Matrix:
3.59426738738
0.0171370450231
0.486620310733
2.78367627667
0.0207817962821
0.44224361859
1.51019165955
0.174932564553
0.488842273377
0.260091329079
0.0806825670144
0.0260084642888
0.526861004364
1.1833399919
0.0
0.0760458851951
0.185462059343
2.22994853292
0.0678839624835
1.38490184802
1.82297890858
0.0402739049114
0.532291134329
2.82426181948
3.77145203422
1.57258189877
1.16328998668
0.291203076626
0.482407630278
3.7711822882
0.138232757527
0.500845397695
3.53906881194
0.184640901888
3.40151465328
0.035583303157
1.2118400409
1.92263101184
0.640695326148
2.37312305021
0.161750477184
3.03127452411
0.00534121966069
0.321938602149
2.44966849467
0.00385814466733
0.220198545535
0.259723304033
0.126532158647
0.379366731995
0.496694543962
1.15711503081
0.710467976626
0.920927759923
0.813339600775
1.23152596179
1.28192615748
0.197635689424
1.50404022102
0.0588803546856
1.13263630004
0.229147183457
0.599163842947
0.0223233799956
0.261380874732
1.97523581805
0.296613298994
2.53454414155
0.495588963439
2.77791467986
0.00026394434245
0.26591098499
1.58049527558
1.88688109046
1.00320412722
1.79142148487
0.228211230685
1.44652544173
0.0312687816624
0.317671915295
3.52374898342
0.482680095081
2.18945168507
0.323977545805
0.418938806785
1.89585491654
0.765125247176
0.702112565132
0.356316267219
1.16066408701
0.123160928451
2.53170310756
0.0847044436861
1.8256862818
0.0184502487582
0.0265837631192
0.305674906941
0.0359655256568
1.00872805454
0.0155906821278
0.0822780771434
1.28602213034
0.0504931103088
0.984584064206
0.013225401859
0.310927797779
0.259167953081
0.655522345315
0.035268869165
0.531079622799
0.418528780269
0.262515119546
0.692431963404
1.12151165009
0.0362665839059
0.474268859992
0.0596440258372
0.14560479119
2.54303122224
1.17682244298
0.680850891896
1.35502937233
0.0392433325011
0.536521594175
1.15928219005
0.0417405676567
0.737962294327
0.0165343833639
0.320756908489
0.422682733162
1.34211191535
0.0154998794556
0.218818753416
1.5656310138
0.00657068705746
0.238898626062
0.0
0.126295134386
0.813229746673
0.187945725885
0.885931090033
2.34071729245
0.323868965018
0.405510452551
0.399856223557
0.272667182831
0.325292949846
0.475665681589
1.33115042576
0.00405119423569
0.191134978375
1.31077514781
0.766579327364
0.574310633138
1.92011580595
0.956417802596
2.5846104469
0.103385058947
1.80009903256
0.480005555107
1.07878305592
1.05775682791
0.71146277133
0.730110017545
0.692948120056
0.528201074206
1.15347536767
0.161061217088
1.42364928309
0.0427493105265
0.689425032717
0.283462534674
1.03383448811
0.00823849531714
0.240086024219
2.69298371478
0.0891833334815
3.70716891973
0.142220835999
2.81136721786
1.06944210433
1.52043165246
0.319407022363
0.176921881516
0.0378559045689
0.975961575679
0.0957621356974
2.05600744401
0.0255089566545
0.36958457598
1.35859655082
0.298671651366
1.05989417182
0.43912932571
0.676865989793
0.140958420084
0.506463549085
1.63374589751
0.0352363183907
1.26436733202
0.0185428807871
0.210258428963
2.34622352598
0.264008133294
2.09705299396
0.0248864252257
0.715672100464
0.434379712587
1.1908941921
0.0160024997873
0.114432070643
0.913092643207
0.516410824479
1.10584954671
0.941853002188
0.00076021994935
0.0347718447871
0.137996481698
1.91918686379
0.116769731527
0.0436940126267
0.459918593507
1.08393039611
1.28099299796
0.366424545695
1.22992091121
2.26133260432
0.0397829149176
0.471450047461
1.36550509903
0.538831884708
1.1347352978
0.151440443623
1.06852884498
0.854158692122
0.690175476773
0.79906298916
1.20830384998
1.38646367793
1.66592509557
0.777536715649
2.98607934034
0.00637252861839
0.200659729741
2.82304225424
0.1102871829
0.103813679059
1.28697405707
2.28340099608
1.15570176959
2.10049791173
0.0543266700841
1.76560832339
0.733171063982
2.11857668612
0.130623978106
2.64366537212
0.00496931537236
0.0556375934456
0.24240202821
1.1854244802
0.250232409347
1.20946629545
0.0353690906092
0.851394901641
0.193291757791
0.974511512798
0.695773758506
1.44034161739
0.00173906764802
0.16467743817
1.62639217393
0.00429963983294
0.0742648144412
0.363299106248
0.0146371161767
0.361974438993
0.657661071398
0.114414571033
0.344027452918
0.0669111042887
0.222921995098
0.277886534523
0.00424933177006
0.0946866572763
1.76409478553
0.00188317264888
0.0513095200885
0.856949934232
0.00760336186071
0.191196828756
1.48255012488
0.0201870363432
0.414249020679
1.65447133832
0.267963793946
0.958416895756
2.00543596268
1.20508583212
1.6165604914
1.18381863644
1.71222527845
0.478141814862
2.87796688409
0.023476450423
0.43365850774
1.06255413721
1.0967454535
0.0469378081934
1.31239665845
1.3179235983
0.0219998715384
0.520635903007
0.0643298658088
1.76117943027
0.00130924796884
0.0511925620675
0.151780559559
1.05577211171
0.017662551411
0.331698574985
0.17034767482
0.0227448315515
0.441302125733
0.425397794381
0.448389381311
0.704060456297
0.1651720636
1.50132807517
0.00270273411503
0.0450752023089
0.824099655453
0.0081960967018
0.252364026898
0.0401978611614
0.735710405132
0.294076432552
1.40588031801
1.03832552496
0.0166407766486
0.226432969082
0.0187521495628
0.430929364866
0.757545674473
0.404079639565
1.01457506362
1.5249449041
0.0443877929026
1.23935449406
0.39569487443
2.01512961618
0.485110936385
2.58075637296
0.00227183583715
0.0278870366004
0.113958458656
2.28872694896
0.187617777337
0.83076140613
1.08438294499
0.00284728842936
0.0527003155465
0.525154832246
0.0247516613104
0.354889973104
0.513613500781
0.256383972779
1.34119592846
0.0111436699857
0.139613841225
1.3388033289
0.00555105805687
0.0568557516005
0.822716946488
0.0117529072605
0.199720108724
1.21636294325
0.0541222483332
1.17941073016
0.0678442494691
1.44369681124
0.0196947387038
0.289929170967
0.409016336046
1.01713571308
0.45973853471
1.39596060496
0.261735599821
0.844887075998
0.744589926867
1.4767875147
1.49182517924
1.51460858464
1.75467960088
0.932968837419
2.52806914998
0.0850349648275
2.42587350103
0.0288420638314
1.27112810925
0.0387812144872
0.456178172818
3.00903229901
0.12143863053
2.98269180633
0.0536200002242
1.85167191171
0.102167972945
2.1913471161
0.308007707733
2.78592173478
0.0413705438127
1.39843357787
3.77117426139
0.061153972699
0.961850535254
2.81274828276
0.0509904098128
0.995523712514
0.0202478086155
0.480663810911
2.11617424162
0.0887858633532
1.88773393293
0.0155628578521
0.375649441147
0.0183258334391
0.380091081097
0.0038069322194
0.0828969024315
1.03528215957
0.0102897939891
0.15452669637
2.10010299046
0.0
0.0268608222709
0.231004453952
1.0142917587
0.0222911835994
0.203270748719
0.375633362485
0.713310998327
0.355757042715
1.52308220881
0.00504235934972
0.280741956834
0.39086931027
0.0186417894649
0.218844046901
1.18298378374
1.25884648464
1.37071153439
2.61922672568
1.59149129704
2.58385805795
1.05260091635
2.2185758747
0.0352884104477
0.454093906452
1.62307741094
0.0253852548926
0.496820390677
1.18587483118
0.0267925273762
0.534370232863
2.14676122939
0.0304110273737
0.730128140603
2.61160765978
0.107469525628
2.28755200022
0.0268973785023
0.723135348954
0.0130733429272
0.209441449533
0.206031279982
1.67768734549
0.00308687314549
0.0696750973181
0.596478029745
1.96056509121
0.0153526607228
0.352575272468
1.1796344977
1.92554735141
0.0119622372366
0.184202957713
0.747877132826
0.182032643249
0.153085792674
0.983346393863
1.06646070183
0.196224675987
1.0219879568
0.474901523573
1.67202740043
0.0648175932415
1.36599521773
1.12658228353
1.77545530813
0.362086965614
2.17369621265
0.102490228153
1.5309788975
0.048153873716
0.94830126818
0.0974419159528
0.359507474344
0.503816434419
0.0111871721326
0.111884909817
0.428691561987
0.764929397058
0.0270793670724
0.412623164216
0.129093721622
0.321892151677
0.258497774032
0.577974368162
0.265858951586
0.361545601512
0.460342789269
0.291221007463
0.0357797270697
0.36911989356
0.664771818492
0.360996786301
0.377486421886
0.872894494324
0.218191852171
0.53077190923
0.633718092789
0.70379908321
0.219857036081
1.1549619218
0.0211741582569
0.276295162381
0.808638235646
0.288495323907
0.885837939166
0.448209289956
0.360912929899
0.509957848906
1.52145602004
0.026405010948
0.383103947976
1.00059587486
0.779231538774
0.296954465248
1.87241101871
0.0574385329228
0.978678284818
1.20770353109
0.711655879657
1.85190264585
1.79383689499
1.65082082265
0.427258754088
3.04778398053
0.0338062605049
0.477897671726
0.654558211257
0.221008666966
0.343123781069
0.182937902316
0.0850043604093
0.415607616631
0.0222822188909
0.448836385701
2.5781434466
0.0283691948755
0.93828135008
0.219678388153
1.69945591857
0.044195667459
0.555399457438
1.02585248388
9.88995638764e-05
0.0716977993987
0.544137159408
0.737222611014
1.31632879588
0.0304799294965
0.449847921014
0.267040568056
0.179690694661
0.341655533175
0.216161974174
0.184567513458
0.465778578303
0.0349653478268
0.98113350175
0.0257284078575
0.395038572216
0.693968515121
0.0122015085145
0.304232413762
0.0925939024254
1.7062080288
3.42266510555
0.000331999964795
0.191350837414
1.96213857448
0.023483473997
0.688254468825
2.18466002347
0.0261671198215
0.294560625587
1.69563862348
0.159615939973
1.37467891329
0.326939730804
1.63173273858
0.212067333957
1.47353082181
0.0
0.16599201526
2.01174444342
0.00949875823387
0.0461939051787
1.39506840725
0.00482880951742
0.0886239811351
1.29028102601
0.0410939325174
0.53557813253
1.91401181102
0.112578960144
1.55715491306
0.202755451403
1.60496404569
0.0280312115907
0.927320515388
0.0696908275481
0.406694688416
0.472273870156
0.332146114902
1.1531955883
0.161137944779
0.428501335512
0.834132869472
0.05269132567
0.972687942275
1.45816060675
0.645237118881
1.78427834567
0.274461229657
1.78217210189
0.106728428028
1.55164323008
0.188389024329
1.51053040785
0.00780021138336
0.369243794612
0.0162981465544
0.127573866884
1.61212138279
0.0906327243658
1.16732005209
0.44289067875
1.11915196508
0.192338787558
1.05616429402
0.0402961464742
0.723170827331
0.269721802269
1.49428114878
0.012519299068
0.35922070655
0.929887263581
2.90118081801
0.0233300473198
0.282637638072
1.56395187671
0.0134465392287
0.418869574553
3.30094697274
0.0401825345986
0.523969087977
1.91336145202
0.0044894801923
0.311756944159
1.35785493066
0.198905665239
1.41248785294
0.0749242840168
1.60745069264
0.543209439534
2.09839463692
0.0381605833989
0.498741435052
1.63772249591
0.00563857583862
0.0970613529217
2.26894978701
0.0161099858137
0.510319138684
0.0157024143219
0.10996309137
1.81529978052
0.0854545864522
1.19568902645
0.607754934782
1.31782500559
0.0957239631853
0.365832188061
2.24429584194
0.0483556813456
1.6197129239
0.0762563452828
1.68219716682
0.241582332577
1.72935070049
0.0315501303485
0.406965840238
1.75594248745
0.0666068410521
1.32328655283
0.41421923138
1.8346076201
0.514025836743
0.86799020442
2.87957247088
0.0473589643359
0.936273691353
1.38070978127
0.507594288665
1.89624401436
0.892787354529
0.0409187218753
1.54062784487
0.0338957378643
0.482998425871
0.929076093838
1.29277649808
0.69869113582
0.34958663198
0.226325988025
0.923488181465
0.0655312493252
0.416433929668
2.36105840772
1.35443989525
2.01397830457
0.190967941684
2.883613115
2.0051925714
0.0314347283116
0.408105607923
1.39245753238
0.0212057012293
0.288458529185
0.000985701555695
0.112236769832
1.32908996388
0.0
0.0346062491782
0.00286575018875
0.147759711923
1.81715892446
0.0232425833113
0.47890010286
0.0182877301825
0.371401001233
2.46136015147
0.0340113006618
0.496063991842
0.0206570801665
0.44549022684
1.19281386883
0.0899654009943
0.360311131168
1.69210082547
0.0210842488929
0.409105243692
0.000516118263921
0.0591389562409
0.384292189396
1.31080892324
0.0016
0.0016
0.0890088595066
2.85169787003
0.419410365635
2.74485634173
0.0368897338477
1.06458323552
2.26900005287
0.0826872771888
1.44425062041
1.16251049935
0.487057554792
1.29860621369
0.105395588629
2.71816530436
0.211096500112
1.82037784299
0.009787955381
0.348146870455
2.74226201416
0.0427996520405
1.14384632839
0.0349424430458
0.365428832435
1.39109098769
0.0589651787677
1.26599937807
0.820164986141
1.58142240806
0.369605522642
1.69326622005
0.0842936688697
0.402142515433
1.77863820034
0.0248875857544
0.307141114361
1.71144051265
0.349989604811
1.09768248769
0.494068352241
1.33743067605
0.290040709368
1.29912982575
0.14531846381
1.63127323308
0.0369689747666
1.06738509737
0.155009424907
0.231807338195
0.205179047595
0.0520027524258
0.227166614651
0.193048948029
0.756930087904
2.4288094861
0.0247964081245
0.325328130262
1.45806934683
0.245545654551
0.986181736929
0.361681608792
1.83123732455
0.0285061950902
0.790585788946
1.22964882932
1.32118946002
0.983370512192
1.69211755162
1.17915040278
1.87794643293
0.0344879284156
0.46097840638
2.08966477926
0.0261674342519
0.8788104011
1.76908272293
0.0145090654918
0.116802973444
1.41317980884
0.525642304484
1.28793713579
1.1774988304
1.15736688216
0.611495237422
1.52101535802
0.228249707082
1.29513870639
0.420164482753
1.4597850727
0.0516817113657
0.0589456720242
0.0680757731713
0.662189637646
1.54148410315
1.03338391219
1.64851037103
0.192933114219
1.43258358234
0.44905765148
1.93649688201
0.162562016191
1.58604498284
0.32380659739
2.09228179254
0.0315655357357
0.330697757812
2.40607774631
0.0425112517095
0.292481004732
1.97189243701
0.388668875937
1.72118975043
0.505838569054
1.84678583304
0.300823941943
1.87534722297
0.291465670836
1.79889298917
0.339340046254
2.14535155986
0.214019423351
2.08629697929
0.141813003292
2.08497445132
0.376081118196
2.41604844987
0.383671237329
2.3722459291
0.359411317159
2.42678093447
0.398585011365
2.49928645471
0.197435367728
0.230614984029
0.47794200217
2.55375963794
0.177340063135
3.64926375696
3.77289128482
2.41131293888
0.694370022543
2.639495796
0.524506008348
2.81753339832
0.430893487411
1.78523338551
2.11885653087
0.448585664539
3.44295148488
1.62278050269
1.85571247214
1.61607260521
1.64830655411
1.92192663999
1.41498127929
1.85566128095
1.23784339402
1.8810510239
0.918357127344
2.12996923079
0.433585271821
2.52275052225
0.0909489414254
0.216469241723
2.05336587173
0.0493822716834
0.97945442764
1.34474187771
0.298060695195
1.09595201482
0.185787329192
1.0266969199
0.314589250845
0.450822870516
0.0542209154382
1.18207965666
0.177980216699
1.00096827331
0.309251601261
0.816550891944
0.364108737396
1.20240457884
0.00360508592037
0.0108696094094
0.10530787906
0.968201813539
0.066884359713
1.89624573301
1.13989003753
0.00318578091133
0.0257699101006
0.0783841164159
0.765859996996
0.417240548669
0.50388472532
0.504698338707
0.573485738048
0.135474580298
0.419377291136
0.292610399893
0.521665584078
0.0170014090276
0.414382921522
0.89843193447
0.0267376562334
0.405861388538
0.133939283664
0.383923732747
0.029717303104
0.148218877903
0.320595237664
0.119003807504
0.311691683452
0.084682698185
0.421964216864
0.219946717159
0.10247072976
0.0896534969966
0.21823226478
0.386100927231
logs/alpha_9.0/PGSD_1000steps_0.log 792.250438822 0.792250438822 0.450335395765 3.77289128482 0.0 -1
