Policy Parameters:	-3.03274277193 1.47541945008
Control Steps:		1000
Start Time:		1442520060.3883517

-- TESTING STOPPED --

Stop Time:		1442520222.4416282
Duration:		162.05327653884888
Cost Matrix:
0.772051371849
1.41514335565
0.670957665269
0.881687880524
0.777738051122
0.801195202466
0.33001212225
0.0660014055668
0.119555051537
0.296562499782
0.321198627285
0.173442458804
0.240125434184
0.372343148887
0.307024593513
0.371423997867
0.316875585029
0.261386950959
0.17155599663
0.269778315191
0.278502356787
0.193692900098
0.183294083781
0.266213029265
0.0579601257391
0.210530429831
0.219009794866
0.00958243357996
0.0851159353606
0.0205576518974
0.103513130362
0.130327125463
0.105955125825
0.116277597463
0.125855226133
0.0848610975046
0.0997651458644
0.173282986465
0.103364722124
0.166611968321
0.198549533539
0.0323468261028
0.0525367491525
0.0499048563656
0.0604864532151
0.0505308881099
0.198624368894
0.229064410273
0.137092011859
0.102060478489
0.0814572699
0.156075392993
0.193025256988
0.204911545368
0.0932981944325
0.102739063878
0.173450723478
0.0646481325321
0.097298105198
0.0489351795542
0.00101298433893
0.0545668849118
0.0221994785563
0.0288292666319
0.0683301020345
0.0882218200226
0.135982289665
0.144827789603
0.206396962779
0.210472954053
0.222989461277
0.283995704184
0.327704875963
0.38127047407
0.479287182039
0.545979214819
0.614301401256
0.668922815907
0.667304914503
0.965519209364
1.15527788696
0.848007877967
1.15537574564
0.944102217761
0.917523420946
0.954478707685
0.622508156409
0.917420245452
0.689747541625
0.995398803498
0.538769139046
0.554329107175
0.440590364522
0.261143349283
0.0872809500308
0.0384595844698
0.145319650156
0.28171923956
0.285076791694
0.23707950458
0.206027676961
0.369435755226
0.238837308071
0.0872677144441
0.0824649832989
0.0404675913869
0.124947315878
0.184976026558
0.0981872418254
0.0458860754556
0.114927762178
0.167289209027
0.122861534544
0.188086214684
0.173912584713
0.207107402932
0.247570970574
0.269773030361
0.290018981264
0.30751444073
0.34200883308
0.355720058773
0.335712300346
0.34972039462
0.370362547053
0.418778764272
0.423835738266
0.382816219492
0.285456437015
0.442845979104
0.427324020576
0.429165346535
0.407667204094
0.350687785994
0.356931496468
0.290251379594
0.255160899317
0.266821654482
0.242245508372
0.246918168933
0.185314616339
0.0501385157507
0.0531646703113
0.0678217985829
0.039238061321
0.106430884076
0.199465019425
0.207030174512
0.249414124804
0.321171209711
0.247451842435
0.270569021366
0.361747015735
0.373705654452
0.21501132655
0.276497854909
0.27791553028
0.253246441302
0.254987799807
0.319055884387
0.294548103537
0.132906513386
0.193044245875
0.35004798719
0.1559354664
0.234840023761
0.237410151483
0.254201557592
0.21828974421
0.165529137471
0.239635656365
0.194849107547
0.277669841915
0.279371197703
0.134109008799
0.172052013159
0.0816500375187
0.138946706691
0.126556242496
0.105616623644
0.0646977022381
0.10331391469
0.124274183229
0.128098718877
0.164617474519
0.169762288269
0.155489218849
0.187285417506
0.138504123098
0.149205981431
0.178092984966
0.176315014058
0.175453325468
0.207557362527
0.159592668725
0.197534278681
0.186643671686
0.189243015742
0.135712469528
0.173451903029
0.198357774316
0.232774631408
0.255282754888
0.208621734441
0.222275922616
0.240062514911
0.264084145223
0.198228279673
0.121182008437
0.117342970859
0.0606730213553
0.0888055525841
0.101581953139
0.0918959443923
0.0706040777986
0.0567062060196
0.0614586328244
0.172041699816
0.277377889992
0.151580328606
0.110987155742
0.186174807539
0.300871827246
0.257357054506
0.207979924067
0.136181981804
0.365623569346
0.381634699388
0.342487832504
0.294607299023
0.328678048108
0.342520738381
0.33824254315
0.358894440758
0.33862405052
0.27139318072
0.242834033651
0.331346028922
0.195839133523
0.296758823467
0.253027763249
0.369261197863
0.0893835837822
0.151614985029
0.204019693848
0.192671434547
0.200681326452
0.00594449486065
0.023277252121
0.108784792041
0.179644933149
0.0267056667769
0.0404392153464
0.0317241964869
0.0378030045231
0.042598465751
0.00314338291351
0.00823544694764
0.0544754103011
0.0735123732499
0.16595685803
0.119120419037
0.112108397504
0.0519721223557
0.0524925247294
0.0511658413635
0.0710897463557
0.0606683285256
0.0518477458852
0.0557690608505
0.0589523041713
0.049435025317
0.0167854209343
0.0560295625646
0.0658228451532
0.0682867622257
0.0659558239148
0.0931719295506
0.0735476466539
0.0904507938496
0.0765736699067
0.0746038967678
0.0824980561157
0.0776556789926
0.0738690819583
0.0900724082879
0.100553549902
0.160392104084
0.139001235665
0.13726727354
0.163224176758
0.167048868977
0.181837951507
0.188649033665
0.21005007603
0.225707786288
0.259697202663
0.282404613565
0.319845626722
0.369051639848
0.447798511049
0.538033369318
0.594501324612
0.642360455371
0.701659576143
0.746001560484
0.857299600087
0.826145044292
0.843026595577
1.11487056337
0.939466561774
0.842700762142
0.647507638988
0.830098301695
0.507578605066
0.396983606942
0.341804375931
0.313337657935
0.23984630803
0.0333554004268
0.107792142334
0.234989593732
0.162441309778
0.122325001936
0.113773781174
0.0919402917237
0.106804666989
0.170228544419
0.199895271269
0.0629978253704
0.0702732768565
0.0391103599323
0.0199595395035
0.0238112007169
0.0392569237749
0.160866990918
0.191362164026
0.147807206555
0.121018743395
0.178032886455
0.147653079856
0.0922065946873
0.100457975963
0.14788764757
0.226815319124
0.0687434838472
0.0673129651821
0.0630684440083
0.0958120836999
0.157798644507
0.213200659392
0.248828389139
0.265684370351
0.308830395035
0.339244798773
0.437881182802
0.540046023506
0.608320739938
0.666289508265
0.745931044846
0.668257827572
0.87224947754
0.715096795411
0.913616153164
0.743807638931
0.883702196294
0.581568920614
0.726742158428
0.534860529359
0.734604641085
1.15509150528
0.0956123015398
0.0639862670744
0.024060673526
0.0121050012327
0.0905838513983
0.0729869691029
0.0104447524558
0.0619571023797
0.0351138723536
0.095473063909
0.0569735698699
0.0114991047464
0.0299091782139
0.0514269991672
0.0742739333395
0.0818089187034
0.249162813964
0.341965990297
0.0235852111277
0.0422714870258
0.0908230043776
0.0277080463108
0.0431787157645
0.0738326895433
0.107644028426
0.0715689398758
0.110640745475
0.0342905906165
0.052628664794
0.0422908200675
0.0227984413939
0.0119944254173
0.0239910762094
0.0145636094421
0.0146762870173
0.0178539815239
0.00772017042484
0.0162248166403
0.0287432813136
0.0301439475429
0.0580191104714
0.0609942995285
0.0238298980854
0.0565053438093
0.0668957818113
0.125799538498
0.0270247014606
0.0317704237254
0.0745383094383
0.161388457863
0.173406114825
0.164649087419
0.0589396377035
0.101618609968
0.213573433855
0.210122898565
0.163534252259
0.152345558108
0.23970723462
0.270471753471
0.308603942396
0.338165814905
0.483969101273
0.463071501881
0.698959606862
0.850193654524
0.996454057928
0.993002116311
1.08837621581
1.10415433186
1.13631200823
1.01879181687
1.09255498268
0.615598589657
1.19203955603
0.470391756994
0.823380703732
0.543624195039
0.447443140552
0.457906496797
0.0727505656577
0.0505021766414
0.0835235895594
0.118646435559
0.128612825522
0.0541269048811
0.0227540274586
0.0445060903179
0.0683103670118
0.0454583842911
0.0637542112407
0.145195341191
0.190597635745
0.0797291869618
0.14189989117
0.147601850274
0.109191027593
0.0676103797755
0.034026204037
0.0411827121508
0.062836303687
0.0744635158071
0.0724108306465
0.0731936622987
0.0525193747486
0.0859542398743
0.0485841284575
0.0435609601918
0.113929310978
0.0966780798636
0.0752450647184
0.246533671707
0.36545433907
0.25919439969
0.248504685915
0.299229631281
0.380130740946
0.422477470657
0.463640126572
0.496138351819
0.53850097324
0.584451261068
0.612247060853
0.660304926298
0.808352334962
0.590451902341
0.686524445777
0.631639973818
0.555521820153
0.686426860996
0.562130631541
0.520058522627
0.434270777586
0.340804254242
0.286302198771
0.219680489861
0.0582605926654
0.0318054184108
0.0217756554239
0.0489947712438
0.0709292406437
0.0706326672823
0.095955077161
0.0886944205701
0.0720911740354
0.269586151
0.230160524607
0.0995758858448
0.12699531092
0.149940876471
0.158089290269
0.257980645529
0.0548373280364
0.179999445298
0.197844605162
0.134655670922
0.112740347759
0.0353001314995
0.183025923287
0.192331879758
0.150742180627
0.107490128313
0.122638220495
0.24983948463
0.183253568124
0.191274305405
0.145757539396
0.167657050992
0.192376642929
0.262097323466
0.255716217616
0.345454978054
0.396146117145
0.417248989001
0.534772261636
0.888296462599
1.05997773222
0.940642174528
1.09917964878
0.980750366817
1.0806471298
0.995768103922
1.14945779053
1.14410141031
2.43836304915
0.0645787014655
0.274192413192
0.250376827901
0.194009169579
0.201156925703
0.147381733793
0.158002969102
0.120700253852
0.134158856412
0.131163638848
0.0870103495641
0.10095108831
0.109584913162
0.165775380595
0.157676556671
0.163093383002
0.169686945561
0.17392096609
0.127125673566
0.139476768835
0.150545831577
0.177096078021
0.200316348598
0.198904909379
0.183921522702
0.194836107522
0.205792034474
0.177895202758
0.180229655006
0.153563942739
0.168689120606
0.163623858194
0.183002089038
0.324381101827
0.172517802965
0.204504418113
0.333628707964
0.321204681101
0.364603296999
0.307924399974
0.406564770755
0.416246395067
0.427049075943
0.531885878052
0.701721197306
0.962661815283
1.4275884952
1.8652039522
1.74878725333
1.81547616702
1.83422360794
1.72406430904
1.92179420812
1.81481476012
1.6909288592
1.04855125871
1.65756382921
0.979596136729
0.534013753893
0.361838654782
0.37325636287
0.395300519863
0.391293745732
0.385885712262
0.38261254376
0.405824838774
0.401243323253
0.391516077327
0.383313942825
0.399606746369
0.401508354678
0.404234925945
0.40787565317
0.420275467805
0.411883601916
0.441627915958
0.406098966642
0.415934927661
0.428832547894
0.420296025267
0.417014313788
0.435232485641
0.444300347833
0.419659137825
0.449703196844
0.418628774609
0.422285603361
0.43947083302
0.426161497914
0.441215554435
0.445362204912
0.409753710061
0.448852192677
0.437354896295
0.390137498202
0.422299068257
0.401947589403
0.395711995322
0.399575160696
0.392673182447
0.401591142203
0.382105717701
0.387101053331
0.368841917958
0.369057104825
0.342699844843
0.336619166245
0.321136749663
0.308510790231
0.363209715071
0.304265239905
0.288791694697
0.289421869618
0.293185590428
0.322800901581
0.301279860761
0.386473155131
0.374242641303
0.294606673344
0.250346847393
0.30099949926
0.310503881156
0.283695753487
0.277399832337
0.323583152836
0.257601916097
0.205928411808
0.329357062649
0.272056628729
0.16214083659
0.203142858414
0.395063797601
0.348736967355
0.149483020885
0.297466589758
0.295395691447
0.252311756052
0.232710742467
0.244193168325
0.194407270135
0.109423946485
0.172154233163
0.110128517698
0.109326958612
0.13253130289
0.167861536215
0.185263614207
0.0726962895858
0.0751779488774
0.209589307718
0.0760621855207
0.0979702350206
0.230142562557
0.111193206773
0.144456847125
0.0715893634455
0.149140794174
0.107831799083
0.214402574877
0.174642513817
0.106141568751
0.0779754008976
0.085278809369
0.0916204874863
0.114426476435
0.145591555346
0.196289760574
0.254614966922
0.204382987333
0.170636543594
0.07567450312
0.0726552269031
0.155839341662
0.0924934512747
0.238645918369
0.270372793263
0.158035103693
0.162581581316
0.301493670965
0.265482211903
0.165607836067
0.343132636272
0.324718828774
0.300749433475
0.400185714397
0.458305461511
0.698410622189
0.579593590227
0.515266168001
0.553330041019
0.7191280837
0.633335302198
0.555413409976
0.515705758922
0.401633463234
0.430989561955
0.409018156939
0.539336145788
1.09191072961
0.0355590933467
0.350081846681
0.138916349167
0.0835737937361
0.120344717587
0.0444294510073
0.0419280101663
0.0650503115918
0.0626601864892
0.0627030618705
0.125066082824
0.139437463598
0.0718493454722
0.102720856254
0.13413994937
0.105587415779
0.0615604516958
0.0550017204734
0.0418483762494
0.091710620832
0.15060145074
0.0196073359738
0.0296920541733
0.0407979465985
0.0738311124653
0.135754661824
0.163337554097
0.177345047681
0.1826359933
0.18251510402
0.177381596588
0.216785953256
0.256909322138
0.183785831855
0.185876839419
0.202205743058
0.144969930186
0.176863120964
0.188555023873
0.186616731452
0.152436398941
0.147525696134
0.149371028713
0.156985928917
0.169721393026
0.164809032748
0.146121245109
0.117063210855
0.135748274029
0.151944750383
0.116572115214
0.104161170719
0.0989773396315
0.0359490689173
0.0279474308529
0.133833008811
0.111665500418
0.179091800953
0.158690004136
0.155786730332
0.100746722136
0.107430224441
0.124450390874
0.134067977684
0.178665483064
0.0588798896697
0.121945372215
0.10315098128
0.169312916462
0.0170550159997
0.0527759972257
0.110672524825
0.128284605839
0.115971666866
0.040307591767
0.027819203317
0.0314447200177
0.0635507872822
0.132720125575
0.0492550038026
0.00111560018278
0.0379544028843
0.0797069088992
0.0797643397174
0.0123529871047
0.0138501644105
0.0351724319595
0.0431281677975
0.0182925622387
0.0876508479514
0.0816830566782
0.117980136277
0.027980090986
0.0526976609451
0.0412309353363
0.0595576426179
0.0877973438095
0.112078289041
0.0694310694343
0.0760568315142
0.0873997794794
0.0737168383902
0.0402803895749
0.0766591871236
0.105240763293
0.019764448966
0.0392759151598
0.148242673473
0.037816478296
0.0379530458868
0.0279955480271
0.105625129226
0.146717724721
0.130901952971
0.12020951128
0.0540590540125
0.132211016788
0.0426362150761
0.0593604906866
0.093584569556
0.198226399173
0.154848955137
0.192143189018
0.178163164706
0.209229554189
0.231174609463
0.306031386597
0.352740100273
0.288118093277
0.351557438079
0.508748485197
0.722827295142
0.728744211679
0.814776078183
0.553296039336
1.00462081582
0.524188076357
0.846882360978
0.655549918013
0.575240942592
0.513100631033
0.498743426347
0.423675491639
0.173144260508
0.299057046623
0.163610245296
0.131692240844
0.0718829019231
0.191345116389
0.144708730942
0.0204222795797
0.106114542244
0.0250003247413
0.109611695412
0.00311908618579
0.0760556793897
0.0998750532963
0.00724786268379
0.0385196558116
0.0608673261844
0.0144499164582
0.097492561113
0.143647943154
0.116746080007
0.0875602921558
0.087571548957
0.0898113283716
0.148453995965
0.0417558545707
0.0669999367591
0.111048809298
0.351691220306
0.0919897120528
0.0900693197534
0.0576259073857
0.0807833985919
0.046786664511
0.0577068806933
0.0848732462168
0.106072236314
0.191265931846
0.175066924668
0.109038714386
0.126191310125
0.110671678964
0.125195382414
0.201125271828
0.233992209623
0.285764583131
0.374960826676
0.419348543263
0.752804261936
0.926626673349
1.38077364607
1.8722892198
1.65115045608
1.99989918737
1.87946462635
3.68978125004
0.352126975404
0.322056096331
0.369921474781
0.305099879914
0.441164966874
0.612070314868
1.0592961658
0.796417648707
0.372601393245
0.2881575
0.22822752023
0.0211728501216
0.0587865715226
0.0125402205804
0.0698853126362
0.0280911138787
0.0717279971018
0.127882310698
0.120672434234
0.063201404083
0.0695915607718
0.0662078561335
0.415146935071
1.85067638474
0.01016021384
0.0582660454146
0.0889232322502
0.187115707588
0.100121379767
0.110934123739
0.148707509174
1.8589398283e-05
0.0805950759191
0.239582377782
0.315590865903
0.214489551102
0.21228142023
0.137135887131
0.124550111442
0.146333599736
0.285629056463
0.310944767815
0.353609040524
0.334996086189
0.337615663769
0.293143709483
logs/alpha_9.0/PGSD_900steps_1.log 282.468360411 0.282468360411 0.178128074836 3.68978125004 1.8589398283e-05 -1
