Policy Parameters:	-17.9431177124 29.4590421528
Control Steps:		1000
Start Time:		1442516321.548802

-- TESTING STOPPED --

Stop Time:		1442516562.8773985
Duration:		241.32859659194946
Cost Matrix:
1.23565870537
0.0208818015149
1.40325229142
2.3982863199
0.0958283896119
3.77117392197
0.0303223474355
3.22553647976
1.76034760853
1.39496665984
0.02876667736
0.443660683553
3.08079538878
0.0634139036044
0.629135031098
2.96485745202
0.0357100970684
3.01795497099
0.0627822477042
0.873617027408
3.04290675344
0.0605210789315
3.50997162551
0.105623022577
2.17463082345
0.785834005149
2.18767639039
0.00036048340959
1.09455727787
0.0827033249376
1.44424992702
1.48235516066
0.00305355783751
0.405338936063
0.895694096094
0.477137354774
1.3212457286
0.0282948311223
1.59188289212
0.00304160537512
0.498122468118
0.321094868516
1.44765180054
0.0374710227703
0.670787705807
0.207715074502
0.152918269967
0.299866640134
1.22235609108
0.0353155531977
1.97760694139
0.0347491215147
0.421378377239
0.80008203057
0.00834867385799
0.560109449246
0.341735932303
0.0168633564027
0.142466416847
1.86036667098
0.00116426970665
0.47690041439
1.07719385139
0.0337090676169
0.428534257714
1.59464210752
0.00334326342577
0.320549199134
2.14486979065
0.0101085473883
1.34441742092
0.114707734655
3.60598908676
2.30420057581
0.20514214575
3.77117392197
0.21230252148
3.77117392197
0.0346849423279
1.92282488153
0.0325798761218
0.296260686841
0.458010450075
1.51787998031
0.009614449774
0.293586947454
0.00602996369368
0.507362965581
0.234752533822
1.79226128565
0.0277500141716
0.531140533885
1.90936820684
0.0203713047371
0.229528365939
1.0545278999
0.0
0.12836647318
0.101218822994
0.832620665879
0.00291704785414
0.425359151516
2.66022532157
0.00603428907335
0.50523253097
0.0147838708326
0.12026506933
0.926607917395
0.0297486641242
0.417020095457
1.026706957
0.534223609363
1.56594705487
0.00652463827248
0.434385634721
1.25162881567
0.00887619610745
0.387372443956
2.20472058083
0.0
0.829981500188
2.94416182571
0.57453408366
3.78336441599
3.7711821936
0.204639235097
2.86323862112
0.520520982559
2.5360271284
3.22555679225
0.160817982118
2.16436394995
0.0108927501482
1.15452028598
0.096843858646
0.599712634226
0.838266173037
0.204335745919
0.584594778951
0.383974701508
1.41907047815
0.00249005392837
0.311106047834
2.77996747505
0.0504828317595
2.41347950265
0.0686714057875
3.17359345329
3.77284308442
3.77117392197
0.00899475889386
1.10057896642
0.208842251182
3.19282636368
0.0675061316961
1.3469824075
0.142409234006
1.36632180981
0.395580923326
1.43889440857
0.0503349703894
2.60634815696
0.060897570608
3.77117426139
0.011060589664
0.357758553222
1.84170361094
0.0700130663152
1.35259146294
0.34673919824
0.429897424688
0.00852719126796
0.45742982864
3.11391848613
0.0574233999277
3.23961584203
1.4050776268
3.77125614645
0.763167956651
3.77117426139
0.109765878439
0.379795455821
3.77129199824
1.41263903926
3.77353761526
3.23657151917
3.38841014111
0.0388730798837
1.60849481586
2.96942276979
0.45170903798
2.13625933584
3.77117426139
0.157617441177
3.77118190915
0.295832250192
3.77131339696
0.77345803586
0.745815423556
0.479428328677
1.10444892456
0.171609565614
3.77127148209
0.515785414731
0.366733922297
0.0662171135569
2.10079212006
0.0513053468076
1.30989669541
0.0269945620078
1.27700375388
0.014380196011
0.109617278246
0.836995063907
0.906831364103
0.00078409956936
0.231615634897
0.336359110199
2.15788648209
0.0116759827608
3.77117450731
0.0235862359556
0.0113409384198
1.40438202581
0.318916754187
3.34609519814
0.0720595110759
3.77223924263
3.48721717851
0.0
0.0117869141828
0.172494210795
1.70121498521
0.0581714221069
2.66570269648
0.0301526167245
1.88212611184
0.0297342627241
1.68463261724
0.352199712935
1.91880445717
0.459578773843
3.29117921041
3.77117392197
0.251517072225
3.77353439859
3.77127724023
1.3016388325
1.95401955998
0.120354742346
2.39075323259
0.187957052968
1.71721813584
0.189548051739
1.19972113725
0.0240741090373
0.062688491596
1.25427702763
2.23210330372
2.21100395565
0.0232735841593
0.112767360902
1.86408533354
1.75148014203
1.41703725635
2.57381545289
0.0339484604496
0.192377985846
1.77736989831
0.084625575001
1.87827386812
0.15385645741
1.79297519494
0.0528634433983
2.92260132253
0.080374294787
1.9706340954
0.0284460983978
0.174817287677
1.82989060323
0.0262099657774
1.35706920899
0.0075345483132
0.320511737561
1.28070434009
2.37669955133
0.0837972788949
2.01049931515
0.0386056712482
0.999093105994
1.36232301251
0.00654686874206
0.492684403524
2.52081261265
0.01681122886
1.41401648639
0.0524591265373
3.773458232
3.77117392197
0.170454534432
3.1732288445
0.1166037511
2.40739567015
0.424242453616
2.00919017253
0.0224722388849
0.1183395226
2.09942128533
0.0377382029415
2.12683254869
2.44160161896
2.1673971912
0.117111623901
2.0301425767
2.61041295576
0.398613772025
3.77117392197
0.226351002372
3.77395470683
3.31020214345
0.067747226329
3.3437115625
0.758326989342
3.11867698736
0.274612161365
2.97835611757
0.144825358754
3.33317668201
3.62619259254
0.678154131989
0.257834716631
3.77161812926
2.51934735017
0.0332998389031
0.423280132669
0.969895126901
0.0637300478347
1.12322223582
0.786195949338
1.19266437371
0.0186950950658
1.4561466399
0.0357988132575
0.445709985752
1.03849906274
0.00539004716199
0.477112642264
3.03821754463
0.271220593881
0.865635603803
0.0412988804406
2.68067292512
0.0112211708915
0.932925395948
0.037115175635
1.74143979001
0.0272466381007
1.34640155554
0.0158026733833
0.950976248498
0.350039096302
0.279542363839
2.69516308017
0.01944885678
1.11956987929
0.028015832854
1.32273820479
0.466682913886
2.12185049453
0.0422225790955
2.56077228395
0.353448434144
3.77171581344
1.78007791019
0.1031092287
3.77306082679
3.77823256152
3.91696055826
3.7713626465
0.991311445373
0.0826525190902
3.77134396159
1.67248786495
0.0164939897165
0.0661864029038
0.878529752994
1.93798286252
0.371113655534
0.0128450954697
0.00509849960518
0.309028573453
0.437845272647
1.7733015798
0.022052993024
1.70730891299
0.0382595239861
0.394430099458
2.55599021582
0.0266639321187
1.28976814452
0.0605908478527
0.813364331876
2.87838761876
0.494530299584
3.01414560209
0.385968107643
0.367048395379
2.50810734863
0.0753814906701
1.81891293742
0.532332378569
1.97121294452
0.18808544962
0.455551514929
1.72775149912
3.77117426139
0.0
0.468566463185
0.501836593274
3.77126303424
1.19662361961
0.520712301019
2.98338652387
0.00482894131705
1.66331719077
1.72966648474
1.15414345211
2.92800601316
0.022712523368
1.39234482032
0.0373144367563
2.16820481426
0.0144896474864
0.666524065864
0.0513810753869
2.41185626481
0.0189030400987
1.16589122077
0.00270492141245
0.0792731230983
0.34850455034
0.074386709277
0.752330865003
0.172471597672
0.0
0.219149664636
0.336810277401
0.403322472099
0.213497399401
1.52186769079
0.0215461170159
1.01437775133
0.00916600273813
0.603115745412
0.750341251972
1.83322122271
0.00773295963636
0.342269078716
2.09262821849
0.0467558170022
2.14661463209
0.0617140145322
2.89400132662
0.445158562165
3.72187285931
0.0304807753819
2.02451159306
3.6940796387
0.599803229504
2.3183903216
0.0506238453078
0.255936982945
3.76693102561
1.74701770605
1.43999853874
0.262867980762
3.77117426139
0.053533204535
0.533294879212
3.77117392197
0.270067308719
3.79186194311
3.7732166803
3.06739783876
2.76109011699
0.530548973642
3.77117392197
0.0520604744786
0.255484211689
3.6484383425
0.283403180525
3.77118430741
0.345979718556
3.77253353584
3.77159334816
2.46535492166
2.81697321517
2.83743430326
3.77117426139
0.165783788295
3.71435009663
0.16441563481
3.77117392197
0.0786540754309
1.1545378998
0.469905554591
0.138384995636
0.699715500147
0.302521101908
1.65086266819
0.0140393299821
0.500267431101
0.0134478161758
0.445329299423
1.95293424308
0.0812358950261
3.33529108417
1.52629742742
0.0361593079891
0.375033824484
2.11305189462
0.0056930189561
0.987503850999
1.34503538689
0.022494879613
0.077238711654
1.5467843198
0.00101209797943
0.364747306162
2.81482880449
0.10572716262
2.51560488769
0.0323876661777
0.055520293766
1.20789522018
1.77821148715
0.193983361458
1.87542692031
0.0449633630022
2.5149321413
0.0292102327863
0.963509866206
0.782696928691
0.00488244834972
0.415179880595
1.28012638492
0.0924630420269
2.19843983659
0.00483781670873
0.425494968355
1.19165161029
0.0
0.21515519326
1.44030632426
0.0138926280971
0.0923950580456
1.4095894424
0.0307677884694
0.15164883317
1.24927816236
0.375047433625
1.69643531644
0.0
0.328402122615
1.99289941949
0.00747970853353
0.782791097833
1.85960027314
0.0396911051376
0.360311256677
2.21989183409
0.0
0.485097560334
2.2518376211
0.000761126001877
0.464197255464
2.51155307491
0.0050190485521
0.431607135935
2.46386519855
0.00633617988652
1.02122806715
1.68516191349
0.241937753352
2.64135141751
0.017976838452
1.2783898106
1.18592181391
1.367187876
0.447103572604
2.48881072028
0.0288794384645
1.57997419689
0.057907353222
0.769343822744
1.92543358612
0.0742339325167
1.47290370122
0.162182225593
1.4360750432
0.00460209941967
0.391200159855
3.19318489867
0.0539369137162
0.563949023857
0.46623965395
1.27691059995
0.175868470919
1.91535451805
0.0442817466106
2.02243823949
0.209188816589
3.54107601922
0.349771622054
3.77262659374
2.59384663602
0.0374259122628
1.24841081135
3.11480369278
0.277937564121
3.77117426139
0.121113848885
3.77202721254
3.22585122566
3.77304747013
3.77117392197
0.472263088132
3.77764030992
3.77850916849
3.77117426139
0.0
1.09971430545
3.07067182785
0.0671362248848
3.77290494138
2.88240799162
0.0907505147806
3.77985307896
3.77180543866
1.90836047413
0.5418853391
2.54291327033
0.129358921545
3.77240580783
2.5263966392
0.0880777091808
3.77254530528
2.63548878752
0.135160279096
1.90214203798
0.0421198036009
0.0680221980893
0.277184301261
3.70590494816
0.0110565114424
0.252422973915
2.80400723918
0.44161029962
1.12434791074
1.03471405273
2.27386956558
0.984211827785
2.75542202206
0.00195583956201
1.37538089087
0.11988744038
2.80166349836
0.00924483198128
2.09315567266
0.0785207806557
1.85021824919
0.494429703127
2.31582496406
0.0314143280685
1.47263684946
0.0261121710212
1.29483388547
0.0144771699844
0.810241908137
0.0
0.406681198657
0.407407595097
0.9935273963
0.00887128334016
0.443652914087
1.72209654337
0.00462960573082
0.12142971874
1.28532462972
0.0378993765039
2.13509366281
0.0956858103777
2.31793923946
0.163307602715
0.384708650201
1.03163431681
3.77117426139
0.0267594463213
1.4607873994
0.0918271795406
1.70286262056
0.0300463548474
1.41547786941
0.00824584693439
0.514009440225
1.11003104859
0.0278327409154
1.29671295743
0.0311567679738
1.46043141791
0.0121773375792
0.620023148019
2.14711837632
0.0151704613312
0.0709378201464
0.921670824361
0.317401366633
0.736597287998
1.29630012748
0.0387236026409
2.0526198331
0.00736801481766
1.22919012884
1.69586272675
0.0436861763828
2.26191579776
0.199273027061
2.56879679757
0.0538605539893
2.39921760464
0.0170104917831
0.327092689974
0.90283063694
0.885874109904
0.412148023654
0.0953816221671
1.98805037973
0.253906143689
1.7701014115
0.00319108148425
0.496929566097
3.64589764885
2.97947566112
0.0367933656921
0.661390465365
1.79167742237
0.00730999643046
0.531777652027
1.44114699389
0.0129003988821
0.453810472599
3.33051842062
0.0112784766381
0.927593679366
1.31776274031
0.0
0.840875404858
0.00356040206284
0.0410355603485
0.483769631466
0.509104363339
1.91212171737
0.0170081559058
0.0173488247723
0.0193762564151
0.15224003818
1.75682604254
0.00753473073359
0.0308072027
1.6940562811
0.00078982527568
0.325441394265
0.461119511695
2.52950754111
0.0497797021215
2.59809496526
0.0580259169877
2.84921989939
2.0395620136
3.04534117179
0.0377678718497
0.0869545833903
0.195807589972
3.77117392197
0.064469492297
1.79384148378
0.052341930849
1.22106770276
0.462145792702
1.27759147103
0.015468770365
0.25852260372
2.17120395011
0.0424621135384
0.869672497298
0.425444246182
0.873845976306
0.30674149343
1.84344476853
0.0282034194182
1.65804607353
0.492564619833
3.7721598899
3.39289722968
1.41096337851
1.38140850423
2.89181933308
0.00365758088943
1.21726447256
0.0731595009109
3.30366419314
0.00674744311777
0.278760149769
0.479584289729
0.300704671243
0.230151357805
0.0220468558108
0.26347260128
0.978361645106
0.0229996720995
0.401169366772
0.390940907818
0.0111411123253
1.31854208915
0.00200197014923
0.200719800457
1.93406884177
0.0302984765171
1.66571865577
0.013118617837
1.09649066094
3.54937224301
0.217089784071
3.77124862334
0.454651051648
0.588202657344
3.77159864054
1.58623688335
2.56299436603
0.00979644300307
0.120198227
1.74142047174
0.00547352682785
0.370497068188
0.801621086398
3.16269995897
0.0107079498435
0.13902280938
1.6026427033
3.77119908377
0.453257810533
0.527954161968
0.031016251408
1.6784165028
0.0445805036783
2.21063649478
0.0134958105143
0.703462365528
0.927787445341
0.00983415199645
1.34964266942
0.00880505246627
1.03319734824
0.015315168172
0.0919707174076
1.0875229477
0.106638215506
1.50167050129
0.00473815192468
0.413199925606
1.09516286784
1.49973648636
0.395405326586
0.219252711595
2.01671840363
0.0132516823359
0.160209106364
3.21591597917
0.511087657697
3.77117392197
0.136791217017
3.77117392197
0.00356402555408
0.0956138983215
0.996747898656
0.00398641570442
0.129062294809
1.63497941089
0.0076479314629
0.0681673345295
2.32694139162
0.00559196553763
0.457471573193
2.24400438828
0.0494943858004
2.57706634553
1.40272424477
2.9849323877
2.50128676279
0.387906419447
3.77117392197
0.0
0.369507027536
2.12763916479
0.0179361737006
1.15994578319
0.759154920706
0.93471354908
0.442855206925
1.76634150872
0.0126852987511
0.0798487651771
1.7101673678
0.0140267928209
0.0230739137747
0.766045601201
0.380833734796
1.49743165148
0.0074194560462
0.414802320662
0.836569956035
0.160637351909
0.552781307088
1.15254337864
0.444597985098
1.31489928427
0.334212693519
1.45254535266
0.00198013844773
0.261757730449
0.372569223368
2.70599862038
0.00868923762733
0.0366219190925
1.20292977638
0.0815037728359
2.44561488523
0.00513389219427
1.00392346402
2.94624836186
0.992237610826
2.24245766651
0.0712781267845
1.36851307695
0.469558820162
2.47746739001
0.0847394057411
3.38191101251
1.78609024358
0.0
0.728351692365
2.43000486741
0.0102473780846
0.517304206566
0.324126477207
1.80467156197
2.54388156569
0.015685728881
0.202628837848
1.52872961848
0.00952170995696
0.136798326193
1.61457032619
1.69442096352
0.028818792128
0.326948541206
1.77190383247
0.0144789538907
0.245905006412
2.73813527359
3.07787425901
3.77217590298
3.41226458195
0.0718089186804
1.85080124749
0.526035921621
2.33032995618
0.013024068512
1.32377586516
0.150760950677
0.309970045082
1.80830407735
0.0401820888865
0.510995067466
1.65775528225
0.0127338924045
0.0589171539291
2.48564259345
0.0269072675018
0.113851676189
2.02331605631
0.0118258523276
0.941900357668
1.21503381449
0.465325576799
0.965199179995
0.452986882843
2.94798812465
0.163615023566
0.197948209609
logs/alpha_9.0/PGSD_800steps_1.log 1125.3459117 1.1253459117 0.526995041795 3.91696055826 0.0 -1
