Policy Parameters:	-0.546597353482 0.703339908788
Control Steps:		1000
Start Time:		1442497128.701877

-- TESTING STOPPED --

Stop Time:		1442497178.2804973
Duration:		49.578620195388794
Cost Matrix:
0.00887083513056
0.00565993628362
0.0547153361132
0.0712217329528
0.0480723370494
0.0284228699967
0.0226640123689
0.0260032709206
0.0211066488311
0.0716289369233
0.101278256826
0.0742624659156
0.0540097024351
0.0237039714642
0.0257445212978
0.0750788790095
0.105341756646
0.10242537357
0.109065344733
0.0791694236784
0.0423575927829
0.0300572460441
0.0619665964242
0.171663464725
0.155035347169
0.163484487365
0.127920317117
0.115837744265
0.148796206069
0.156370622408
0.177356440722
0.186077553019
0.202063464986
0.176465367415
0.222975654242
0.235299917634
0.260237265582
0.254434808459
0.238431718843
0.241929675032
0.297846059888
0.30019842585
0.314412259192
0.331962314329
0.340482757395
0.333480289365
0.30720629383
0.306703575233
0.333643271569
0.33599885589
0.358054528295
0.345483320418
0.312713367718
0.342644614852
0.317739629469
0.270141084663
0.225119246079
0.228499528231
0.128324820675
0.0360343329147
0.0998608279356
0.104513858291
0.0905683119617
0.0651383739172
0.06681652101
0.111339007232
0.119992117283
0.10450657541
0.116362454164
0.122787508117
0.0722277621888
0.0775179694077
0.0865764710826
0.0503050980843
0.0387881922991
0.0210487575995
0.0601988136451
0.0321799766465
0.0543076119436
0.0709192157805
0.0753757859137
0.0606959692719
0.0249842255273
0.0203597574926
0.0211878989675
0.0215991502065
0.0196425501881
0.0520818343539
0.0451605604725
0.0755073371569
0.0720127722872
0.0735375922116
0.0515018103584
0.0395255292615
0.0415500340785
0.0513704480221
0.0516959619335
0.0863291297232
0.105342861737
0.075341948532
0.109516618401
0.105495684669
0.118789794481
0.114774922159
0.106993190002
0.0932725128051
0.110660141382
0.0971255098566
0.0598453835341
0.069966312882
0.0905919720273
0.104282068048
0.0885741275075
0.0709512341458
0.107487172815
0.0941506890975
0.0980374958089
0.111116748025
0.0637904802239
0.0781367939615
0.0785910331514
0.0831300869115
0.0669414319144
0.080717254011
0.0684574859839
0.0399998848597
0.0121530685369
0.0221168825229
0.0102187648665
0.0177916555437
0.0151576883887
0.0182989225136
0.0684947427916
0.0599799770719
0.0262007161004
0.0131609114027
0.00738429784321
0.038269236089
0.0351945116225
0.0363848501636
0.0502579558682
0.0638555625245
0.102994759097
0.0711964722667
0.103123008979
0.118221545637
0.0685043718928
0.0741391823359
0.123574856924
0.220595371262
0.262653687333
0.212417662965
0.201548687703
0.201160257616
0.215201941199
0.218484212594
0.213749334541
0.227497118665
0.235869360803
0.205374709618
0.232485743626
0.261535324082
0.257187375696
0.229568434986
0.242946663223
0.224299482343
0.198332262362
0.177340451248
0.184628614031
0.180414034585
0.128179970206
0.0822667610376
0.0636090083445
0.0350338321922
0.0103372098632
0.0335051140975
0.0412134868547
0.0223187379123
0.0648523905729
0.0627761521751
0.0460387636937
0.0217612759467
0.00866474564672
0.006625820763
0.0260498765232
0.0328648242919
0.0283878534145
0.0173776640976
0.0166691249038
0.00822520675255
0.01607725405
0.0189753432786
0.0482115522333
0.0260482768553
0.021294307894
0.0255107369476
0.0301841274108
0.0348695541885
0.039891029134
0.0358235817841
0.0278552884193
0.0355117808798
0.0197670536221
0.0169439636778
0.0108220852037
0.0350642076948
0.0284198388606
0.050676854787
0.0458345654243
0.059839085558
0.0334319220347
0.0253242862739
0.0190017495179
0.0130323880788
0.0292536947795
0.0262723378882
0.0343674775698
0.0362441924748
0.0150136412776
0.00608482467548
0.0224961455568
0.0100087747349
0.00161528072854
0.00378734236083
0.0134798382235
0.010558702306
0.0166327565022
0.0114330450024
0.0103702820645
0.0215046666983
0.0104600062452
0.00669676251481
0.0528766671636
0.0251073942305
0.00745102581822
0.0580919350946
0.042165576455
0.0348823165294
0.058730334654
0.0490953697994
0.0998130238337
0.0694363081492
0.0451732031189
0.0408945623587
0.0164199150981
0.00825250354217
0.0211720048183
0.0562430746112
0.0622719957275
0.0378968744697
0.0187580152431
0.0433884427466
0.019676999764
0.0105862706916
0.0324712073932
0.0282231472513
0.0699397309535
0.077547510546
0.0492950987599
0.0616067120225
0.0558358911715
0.0296673836113
0.0121391758995
0.0119793848267
0.0268376570286
0.0522238773242
0.0867136648536
0.133541680567
0.205272208199
0.229707371231
0.239796088444
0.277170611173
0.482678795582
0.710856014543
0.758771769914
0.721528268913
0.758579237734
0.451132637961
0.212587318577
0.226162574211
0.217092526786
0.150809931849
0.0994702067197
0.0729977037503
0.0573910660831
0.210466626185
0.151538631351
0.0104477538484
0.0162936382834
0.0244198209678
0.104351216405
0.15569997623
0.168532850021
0.140500510528
0.127283533093
0.177761203629
0.244774320646
0.159154828633
0.0641502218134
0.031624569323
0.0521525738755
0.04036098331
0.0638527397177
0.0451720911878
0.0287050219344
0.0294022126472
0.0733119198997
0.0714699519819
0.082097031517
0.11404525407
0.130868613088
0.140037439176
0.139385303154
0.144646417763
0.139694557719
0.137060700616
0.129494142326
0.152433048465
0.141686854279
0.156289467999
0.131712837187
0.156766835094
0.169525898849
0.179116809044
0.150071431262
0.149104574186
0.149279361155
0.151075529278
0.170587572609
0.132579524602
0.107870549234
0.134382691148
0.116828063172
0.0881819048908
0.0866559360123
0.0888787964488
0.214837925783
0.228184502145
0.178327041782
0.176577543195
0.191218195734
0.156103453402
0.148596198724
0.134837515612
0.133582186839
0.22831645225
0.175012708168
0.137704896385
0.198167741503
0.164311110214
0.15244249766
0.136647289086
0.213698329891
0.167160331641
0.140276752306
0.274853498816
1000000.0
0.0
0.0
0.0
0.0
0.0
0.0
0.0
0.0
0.0
0.0
0.0
0.0
0.0
0.0
0.0
0.0
0.0
0.0
0.0
0.0
0.0
0.0
0.0
0.0
0.0
0.0
0.0
0.0
0.0
0.0
0.0
0.0
0.0
0.0
0.0
0.0
0.0
0.0
0.0
0.0
0.0
0.0
0.0
0.0
0.0
0.0
0.0
0.0
0.0
0.0
0.0
0.0
0.0
0.0
0.0
0.0
0.0
0.0
0.0
0.0
0.0
0.0
0.0
0.0
0.0
0.0
0.0
0.0
0.0
0.0
0.0
0.0
0.0
0.0
0.0
0.0
0.0
0.0
0.0
0.0
0.0
0.0
0.0
0.0
0.0
0.0
0.0
0.0
0.0
0.0
0.0
0.0
0.0
0.0
0.0
0.0
0.0
0.0
0.0
0.0
0.0
0.0
0.0
0.0
0.0
0.0
0.0
0.0
0.0
0.0
0.0
0.0
0.0
0.0
0.0
0.0
0.0
0.0
0.0
0.0
0.0
0.0
0.0
0.0
0.0
0.0
0.0
0.0
0.0
0.0
0.0
0.0
0.0
0.0
0.0
0.0
0.0
0.0
0.0
0.0
0.0
0.0
0.0
0.0
0.0
0.0
0.0
0.0
0.0
0.0
0.0
0.0
0.0
0.0
0.0
0.0
0.0
0.0
0.0
0.0
0.0
0.0
0.0
0.0
0.0
0.0
0.0
0.0
0.0
0.0
0.0
0.0
0.0
0.0
0.0
0.0
0.0
0.0
0.0
0.0
0.0
0.0
0.0
0.0
0.0
0.0
0.0
0.0
0.0
0.0
0.0
0.0
0.0
0.0
0.0
0.0
0.0
0.0
0.0
0.0
0.0
0.0
0.0
0.0
0.0
0.0
0.0
0.0
0.0
0.0
0.0
0.0
0.0
0.0
0.0
0.0
0.0
0.0
0.0
0.0
0.0
0.0
0.0
0.0
0.0
0.0
0.0
0.0
0.0
0.0
0.0
0.0
0.0
0.0
0.0
0.0
0.0
0.0
0.0
0.0
0.0
0.0
0.0
0.0
0.0
0.0
0.0
0.0
0.0
0.0
0.0
0.0
0.0
0.0
0.0
0.0
0.0
0.0
0.0
0.0
0.0
0.0
0.0
0.0
0.0
0.0
0.0
0.0
0.0
0.0
0.0
0.0
0.0
0.0
0.0
0.0
0.0
0.0
0.0
0.0
0.0
0.0
0.0
0.0
0.0
0.0
0.0
0.0
0.0
0.0
0.0
0.0
0.0
0.0
0.0
0.0
0.0
0.0
0.0
0.0
0.0
0.0
0.0
0.0
0.0
0.0
0.0
0.0
0.0
0.0
0.0
0.0
0.0
0.0
0.0
0.0
0.0
0.0
0.0
0.0
0.0
0.0
0.0
0.0
0.0
0.0
0.0
0.0
0.0
0.0
0.0
0.0
0.0
0.0
0.0
0.0
0.0
0.0
0.0
0.0
0.0
0.0
0.0
0.0
0.0
0.0
0.0
0.0
0.0
0.0
0.0
0.0
0.0
0.0
0.0
0.0
0.0
0.0
0.0
0.0
0.0
0.0
0.0
0.0
0.0
0.0
0.0
0.0
0.0
0.0
0.0
0.0
0.0
0.0
0.0
0.0
0.0
0.0
0.0
0.0
0.0
0.0
0.0
0.0
0.0
0.0
0.0
0.0
0.0
0.0
0.0
0.0
0.0
0.0
0.0
0.0
0.0
0.0
0.0
0.0
0.0
0.0
0.0
0.0
0.0
0.0
0.0
0.0
0.0
0.0
0.0
0.0
0.0
0.0
0.0
0.0
0.0
0.0
0.0
0.0
0.0
0.0
0.0
0.0
0.0
0.0
0.0
0.0
0.0
0.0
0.0
0.0
0.0
0.0
0.0
0.0
0.0
0.0
0.0
0.0
0.0
0.0
0.0
0.0
0.0
0.0
0.0
0.0
0.0
0.0
0.0
0.0
0.0
0.0
0.0
0.0
0.0
0.0
0.0
0.0
0.0
0.0
0.0
0.0
0.0
0.0
0.0
0.0
0.0
0.0
0.0
0.0
0.0
0.0
0.0
0.0
0.0
0.0
0.0
0.0
0.0
0.0
0.0
0.0
0.0
0.0
0.0
0.0
0.0
0.0
0.0
0.0
0.0
0.0
0.0
0.0
0.0
0.0
0.0
0.0
0.0
0.0
0.0
0.0
0.0
0.0
0.0
0.0
0.0
0.0
0.0
0.0
0.0
0.0
0.0
0.0
0.0
0.0
0.0
0.0
0.0
0.0
0.0
0.0
0.0
0.0
0.0
0.0
0.0
0.0
0.0
0.0
0.0
0.0
0.0
0.0
0.0
0.0
0.0
0.0
0.0
0.0
0.0
0.0
0.0
0.0
0.0
0.0
0.0
0.0
0.0
0.0
0.0
0.0
0.0
0.0
0.0
0.0
0.0
0.0
0.0
0.0
0.0
0.0
0.0
0.0
0.0
0.0
0.0
0.0
0.0
0.0
0.0
0.0
0.0
0.0
0.0
0.0
0.0
0.0
0.0
0.0
0.0
0.0
0.0
0.0
0.0
0.0
0.0
0.0
0.0
0.0
0.0
0.0
0.0
0.0
0.0
0.0
0.0
0.0
0.0
0.0
0.0
0.0
0.0
0.0
0.0
0.0
0.0
0.0
0.0
0.0
0.0
0.0
0.0
0.0
0.0
0.0
0.0
0.0
0.0
0.0
0.0
0.0
0.0
0.0
0.0
0.0
0.0
0.0
0.0
0.0
0.0
0.0
0.0
0.0
0.0
0.0
0.0
0.0
0.0
0.0
0.0
logs/alpha_9.0/PGSD_300steps_1.log 1000039.69851 1000.03969851 0.0 1000000.0 0.0 356
