Policy Parameters:	-7.79162789257 2.98158930999
Control Steps:		1000
Start Time:		1442507068.2173715

-- TESTING STOPPED --

Stop Time:		1442507251.170873
Duration:		182.9535014629364
Cost Matrix:
0.538167636129
2.18912066941
1.78956137396
1.65694642906
1.04827531531
1.70330007529
1.26398033252
1.39046087879
0.27049391305
0.23245455653
0.0558484392465
0.08623263051
0.00624302738131
0.0465316590052
0.120796170671
0.0241353705607
0.223816428287
0.1482220973
0.0379912447724
0.111009570005
0.101765648004
0.155304574827
0.231325890429
0.248289441824
0.0644200146136
0.0367445169702
0.296716567989
0.438022109868
0.514807237068
0.107063766587
0.0401084087938
0.22340226943
0.605617777099
0.463454622577
0.193139562815
0.249261767878
0.196206711695
0.897744161058
0.191248108161
0.33177356726
0.979512044356
0.674001729693
0.961126851644
1.14342855415
1.9343928768
2.01058245257
2.17185870394
1.96127427838
0.82773118663
2.91728315529
0.205584470035
2.42924744663
2.73328140765
0.0739454250015
0.720075630194
1.07383981741
0.318916770726
0.337422070676
0.819936560239
0.34878724669
0.424206609456
0.767814228313
0.438717175439
0.605001719179
0.335472837669
0.306315438933
0.447593621784
0.396733909486
0.536506303893
0.50287726116
0.501702489909
0.452608089815
0.811725186323
0.761977024015
0.367640857007
1.05602659215
0.803183802391
0.307108088221
1.29893427889
0.0292130538863
0.165061049273
0.665171824831
0.655938562254
0.2983934235
0.570869047067
0.280958468558
0.152856193223
0.274452106336
0.434736756166
0.426374310186
0.210213080638
0.0
0.302913916077
0.405360277847
0.325018244984
0.169403175238
0.0542671899752
0.117032624722
0.323013806281
0.146473832018
0.444144229235
0.0041781250564
0.311709117707
0.114283517411
0.0418564416205
0.250868686023
0.515353966098
0.291957951653
0.0859134588279
0.762693953746
0.0328007086761
0.0878880453613
0.162012165238
0.276891884891
0.313079806285
0.087387936476
0.246449619329
0.273484324214
0.110080690305
0.0723054576195
0.0512206162702
0.128238581475
0.152836135547
0.0918433582148
0.101105136108
0.145710476517
0.500468186062
0.319467267404
0.262682178335
1.17455818238
2.65255478587
0.0160746061269
0.474661669586
1.16725803695
0.315895367
1.25125552427
0.380373935107
0.750826748868
0.237576798408
0.46852132185
0.060806805974
0.194034846374
0.201042494898
0.342658467226
0.294938834802
0.32349759877
0.279416457562
0.175825177022
0.215148431685
0.205888200709
0.319858236214
0.321432601244
0.204690791469
0.353854514374
0.356764820382
0.41673689195
0.286468070821
0.163174607409
0.409688512153
0.435339260538
0.434299106004
0.482486798159
0.479467761607
0.527876418616
0.440308340452
0.528386091309
0.544378853567
0.396237324371
0.371989198476
0.4319112147
0.313688290408
0.269944678951
0.281262600964
0.200856475166
0.083176091823
0.0952986271198
0.0577567162269
0.12347152768
0.108608204841
0.107632313001
0.144506760938
0.11812300823
0.0952769849491
0.118894907706
0.106265793465
0.14928813595
0.0926795076105
0.0757946289451
0.13798882994
0.0295235945107
0.33461113285
0.285765479063
0.383316840774
0.302539408633
0.528433427051
0.201564668818
0.698588123024
0.446258206011
0.38949557464
0.0718831249271
0.167083175723
0.386541437228
0.720548609696
0.275311188531
0.78823402501
0.96924658772
0.754874143638
1.07491893734
1.38045644451
1.48717600976
1.54449436064
0.660064728573
1.66520901548
0.24412233937
1.68536711602
3.77117426139
0.0270781890583
0.0898121979052
0.152832900337
0.209897300488
0.386244181175
0.353708439439
0.424752776744
0.466462637782
0.38410305221
0.501283712244
0.655111771278
0.413595661215
0.470942394374
0.523584973923
0.790062717137
0.484383806203
0.978110011511
0.509139203427
0.987294828782
0.686014166602
0.868898641801
0.980636139797
0.874781291889
1.0041765816
1.18585599865
0.987395413959
1.28416962956
1.11809291688
1.40523865797
1.32388908278
1.44408175861
1.25499098446
1.65935229762
1.27603349667
1.69770734789
1.5854418963
1.45495666751
1.88627363976
1.27476184069
2.07194627856
1.41338979063
1.75838891487
1.66005019226
1.85088992695
1.6568108296
1.66347017958
1.74071310309
1.53011801574
1.82769720544
1.43503176386
1.80090718892
1.43450266797
1.44802233627
1.61077026092
1.18025813039
1.49726129587
1.09988553258
1.29453103069
0.929712097486
1.0488992519
0.99387207186
0.648881270995
0.891418589221
0.465619763346
1.09637604193
0.350572982221
0.647999759472
0.523411430911
0.771003800559
0.366276789904
0.626943993807
0.138758580419
0.323248615524
0.221933499425
0.212230734248
0.280542625748
0.257214362115
0.191919690828
0.257313404996
0.194729503207
0.155214695545
0.176775951365
0.333682938167
0.336973061378
0.209496802147
0.318050872009
0.00187981611895
0.256106783122
0.389763124085
0.0673505813694
0.11886510978
0.112785124625
0.171155888989
0.169002836753
0.181924314882
0.201612695651
0.235960069182
0.285422778418
0.351803614086
0.34406767108
0.314937277102
0.20301601115
0.314974616863
0.396779338703
0.269973092739
0.300043931106
0.30712593766
0.360253823306
0.287324801978
0.270636116024
0.259130992504
0.240578488353
0.157237079058
0.243035837317
0.213432076493
0.118481168159
0.083021316641
0.157891474856
0.137741672193
0.175971215571
0.0973625221465
0.0324723610961
0.132429645573
0.215527580759
0.246297477095
0.336445648481
0.208596633281
0.184078250344
0.150953395136
0.287684565823
0.534669957576
0.190380651585
0.19682943649
0.354095524505
0.0432718333062
0.430548595329
0.208552748367
0.247218054866
0.238079248429
0.26985796889
0.228142066451
0.570293553324
0.202892777818
0.464631062564
0.543572487848
0.399934597197
0.386565041499
0.823150204367
0.332991604245
0.304235124329
0.439598199103
0.610295669356
0.348076692838
0.502992916697
0.385751549143
0.0327828217385
0.45026912696
0.15055622473
0.132643714455
0.0120033809324
0.145352567871
0.339498635189
0.395954989086
0.0347520616432
0.0316089731645
0.0431897264765
0.149114262274
0.224796118041
0.284480153809
0.271240992955
0.270670110659
0.336047665929
0.31027633802
0.393139615471
0.329430811652
0.365805808337
0.34891533141
0.331903367148
0.570182606969
0.616787415461
1.542429706
0.804188583905
1.320222685
0.927902866001
1.44611872788
1.14375737356
1.25746938225
0.991085572046
1.1629761212
0.906562770612
1.02955107462
0.766459762126
0.825959990558
2.02443117329
0.0652168781897
0.71426037263
1.18836973194
0.507020820051
1.57476022629
0.423484634521
0.442089030836
0.449693715059
0.333670818809
0.519006064887
0.37826961487
0.205270700045
0.250651340035
0.266805981481
0.235830822297
0.0950864571223
0.183001172322
0.278648574349
0.0548948306132
0.144745498764
0.200862705717
0.246805103281
0.227914440209
0.188655948508
0.0742873412372
0.203092443756
0.0937455263402
0.263564888815
0.0824533686228
0.126394551526
0.114781951174
0.114643054474
0.0188857199431
0.042869273902
0.160031903111
0.302828313064
0.141922375467
0.217853204929
0.0877318696418
0.405207321345
0.28282505372
0.418087077965
0.549901850551
0.555946620546
0.678996616717
0.33856468743
0.623565424348
0.305662082515
0.435730258777
0.973011037773
0.482078739548
1.07712217881
0.524664668457
0.730488201642
0.383664969218
0.821437245209
0.264618717489
0.616500073233
0.305584017731
0.538057654919
0.390330951152
0.429498751004
0.416139869157
0.357995466793
0.361063580257
0.330754739889
0.454333500091
0.406382491216
0.525090253327
0.411551605615
0.510688298319
0.497181411256
0.503269288174
0.511922883724
0.520806736958
0.649158876021
0.485855418227
0.688302632589
0.494687599987
0.642556587733
0.686998528437
0.737858756394
0.684001485694
0.897507245496
0.703103019955
0.961884363587
0.772381646587
1.12125403611
1.5602537846
1.30262143748
2.32795105071
1.56287497019
2.81890252068
0.404769337015
3.77117426139
0.155312502346
2.08163360556
0.370553605177
1.52740723563
0.0201192960805
0.438512873355
0.917413355889
0.117756486927
0.430627734622
0.347907495779
0.350678531609
0.235128298503
0.392146289075
0.50327252686
0.158447234004
0.44933193766
0.870326389739
0.269074720004
0.653221816451
0.110728738261
0.362992757668
0.216917110735
0.034344603621
0.38976029032
0.17237868086
0.0320410237273
0.0283387334434
0.0771905684669
0.158856714261
0.0511752235559
0.196643696867
0.012506336518
0.0500681658071
0.112335188029
0.0579667441414
0.462468527742
0.028709993727
0.188275012272
0.46881315838
0.240635833926
0.482123828951
0.492621994494
0.658285200121
0.444141558498
0.264553584454
0.25339379993
0.537759934601
0.796432830309
0.472474481326
0.546692736114
1.52668312285
0.378760651848
1.42480574359
0.511727585882
1.17734265767
0.54326225388
1.33651086434
0.41728174397
0.817150512539
0.0267922338456
0.0526339836299
0.322889024568
0.690036956711
0.158970671394
0.421780169194
0.227906690016
0.36835308741
0.472942888973
0.756708888902
0.409796694216
0.300778777462
0.695935891146
0.200904105421
1.07464014687
0.0283899034336
0.484223304559
1.33201259432
0.0968887810006
0.336449679289
0.276297179981
0.302682297545
0.298935334697
0.249103040857
0.0196878338856
0.0795533720123
0.0517154189325
0.0759743239983
0.175569438175
0.148162016822
0.0762360044693
0.319077367107
0.48349146876
0.323145451206
0.509273876431
0.501255701982
0.455297472529
0.311474175854
0.394938654926
0.379544847896
1.03365282009
0.674033039813
0.174216503014
0.315966277772
0.501782296925
0.960108698748
0.278386010149
1.13625089602
0.51190479154
0.996900349597
0.250409395499
1.04531288022
0.249378751172
0.363333558414
0.320483707297
0.284518143401
0.314328529018
0.465144606135
0.139116990432
0.240496043929
0.758000131318
1.31860032787
1.14140383568
1.24472234929
1.35991603822
1.53135514382
1.37346279746
1.50904383395
1.58445861193
1.53790635612
0.406417038426
1.28306775876
0.487439629339
0.398434651478
0.254609047112
0.38605257067
1.83425592663
0.0977939236884
1.2164155526
0.523520173666
1.02038621413
0.381106801993
0.346121061401
0.214743585809
0.0260141494133
0.276819008848
0.133657272782
0.510357261237
0.112076653253
0.117352998171
0.147781921442
0.217612044585
0.306780073478
0.968650522917
0.276691560923
1.02652818441
0.228993568003
0.484461699035
0.857978424334
0.233990093062
0.394982035787
0.821200565241
0.592546532042
1.37946241689
1.79419460792
0.401977424143
1.3744983063
0.426107920507
1.15079291317
0.473980219001
0.938551490078
0.463623571426
1.21940744322
0.569717054253
0.218345918306
0.42817118162
0.223479079331
0.491072987223
0.220691038012
0.136501138792
0.406431112888
0.41320444788
0.28947307167
0.303605782983
0.0461480963725
0.0890383270411
0.20151762274
0.337135558983
0.168951385414
0.137522039295
0.0884164241571
0.0863605049854
0.185670135631
0.240389145648
0.155680574697
0.106695921689
0.0607380519461
0.221758920811
0.314202428027
0.500961109695
0.28901865732
0.0610119903
0.03263983473
0.0074562519194
0.241012175942
0.0610930465713
0.124352068146
0.0563257521876
0.0840402675848
0.0900313915515
0.309949298027
0.64266757406
0.481779925428
1.43843098827
0.385331106626
3.54007806834
1.32947331306
0.51301004741
1.29782367296
0.912840959937
0.790098757586
1.04256884757
1.20360323853
0.312150047806
0.598781648897
0.45497045434
0.722944709369
0.00454537189266
0.160492736382
0.00541780608866
0.215160145696
0.0715401144699
0.258592207177
0.178600197753
0.147650465671
0.155308564868
0.195124118482
0.520639166179
0.0385262059693
0.21665863225
0.35036891665
0.295644374448
1.44157010183
0.0176946900337
0.293421616855
0.483832201514
0.232175341056
0.457757847003
0.378069403054
0.817534574438
0.282201188122
0.847740209187
0.00424613867277
0.175735176265
0.535165446202
0.0718949712262
0.469201870863
0.00301927671907
0.246522611902
0.0193099117528
0.0790125833968
0.24501089889
0.282772965653
0.326997111685
0.349595049732
0.382993875623
0.490957516898
0.551138458
0.755411289534
1.05016941206
0.870551765521
0.994052127699
0.977140071093
1.24790511911
1.70157006899
0.560395005072
1.1023493154
0.485322350889
0.999016597496
0.403539432467
0.684936989203
0.0967674442584
0.160028439501
0.396930556229
0.270850172102
0.80622258769
0.0101670279025
0.190963364728
2.34888956268
0.00576541666983
0.0919847307157
0.102997321162
0.433024446568
0.00204765998793
0.126215520829
0.0180603426947
0.0426352776976
0.166247114386
0.00830561302196
0.161868549949
0.311858819916
0.339746465464
0.132916145224
0.173461482627
0.316672688717
0.108179310699
0.166825954621
0.482363908825
0.0121784414697
0.206166565147
0.180078235813
0.389374691222
0.253772544466
0.330522688223
0.160019203667
0.246704926051
0.0276788712709
0.0198866577568
0.0458031254058
0.127335330294
0.0219497090843
0.0632814027237
0.179454224154
0.165899581681
0.151141830277
0.279331333708
0.278235344183
0.30395787051
0.131504420013
0.154622669988
0.167117432645
0.195683952807
0.278260042976
0.357860808308
0.341482968073
0.40617730489
0.556901969821
0.488022140808
0.57419920099
0.9941252541
1.0252273475
0.976266550736
1.01523386402
1.0310626618
0.906469037351
0.966241554728
0.942346149284
0.654045022704
0.408061902264
0.936637233327
0.419701324321
0.465603598485
0.370405089159
0.118543374011
0.126138452085
0.118206068197
0.117902692493
0.117364636525
0.133793971531
0.04009619678
0.0451200884526
0.53341758916
0.405442055468
1.29710483696
0.0287586047009
0.0978805455355
0.124512755325
0.147840925788
0.143572757448
0.141273378171
0.16420406255
0.118739307809
0.32832133115
0.258159972856
0.177302488167
0.189095859908
0.361901072108
0.2530784968
0.398526232976
0.210774600929
0.474788668006
0.877179855701
0.121114924935
0.380966488106
0.346444126725
0.376301745412
0.0371084271418
0.07396607989
0.147935046357
0.179992308624
0.15902877678
0.177431153911
0.190906571409
0.206210343719
0.185185998585
0.0524667172584
0.105519509529
0.410032235232
0.0
0.289862383428
0.0572068302651
0.186274362654
0.192274070522
0.372544745358
0.0436036186963
0.0981726227288
0.201466722826
0.24668513797
0.232968091729
0.248001453366
0.261170301779
0.253390496715
0.242481038313
0.142138591322
0.236218720595
0.251760336344
0.136512916947
0.207879208664
0.214200508538
0.247558352423
0.245265380043
0.267203154631
0.0341232125703
0.0603746943553
0.0761510498031
0.231970754984
0.280363093004
0.274176038388
0.269702076495
0.278902618294
0.280652789458
0.271679327242
0.142420118132
0.261828375597
0.297904547977
0.313389622488
0.2852478756
0.285862554361
0.306135946084
0.306748551406
0.255571374362
0.155395666893
0.266986319355
0.290058377764
0.292409373851
0.384581928615
0.149787955497
0.233450251206
0.0767319145179
0.250576383838
0.306990693561
0.315531646771
0.307796396829
0.308241914872
0.313935500746
0.321223367206
0.322869721553
0.315651615251
0.301017500697
0.279142885801
0.583792711385
0.191623982498
0.296981418249
0.0707869918958
0.184335397943
0.341895779966
0.365309501456
0.353248688416
0.305634674659
0.321589141072
0.166422502747
0.307677357263
0.317154337192
0.335286390925
0.347864225902
0.337607288134
0.355978288155
0.341297792048
0.34110521088
0.334419537618
0.31927790772
0.344647116185
0.361573855299
0.317807541485
0.3302134969
0.287723799514
0.279830972114
0.318152804041
0.314285750478
0.311125701466
0.313051143374
0.284953932165
0.290313520289
0.283662915521
0.293462791089
0.268891182701
logs/alpha_9.0/PGSD_600steps_1.log 480.973715795 0.480973715795 0.318534787383 3.77117426139 0.0 -1
