Initial Policy Parameters:	0.0 0.0
Learning Rate:			1.5
Learning Steps:			500
Start Time:			1437173802.3423245

-- LEARNING STOPPED --

Stop Time:			1437173874.2523599
Duration:			71.9100353717804
Final Policy Parameters:	-1.83785294375 1.76611668461
