logs/testen/4-5_erfolge_in_simu/median/3/PGSD_400steps_1.log 1000238.35196 1000.23835196 0.0966173896651 1000000.0 0.0 635
logs/testen/4-5_erfolge_in_simu/median/3/PGSD_400steps_1.log 1000049.95407 1000.04995407 0.0 1000000.0 0.0 144
logs/testen/4-5_erfolge_in_simu/median/3/PGSD_400steps_1.log 1000279.50131 1000.27950131 0.161216204068 1000000.0 0.0 924
logs/testen/4-5_erfolge_in_simu/median/3/PGSD_400steps_1.log 1000032.63377 1000.03263377 0.0 1000000.0 0.0 86
logs/testen/4-5_erfolge_in_simu/median/3/PGSD_400steps_1.log 1000052.44233 1000.05244233 0.0 1000000.0 0.0 104
logs/testen/4-5_erfolge_in_simu/median/2/PGSD_500steps_4.log 348.851488568 0.348851488568 0.178414849604 3.62699515494 0.0 -1
logs/testen/4-5_erfolge_in_simu/median/2/PGSD_500steps_4.log 1000119.73962 1000.11973962 0.0 1000000.0 0.0 382
logs/testen/4-5_erfolge_in_simu/median/2/PGSD_500steps_4.log 1000203.78972 1000.20378972 0.0694173759567 1000000.0 0.0 595
logs/testen/4-5_erfolge_in_simu/median/2/PGSD_500steps_4.log 1000093.23553 1000.09323553 0.0 1000000.0 0.0 295
logs/testen/4-5_erfolge_in_simu/median/2/PGSD_500steps_4.log 1000106.18911 1000.10618911 0.0 1000000.0 0.0 281
